%!PS-Adobe-3.0 EPSF-3.0
%%Creator: PlantUML v1.2021.7       
%%Title: noTitle
%%BoundingBox: 0 0 385 361
%%ColorUsage: Color
%%Origin: 0 0
%%EndComments

gsave
0 361 translate
.01 -.01 scale
/simplerect {
newpath moveto 1 index 0 rlineto
0 exch rlineto
neg 0 rlineto
} def
/roundrect {
newpath
dup 3 index add 2 index 2 index add 2 index 180 270 arc
2 index 5 index add 1 index sub 2 index 2 index add 2 index 270 0 arc
2 index 5 index add 1 index sub 2 index 5 index add 2 index sub 2 index 0 90 arc
dup 3 index add 2 index 5 index add 2 index sub 2 index 90 180 arc
pop pop pop pop pop 
} def
/rquadto {
3 index 3 index 4 2 roll rcurveto
} def
/P$u {
0 -354 rlineto
-28 39 -79 67 rquadto
-51 26 -109 26 rquadto
-129 0 -223 -103 rquadto
-92 -104 -92 -284 rquadto
0 -109 37 -195 rquadto
37 -87 109 -131 rquadto
71 -45 159 -45 rquadto
134 0 210 112 rquadto
0 -96 rlineto
110 0 rlineto
0 1004 rlineto
-123 0 rlineto
closepath
} def
/P$1d {
-67 26 -201 46 rquadto
-75 10 -107 25 rquadto
-31 12 -48 39 rquadto
-17 26 -17 57 rquadto
0 50 37 82 rquadto
37 32 109 32 rquadto
71 0 126 -31 rquadto
54 -31 81 -85 rquadto
20 -40 20 -121 rquadto
0 -45 rlineto
closepath
} def
/P$3 {
0 -1001 rlineto
425 0 rlineto
160 0 232 26 rquadto
73 26 117 96 rquadto
43 68 43 156 rquadto
0 114 -67 187 rquadto
-65 73 -196 92 rquadto
65 37 107 84 rquadto
43 45 115 162 rquadto
121 195 rlineto
-242 0 rlineto
-145 -218 rlineto
-78 -115 -107 -145 rquadto
-28 -31 -60 -42 rquadto
-31 -12 -101 -12 rquadto
-40 0 rlineto
0 418 rlineto
-201 0 rlineto
closepath
} def
/P$1 {
0 -1001 rlineto
196 0 rlineto
409 668 rlineto
0 -668 rlineto
187 0 rlineto
0 1001 rlineto
-203 0 rlineto
-403 -653 rlineto
0 653 rlineto
-187 0 rlineto
} def
/P$15 {
0 -1001 rlineto
123 0 rlineto
0 1001 rlineto
-123 0 rlineto
} def
/P$b {
150 0 rlineto
145 0 181 -12 rquadto
37 -12 57 -42 rquadto
20 -29 20 -75 rquadto
0 -51 -28 -81 rquadto
-26 -31 -75 -40 rquadto
-25 -3 -148 -3 rquadto
-157 0 rlineto
0 254 rlineto
closepath
} def
/P$10 {
-276 -726 rlineto
131 0 rlineto
154 435 rlineto
25 70 46 145 rquadto
17 -57 45 -137 rquadto
162 -443 rlineto
126 0 rlineto
-275 726 rlineto
-115 0 rlineto
} def
/P$t {
0 140 56 207 rquadto
57 67 139 67 rquadto
81 0 139 -68 rquadto
59 -70 59 -215 rquadto
0 -139 -57 -207 rquadto
-56 -68 -135 -68 rquadto
-78 0 -139 73 rquadto
-60 73 -60 212 rquadto
} def
/P$l {
0 -201 112 -300 rquadto
92 -79 228 -79 rquadto
148 0 243 98 rquadto
95 96 95 270 rquadto
0 140 -42 221 rquadto
-42 79 -123 125 rquadto
-79 43 -173 43 rquadto
-153 0 -246 -98 rquadto
-93 -98 -93 -281 rquadto
closepath
} def
/P$w {
0 -106 rlineto
-85 123 -231 123 rquadto
-64 0 -120 -25 rquadto
-54 -25 -82 -62 rquadto
-26 -37 -37 -90 rquadto
-7 -35 -7 -115 rquadto
0 -450 rlineto
123 0 rlineto
0 403 rlineto
0 96 7 129 rquadto
10 48 48 76 rquadto
37 28 93 28 rquadto
54 0 103 -28 rquadto
48 -29 68 -78 rquadto
20 -48 20 -142 rquadto
0 -389 rlineto
123 0 rlineto
0 726 rlineto
-109 0 rlineto
} def
/P$19 {
118 17 rlineto
7 54 42 81 rquadto
45 32 125 32 rquadto
85 0 131 -34 rquadto
46 -32 64 -95 rquadto
9 -37 7 -157 rquadto
-79 95 -200 95 rquadto
-150 0 -232 -107 rquadto
-81 -107 -81 -259 rquadto
0 -103 37 -190 rquadto
37 -89 107 -135 rquadto
71 -48 168 -48 rquadto
128 0 212 103 rquadto
0 -87 rlineto
112 0 rlineto
0 628 rlineto
0 170 -34 240 rquadto
-34 70 -109 110 rquadto
-75 42 -184 42 rquadto
-129 0 -209 -59 rquadto
-79 -57 -76 -175 rquadto
closepath
} def
/P$k {
0 -726 rlineto
121 0 rlineto
0 726 rlineto
-121 0 rlineto
} def
/P$p {
-14 -115 rlineto
40 10 70 10 rquadto
40 0 65 -14 rquadto
25 -12 40 -37 rquadto
10 -18 37 -92 rquadto
3 -9 10 -29 rquadto
-276 -728 rlineto
132 0 rlineto
151 420 rlineto
29 81 53 168 rquadto
20 -84 50 -165 rquadto
154 -423 rlineto
123 0 rlineto
-276 739 rlineto
-43 118 -68 164 rquadto
-32 60 -75 89 rquadto
-42 29 -101 29 rquadto
-34 0 -78 -15 rquadto
} def
/P$s {
0 -1004 rlineto
112 0 rlineto
0 95 rlineto
39 -56 89 -82 rquadto
50 -28 121 -28 rquadto
92 0 162 48 rquadto
71 46 107 134 rquadto
35 87 35 190 rquadto
0 110 -40 201 rquadto
-39 89 -115 137 rquadto
-75 46 -159 46 rquadto
-60 0 -110 -26 rquadto
-48 -26 -79 -65 rquadto
0 353 rlineto
-123 0 rlineto
closepath
} def
/P$16 {
0 139 57 209 rquadto
59 68 139 68 rquadto
81 0 137 -65 rquadto
56 -67 56 -201 rquadto
0 -150 -57 -218 rquadto
-57 -70 -140 -70 rquadto
-82 0 -137 67 rquadto
-54 67 -54 210 rquadto
closepath
} def
/P$n {
90 -192 rlineto
162 0 rlineto
-151 192 rlineto
-101 0 rlineto
} def
/P$2 {
0 -832 rlineto
-298 0 rlineto
0 -168 rlineto
796 0 rlineto
0 168 rlineto
-296 0 rlineto
0 832 rlineto
-201 0 rlineto
} def
/P$x {
17 107 rlineto
-51 10 -92 10 rquadto
-67 0 -104 -20 rquadto
-35 -21 -51 -56 rquadto
-14 -34 -14 -145 rquadto
0 -417 rlineto
-90 0 rlineto
0 -96 rlineto
90 0 rlineto
0 -179 rlineto
121 -73 rlineto
0 253 rlineto
123 0 rlineto
0 96 rlineto
-123 0 rlineto
0 423 rlineto
0 53 6 68 rquadto
6 14 20 23 rquadto
15 9 42 9 rquadto
21 0 54 -4 rquadto
} def
/P$8 {
0 664 rlineto
151 0 rlineto
84 0 121 -9 rquadto
50 -12 81 -42 rquadto
32 -29 53 -96 rquadto
21 -67 21 -182 rquadto
0 -117 -21 -178 rquadto
-20 -62 -57 -96 rquadto
-35 -35 -92 -48 rquadto
-42 -9 -167 -9 rquadto
-90 0 rlineto
} def
/P$h {
-67 26 -201 46 rquadto
-75 10 -107 25 rquadto
-31 12 -48 39 rquadto
-17 26 -17 57 rquadto
0 50 37 82 rquadto
37 32 109 32 rquadto
71 0 126 -31 rquadto
54 -31 81 -85 rquadto
20 -40 20 -121 rquadto
0 -45 rlineto
} def
/P$y {
404 0 rlineto
-7 -92 -46 -137 rquadto
-57 -70 -151 -70 rquadto
-85 0 -143 56 rquadto
-56 56 -62 151 rquadto
closepath
} def
/P$v {
0 140 59 210 rquadto
59 70 140 70 rquadto
79 0 135 -67 rquadto
56 -67 56 -203 rquadto
0 -143 -59 -217 rquadto
-59 -73 -140 -73 rquadto
-79 0 -135 68 rquadto
-56 67 -56 210 rquadto
} def
/P$0 {
0 -1001 rlineto
743 0 rlineto
0 168 rlineto
-540 0 rlineto
0 221 rlineto
503 0 rlineto
0 168 rlineto
-503 0 rlineto
0 273 rlineto
559 0 rlineto
0 168 rlineto
-762 0 rlineto
} def
/P$1a {
0 143 56 209 rquadto
56 65 142 65 rquadto
84 0 142 -65 rquadto
57 -65 57 -204 rquadto
0 -132 -59 -200 rquadto
-59 -68 -142 -68 rquadto
-82 0 -140 67 rquadto
-56 65 -56 196 rquadto
} def
/P$4 {
150 0 rlineto
145 0 181 -12 rquadto
37 -12 57 -42 rquadto
20 -29 20 -75 rquadto
0 -51 -28 -81 rquadto
-26 -31 -75 -40 rquadto
-25 -3 -148 -3 rquadto
-157 0 rlineto
0 254 rlineto
} def
/P$m {
0 139 60 209 rquadto
60 68 153 68 rquadto
90 0 151 -70 rquadto
60 -70 60 -212 rquadto
0 -134 -60 -203 rquadto
-60 -70 -151 -70 rquadto
-92 0 -153 68 rquadto
-60 68 -60 209 rquadto
closepath
} def
/P$r {
0 139 57 209 rquadto
59 68 139 68 rquadto
81 0 137 -65 rquadto
56 -67 56 -201 rquadto
0 -150 -57 -218 rquadto
-57 -70 -140 -70 rquadto
-82 0 -137 67 rquadto
-54 67 -54 210 rquadto
} def
/P$1b {
120 -18 rlineto
10 73 57 112 rquadto
46 39 131 39 rquadto
84 0 125 -34 rquadto
42 -34 42 -81 rquadto
0 -42 -37 -65 rquadto
-25 -17 -125 -42 rquadto
-135 -34 -189 -59 rquadto
-51 -25 -78 -68 rquadto
-26 -43 -26 -96 rquadto
0 -48 21 -89 rquadto
21 -42 60 -70 rquadto
28 -20 76 -34 rquadto
50 -15 107 -15 rquadto
84 0 148 25 rquadto
65 23 96 65 rquadto
31 42 42 112 rquadto
-120 17 rlineto
-7 -56 -48 -87 rquadto
-39 -31 -110 -31 rquadto
-84 0 -120 28 rquadto
-35 26 -35 65 rquadto
0 23 14 42 rquadto
15 20 48 32 rquadto
17 6 107 31 rquadto
131 35 182 57 rquadto
51 21 79 64 rquadto
29 42 29 104 rquadto
0 62 -35 117 rquadto
-34 53 -103 84 rquadto
-67 29 -153 29 rquadto
-140 0 -215 -59 rquadto
-73 -59 -93 -175 rquadto
} def
/P$6 {
-137 -371 rlineto
-135 371 rlineto
273 0 rlineto
closepath
} def
/P$11 {
0 -726 rlineto
121 0 rlineto
0 726 rlineto
-121 0 rlineto
closepath
} def
/P$f {
404 0 rlineto
-7 -92 -46 -137 rquadto
-57 -70 -151 -70 rquadto
-85 0 -143 56 rquadto
-56 56 -62 151 rquadto
} def
/P$d {
0 -726 rlineto
110 0 rlineto
0 110 rlineto
42 -78 78 -101 rquadto
35 -25 79 -25 rquadto
62 0 126 39 rquadto
-42 114 rlineto
-45 -26 -90 -26 rquadto
-40 0 -73 25 rquadto
-31 23 -45 67 rquadto
-20 65 -20 143 rquadto
0 379 rlineto
-123 0 rlineto
} def
/P$1e {
0 -629 rlineto
-109 0 rlineto
0 -96 rlineto
109 0 rlineto
0 -76 rlineto
0 -73 12 -109 rquadto
18 -46 62 -76 rquadto
45 -29 126 -29 rquadto
51 0 114 12 rquadto
-18 106 rlineto
-37 -6 -71 -6 rquadto
-56 0 -79 23 rquadto
-23 23 -23 89 rquadto
0 67 rlineto
142 0 rlineto
0 96 rlineto
-142 0 rlineto
0 629 rlineto
-121 0 rlineto
} def
/P$q {
0 -92 rlineto
-70 109 -203 109 rquadto
-87 0 -160 -48 rquadto
-71 -48 -112 -134 rquadto
-39 -85 -39 -196 rquadto
0 -107 35 -196 rquadto
35 -89 107 -135 rquadto
73 -46 162 -46 rquadto
65 0 117 28 rquadto
51 26 82 71 rquadto
0 -359 rlineto
123 0 rlineto
0 1001 rlineto
-114 0 rlineto
closepath
} def
/P$i {
121 15 rlineto
-20 125 -103 196 rquadto
-81 70 -200 70 rquadto
-148 0 -239 -96 rquadto
-90 -98 -90 -281 rquadto
0 -117 39 -204 rquadto
39 -89 118 -132 rquadto
79 -43 173 -43 rquadto
117 0 192 59 rquadto
76 59 96 170 rquadto
-118 18 rlineto
-17 -73 -60 -109 rquadto
-43 -37 -104 -37 rquadto
-93 0 -151 67 rquadto
-57 65 -57 209 rquadto
0 146 56 214 rquadto
56 65 145 65 rquadto
73 0 121 -43 rquadto
48 -45 60 -137 rquadto
} def
/P$z {
0 -1001 rlineto
725 0 rlineto
0 117 rlineto
-592 0 rlineto
0 307 rlineto
554 0 rlineto
0 117 rlineto
-554 0 rlineto
0 340 rlineto
615 0 rlineto
0 118 rlineto
-748 0 rlineto
} def
/P$12 {
90 -192 rlineto
162 0 rlineto
-151 192 rlineto
-101 0 rlineto
closepath
} def
/P$o {
0 -726 rlineto
110 0 rlineto
0 103 rlineto
79 -118 231 -118 rquadto
65 0 120 23 rquadto
54 23 81 62 rquadto
28 37 39 90 rquadto
7 34 7 118 rquadto
0 446 rlineto
-123 0 rlineto
0 -442 rlineto
0 -75 -14 -110 rquadto
-14 -37 -51 -59 rquadto
-35 -23 -85 -23 rquadto
-78 0 -135 50 rquadto
-56 50 -56 189 rquadto
0 396 rlineto
-123 0 rlineto
} def
/P$17 {
0 -1001 rlineto
445 0 rlineto
134 0 203 26 rquadto
70 26 110 95 rquadto
42 68 42 151 rquadto
0 106 -68 179 rquadto
-68 71 -212 92 rquadto
51 25 79 50 rquadto
57 53 109 132 rquadto
175 273 rlineto
-167 0 rlineto
-132 -207 rlineto
-57 -90 -95 -137 rquadto
-37 -48 -67 -67 rquadto
-29 -20 -60 -28 rquadto
-21 -4 -73 -4 rquadto
-154 0 rlineto
0 445 rlineto
-132 0 rlineto
closepath
} def
/P$5 {
-220 0 rlineto
-87 -228 rlineto
-401 0 rlineto
-82 228 rlineto
-214 0 rlineto
390 -1001 rlineto
214 0 rlineto
401 1001 rlineto
closepath
} def
/P$9 {
0 -153 45 -256 rquadto
34 -76 93 -137 rquadto
59 -60 129 -90 rquadto
93 -39 215 -39 rquadto
221 0 354 137 rquadto
132 137 132 381 rquadto
0 242 -132 379 rquadto
-131 137 -351 137 rquadto
-223 0 -356 -135 rquadto
-131 -137 -131 -376 rquadto
closepath
} def
/P$c {
132 34 rlineto
-42 162 -151 248 rquadto
-107 85 -264 85 rquadto
-162 0 -264 -65 rquadto
-101 -67 -154 -192 rquadto
-51 -125 -51 -268 rquadto
0 -156 59 -271 rquadto
59 -117 170 -176 rquadto
110 -60 242 -60 rquadto
151 0 253 76 rquadto
103 76 143 214 rquadto
-131 31 rlineto
-34 -109 -101 -159 rquadto
-65 -50 -165 -50 rquadto
-115 0 -193 56 rquadto
-78 54 -109 148 rquadto
-31 93 -31 192 rquadto
0 128 37 223 rquadto
37 95 115 142 rquadto
78 46 170 46 rquadto
110 0 187 -64 rquadto
78 -64 106 -190 rquadto
} def
/P$7 {
368 0 rlineto
126 0 192 18 rquadto
87 25 150 92 rquadto
62 65 95 162 rquadto
32 95 32 235 rquadto
0 125 -29 214 rquadto
-37 109 -107 176 rquadto
-53 51 -142 79 rquadto
-67 21 -179 21 rquadto
-379 0 rlineto
0 -1001 rlineto
closepath
} def
/P$1f {
132 0 rlineto
0 578 rlineto
0 151 -34 240 rquadto
-34 89 -123 145 rquadto
-89 54 -234 54 rquadto
-140 0 -231 -48 rquadto
-89 -48 -128 -140 rquadto
-37 -92 -37 -251 rquadto
0 -578 rlineto
132 0 rlineto
0 578 rlineto
0 129 23 192 rquadto
25 60 84 95 rquadto
59 32 145 32 rquadto
145 0 207 -65 rquadto
62 -67 62 -254 rquadto
0 -578 rlineto
} def
/P$j {
0 -140 rlineto
121 0 rlineto
0 140 rlineto
-121 0 rlineto
closepath
} def
/P$g {
-67 57 -131 82 rquadto
-62 23 -135 23 rquadto
-118 0 -184 -57 rquadto
-64 -59 -64 -151 rquadto
0 -53 23 -96 rquadto
25 -43 64 -70 rquadto
40 -26 89 -40 rquadto
35 -9 109 -18 rquadto
150 -17 220 -42 rquadto
0 -25 0 -31 rquadto
0 -76 -34 -106 rquadto
-46 -42 -140 -42 rquadto
-85 0 -128 31 rquadto
-40 29 -60 106 rquadto
-120 -15 rlineto
15 -78 53 -125 rquadto
39 -46 109 -71 rquadto
71 -26 165 -26 rquadto
92 0 150 21 rquadto
57 21 84 54 rquadto
28 32 39 84 rquadto
6 31 6 112 rquadto
0 164 rlineto
0 171 7 217 rquadto
7 45 31 87 rquadto
-128 0 rlineto
-18 -39 -25 -89 rquadto
closepath
} def
/P$14 {
290 -1035 rlineto
98 0 rlineto
-290 1035 rlineto
-98 0 rlineto
} def
/P$13 {
0 139 60 209 rquadto
60 68 153 68 rquadto
90 0 151 -70 rquadto
60 -70 60 -212 rquadto
0 -134 -60 -203 rquadto
-60 -70 -151 -70 rquadto
-92 0 -153 68 rquadto
-60 68 -60 209 rquadto
} def
/P$1c {
0 -100 rlineto
460 -529 rlineto
-78 3 -139 3 rquadto
-295 0 rlineto
0 -100 rlineto
593 0 rlineto
0 81 rlineto
-393 460 rlineto
-75 84 rlineto
82 -6 154 -6 rquadto
335 0 rlineto
0 106 rlineto
-642 0 rlineto
closepath
} def
/P$e {
128 15 rlineto
-31 112 -112 175 rquadto
-81 60 -207 60 rquadto
-159 0 -253 -98 rquadto
-92 -98 -92 -275 rquadto
0 -184 93 -284 rquadto
95 -101 245 -101 rquadto
145 0 237 100 rquadto
92 98 92 278 rquadto
0 10 0 32 rquadto
-542 0 rlineto
7 118 67 182 rquadto
60 64 153 64 rquadto
67 0 114 -35 rquadto
48 -35 76 -114 rquadto
closepath
} def
/P$18 {
285 0 rlineto
90 0 142 -18 rquadto
51 -18 78 -59 rquadto
26 -42 26 -90 rquadto
0 -71 -51 -117 rquadto
-51 -46 -164 -46 rquadto
-317 0 rlineto
0 332 rlineto
} def
/P$a {
0 170 78 257 rquadto
79 87 200 87 rquadto
121 0 198 -85 rquadto
78 -87 78 -262 rquadto
0 -171 -75 -256 rquadto
-75 -85 -201 -85 rquadto
-125 0 -201 85 rquadto
-76 85 -76 259 rquadto
} def
0.78 0.78 0.78 setrgbcolor
28300 35000 10100 1000 100 roundrect
closepath eofill
0.69 0.69 0.69 setrgbcolor
28200 34900 10150 1050 100 roundrect
closepath eofill
0.59 0.59 0.59 setrgbcolor
28100 34800 10200 1100 100 roundrect
closepath eofill
0.49 0.49 0.49 setrgbcolor
28000 34700 10250 1150 100 roundrect
closepath eofill
0.39 0.39 0.39 setrgbcolor
27900 34600 10300 1200 100 roundrect
closepath eofill
0.29 0.29 0.29 setrgbcolor
27800 34500 10350 1250 100 roundrect
closepath eofill
0.2 0.2 0.2 setrgbcolor
27700 34400 10400 1300 100 roundrect
closepath eofill
1 1 1 setrgbcolor
28300 35000 9800 700 simplerect
closepath eofill
150 setlinewidth
0 0 0 setrgbcolor
28300 35000 9800 700 simplerect
closepath stroke
0 setlinewidth
[] 0 setdash
0 0 0 setrgbcolor
newpath
19251 2353 moveto
P$0
fill
0 setlinewidth
[] 0 setdash
0 0 0 setrgbcolor
newpath
20154 2353 moveto
P$1
fill
0 setlinewidth
[] 0 setdash
0 0 0 setrgbcolor
newpath
21378 2353 moveto
P$2
fill
0 setlinewidth
[] 0 setdash
0 0 0 setrgbcolor
newpath
21953 2353 moveto
P$3
22154 1775 moveto
P$4
fill
0 setlinewidth
[] 0 setdash
0 0 0 setrgbcolor
newpath
22951 2353 moveto
P$0
fill
0 setlinewidth
[] 0 setdash
0 0 0 setrgbcolor
newpath
23854 2353 moveto
P$1
fill
0 setlinewidth
[] 0 setdash
0 0 0 setrgbcolor
newpath
25756 2353 moveto
P$5
25382 1956 moveto
P$6
25751 1351 moveto
P$7
25953 1520 moveto
P$8
fill
0 setlinewidth
[] 0 setdash
0 0 0 setrgbcolor
newpath
26710 1858 moveto
P$9
26918 1851 moveto
P$a
fill
0 setlinewidth
[] 0 setdash
0 0 0 setrgbcolor
newpath
27853 2353 moveto
P$3
28054 1775 moveto
P$b
fill
gsave
1 0.2206 scale
0.78 0.78 0.78 setrgbcolor
newpath
24239 32716 11639 0 360 arc
closepath eofill
grestore
gsave
1 0.2173 scale
0.69 0.69 0.69 setrgbcolor
newpath
24239 33222 11589 0 360 arc
closepath eofill
grestore
gsave
1 0.2139 scale
0.59 0.59 0.59 setrgbcolor
newpath
24239 33749 11539 0 360 arc
closepath eofill
grestore
gsave
1 0.2104 scale
0.49 0.49 0.49 setrgbcolor
newpath
24239 34298 11489 0 360 arc
closepath eofill
grestore
gsave
1 0.207 scale
0.39 0.39 0.39 setrgbcolor
newpath
24239 34870 11439 0 360 arc
closepath eofill
grestore
gsave
1 0.2035 scale
0.29 0.29 0.29 setrgbcolor
newpath
24239 35466 11389 0 360 arc
closepath eofill
grestore
gsave
1 0.2 scale
0.2 0.2 0.2 setrgbcolor
newpath
24239 36089 11339 0 360 arc
closepath eofill
grestore
gsave
1 0.2206 scale
1 1 0.81 setrgbcolor
newpath
23939 31356 11639 0 360 arc
closepath eofill
150 setlinewidth
0.66 0 0.21 setrgbcolor
newpath
23939 31356 11639 0 360 arc
closepath stroke
grestore
0 setlinewidth
[] 0 setdash
0 0 0 setrgbcolor
newpath
14912 6939 moveto
P$c
fill
0 setlinewidth
[] 0 setdash
0 0 0 setrgbcolor
newpath
15180 7290 moveto
P$d
fill
0 setlinewidth
[] 0 setdash
0 0 0 setrgbcolor
newpath
16178 7056 moveto
P$e
15775 6857 moveto
P$f
fill
0 setlinewidth
[] 0 setdash
0 0 0 setrgbcolor
newpath
16955 7201 moveto
P$g
16945 6926 moveto
P$h
fill
0 setlinewidth
[] 0 setdash
0 0 0 setrgbcolor
newpath
17755 7025 moveto
P$i
fill
0 setlinewidth
[] 0 setdash
0 0 0 setrgbcolor
newpath
17983 6429 moveto
P$j
17983 7290 moveto
P$k
fill
0 setlinewidth
[] 0 setdash
0 0 0 setrgbcolor
newpath
18236 6928 moveto
P$l
18362 6928 moveto
P$m
18508 6475 moveto
P$n
fill
0 setlinewidth
[] 0 setdash
0 0 0 setrgbcolor
newpath
19081 7290 moveto
P$o
fill
0 setlinewidth
[] 0 setdash
0 0 0 setrgbcolor
newpath
20276 7570 moveto
P$p
fill
0 setlinewidth
[] 0 setdash
0 0 0 setrgbcolor
newpath
21878 7056 moveto
P$e
21475 6857 moveto
P$f
fill
0 setlinewidth
[] 0 setdash
0 0 0 setrgbcolor
newpath
22653 7290 moveto
P$q
22264 6928 moveto
P$r
fill
0 setlinewidth
[] 0 setdash
0 0 0 setrgbcolor
newpath
22983 6429 moveto
P$j
22983 7290 moveto
P$k
fill
0 setlinewidth
[] 0 setdash
0 0 0 setrgbcolor
newpath
23755 7025 moveto
P$i
fill
0 setlinewidth
[] 0 setdash
0 0 0 setrgbcolor
newpath
23983 6429 moveto
P$j
23983 7290 moveto
P$k
fill
0 setlinewidth
[] 0 setdash
0 0 0 setrgbcolor
newpath
24236 6928 moveto
P$l
24362 6928 moveto
P$m
24508 6475 moveto
P$n
fill
0 setlinewidth
[] 0 setdash
0 0 0 setrgbcolor
newpath
25081 7290 moveto
P$o
fill
0 setlinewidth
[] 0 setdash
0 0 0 setrgbcolor
newpath
26753 7290 moveto
P$q
26364 6928 moveto
P$r
fill
0 setlinewidth
[] 0 setdash
0 0 0 setrgbcolor
newpath
27578 7056 moveto
P$e
27175 6857 moveto
P$f
fill
0 setlinewidth
[] 0 setdash
0 0 0 setrgbcolor
newpath
28281 7568 moveto
P$s
28392 6931 moveto
P$t
fill
0 setlinewidth
[] 0 setdash
0 0 0 setrgbcolor
newpath
29555 7201 moveto
P$g
29545 6926 moveto
P$h
fill
0 setlinewidth
[] 0 setdash
0 0 0 setrgbcolor
newpath
30344 7568 moveto
P$u
29964 6925 moveto
P$v
fill
0 setlinewidth
[] 0 setdash
0 0 0 setrgbcolor
newpath
31158 7290 moveto
P$w
fill
0 setlinewidth
[] 0 setdash
0 0 0 setrgbcolor
newpath
31978 7056 moveto
P$e
31575 6857 moveto
P$f
fill
0 setlinewidth
[] 0 setdash
0 0 0 setrgbcolor
newpath
32550 7181 moveto
P$x
fill
0 setlinewidth
[] 0 setdash
0 0 0 setrgbcolor
newpath
33178 7056 moveto
P$e
32775 6857 moveto
P$y
fill
gsave
1 0.2299 scale
0.78 0.78 0.78 setrgbcolor
newpath
24228 65663 8028 0 360 arc
closepath eofill
grestore
gsave
1 0.2251 scale
0.69 0.69 0.69 setrgbcolor
newpath
24228 67071 7978 0 360 arc
closepath eofill
grestore
gsave
1 0.2202 scale
0.59 0.59 0.59 setrgbcolor
newpath
24228 68560 7928 0 360 arc
closepath eofill
grestore
gsave
1 0.2152 scale
0.49 0.49 0.49 setrgbcolor
newpath
24228 70136 7878 0 360 arc
closepath eofill
grestore
gsave
1 0.2102 scale
0.39 0.39 0.39 setrgbcolor
newpath
24228 71809 7828 0 360 arc
closepath eofill
grestore
gsave
1 0.2051 scale
0.29 0.29 0.29 setrgbcolor
newpath
24228 73586 7778 0 360 arc
closepath eofill
grestore
gsave
1 0.2 scale
0.2 0.2 0.2 setrgbcolor
newpath
24228 75478 7728 0 360 arc
closepath eofill
grestore
gsave
1 0.2299 scale
1 1 0.81 setrgbcolor
newpath
23928 64358 8028 0 360 arc
closepath eofill
150 setlinewidth
0.66 0 0.21 setrgbcolor
newpath
23928 64358 8028 0 360 arc
closepath stroke
grestore
0 setlinewidth
[] 0 setdash
0 0 0 setrgbcolor
newpath
18602 15193 moveto
P$z
fill
0 setlinewidth
[] 0 setdash
0 0 0 setrgbcolor
newpath
19484 15193 moveto
P$o
fill
0 setlinewidth
[] 0 setdash
0 0 0 setrgbcolor
newpath
20485 15193 moveto
P$10
fill
0 setlinewidth
[] 0 setdash
0 0 0 setrgbcolor
newpath
21027 15193 moveto
P$11
21021 14377 moveto
P$12
21238 14830 moveto
P$l
21365 14830 moveto
P$13
fill
0 setlinewidth
[] 0 setdash
0 0 0 setrgbcolor
newpath
22955 15193 moveto
P$q
22566 14830 moveto
P$r
fill
0 setlinewidth
[] 0 setdash
0 0 0 setrgbcolor
newpath
23780 14959 moveto
P$e
23377 14760 moveto
P$f
fill
0 setlinewidth
[] 0 setdash
0 0 0 setrgbcolor
newpath
24484 15471 moveto
P$s
24595 14834 moveto
P$t
fill
0 setlinewidth
[] 0 setdash
0 0 0 setrgbcolor
newpath
25757 15104 moveto
P$g
25748 14829 moveto
P$h
fill
0 setlinewidth
[] 0 setdash
0 0 0 setrgbcolor
newpath
26546 15471 moveto
P$u
26166 14827 moveto
P$v
fill
0 setlinewidth
[] 0 setdash
0 0 0 setrgbcolor
newpath
27360 15193 moveto
P$w
fill
0 setlinewidth
[] 0 setdash
0 0 0 setrgbcolor
newpath
28180 14959 moveto
P$e
27777 14760 moveto
P$f
fill
0 setlinewidth
[] 0 setdash
0 0 0 setrgbcolor
newpath
28752 15084 moveto
P$x
fill
0 setlinewidth
[] 0 setdash
0 0 0 setrgbcolor
newpath
29380 14959 moveto
P$e
28977 14760 moveto
P$y
fill
gsave
1 0.2223 scale
0.78 0.78 0.78 setrgbcolor
newpath
24270 102995 10770 0 360 arc
closepath eofill
grestore
gsave
1 0.2187 scale
0.69 0.69 0.69 setrgbcolor
newpath
24270 104703 10720 0 360 arc
closepath eofill
grestore
gsave
1 0.215 scale
0.59 0.59 0.59 setrgbcolor
newpath
24270 106486 10670 0 360 arc
closepath eofill
grestore
gsave
1 0.2113 scale
0.49 0.49 0.49 setrgbcolor
newpath
24270 108349 10620 0 360 arc
closepath eofill
grestore
gsave
1 0.2076 scale
0.39 0.39 0.39 setrgbcolor
newpath
24270 110296 10570 0 360 arc
closepath eofill
grestore
gsave
1 0.2038 scale
0.29 0.29 0.29 setrgbcolor
newpath
24270 112334 10520 0 360 arc
closepath eofill
grestore
gsave
1 0.2 scale
0.2 0.2 0.2 setrgbcolor
newpath
24270 114470 10470 0 360 arc
closepath eofill
grestore
gsave
1 0.2223 scale
1 1 0.81 setrgbcolor
newpath
23970 101645 10770 0 360 arc
closepath eofill
150 setlinewidth
0.66 0 0.21 setrgbcolor
newpath
23970 101645 10770 0 360 arc
closepath stroke
grestore
0 setlinewidth
[] 0 setdash
0 0 0 setrgbcolor
newpath
15181 22966 moveto
P$z
fill
0 setlinewidth
[] 0 setdash
0 0 0 setrgbcolor
newpath
16534 22966 moveto
P$q
16145 22604 moveto
P$r
fill
0 setlinewidth
[] 0 setdash
0 0 0 setrgbcolor
newpath
16864 22106 moveto
P$j
16864 22966 moveto
P$k
fill
0 setlinewidth
[] 0 setdash
0 0 0 setrgbcolor
newpath
17636 22701 moveto
P$i
fill
0 setlinewidth
[] 0 setdash
0 0 0 setrgbcolor
newpath
17864 22106 moveto
P$j
17864 22966 moveto
P$k
fill
0 setlinewidth
[] 0 setdash
0 0 0 setrgbcolor
newpath
18117 22604 moveto
P$l
18243 22604 moveto
P$m
18389 22151 moveto
P$n
fill
0 setlinewidth
[] 0 setdash
0 0 0 setrgbcolor
newpath
18962 22966 moveto
P$o
fill
0 setlinewidth
[] 0 setdash
0 0 0 setrgbcolor
newpath
19670 22984 moveto
P$14
fill
0 setlinewidth
[] 0 setdash
0 0 0 setrgbcolor
newpath
20636 22701 moveto
P$i
fill
0 setlinewidth
[] 0 setdash
0 0 0 setrgbcolor
newpath
20861 22966 moveto
P$d
fill
0 setlinewidth
[] 0 setdash
0 0 0 setrgbcolor
newpath
21859 22732 moveto
P$e
21456 22534 moveto
P$f
fill
0 setlinewidth
[] 0 setdash
0 0 0 setrgbcolor
newpath
22636 22877 moveto
P$g
22626 22602 moveto
P$h
fill
0 setlinewidth
[] 0 setdash
0 0 0 setrgbcolor
newpath
23436 22701 moveto
P$i
fill
0 setlinewidth
[] 0 setdash
0 0 0 setrgbcolor
newpath
23664 22106 moveto
P$j
23664 22966 moveto
P$k
fill
0 setlinewidth
[] 0 setdash
0 0 0 setrgbcolor
newpath
23917 22604 moveto
P$l
24043 22604 moveto
P$m
24189 22151 moveto
P$n
fill
0 setlinewidth
[] 0 setdash
0 0 0 setrgbcolor
newpath
24762 22966 moveto
P$o
fill
0 setlinewidth
[] 0 setdash
0 0 0 setrgbcolor
newpath
26434 22966 moveto
P$q
26045 22604 moveto
P$r
fill
0 setlinewidth
[] 0 setdash
0 0 0 setrgbcolor
newpath
27259 22732 moveto
P$e
26856 22534 moveto
P$f
fill
0 setlinewidth
[] 0 setdash
0 0 0 setrgbcolor
newpath
27962 23245 moveto
P$s
28073 22607 moveto
P$t
fill
0 setlinewidth
[] 0 setdash
0 0 0 setrgbcolor
newpath
29236 22877 moveto
P$g
29226 22602 moveto
P$h
fill
0 setlinewidth
[] 0 setdash
0 0 0 setrgbcolor
newpath
29557 23246 moveto
P$p
fill
0 setlinewidth
[] 0 setdash
0 0 0 setrgbcolor
newpath
30259 22966 moveto
P$15
fill
0 setlinewidth
[] 0 setdash
0 0 0 setrgbcolor
newpath
30517 22604 moveto
P$l
30643 22604 moveto
P$13
fill
0 setlinewidth
[] 0 setdash
0 0 0 setrgbcolor
newpath
31836 22877 moveto
P$g
31826 22602 moveto
P$h
fill
0 setlinewidth
[] 0 setdash
0 0 0 setrgbcolor
newpath
32634 22966 moveto
P$q
32245 22604 moveto
P$16
fill
gsave
1 0.2191 scale
0.78 0.78 0.78 setrgbcolor
newpath
24267 144243 12567 0 360 arc
closepath eofill
grestore
gsave
1 0.216 scale
0.69 0.69 0.69 setrgbcolor
newpath
24267 146327 12517 0 360 arc
closepath eofill
grestore
gsave
1 0.2128 scale
0.59 0.59 0.59 setrgbcolor
newpath
24267 148488 12467 0 360 arc
closepath eofill
grestore
gsave
1 0.2097 scale
0.49 0.49 0.49 setrgbcolor
newpath
24267 150733 12417 0 360 arc
closepath eofill
grestore
gsave
1 0.2065 scale
0.39 0.39 0.39 setrgbcolor
newpath
24267 153066 12367 0 360 arc
closepath eofill
grestore
gsave
1 0.2032 scale
0.29 0.29 0.29 setrgbcolor
newpath
24267 155492 12317 0 360 arc
closepath eofill
grestore
gsave
1 0.2 scale
0.2 0.2 0.2 setrgbcolor
newpath
24267 158017 12267 0 360 arc
closepath eofill
grestore
gsave
1 0.2191 scale
1 1 0.81 setrgbcolor
newpath
23967 142874 12567 0 360 arc
closepath eofill
150 setlinewidth
0.66 0 0.21 setrgbcolor
newpath
23967 142874 12567 0 360 arc
closepath stroke
grestore
0 setlinewidth
[] 0 setdash
0 0 0 setrgbcolor
newpath
13226 31676 moveto
P$17
13359 31116 moveto
P$18
fill
0 setlinewidth
[] 0 setdash
0 0 0 setrgbcolor
newpath
14706 31441 moveto
P$e
14303 31243 moveto
P$f
fill
0 setlinewidth
[] 0 setdash
0 0 0 setrgbcolor
newpath
15482 31410 moveto
P$i
fill
0 setlinewidth
[] 0 setdash
0 0 0 setrgbcolor
newpath
15664 31313 moveto
P$l
15790 31313 moveto
P$13
fill
0 setlinewidth
[] 0 setdash
0 0 0 setrgbcolor
newpath
16487 31737 moveto
P$19
16589 31299 moveto
P$1a
fill
0 setlinewidth
[] 0 setdash
0 0 0 setrgbcolor
newpath
17310 30815 moveto
P$j
17310 31676 moveto
P$k
fill
0 setlinewidth
[] 0 setdash
0 0 0 setrgbcolor
newpath
18081 31676 moveto
P$q
17692 31313 moveto
P$r
fill
0 setlinewidth
[] 0 setdash
0 0 0 setrgbcolor
newpath
18882 31587 moveto
P$g
18873 31312 moveto
P$h
fill
0 setlinewidth
[] 0 setdash
0 0 0 setrgbcolor
newpath
19604 31955 moveto
P$p
fill
0 setlinewidth
[] 0 setdash
0 0 0 setrgbcolor
newpath
20910 31676 moveto
P$10
fill
0 setlinewidth
[] 0 setdash
0 0 0 setrgbcolor
newpath
21410 30815 moveto
P$j
21410 31676 moveto
P$k
fill
0 setlinewidth
[] 0 setdash
0 0 0 setrgbcolor
newpath
21660 31459 moveto
P$1b
fill
0 setlinewidth
[] 0 setdash
0 0 0 setrgbcolor
newpath
22885 31676 moveto
P$w
fill
0 setlinewidth
[] 0 setdash
0 0 0 setrgbcolor
newpath
23682 31587 moveto
P$g
23673 31312 moveto
P$h
fill
0 setlinewidth
[] 0 setdash
0 0 0 setrgbcolor
newpath
24006 31676 moveto
P$15
fill
0 setlinewidth
[] 0 setdash
0 0 0 setrgbcolor
newpath
24310 30815 moveto
P$j
24310 31676 moveto
P$k
fill
0 setlinewidth
[] 0 setdash
0 0 0 setrgbcolor
newpath
24545 31676 moveto
P$1c
25682 31587 moveto
P$g
25673 31312 moveto
P$h
fill
0 setlinewidth
[] 0 setdash
0 0 0 setrgbcolor
newpath
26482 31410 moveto
P$i
fill
0 setlinewidth
[] 0 setdash
0 0 0 setrgbcolor
newpath
26710 30815 moveto
P$j
26710 31676 moveto
P$k
fill
0 setlinewidth
[] 0 setdash
0 0 0 setrgbcolor
newpath
26964 31313 moveto
P$l
27090 31313 moveto
P$m
27235 30860 moveto
P$n
fill
0 setlinewidth
[] 0 setdash
0 0 0 setrgbcolor
newpath
27809 31676 moveto
P$o
fill
0 setlinewidth
[] 0 setdash
0 0 0 setrgbcolor
newpath
29481 31676 moveto
P$q
29092 31313 moveto
P$r
fill
0 setlinewidth
[] 0 setdash
0 0 0 setrgbcolor
newpath
30306 31441 moveto
P$e
29903 31243 moveto
P$f
fill
0 setlinewidth
[] 0 setdash
0 0 0 setrgbcolor
newpath
31278 31566 moveto
P$x
fill
0 setlinewidth
[] 0 setdash
0 0 0 setrgbcolor
newpath
31407 31676 moveto
P$d
fill
0 setlinewidth
[] 0 setdash
0 0 0 setrgbcolor
newpath
32382 31587 moveto
P$g
32373 31312 moveto
P$1d
32132 30860 moveto
P$n
fill
0 setlinewidth
[] 0 setdash
0 0 0 setrgbcolor
newpath
32739 31676 moveto
P$1e
fill
0 setlinewidth
[] 0 setdash
0 0 0 setrgbcolor
newpath
33110 30815 moveto
P$j
33110 31676 moveto
P$k
fill
0 setlinewidth
[] 0 setdash
0 0 0 setrgbcolor
newpath
33882 31410 moveto
P$i
fill
0 setlinewidth
[] 0 setdash
0 0 0 setrgbcolor
newpath
34064 31313 moveto
P$l
34190 31313 moveto
P$m
fill
0.78 0.78 0.78 setrgbcolor
newpath
3300 15800 800 0 360 arc
closepath eofill
0.69 0.69 0.69 setrgbcolor
newpath
3300 15800 750 0 360 arc
closepath eofill
0.59 0.59 0.59 setrgbcolor
newpath
3300 15800 700 0 360 arc
closepath eofill
0.49 0.49 0.49 setrgbcolor
newpath
3300 15800 650 0 360 arc
closepath eofill
0.39 0.39 0.39 setrgbcolor
newpath
3300 15800 600 0 360 arc
closepath eofill
0.29 0.29 0.29 setrgbcolor
newpath
3300 15800 550 0 360 arc
closepath eofill
0.2 0.2 0.2 setrgbcolor
newpath
3300 15800 500 0 360 arc
closepath eofill
1 1 0.81 setrgbcolor
newpath
3000 15500 800 0 360 arc
closepath eofill
150 setlinewidth
0.66 0 0.21 setrgbcolor
newpath
3000 15500 800 0 360 arc
closepath stroke
150 setlinewidth
0.66 0 0.21 setrgbcolor
newpath
3000 16300 moveto
3000 19000 lineto
1700 17100 moveto
4300 17100 lineto
3000 19000 moveto
1700 20500 lineto
3000 19000 moveto
4300 20500 lineto
stroke
0 setlinewidth
[] 0 setdash
0 0 0 setrgbcolor
newpath
1365 21501 moveto
P$1f
fill
0 setlinewidth
[] 0 setdash
0 0 0 setrgbcolor
newpath
1543 22286 moveto
P$1b
fill
0 setlinewidth
[] 0 setdash
0 0 0 setrgbcolor
newpath
2768 22503 moveto
P$w
fill
0 setlinewidth
[] 0 setdash
0 0 0 setrgbcolor
newpath
3565 22414 moveto
P$g
3556 22139 moveto
P$h
fill
0 setlinewidth
[] 0 setdash
0 0 0 setrgbcolor
newpath
3890 22503 moveto
P$d
fill
0 setlinewidth
[] 0 setdash
0 0 0 setrgbcolor
newpath
4393 21642 moveto
P$j
4393 22503 moveto
P$k
fill
0 setlinewidth
[] 0 setdash
0 0 0 setrgbcolor
newpath
4646 22140 moveto
P$l
4773 22140 moveto
P$m
fill
100 setlinewidth
0.66 0 0.21 setrgbcolor
newpath
5415 14847 moveto
6377 13527 7598 12144 9000 11200 curveto
10621 10107 12521 9288 14411 8676 curveto
stroke
0.66 0 0.21 setrgbcolor
newpath
14891 8525 moveto
-978 -111 rlineto
501 261 rlineto
-261 501 rlineto
738 -651 rlineto
14891 8525 lineto
closepath eofill
100 setlinewidth
0.66 0 0.21 setrgbcolor
newpath
14891 8525 moveto
-978 -111 rlineto
501 261 rlineto
-261 501 rlineto
738 -651 rlineto
14891 8525 lineto
closepath stroke
100 setlinewidth
0.66 0 0.21 setrgbcolor
newpath
5440 18260 moveto
8260 17730 13119 16817 17139 16061 curveto
stroke
0.66 0 0.21 setrgbcolor
newpath
17675 15961 moveto
-958 -225 rlineto
467 318 rlineto
-318 467 rlineto
810 -560 rlineto
17675 15961 lineto
closepath eofill
100 setlinewidth
0.66 0 0.21 setrgbcolor
newpath
17675 15961 moveto
-958 -225 rlineto
467 318 rlineto
-318 467 rlineto
810 -560 rlineto
17675 15961 lineto
closepath stroke
100 setlinewidth
0.66 0 0.21 setrgbcolor
newpath
5440 19140 moveto
7804 19584 11602 20298 15136 20962 curveto
stroke
0.66 0 0.21 setrgbcolor
newpath
15655 21060 moveto
-810 -560 rlineto
318 467 rlineto
-467 318 rlineto
958 -225 rlineto
15655 21060 lineto
closepath eofill
100 setlinewidth
0.66 0 0.21 setrgbcolor
newpath
15655 21060 moveto
-810 -560 rlineto
318 467 rlineto
-467 318 rlineto
958 -225 rlineto
15655 21060 lineto
closepath stroke
100 setlinewidth
0.66 0 0.21 setrgbcolor
newpath
5407 22836 moveto
6361 24232 7579 25689 9000 26700 curveto
10528 27786 12321 28622 14121 29262 curveto
stroke
0.66 0 0.21 setrgbcolor
newpath
14629 29438 moveto
-718 -673 rlineto
246 509 rlineto
-509 246 rlineto
981 -82 rlineto
14629 29438 lineto
closepath eofill
100 setlinewidth
0.66 0 0.21 setrgbcolor
newpath
14629 29438 moveto
-718 -673 rlineto
246 509 rlineto
-509 246 rlineto
981 -82 rlineto
14629 29438 lineto
closepath stroke
grestore
showpage
%plantuml done
%%EOF
