%!PS-Adobe-3.0 EPSF-3.0
%%Creator: PlantUML v1.2021.14      
%%Title: noTitle
%%BoundingBox: 0 0 448 499
%%ColorUsage: Color
%%Origin: 0 0
%%EndComments

gsave
0 499 translate
.01 -.01 scale
/simplerect {
newpath moveto 1 index 0 rlineto
0 exch rlineto
neg 0 rlineto
} def
/roundrect {
newpath
dup 3 index add 2 index 2 index add 2 index 180 270 arc
2 index 5 index add 1 index sub 2 index 2 index add 2 index 270 0 arc
2 index 5 index add 1 index sub 2 index 5 index add 2 index sub 2 index 0 90 arc
dup 3 index add 2 index 5 index add 2 index sub 2 index 90 180 arc
pop pop pop pop pop 
} def
/rquadto {
3 index 3 index 4 2 roll rcurveto
} def
/P$f {
0 120 50 179 rquadto
51 59 121 59 rquadto
67 0 115 -56 rquadto
48 -57 48 -173 rquadto
0 -125 -51 -187 rquadto
-50 -62 -120 -62 rquadto
-67 0 -115 59 rquadto
-48 57 -48 181 rquadto
} def
/P$b {
0 -621 rlineto
95 0 rlineto
0 93 rlineto
35 -65 65 -85 rquadto
31 -21 68 -21 rquadto
53 0 107 32 rquadto
-35 98 rlineto
-39 -23 -76 -23 rquadto
-35 0 -64 21 rquadto
-26 20 -37 57 rquadto
-18 56 -18 121 rquadto
0 326 rlineto
-104 0 rlineto
} def
/P$d {
0 120 48 178 rquadto
48 56 117 56 rquadto
70 0 120 -59 rquadto
50 -59 50 -184 rquadto
0 -118 -48 -176 rquadto
-48 -59 -117 -59 rquadto
-67 0 -118 62 rquadto
-51 62 -51 182 rquadto
} def
/P$15 {
0 120 50 179 rquadto
50 57 118 57 rquadto
68 0 117 -56 rquadto
48 -56 48 -171 rquadto
0 -128 -50 -187 rquadto
-48 -59 -120 -59 rquadto
-70 0 -117 57 rquadto
-46 56 -46 179 rquadto
closepath
} def
/P$9 {
0 -85 rlineto
396 -454 rlineto
-68 3 -120 3 rquadto
-253 0 rlineto
0 -84 rlineto
509 0 rlineto
0 68 rlineto
-337 395 rlineto
-65 71 rlineto
71 -4 132 -4 rquadto
289 0 rlineto
0 90 rlineto
-551 0 rlineto
closepath
} def
/P$12 {
0 -78 rlineto
-59 92 -173 92 rquadto
-75 0 -137 -40 rquadto
-62 -42 -96 -115 rquadto
-34 -73 -34 -168 rquadto
0 -92 31 -168 rquadto
31 -76 93 -115 rquadto
62 -40 139 -40 rquadto
56 0 100 23 rquadto
43 23 71 60 rquadto
0 -307 rlineto
104 0 rlineto
0 859 rlineto
-98 0 rlineto
closepath
} def
/P$4 {
346 0 rlineto
-6 -79 -39 -118 rquadto
-51 -60 -131 -60 rquadto
-73 0 -123 48 rquadto
-48 48 -53 131 rquadto
} def
/P$1q {
112 -17 rlineto
9 67 53 104 rquadto
43 35 121 35 rquadto
78 0 115 -31 rquadto
39 -32 39 -76 rquadto
0 -39 -34 -60 rquadto
-23 -15 -117 -39 rquadto
-125 -31 -173 -54 rquadto
-48 -23 -73 -64 rquadto
-25 -40 -25 -90 rquadto
0 -45 20 -82 rquadto
20 -39 56 -64 rquadto
26 -20 71 -32 rquadto
46 -14 100 -14 rquadto
78 0 137 23 rquadto
60 21 89 60 rquadto
29 39 40 104 rquadto
-112 15 rlineto
-7 -53 -43 -81 rquadto
-35 -29 -103 -29 rquadto
-78 0 -112 26 rquadto
-34 25 -34 60 rquadto
0 21 14 39 rquadto
14 18 43 31 rquadto
17 6 101 28 rquadto
121 32 168 53 rquadto
48 20 75 60 rquadto
28 39 28 96 rquadto
0 57 -34 107 rquadto
-32 50 -95 78 rquadto
-62 28 -142 28 rquadto
-131 0 -200 -54 rquadto
-68 -54 -87 -162 rquadto
} def
/P$y {
0 121 48 178 rquadto
48 56 121 56 rquadto
73 0 121 -56 rquadto
50 -56 50 -175 rquadto
0 -114 -51 -171 rquadto
-50 -57 -121 -57 rquadto
-70 0 -120 57 rquadto
-48 56 -48 168 rquadto
} def
/P$h {
346 0 rlineto
-6 -79 -39 -118 rquadto
-51 -60 -131 -60 rquadto
-73 0 -123 48 rquadto
-48 48 -53 131 rquadto
closepath
} def
/P$1f {
0 -132 rlineto
114 0 rlineto
0 132 rlineto
-114 0 rlineto
closepath
} def
/P$q {
0 -123 rlineto
106 0 rlineto
0 123 rlineto
-106 0 rlineto
closepath
} def
/P$x {
103 15 rlineto
6 46 35 68 rquadto
39 29 106 29 rquadto
73 0 112 -29 rquadto
40 -29 54 -81 rquadto
9 -32 7 -135 rquadto
-68 81 -171 81 rquadto
-128 0 -198 -92 rquadto
-70 -93 -70 -221 rquadto
0 -89 31 -164 rquadto
32 -76 93 -117 rquadto
60 -40 143 -40 rquadto
110 0 182 89 rquadto
0 -75 rlineto
96 0 rlineto
0 537 rlineto
0 145 -29 206 rquadto
-29 60 -93 95 rquadto
-64 35 -157 35 rquadto
-110 0 -179 -50 rquadto
-68 -50 -67 -151 rquadto
closepath
} def
/P$1j {
357 -931 rlineto
131 0 rlineto
381 931 rlineto
-140 0 rlineto
-107 -281 rlineto
-389 0 rlineto
-103 281 rlineto
-129 0 rlineto
closepath
} def
/P$i {
0 -859 rlineto
620 0 rlineto
0 101 rlineto
-506 0 rlineto
0 262 rlineto
475 0 rlineto
0 101 rlineto
-475 0 rlineto
0 292 rlineto
526 0 rlineto
0 101 rlineto
-640 0 rlineto
} def
/P$1p {
84 -178 rlineto
150 0 rlineto
-139 178 rlineto
-95 0 rlineto
} def
/P$11 {
78 -164 rlineto
139 0 rlineto
-129 164 rlineto
-87 0 rlineto
} def
/P$n {
103 -15 rlineto
9 62 48 95 rquadto
40 32 114 32 rquadto
71 0 106 -28 rquadto
35 -29 35 -70 rquadto
0 -35 -31 -56 rquadto
-21 -14 -107 -35 rquadto
-115 -29 -160 -50 rquadto
-43 -21 -67 -59 rquadto
-23 -37 -23 -84 rquadto
0 -40 18 -76 rquadto
18 -35 51 -59 rquadto
25 -17 67 -29 rquadto
42 -12 92 -12 rquadto
71 0 126 21 rquadto
56 20 82 56 rquadto
26 35 35 95 rquadto
-103 14 rlineto
-6 -46 -40 -73 rquadto
-32 -28 -95 -28 rquadto
-71 0 -103 25 rquadto
-31 23 -31 56 rquadto
0 20 12 35 rquadto
14 17 40 28 rquadto
15 6 93 26 rquadto
112 31 156 50 rquadto
43 18 68 54 rquadto
25 35 25 90 rquadto
0 53 -31 100 rquadto
-29 45 -87 71 rquadto
-57 25 -131 25 rquadto
-121 0 -185 -50 rquadto
-62 -51 -79 -150 rquadto
} def
/P$1v {
0 129 56 195 rquadto
56 64 142 64 rquadto
84 0 140 -64 rquadto
57 -65 57 -198 rquadto
0 -125 -57 -189 rquadto
-56 -65 -140 -65 rquadto
-85 0 -142 64 rquadto
-56 64 -56 193 rquadto
} def
/P$1w {
0 -585 rlineto
-100 0 rlineto
0 -87 rlineto
100 0 rlineto
0 -71 rlineto
0 -68 12 -101 rquadto
17 -43 57 -71 rquadto
42 -28 117 -28 rquadto
48 0 106 12 rquadto
-17 98 rlineto
-35 -6 -67 -6 rquadto
-51 0 -73 23 rquadto
-21 21 -21 82 rquadto
0 62 rlineto
131 0 rlineto
0 87 rlineto
-131 0 rlineto
0 585 rlineto
-114 0 rlineto
closepath
} def
/P$2 {
15 92 rlineto
-45 9 -79 9 rquadto
-57 0 -89 -17 rquadto
-31 -18 -45 -48 rquadto
-12 -29 -12 -125 rquadto
0 -357 rlineto
-76 0 rlineto
0 -81 rlineto
76 0 rlineto
0 -154 rlineto
104 -62 rlineto
0 217 rlineto
106 0 rlineto
0 81 rlineto
-106 0 rlineto
0 364 rlineto
0 45 4 57 rquadto
6 12 18 20 rquadto
12 7 35 7 rquadto
18 0 46 -3 rquadto
} def
/P$3 {
109 12 rlineto
-25 95 -95 148 rquadto
-70 53 -178 53 rquadto
-135 0 -217 -84 rquadto
-79 -84 -79 -235 rquadto
0 -156 81 -242 rquadto
81 -87 209 -87 rquadto
125 0 203 84 rquadto
79 84 79 239 rquadto
0 9 0 28 rquadto
-464 0 rlineto
6 103 57 157 rquadto
51 53 129 53 rquadto
57 0 98 -29 rquadto
42 -31 65 -96 rquadto
closepath
} def
/P$1t {
0 -931 rlineto
184 0 rlineto
220 659 rlineto
31 92 45 137 rquadto
15 -50 48 -148 rquadto
223 -648 rlineto
165 0 rlineto
0 931 rlineto
-118 0 rlineto
0 -778 rlineto
-270 778 rlineto
-110 0 rlineto
-268 -792 rlineto
0 792 rlineto
-118 0 rlineto
} def
/P$20 {
0 -231 123 -362 rquadto
125 -131 321 -131 rquadto
129 0 232 62 rquadto
103 60 157 171 rquadto
54 109 54 248 rquadto
0 142 -57 254 rquadto
-56 110 -160 168 rquadto
-104 56 -226 56 rquadto
-131 0 -235 -62 rquadto
-103 -64 -156 -173 rquadto
-53 -110 -53 -232 rquadto
closepath
} def
/P$u {
0 -173 95 -256 rquadto
79 -68 195 -68 rquadto
128 0 209 84 rquadto
82 82 82 231 rquadto
0 120 -35 189 rquadto
-35 68 -106 107 rquadto
-68 37 -150 37 rquadto
-129 0 -210 -82 rquadto
-79 -84 -79 -242 rquadto
closepath
} def
/P$1i {
376 0 rlineto
-7 -85 -43 -128 rquadto
-54 -65 -140 -65 rquadto
-79 0 -132 53 rquadto
-53 51 -59 140 rquadto
closepath
} def
/P$1a {
0 129 53 192 rquadto
53 62 126 62 rquadto
76 0 131 -64 rquadto
54 -65 54 -200 rquadto
0 -129 -53 -193 rquadto
-53 -64 -126 -64 rquadto
-73 0 -129 68 rquadto
-56 67 -56 198 rquadto
} def
/P$1c {
376 0 rlineto
-7 -85 -43 -128 rquadto
-54 -65 -140 -65 rquadto
-79 0 -132 53 rquadto
-53 51 -59 140 rquadto
} def
/P$1z {
0 129 56 195 rquadto
56 64 142 64 rquadto
84 0 140 -64 rquadto
57 -65 57 -198 rquadto
0 -125 -57 -189 rquadto
-56 -65 -140 -65 rquadto
-85 0 -142 64 rquadto
-56 64 -56 193 rquadto
closepath
} def
/P$1y {
0 -673 rlineto
103 0 rlineto
0 95 rlineto
73 -110 214 -110 rquadto
60 0 110 21 rquadto
51 21 76 57 rquadto
26 34 35 84 rquadto
6 31 6 110 rquadto
0 414 rlineto
-114 0 rlineto
0 -409 rlineto
0 -70 -14 -104 rquadto
-12 -34 -46 -54 rquadto
-32 -21 -78 -21 rquadto
-73 0 -126 46 rquadto
-53 45 -53 175 rquadto
0 368 rlineto
-114 0 rlineto
} def
/P$21 {
0 168 90 265 rquadto
90 96 228 96 rquadto
139 0 228 -96 rquadto
90 -98 90 -278 rquadto
0 -114 -39 -198 rquadto
-39 -85 -112 -131 rquadto
-73 -46 -165 -46 rquadto
-131 0 -226 90 rquadto
-93 89 -93 298 rquadto
} def
/P$1r {
0 -84 rlineto
-64 100 -189 100 rquadto
-79 0 -148 -43 rquadto
-67 -45 -104 -125 rquadto
-37 -79 -37 -182 rquadto
0 -101 34 -182 rquadto
34 -82 101 -126 rquadto
67 -43 150 -43 rquadto
60 0 107 26 rquadto
48 25 78 65 rquadto
0 -334 rlineto
114 0 rlineto
0 931 rlineto
-106 0 rlineto
closepath
} def
/P$19 {
0 -931 rlineto
103 0 rlineto
0 87 rlineto
37 -51 82 -76 rquadto
46 -26 114 -26 rquadto
85 0 151 45 rquadto
65 43 98 125 rquadto
34 79 34 176 rquadto
0 103 -37 185 rquadto
-35 82 -107 128 rquadto
-70 43 -148 43 rquadto
-56 0 -101 -23 rquadto
-45 -25 -75 -62 rquadto
0 328 rlineto
-114 0 rlineto
closepath
} def
/P$7 {
-59 50 -114 70 rquadto
-53 20 -115 20 rquadto
-103 0 -157 -50 rquadto
-54 -50 -54 -128 rquadto
0 -45 20 -82 rquadto
20 -39 54 -60 rquadto
34 -23 76 -34 rquadto
29 -9 93 -17 rquadto
126 -14 187 -35 rquadto
0 -21 0 -26 rquadto
0 -65 -29 -92 rquadto
-40 -34 -120 -34 rquadto
-73 0 -109 26 rquadto
-35 25 -53 90 rquadto
-103 -14 rlineto
14 -65 46 -106 rquadto
32 -40 93 -62 rquadto
60 -21 140 -21 rquadto
79 0 129 18 rquadto
50 18 73 46 rquadto
23 28 32 71 rquadto
4 26 4 96 rquadto
0 140 rlineto
0 146 6 185 rquadto
7 39 28 75 rquadto
-110 0 rlineto
-15 -32 -20 -76 rquadto
closepath
} def
/P$1u {
0 -187 103 -276 rquadto
87 -75 212 -75 rquadto
139 0 226 90 rquadto
89 90 89 251 rquadto
0 129 -39 204 rquadto
-39 75 -114 117 rquadto
-75 40 -162 40 rquadto
-142 0 -229 -90 rquadto
-85 -90 -85 -262 rquadto
closepath
} def
/P$22 {
0 -931 rlineto
628 0 rlineto
0 110 rlineto
-504 0 rlineto
0 287 rlineto
437 0 rlineto
0 109 rlineto
-437 0 rlineto
0 423 rlineto
-123 0 rlineto
} def
/P$1d {
0 -673 rlineto
103 0 rlineto
0 101 rlineto
39 -71 71 -93 rquadto
34 -23 73 -23 rquadto
57 0 117 35 rquadto
-39 106 rlineto
-42 -25 -82 -25 rquadto
-37 0 -68 23 rquadto
-29 21 -42 62 rquadto
-18 60 -18 132 rquadto
0 353 rlineto
-114 0 rlineto
} def
/P$j {
-235 -621 rlineto
110 0 rlineto
134 371 rlineto
20 60 39 125 rquadto
14 -48 39 -117 rquadto
139 -379 rlineto
107 0 rlineto
-235 621 rlineto
-98 0 rlineto
closepath
} def
/P$16 {
103 -15 rlineto
9 62 48 95 rquadto
40 32 114 32 rquadto
71 0 106 -28 rquadto
35 -29 35 -70 rquadto
0 -35 -31 -56 rquadto
-21 -14 -107 -35 rquadto
-115 -29 -160 -50 rquadto
-43 -21 -67 -59 rquadto
-23 -37 -23 -84 rquadto
0 -40 18 -76 rquadto
18 -35 51 -59 rquadto
25 -17 67 -29 rquadto
42 -12 92 -12 rquadto
71 0 126 21 rquadto
56 20 82 56 rquadto
26 35 35 95 rquadto
-103 14 rlineto
-6 -46 -40 -73 rquadto
-32 -28 -95 -28 rquadto
-71 0 -103 25 rquadto
-31 23 -31 56 rquadto
0 20 12 35 rquadto
14 17 40 28 rquadto
15 6 93 26 rquadto
112 31 156 50 rquadto
43 18 68 54 rquadto
25 35 25 90 rquadto
0 53 -31 100 rquadto
-29 45 -87 71 rquadto
-57 25 -131 25 rquadto
-121 0 -185 -50 rquadto
-62 -51 -79 -150 rquadto
closepath
} def
/P$1 {
0 -621 rlineto
93 0 rlineto
0 87 rlineto
68 -101 198 -101 rquadto
56 0 103 20 rquadto
48 20 71 53 rquadto
23 32 32 76 rquadto
4 29 4 103 rquadto
0 382 rlineto
-104 0 rlineto
0 -378 rlineto
0 -65 -12 -96 rquadto
-12 -31 -43 -50 rquadto
-31 -20 -73 -20 rquadto
-67 0 -117 43 rquadto
-48 42 -48 160 rquadto
0 340 rlineto
-104 0 rlineto
} def
/P$g {
0 -92 rlineto
-73 106 -198 106 rquadto
-54 0 -103 -20 rquadto
-46 -21 -70 -53 rquadto
-23 -32 -32 -79 rquadto
-6 -29 -6 -98 rquadto
0 -384 rlineto
106 0 rlineto
0 345 rlineto
0 81 6 110 rquadto
9 40 40 65 rquadto
32 23 81 23 rquadto
46 0 87 -23 rquadto
42 -25 59 -67 rquadto
18 -42 18 -121 rquadto
0 -332 rlineto
104 0 rlineto
0 621 rlineto
-93 0 rlineto
} def
/P$0 {
0 -859 rlineto
112 0 rlineto
0 859 rlineto
-112 0 rlineto
} def
/P$z {
103 14 rlineto
-17 106 -87 167 rquadto
-70 60 -171 60 rquadto
-128 0 -206 -82 rquadto
-76 -84 -76 -240 rquadto
0 -100 32 -175 rquadto
34 -76 101 -114 rquadto
68 -37 150 -37 rquadto
100 0 164 51 rquadto
65 50 84 145 rquadto
-103 15 rlineto
-14 -62 -51 -93 rquadto
-37 -32 -90 -32 rquadto
-79 0 -129 57 rquadto
-50 56 -50 179 rquadto
0 126 48 182 rquadto
48 56 125 56 rquadto
62 0 103 -37 rquadto
42 -37 54 -117 rquadto
} def
/P$13 {
0 120 50 179 rquadto
50 57 118 57 rquadto
68 0 117 -56 rquadto
48 -56 48 -171 rquadto
0 -128 -50 -187 rquadto
-48 -59 -120 -59 rquadto
-70 0 -117 57 rquadto
-46 56 -46 179 rquadto
} def
/P$1m {
-62 53 -121 76 rquadto
-57 21 -125 21 rquadto
-112 0 -171 -54 rquadto
-59 -54 -59 -139 rquadto
0 -48 21 -89 rquadto
23 -42 59 -67 rquadto
37 -25 82 -37 rquadto
32 -7 101 -17 rquadto
137 -15 203 -39 rquadto
1 -23 1 -29 rquadto
0 -70 -32 -98 rquadto
-43 -39 -129 -39 rquadto
-81 0 -120 28 rquadto
-37 28 -56 100 rquadto
-110 -14 rlineto
14 -71 48 -115 rquadto
35 -45 101 -68 rquadto
67 -23 153 -23 rquadto
87 0 140 20 rquadto
54 20 79 51 rquadto
25 29 35 76 rquadto
4 29 4 106 rquadto
0 151 rlineto
0 159 7 201 rquadto
7 42 28 81 rquadto
-118 0 rlineto
-17 -35 -23 -82 rquadto
closepath
} def
/P$r {
18 -90 rlineto
32 7 50 7 rquadto
32 0 48 -21 rquadto
15 -20 15 -106 rquadto
0 -653 rlineto
106 0 rlineto
0 656 rlineto
0 114 -29 159 rquadto
-39 59 -126 59 rquadto
-43 0 -82 -10 rquadto
} def
/P$o {
0 -859 rlineto
106 0 rlineto
0 859 rlineto
-106 0 rlineto
} def
/P$s {
0 -859 rlineto
114 0 rlineto
0 757 rlineto
423 0 rlineto
0 101 rlineto
-537 0 rlineto
} def
/P$1o {
-256 -673 rlineto
120 0 rlineto
143 403 rlineto
23 65 43 135 rquadto
15 -53 42 -128 rquadto
150 -410 rlineto
117 0 rlineto
-254 673 rlineto
-106 0 rlineto
closepath
} def
/P$1n {
-62 26 -185 43 rquadto
-70 10 -100 23 rquadto
-29 12 -45 37 rquadto
-15 23 -15 53 rquadto
0 45 34 76 rquadto
34 29 101 29 rquadto
65 0 117 -28 rquadto
51 -29 76 -79 rquadto
17 -37 17 -114 rquadto
0 -42 rlineto
} def
/P$10 {
0 118 51 178 rquadto
53 59 131 59 rquadto
79 0 131 -59 rquadto
51 -59 51 -181 rquadto
0 -115 -53 -175 rquadto
-51 -59 -129 -59 rquadto
-78 0 -131 59 rquadto
-51 57 -51 178 rquadto
closepath
} def
/P$1x {
112 14 rlineto
-17 117 -93 182 rquadto
-76 65 -185 65 rquadto
-139 0 -223 -90 rquadto
-82 -90 -82 -259 rquadto
0 -109 35 -190 rquadto
35 -82 109 -123 rquadto
73 -40 160 -40 rquadto
109 0 179 56 rquadto
70 54 89 156 rquadto
-110 17 rlineto
-15 -67 -56 -101 rquadto
-39 -34 -96 -34 rquadto
-85 0 -140 62 rquadto
-53 60 -53 195 rquadto
0 135 51 198 rquadto
51 60 135 60 rquadto
67 0 112 -40 rquadto
45 -42 56 -128 rquadto
} def
/P$t {
-57 23 -171 40 rquadto
-65 9 -92 21 rquadto
-26 10 -42 32 rquadto
-14 21 -14 50 rquadto
0 42 31 70 rquadto
32 28 93 28 rquadto
60 0 107 -26 rquadto
48 -26 70 -73 rquadto
17 -35 17 -104 rquadto
0 -39 rlineto
closepath
} def
/P$w {
0 -540 rlineto
-93 0 rlineto
0 -81 rlineto
93 0 rlineto
0 -67 rlineto
0 -62 10 -92 rquadto
15 -42 53 -67 rquadto
39 -25 107 -25 rquadto
45 0 98 10 rquadto
-15 90 rlineto
-32 -4 -62 -4 rquadto
-48 0 -68 20 rquadto
-18 20 -18 76 rquadto
0 57 rlineto
121 0 rlineto
0 81 rlineto
-121 0 rlineto
0 540 rlineto
-104 0 rlineto
} def
/P$5 {
0 -621 rlineto
95 0 rlineto
0 93 rlineto
35 -65 65 -85 rquadto
31 -21 68 -21 rquadto
53 0 107 32 rquadto
-35 98 rlineto
-39 -23 -76 -23 rquadto
-35 0 -64 21 rquadto
-26 20 -37 57 rquadto
-18 56 -18 121 rquadto
0 326 rlineto
-104 0 rlineto
closepath
} def
/P$p {
0 -621 rlineto
93 0 rlineto
0 87 rlineto
29 -46 78 -73 rquadto
48 -28 110 -28 rquadto
68 0 112 28 rquadto
45 28 62 79 rquadto
75 -107 192 -107 rquadto
93 0 142 51 rquadto
50 50 50 157 rquadto
0 426 rlineto
-104 0 rlineto
0 -392 rlineto
0 -62 -10 -90 rquadto
-9 -28 -35 -45 rquadto
-26 -17 -64 -17 rquadto
-65 0 -109 43 rquadto
-42 43 -42 140 rquadto
0 360 rlineto
-106 0 rlineto
0 -404 rlineto
0 -70 -26 -104 rquadto
-25 -35 -82 -35 rquadto
-45 0 -82 23 rquadto
-37 23 -54 68 rquadto
-17 45 -17 129 rquadto
0 323 rlineto
-104 0 rlineto
} def
/P$17 {
0 -859 rlineto
325 0 rlineto
84 0 129 7 rquadto
64 10 106 40 rquadto
43 29 68 82 rquadto
26 53 26 117 rquadto
0 109 -70 185 rquadto
-68 75 -251 75 rquadto
-220 0 rlineto
0 350 rlineto
-114 0 rlineto
closepath
} def
/P$18 {
221 0 rlineto
110 0 156 -40 rquadto
46 -42 46 -117 rquadto
0 -53 -28 -90 rquadto
-26 -39 -70 -51 rquadto
-29 -7 -106 -7 rquadto
-220 0 rlineto
0 307 rlineto
} def
/P$1b {
118 14 rlineto
-28 104 -104 162 rquadto
-75 56 -192 56 rquadto
-148 0 -235 -90 rquadto
-85 -92 -85 -256 rquadto
0 -170 87 -264 rquadto
89 -93 228 -93 rquadto
135 0 220 92 rquadto
85 92 85 257 rquadto
0 10 0 31 rquadto
-503 0 rlineto
6 110 62 170 rquadto
56 59 140 59 rquadto
64 0 107 -32 rquadto
45 -34 70 -106 rquadto
closepath
} def
/P$1h {
15 100 rlineto
-48 10 -85 10 rquadto
-62 0 -96 -20 rquadto
-34 -20 -48 -51 rquadto
-14 -32 -14 -134 rquadto
0 -389 rlineto
-82 0 rlineto
0 -87 rlineto
82 0 rlineto
0 -167 rlineto
114 -68 rlineto
0 235 rlineto
115 0 rlineto
0 87 rlineto
-115 0 rlineto
0 395 rlineto
0 48 6 62 rquadto
6 14 18 21 rquadto
14 7 39 7 rquadto
20 0 51 -3 rquadto
} def
/P$e {
0 -304 rlineto
-25 34 -70 57 rquadto
-43 21 -93 21 rquadto
-110 0 -190 -87 rquadto
-79 -89 -79 -243 rquadto
0 -93 32 -167 rquadto
32 -75 93 -112 rquadto
62 -39 135 -39 rquadto
115 0 181 96 rquadto
0 -82 rlineto
95 0 rlineto
0 860 rlineto
-104 0 rlineto
closepath
} def
/P$8 {
-57 23 -171 40 rquadto
-65 9 -92 21 rquadto
-26 10 -42 32 rquadto
-14 21 -14 50 rquadto
0 42 31 70 rquadto
32 28 93 28 rquadto
60 0 107 -26 rquadto
48 -26 70 -73 rquadto
17 -35 17 -104 rquadto
0 -39 rlineto
} def
/P$v {
0 118 51 178 rquadto
53 59 131 59 rquadto
79 0 131 -59 rquadto
51 -59 51 -181 rquadto
0 -115 -53 -175 rquadto
-51 -59 -129 -59 rquadto
-78 0 -131 59 rquadto
-51 57 -51 178 rquadto
} def
/P$1e {
0 -673 rlineto
101 0 rlineto
0 93 rlineto
32 -50 84 -79 rquadto
53 -29 120 -29 rquadto
75 0 121 31 rquadto
48 31 68 85 rquadto
79 -117 207 -117 rquadto
100 0 153 56 rquadto
54 54 54 170 rquadto
0 462 rlineto
-112 0 rlineto
0 -425 rlineto
0 -68 -10 -98 rquadto
-10 -29 -40 -48 rquadto
-29 -18 -68 -18 rquadto
-71 0 -118 48 rquadto
-46 46 -46 150 rquadto
0 392 rlineto
-114 0 rlineto
0 -437 rlineto
0 -76 -28 -114 rquadto
-28 -39 -90 -39 rquadto
-48 0 -89 26 rquadto
-40 25 -59 73 rquadto
-18 48 -18 140 rquadto
0 350 rlineto
-114 0 rlineto
} def
/P$k {
0 -121 rlineto
106 0 rlineto
0 121 rlineto
-106 0 rlineto
closepath
} def
/P$c {
0 -860 rlineto
95 0 rlineto
0 79 rlineto
34 -46 76 -70 rquadto
43 -23 104 -23 rquadto
79 0 140 40 rquadto
60 40 90 115 rquadto
31 75 31 164 rquadto
0 95 -34 171 rquadto
-32 76 -98 117 rquadto
-65 40 -137 40 rquadto
-53 0 -95 -21 rquadto
-42 -23 -68 -56 rquadto
0 303 rlineto
-104 0 rlineto
closepath
} def
/P$l {
0 -621 rlineto
106 0 rlineto
0 621 rlineto
-106 0 rlineto
} def
/P$1l {
0 -673 rlineto
103 0 rlineto
0 101 rlineto
39 -71 71 -93 rquadto
34 -23 73 -23 rquadto
57 0 117 35 rquadto
-39 106 rlineto
-42 -25 -82 -25 rquadto
-37 0 -68 23 rquadto
-29 21 -42 62 rquadto
-18 60 -18 132 rquadto
0 353 rlineto
-114 0 rlineto
closepath
} def
/P$6 {
0 -540 rlineto
-93 0 rlineto
0 -81 rlineto
93 0 rlineto
0 -67 rlineto
0 -62 10 -92 rquadto
15 -42 53 -67 rquadto
39 -25 107 -25 rquadto
45 0 98 10 rquadto
-15 90 rlineto
-32 -4 -62 -4 rquadto
-48 0 -68 20 rquadto
-18 20 -18 76 rquadto
0 57 rlineto
121 0 rlineto
0 81 rlineto
-121 0 rlineto
0 540 rlineto
-104 0 rlineto
closepath
} def
/P$1s {
0 129 53 193 rquadto
54 64 129 64 rquadto
75 0 126 -60 rquadto
53 -62 53 -187 rquadto
0 -139 -53 -203 rquadto
-53 -65 -131 -65 rquadto
-76 0 -128 62 rquadto
-50 62 -50 196 rquadto
} def
/P$14 {
-12 -98 rlineto
34 9 60 9 rquadto
34 0 54 -12 rquadto
21 -10 35 -31 rquadto
9 -17 32 -79 rquadto
1 -7 9 -25 rquadto
-237 -623 rlineto
114 0 rlineto
129 359 rlineto
25 68 45 145 rquadto
18 -73 43 -142 rquadto
132 -362 rlineto
104 0 rlineto
-235 632 rlineto
-39 101 -59 140 rquadto
-28 53 -65 76 rquadto
-35 25 -85 25 rquadto
-29 0 -67 -14 rquadto
closepath
} def
/P$a {
112 29 rlineto
-35 139 -128 212 rquadto
-92 73 -226 73 rquadto
-139 0 -226 -56 rquadto
-87 -56 -132 -162 rquadto
-45 -107 -45 -231 rquadto
0 -134 51 -234 rquadto
51 -100 145 -151 rquadto
95 -51 209 -51 rquadto
128 0 215 65 rquadto
89 65 123 184 rquadto
-112 26 rlineto
-29 -93 -87 -135 rquadto
-56 -43 -142 -43 rquadto
-98 0 -165 48 rquadto
-65 46 -93 126 rquadto
-26 79 -26 165 rquadto
0 109 31 190 rquadto
32 81 100 121 rquadto
67 40 146 40 rquadto
95 0 160 -54 rquadto
67 -54 90 -164 rquadto
} def
/P$1g {
0 -673 rlineto
114 0 rlineto
0 673 rlineto
-114 0 rlineto
} def
/P$m {
-332 -859 rlineto
123 0 rlineto
223 625 rlineto
26 75 45 140 rquadto
20 -70 46 -140 rquadto
231 -625 rlineto
115 0 rlineto
-335 859 rlineto
-117 0 rlineto
closepath
} def
/P$1k {
315 0 rlineto
-98 -257 rlineto
-43 -117 -65 -192 rquadto
-17 89 -50 178 rquadto
-101 271 rlineto
} def
0.78 0.78 0.78 setrgbcolor
5300 3509 21600 1100 100 roundrect
closepath eofill
0.71 0.71 0.71 setrgbcolor
5200 3409 21650 1150 100 roundrect
closepath eofill
0.64 0.64 0.64 setrgbcolor
5100 3309 21700 1200 100 roundrect
closepath eofill
0.56 0.56 0.56 setrgbcolor
5000 3209 21750 1250 100 roundrect
closepath eofill
0.49 0.49 0.49 setrgbcolor
4900 3109 21800 1300 100 roundrect
closepath eofill
0.42 0.42 0.42 setrgbcolor
4800 3009 21850 1350 100 roundrect
closepath eofill
0.34 0.34 0.34 setrgbcolor
4700 2909 21900 1400 100 roundrect
closepath eofill
0.27 0.27 0.27 setrgbcolor
4600 2809 21950 1450 100 roundrect
closepath eofill
0.2 0.2 0.2 setrgbcolor
4500 2709 22000 1500 100 roundrect
closepath eofill
1 1 0.81 setrgbcolor
5300 3509 21200 700 simplerect
closepath eofill
150 setlinewidth
0.66 0 0.21 setrgbcolor
5300 3509 21200 700 simplerect
closepath stroke
0 setlinewidth
[] 0 setdash
0 0 0 setrgbcolor
newpath
22012 2145 moveto
P$0
fill
0 setlinewidth
[] 0 setdash
0 0 0 setrgbcolor
newpath
22279 2145 moveto
P$1
fill
0 setlinewidth
[] 0 setdash
0 0 0 setrgbcolor
newpath
23209 2051 moveto
P$2
fill
0 setlinewidth
[] 0 setdash
0 0 0 setrgbcolor
newpath
23704 1945 moveto
P$3
23359 1775 moveto
P$4
fill
0 setlinewidth
[] 0 setdash
0 0 0 setrgbcolor
newpath
23978 2145 moveto
P$5
24404 2145 moveto
P$6
25085 2069 moveto
P$7
25076 1833 moveto
P$8
fill
0 setlinewidth
[] 0 setdash
0 0 0 setrgbcolor
newpath
25323 2145 moveto
P$9
fill
150 setlinewidth
0.66 0 0.21 setrgbcolor
newpath
21300 2609 moveto
5100 0 rlineto
stroke
0.78 0.78 0.78 setrgbcolor
9300 3509 6600 12400 100 roundrect
closepath eofill
0.71 0.71 0.71 setrgbcolor
9200 3409 6650 12450 100 roundrect
closepath eofill
0.64 0.64 0.64 setrgbcolor
9100 3309 6700 12500 100 roundrect
closepath eofill
0.56 0.56 0.56 setrgbcolor
9000 3209 6750 12550 100 roundrect
closepath eofill
0.49 0.49 0.49 setrgbcolor
8900 3109 6800 12600 100 roundrect
closepath eofill
0.42 0.42 0.42 setrgbcolor
8800 3009 6850 12650 100 roundrect
closepath eofill
0.34 0.34 0.34 setrgbcolor
8700 2909 6900 12700 100 roundrect
closepath eofill
0.27 0.27 0.27 setrgbcolor
8600 2809 6950 12750 100 roundrect
closepath eofill
0.2 0.2 0.2 setrgbcolor
8500 2709 7000 12800 100 roundrect
closepath eofill
1 1 0.81 setrgbcolor
9300 3509 6200 12000 simplerect
closepath eofill
150 setlinewidth
0.66 0 0.21 setrgbcolor
9300 3509 6200 12000 simplerect
closepath stroke
0 setlinewidth
[] 0 setdash
0 0 0 setrgbcolor
newpath
7606 13144 moveto
P$a
fill
0 setlinewidth
[] 0 setdash
0 0 0 setrgbcolor
newpath
7878 13445 moveto
P$b
fill
0 setlinewidth
[] 0 setdash
0 0 0 setrgbcolor
newpath
8704 13245 moveto
P$3
8359 13075 moveto
P$4
fill
0 setlinewidth
[] 0 setdash
0 0 0 setrgbcolor
newpath
9385 13369 moveto
P$7
9376 13133 moveto
P$8
fill
0 setlinewidth
[] 0 setdash
0 0 0 setrgbcolor
newpath
9678 13445 moveto
P$b
fill
0 setlinewidth
[] 0 setdash
0 0 0 setrgbcolor
newpath
10379 13684 moveto
P$c
10475 13137 moveto
P$d
fill
0 setlinewidth
[] 0 setdash
0 0 0 setrgbcolor
newpath
11485 13369 moveto
P$7
11476 13133 moveto
P$8
fill
0 setlinewidth
[] 0 setdash
0 0 0 setrgbcolor
newpath
12176 13684 moveto
P$e
11850 13133 moveto
P$f
fill
0 setlinewidth
[] 0 setdash
0 0 0 setrgbcolor
newpath
12887 13445 moveto
P$g
fill
0 setlinewidth
[] 0 setdash
0 0 0 setrgbcolor
newpath
13604 13245 moveto
P$3
13259 13075 moveto
P$4
fill
0 setlinewidth
[] 0 setdash
0 0 0 setrgbcolor
newpath
14109 13351 moveto
P$2
fill
0 setlinewidth
[] 0 setdash
0 0 0 setrgbcolor
newpath
14604 13245 moveto
P$3
14259 13075 moveto
P$h
fill
150 setlinewidth
0.66 0 0.21 setrgbcolor
newpath
6300 13909 moveto
9100 0 rlineto
stroke
0.78 0.78 0.78 setrgbcolor
9600 3509 19450 12400 100 roundrect
closepath eofill
0.71 0.71 0.71 setrgbcolor
9500 3409 19500 12450 100 roundrect
closepath eofill
0.64 0.64 0.64 setrgbcolor
9400 3309 19550 12500 100 roundrect
closepath eofill
0.56 0.56 0.56 setrgbcolor
9300 3209 19600 12550 100 roundrect
closepath eofill
0.49 0.49 0.49 setrgbcolor
9200 3109 19650 12600 100 roundrect
closepath eofill
0.42 0.42 0.42 setrgbcolor
9100 3009 19700 12650 100 roundrect
closepath eofill
0.34 0.34 0.34 setrgbcolor
9000 2909 19750 12700 100 roundrect
closepath eofill
0.27 0.27 0.27 setrgbcolor
8900 2809 19800 12750 100 roundrect
closepath eofill
0.2 0.2 0.2 setrgbcolor
8800 2709 19850 12800 100 roundrect
closepath eofill
1 1 0.81 setrgbcolor
9600 3509 19050 12000 simplerect
closepath eofill
150 setlinewidth
0.66 0 0.21 setrgbcolor
9600 3509 19050 12000 simplerect
closepath stroke
0 setlinewidth
[] 0 setdash
0 0 0 setrgbcolor
newpath
19845 13445 moveto
P$i
fill
0 setlinewidth
[] 0 setdash
0 0 0 setrgbcolor
newpath
20629 13445 moveto
P$1
fill
0 setlinewidth
[] 0 setdash
0 0 0 setrgbcolor
newpath
21501 13445 moveto
P$j
21829 12708 moveto
P$k
21829 13445 moveto
P$l
fill
0 setlinewidth
[] 0 setdash
0 0 0 setrgbcolor
newpath
22535 13369 moveto
P$7
22526 13133 moveto
P$8
fill
0 setlinewidth
[] 0 setdash
0 0 0 setrgbcolor
newpath
22828 13445 moveto
P$b
fill
0 setlinewidth
[] 0 setdash
0 0 0 setrgbcolor
newpath
23529 13684 moveto
P$c
23625 13137 moveto
P$d
fill
0 setlinewidth
[] 0 setdash
0 0 0 setrgbcolor
newpath
24635 13369 moveto
P$7
24626 13133 moveto
P$8
fill
0 setlinewidth
[] 0 setdash
0 0 0 setrgbcolor
newpath
25326 13684 moveto
P$e
25000 13133 moveto
P$f
fill
0 setlinewidth
[] 0 setdash
0 0 0 setrgbcolor
newpath
26037 13445 moveto
P$g
fill
0 setlinewidth
[] 0 setdash
0 0 0 setrgbcolor
newpath
26754 13245 moveto
P$3
26409 13075 moveto
P$4
fill
0 setlinewidth
[] 0 setdash
0 0 0 setrgbcolor
newpath
27259 13351 moveto
P$2
fill
0 setlinewidth
[] 0 setdash
0 0 0 setrgbcolor
newpath
27754 13245 moveto
P$3
27409 13075 moveto
P$h
fill
150 setlinewidth
0.66 0 0.21 setrgbcolor
newpath
19150 13909 moveto
9400 0 rlineto
stroke
0.78 0.78 0.78 setrgbcolor
11900 3509 32600 12400 100 roundrect
closepath eofill
0.71 0.71 0.71 setrgbcolor
11800 3409 32650 12450 100 roundrect
closepath eofill
0.64 0.64 0.64 setrgbcolor
11700 3309 32700 12500 100 roundrect
closepath eofill
0.56 0.56 0.56 setrgbcolor
11600 3209 32750 12550 100 roundrect
closepath eofill
0.49 0.49 0.49 setrgbcolor
11500 3109 32800 12600 100 roundrect
closepath eofill
0.42 0.42 0.42 setrgbcolor
11400 3009 32850 12650 100 roundrect
closepath eofill
0.34 0.34 0.34 setrgbcolor
11300 2909 32900 12700 100 roundrect
closepath eofill
0.27 0.27 0.27 setrgbcolor
11200 2809 32950 12750 100 roundrect
closepath eofill
0.2 0.2 0.2 setrgbcolor
11100 2709 33000 12800 100 roundrect
closepath eofill
1 1 0.81 setrgbcolor
11900 3509 32200 12000 simplerect
closepath eofill
150 setlinewidth
0.66 0 0.21 setrgbcolor
11900 3509 32200 12000 simplerect
closepath stroke
0 setlinewidth
[] 0 setdash
0 0 0 setrgbcolor
newpath
33237 13445 moveto
P$m
33679 12708 moveto
P$k
33679 13445 moveto
P$l
fill
0 setlinewidth
[] 0 setdash
0 0 0 setrgbcolor
newpath
33937 13259 moveto
P$n
fill
0 setlinewidth
[] 0 setdash
0 0 0 setrgbcolor
newpath
35087 13445 moveto
P$g
fill
0 setlinewidth
[] 0 setdash
0 0 0 setrgbcolor
newpath
35785 13369 moveto
P$7
35776 13133 moveto
P$8
fill
0 setlinewidth
[] 0 setdash
0 0 0 setrgbcolor
newpath
36076 13445 moveto
P$o
fill
0 setlinewidth
[] 0 setdash
0 0 0 setrgbcolor
newpath
36379 12708 moveto
P$k
36379 13445 moveto
P$l
fill
0 setlinewidth
[] 0 setdash
0 0 0 setrgbcolor
newpath
36623 13445 moveto
P$9
37585 13369 moveto
P$7
37576 13133 moveto
P$8
fill
0 setlinewidth
[] 0 setdash
0 0 0 setrgbcolor
newpath
37878 13445 moveto
P$b
fill
0 setlinewidth
[] 0 setdash
0 0 0 setrgbcolor
newpath
38579 13445 moveto
P$p
fill
0 setlinewidth
[] 0 setdash
0 0 0 setrgbcolor
newpath
40104 13245 moveto
P$3
39759 13075 moveto
P$4
fill
0 setlinewidth
[] 0 setdash
0 0 0 setrgbcolor
newpath
40379 13445 moveto
P$1
fill
0 setlinewidth
[] 0 setdash
0 0 0 setrgbcolor
newpath
41037 13259 moveto
P$n
fill
0 setlinewidth
[] 0 setdash
0 0 0 setrgbcolor
newpath
42185 13369 moveto
P$7
42176 13133 moveto
P$8
fill
0 setlinewidth
[] 0 setdash
0 0 0 setrgbcolor
newpath
42478 12709 moveto
P$q
42345 13687 moveto
P$r
fill
0 setlinewidth
[] 0 setdash
0 0 0 setrgbcolor
newpath
43204 13245 moveto
P$3
42859 13075 moveto
P$h
fill
150 setlinewidth
0.66 0 0.21 setrgbcolor
newpath
32300 13909 moveto
11700 0 rlineto
stroke
0.78 0.78 0.78 setrgbcolor
4100 3509 36500 23700 100 roundrect
closepath eofill
0.71 0.71 0.71 setrgbcolor
4000 3409 36550 23750 100 roundrect
closepath eofill
0.64 0.64 0.64 setrgbcolor
3900 3309 36600 23800 100 roundrect
closepath eofill
0.56 0.56 0.56 setrgbcolor
3800 3209 36650 23850 100 roundrect
closepath eofill
0.49 0.49 0.49 setrgbcolor
3700 3109 36700 23900 100 roundrect
closepath eofill
0.42 0.42 0.42 setrgbcolor
3600 3009 36750 23950 100 roundrect
closepath eofill
0.34 0.34 0.34 setrgbcolor
3500 2909 36800 24000 100 roundrect
closepath eofill
0.27 0.27 0.27 setrgbcolor
3400 2809 36850 24050 100 roundrect
closepath eofill
0.2 0.2 0.2 setrgbcolor
3300 2709 36900 24100 100 roundrect
closepath eofill
1 1 0.81 setrgbcolor
4100 3509 36100 23300 simplerect
closepath eofill
150 setlinewidth
0.66 0 0.21 setrgbcolor
4100 3509 36100 23300 simplerect
closepath stroke
0 setlinewidth
[] 0 setdash
0 0 0 setrgbcolor
newpath
36887 24745 moveto
P$s
fill
0 setlinewidth
[] 0 setdash
0 0 0 setrgbcolor
newpath
37579 24008 moveto
P$k
37579 24745 moveto
P$l
fill
0 setlinewidth
[] 0 setdash
0 0 0 setrgbcolor
newpath
37837 24559 moveto
P$n
fill
0 setlinewidth
[] 0 setdash
0 0 0 setrgbcolor
newpath
38809 24651 moveto
P$2
fill
0 setlinewidth
[] 0 setdash
0 0 0 setrgbcolor
newpath
39285 24669 moveto
P$7
39276 24433 moveto
P$t
fill
150 setlinewidth
0.66 0 0.21 setrgbcolor
newpath
36200 25209 moveto
3900 0 rlineto
stroke
0.78 0.78 0.78 setrgbcolor
15700 3509 1100 23700 100 roundrect
closepath eofill
0.71 0.71 0.71 setrgbcolor
15600 3409 1150 23750 100 roundrect
closepath eofill
0.64 0.64 0.64 setrgbcolor
15500 3309 1200 23800 100 roundrect
closepath eofill
0.56 0.56 0.56 setrgbcolor
15400 3209 1250 23850 100 roundrect
closepath eofill
0.49 0.49 0.49 setrgbcolor
15300 3109 1300 23900 100 roundrect
closepath eofill
0.42 0.42 0.42 setrgbcolor
15200 3009 1350 23950 100 roundrect
closepath eofill
0.34 0.34 0.34 setrgbcolor
15100 2909 1400 24000 100 roundrect
closepath eofill
0.27 0.27 0.27 setrgbcolor
15000 2809 1450 24050 100 roundrect
closepath eofill
0.2 0.2 0.2 setrgbcolor
14900 2709 1500 24100 100 roundrect
closepath eofill
1 1 0.81 setrgbcolor
15700 3509 700 23300 simplerect
closepath eofill
150 setlinewidth
0.66 0 0.21 setrgbcolor
15700 3509 700 23300 simplerect
closepath stroke
0 setlinewidth
[] 0 setdash
0 0 0 setrgbcolor
newpath
2106 24444 moveto
P$a
fill
0 setlinewidth
[] 0 setdash
0 0 0 setrgbcolor
newpath
2340 24434 moveto
P$u
2448 24434 moveto
P$v
fill
0 setlinewidth
[] 0 setdash
0 0 0 setrgbcolor
newpath
3079 24745 moveto
P$1
fill
0 setlinewidth
[] 0 setdash
0 0 0 setrgbcolor
newpath
3804 24745 moveto
P$w
fill
0 setlinewidth
[] 0 setdash
0 0 0 setrgbcolor
newpath
4079 24008 moveto
P$k
4079 24745 moveto
P$l
fill
0 setlinewidth
[] 0 setdash
0 0 0 setrgbcolor
newpath
4359 24797 moveto
P$x
4446 24423 moveto
P$y
fill
0 setlinewidth
[] 0 setdash
0 0 0 setrgbcolor
newpath
5487 24745 moveto
P$g
fill
0 setlinewidth
[] 0 setdash
0 0 0 setrgbcolor
newpath
5778 24745 moveto
P$b
fill
0 setlinewidth
[] 0 setdash
0 0 0 setrgbcolor
newpath
6585 24669 moveto
P$7
6576 24433 moveto
P$8
fill
0 setlinewidth
[] 0 setdash
0 0 0 setrgbcolor
newpath
7285 24517 moveto
P$z
fill
0 setlinewidth
[] 0 setdash
0 0 0 setrgbcolor
newpath
7479 24008 moveto
P$k
7479 24745 moveto
P$l
fill
0 setlinewidth
[] 0 setdash
0 0 0 setrgbcolor
newpath
7740 24434 moveto
P$u
7848 24434 moveto
P$10
7973 24045 moveto
P$11
fill
0 setlinewidth
[] 0 setdash
0 0 0 setrgbcolor
newpath
8479 24745 moveto
P$1
fill
0 setlinewidth
[] 0 setdash
0 0 0 setrgbcolor
newpath
9882 24745 moveto
P$12
9550 24434 moveto
P$13
fill
0 setlinewidth
[] 0 setdash
0 0 0 setrgbcolor
newpath
10604 24545 moveto
P$3
10259 24375 moveto
P$4
fill
0 setlinewidth
[] 0 setdash
0 0 0 setrgbcolor
newpath
10876 24745 moveto
P$o
fill
0 setlinewidth
[] 0 setdash
0 0 0 setrgbcolor
newpath
11479 24984 moveto
P$c
11575 24437 moveto
P$d
fill
0 setlinewidth
[] 0 setdash
0 0 0 setrgbcolor
newpath
12585 24669 moveto
P$7
12576 24433 moveto
P$8
fill
0 setlinewidth
[] 0 setdash
0 0 0 setrgbcolor
newpath
12875 24984 moveto
P$14
13376 24745 moveto
P$o
fill
0 setlinewidth
[] 0 setdash
0 0 0 setrgbcolor
newpath
13640 24434 moveto
P$u
13748 24434 moveto
P$v
fill
0 setlinewidth
[] 0 setdash
0 0 0 setrgbcolor
newpath
14785 24669 moveto
P$7
14776 24433 moveto
P$8
fill
0 setlinewidth
[] 0 setdash
0 0 0 setrgbcolor
newpath
15482 24745 moveto
P$12
15150 24434 moveto
P$15
fill
150 setlinewidth
0.66 0 0.21 setrgbcolor
newpath
800 25209 moveto
15500 0 rlineto
stroke
0.78 0.78 0.78 setrgbcolor
12700 3509 20300 23700 100 roundrect
closepath eofill
0.71 0.71 0.71 setrgbcolor
12600 3409 20350 23750 100 roundrect
closepath eofill
0.64 0.64 0.64 setrgbcolor
12500 3309 20400 23800 100 roundrect
closepath eofill
0.56 0.56 0.56 setrgbcolor
12400 3209 20450 23850 100 roundrect
closepath eofill
0.49 0.49 0.49 setrgbcolor
12300 3109 20500 23900 100 roundrect
closepath eofill
0.42 0.42 0.42 setrgbcolor
12200 3009 20550 23950 100 roundrect
closepath eofill
0.34 0.34 0.34 setrgbcolor
12100 2909 20600 24000 100 roundrect
closepath eofill
0.27 0.27 0.27 setrgbcolor
12000 2809 20650 24050 100 roundrect
closepath eofill
0.2 0.2 0.2 setrgbcolor
11900 2709 20700 24100 100 roundrect
closepath eofill
1 1 0.81 setrgbcolor
12700 3509 19900 23300 simplerect
closepath eofill
150 setlinewidth
0.66 0 0.21 setrgbcolor
12700 3509 19900 23300 simplerect
closepath stroke
0 setlinewidth
[] 0 setdash
0 0 0 setrgbcolor
newpath
20695 24745 moveto
P$i
fill
0 setlinewidth
[] 0 setdash
0 0 0 setrgbcolor
newpath
21882 24745 moveto
P$12
21550 24434 moveto
P$13
fill
0 setlinewidth
[] 0 setdash
0 0 0 setrgbcolor
newpath
22179 24008 moveto
P$k
22179 24745 moveto
P$l
fill
0 setlinewidth
[] 0 setdash
0 0 0 setrgbcolor
newpath
22885 24517 moveto
P$z
fill
0 setlinewidth
[] 0 setdash
0 0 0 setrgbcolor
newpath
23079 24008 moveto
P$k
23079 24745 moveto
P$l
fill
0 setlinewidth
[] 0 setdash
0 0 0 setrgbcolor
newpath
23340 24434 moveto
P$u
23448 24434 moveto
P$v
fill
0 setlinewidth
[] 0 setdash
0 0 0 setrgbcolor
newpath
24079 24745 moveto
P$1
fill
0 setlinewidth
[] 0 setdash
0 0 0 setrgbcolor
newpath
25482 24745 moveto
P$12
25150 24434 moveto
P$13
fill
0 setlinewidth
[] 0 setdash
0 0 0 setrgbcolor
newpath
26204 24545 moveto
P$3
25859 24375 moveto
P$4
fill
0 setlinewidth
[] 0 setdash
0 0 0 setrgbcolor
newpath
26779 24984 moveto
P$c
26875 24437 moveto
P$d
fill
0 setlinewidth
[] 0 setdash
0 0 0 setrgbcolor
newpath
27885 24669 moveto
P$7
27876 24433 moveto
P$8
fill
0 setlinewidth
[] 0 setdash
0 0 0 setrgbcolor
newpath
28576 24984 moveto
P$e
28250 24433 moveto
P$f
fill
0 setlinewidth
[] 0 setdash
0 0 0 setrgbcolor
newpath
29287 24745 moveto
P$g
fill
0 setlinewidth
[] 0 setdash
0 0 0 setrgbcolor
newpath
30004 24545 moveto
P$3
29659 24375 moveto
P$4
fill
0 setlinewidth
[] 0 setdash
0 0 0 setrgbcolor
newpath
30509 24651 moveto
P$2
fill
0 setlinewidth
[] 0 setdash
0 0 0 setrgbcolor
newpath
31004 24545 moveto
P$3
30659 24375 moveto
P$4
fill
0 setlinewidth
[] 0 setdash
0 0 0 setrgbcolor
newpath
31237 24559 moveto
P$16
fill
150 setlinewidth
0.66 0 0.21 setrgbcolor
newpath
20000 25209 moveto
12500 0 rlineto
stroke
0.78 0.78 0.78 setrgbcolor
13100 3509 26000 35000 100 roundrect
closepath eofill
0.71 0.71 0.71 setrgbcolor
13000 3409 26050 35050 100 roundrect
closepath eofill
0.64 0.64 0.64 setrgbcolor
12900 3309 26100 35100 100 roundrect
closepath eofill
0.56 0.56 0.56 setrgbcolor
12800 3209 26150 35150 100 roundrect
closepath eofill
0.49 0.49 0.49 setrgbcolor
12700 3109 26200 35200 100 roundrect
closepath eofill
0.42 0.42 0.42 setrgbcolor
12600 3009 26250 35250 100 roundrect
closepath eofill
0.34 0.34 0.34 setrgbcolor
12500 2909 26300 35300 100 roundrect
closepath eofill
0.27 0.27 0.27 setrgbcolor
12400 2809 26350 35350 100 roundrect
closepath eofill
0.2 0.2 0.2 setrgbcolor
12300 2709 26400 35400 100 roundrect
closepath eofill
1 1 0.81 setrgbcolor
13100 3509 25600 34600 simplerect
closepath eofill
150 setlinewidth
0.66 0 0.21 setrgbcolor
13100 3509 25600 34600 simplerect
closepath stroke
0 setlinewidth
[] 0 setdash
0 0 0 setrgbcolor
newpath
26392 36045 moveto
P$17
26506 35595 moveto
P$18
fill
0 setlinewidth
[] 0 setdash
0 0 0 setrgbcolor
newpath
27585 35969 moveto
P$7
27576 35733 moveto
P$8
fill
0 setlinewidth
[] 0 setdash
0 0 0 setrgbcolor
newpath
28276 36284 moveto
P$e
27950 35733 moveto
P$f
fill
0 setlinewidth
[] 0 setdash
0 0 0 setrgbcolor
newpath
28987 36045 moveto
P$g
fill
0 setlinewidth
[] 0 setdash
0 0 0 setrgbcolor
newpath
29704 35845 moveto
P$3
29359 35675 moveto
P$4
fill
0 setlinewidth
[] 0 setdash
0 0 0 setrgbcolor
newpath
30209 35951 moveto
P$2
fill
0 setlinewidth
[] 0 setdash
0 0 0 setrgbcolor
newpath
30704 35845 moveto
P$3
30359 35675 moveto
P$4
fill
0 setlinewidth
[] 0 setdash
0 0 0 setrgbcolor
newpath
31682 36045 moveto
P$12
31350 35734 moveto
P$13
fill
0 setlinewidth
[] 0 setdash
0 0 0 setrgbcolor
newpath
32404 35845 moveto
P$3
32059 35675 moveto
P$4
fill
0 setlinewidth
[] 0 setdash
0 0 0 setrgbcolor
newpath
32979 36284 moveto
P$c
33075 35737 moveto
P$d
fill
0 setlinewidth
[] 0 setdash
0 0 0 setrgbcolor
newpath
33678 36045 moveto
P$b
fill
0 setlinewidth
[] 0 setdash
0 0 0 setrgbcolor
newpath
34040 35734 moveto
P$u
34148 35734 moveto
P$v
fill
0 setlinewidth
[] 0 setdash
0 0 0 setrgbcolor
newpath
35009 35951 moveto
P$2
fill
0 setlinewidth
[] 0 setdash
0 0 0 setrgbcolor
newpath
35040 35734 moveto
P$u
35148 35734 moveto
P$v
fill
0 setlinewidth
[] 0 setdash
0 0 0 setrgbcolor
newpath
36185 35817 moveto
P$z
fill
0 setlinewidth
[] 0 setdash
0 0 0 setrgbcolor
newpath
36340 35734 moveto
P$u
36448 35734 moveto
P$v
fill
0 setlinewidth
[] 0 setdash
0 0 0 setrgbcolor
newpath
37076 36045 moveto
P$o
fill
0 setlinewidth
[] 0 setdash
0 0 0 setrgbcolor
newpath
37340 35734 moveto
P$u
37448 35734 moveto
P$10
fill
150 setlinewidth
0.66 0 0.21 setrgbcolor
newpath
25700 36509 moveto
12900 0 rlineto
stroke
0.78 0.78 0.78 setrgbcolor
14400 3509 25350 46300 100 roundrect
closepath eofill
0.71 0.71 0.71 setrgbcolor
14300 3409 25400 46350 100 roundrect
closepath eofill
0.64 0.64 0.64 setrgbcolor
14200 3309 25450 46400 100 roundrect
closepath eofill
0.56 0.56 0.56 setrgbcolor
14100 3209 25500 46450 100 roundrect
closepath eofill
0.49 0.49 0.49 setrgbcolor
14000 3109 25550 46500 100 roundrect
closepath eofill
0.42 0.42 0.42 setrgbcolor
13900 3009 25600 46550 100 roundrect
closepath eofill
0.34 0.34 0.34 setrgbcolor
13800 2909 25650 46600 100 roundrect
closepath eofill
0.27 0.27 0.27 setrgbcolor
13700 2809 25700 46650 100 roundrect
closepath eofill
0.2 0.2 0.2 setrgbcolor
13600 2709 25750 46700 100 roundrect
closepath eofill
1 1 0.81 setrgbcolor
14400 3509 24950 45900 simplerect
closepath eofill
150 setlinewidth
0.66 0 0.21 setrgbcolor
14400 3509 24950 45900 simplerect
closepath stroke
0 setlinewidth
[] 0 setdash
0 0 0 setrgbcolor
newpath
26356 47044 moveto
P$a
fill
0 setlinewidth
[] 0 setdash
0 0 0 setrgbcolor
newpath
27035 47269 moveto
P$7
27026 47033 moveto
P$8
fill
0 setlinewidth
[] 0 setdash
0 0 0 setrgbcolor
newpath
27329 47345 moveto
P$p
fill
0 setlinewidth
[] 0 setdash
0 0 0 setrgbcolor
newpath
28429 47584 moveto
P$c
28525 47037 moveto
P$d
fill
0 setlinewidth
[] 0 setdash
0 0 0 setrgbcolor
newpath
29090 47034 moveto
P$u
29198 47034 moveto
P$v
fill
0 setlinewidth
[] 0 setdash
0 0 0 setrgbcolor
newpath
29787 47159 moveto
P$n
fill
0 setlinewidth
[] 0 setdash
0 0 0 setrgbcolor
newpath
31232 47345 moveto
P$12
30900 47034 moveto
P$13
fill
0 setlinewidth
[] 0 setdash
0 0 0 setrgbcolor
newpath
31954 47145 moveto
P$3
31609 46975 moveto
P$4
fill
0 setlinewidth
[] 0 setdash
0 0 0 setrgbcolor
newpath
32937 47345 moveto
P$g
fill
0 setlinewidth
[] 0 setdash
0 0 0 setrgbcolor
newpath
33229 47345 moveto
P$1
fill
0 setlinewidth
[] 0 setdash
0 0 0 setrgbcolor
newpath
34229 47584 moveto
P$c
34325 47037 moveto
P$d
fill
0 setlinewidth
[] 0 setdash
0 0 0 setrgbcolor
newpath
35335 47269 moveto
P$7
35326 47033 moveto
P$8
fill
0 setlinewidth
[] 0 setdash
0 0 0 setrgbcolor
newpath
36026 47584 moveto
P$e
35700 47033 moveto
P$f
fill
0 setlinewidth
[] 0 setdash
0 0 0 setrgbcolor
newpath
36737 47345 moveto
P$g
fill
0 setlinewidth
[] 0 setdash
0 0 0 setrgbcolor
newpath
37454 47145 moveto
P$3
37109 46975 moveto
P$4
fill
0 setlinewidth
[] 0 setdash
0 0 0 setrgbcolor
newpath
37959 47251 moveto
P$2
fill
0 setlinewidth
[] 0 setdash
0 0 0 setrgbcolor
newpath
38454 47145 moveto
P$3
38109 46975 moveto
P$h
fill
150 setlinewidth
0.66 0 0.21 setrgbcolor
newpath
25050 47809 moveto
14200 0 rlineto
stroke
100 setlinewidth
0.66 0 0.21 setrgbcolor
newpath
21904 4212 moveto
19453 6304 15266 9879 12810 11976 curveto
stroke
0 setlinewidth
[] 0 setdash
0 0 0 setrgbcolor
newpath
18335 8907 moveto
P$19
18439 8316 moveto
P$1a
fill
0 setlinewidth
[] 0 setdash
0 0 0 setrgbcolor
newpath
19496 8432 moveto
P$1b
19121 8247 moveto
P$1c
fill
0 setlinewidth
[] 0 setdash
0 0 0 setrgbcolor
newpath
19734 8649 moveto
P$1d
fill
0 setlinewidth
[] 0 setdash
0 0 0 setrgbcolor
newpath
20135 8649 moveto
P$1e
fill
0 setlinewidth
[] 0 setdash
0 0 0 setrgbcolor
newpath
21235 7851 moveto
P$1f
21235 8649 moveto
P$1g
fill
0 setlinewidth
[] 0 setdash
0 0 0 setrgbcolor
newpath
21785 8547 moveto
P$1h
fill
0 setlinewidth
[] 0 setdash
0 0 0 setrgbcolor
newpath
22396 8432 moveto
P$1b
22021 8247 moveto
P$1i
fill
100 setlinewidth
0.66 0 0.21 setrgbcolor
newpath
23850 4236 moveto
23850 6333 23850 9895 23850 11985 curveto
stroke
0 setlinewidth
[] 0 setdash
0 0 0 setrgbcolor
newpath
24035 8907 moveto
P$19
24139 8316 moveto
P$1a
fill
0 setlinewidth
[] 0 setdash
0 0 0 setrgbcolor
newpath
25196 8432 moveto
P$1b
24821 8247 moveto
P$1c
fill
0 setlinewidth
[] 0 setdash
0 0 0 setrgbcolor
newpath
25434 8649 moveto
P$1d
fill
0 setlinewidth
[] 0 setdash
0 0 0 setrgbcolor
newpath
25835 8649 moveto
P$1e
fill
0 setlinewidth
[] 0 setdash
0 0 0 setrgbcolor
newpath
26935 7851 moveto
P$1f
26935 8649 moveto
P$1g
fill
0 setlinewidth
[] 0 setdash
0 0 0 setrgbcolor
newpath
27485 8547 moveto
P$1h
fill
0 setlinewidth
[] 0 setdash
0 0 0 setrgbcolor
newpath
28096 8432 moveto
P$1b
27721 8247 moveto
P$1i
fill
100 setlinewidth
0.66 0 0.21 setrgbcolor
newpath
25990 4212 moveto
28687 6304 33292 9879 35995 11976 curveto
stroke
0 setlinewidth
[] 0 setdash
0 0 0 setrgbcolor
newpath
32135 8907 moveto
P$19
32239 8316 moveto
P$1a
fill
0 setlinewidth
[] 0 setdash
0 0 0 setrgbcolor
newpath
33296 8432 moveto
P$1b
32921 8247 moveto
P$1c
fill
0 setlinewidth
[] 0 setdash
0 0 0 setrgbcolor
newpath
33534 8649 moveto
P$1d
fill
0 setlinewidth
[] 0 setdash
0 0 0 setrgbcolor
newpath
33935 8649 moveto
P$1e
fill
0 setlinewidth
[] 0 setdash
0 0 0 setrgbcolor
newpath
35035 7851 moveto
P$1f
35035 8649 moveto
P$1g
fill
0 setlinewidth
[] 0 setdash
0 0 0 setrgbcolor
newpath
35585 8547 moveto
P$1h
fill
0 setlinewidth
[] 0 setdash
0 0 0 setrgbcolor
newpath
36196 8432 moveto
P$1b
35821 8247 moveto
P$1i
fill
100 setlinewidth
0.66 0 0.21 setrgbcolor
newpath
13843 15513 moveto
15297 16357 17051 17429 18550 18500 curveto
20650 20000 22896 21922 24416 23276 curveto
stroke
0 setlinewidth
[] 0 setdash
0 0 0 setrgbcolor
newpath
20848 19949 moveto
P$1j
21117 19566 moveto
P$1k
fill
0 setlinewidth
[] 0 setdash
0 0 0 setrgbcolor
newpath
22485 19847 moveto
P$1h
fill
0 setlinewidth
[] 0 setdash
0 0 0 setrgbcolor
newpath
22634 19949 moveto
P$1l
23475 19866 moveto
P$1m
23465 19610 moveto
P$1n
fill
0 setlinewidth
[] 0 setdash
0 0 0 setrgbcolor
newpath
23923 19949 moveto
P$1o
24696 19732 moveto
P$1b
24321 19547 moveto
P$1i
24445 19191 moveto
P$1p
fill
0 setlinewidth
[] 0 setdash
0 0 0 setrgbcolor
newpath
24890 19747 moveto
P$1q
fill
0 setlinewidth
[] 0 setdash
0 0 0 setrgbcolor
newpath
26473 19949 moveto
P$1r
26112 19613 moveto
P$1s
fill
0 setlinewidth
[] 0 setdash
0 0 0 setrgbcolor
newpath
27196 19732 moveto
P$1b
26821 19547 moveto
P$1i
fill
100 setlinewidth
0.66 0 0.21 setrgbcolor
newpath
38150 15536 moveto
38150 17633 38150 21195 38150 23285 curveto
stroke
0 setlinewidth
[] 0 setdash
0 0 0 setrgbcolor
newpath
38248 19949 moveto
P$1j
38517 19566 moveto
P$1k
fill
0 setlinewidth
[] 0 setdash
0 0 0 setrgbcolor
newpath
39885 19847 moveto
P$1h
fill
0 setlinewidth
[] 0 setdash
0 0 0 setrgbcolor
newpath
40034 19949 moveto
P$1l
40875 19866 moveto
P$1m
40865 19610 moveto
P$1n
fill
0 setlinewidth
[] 0 setdash
0 0 0 setrgbcolor
newpath
41323 19949 moveto
P$1o
42096 19732 moveto
P$1b
41721 19547 moveto
P$1i
41845 19191 moveto
P$1p
fill
0 setlinewidth
[] 0 setdash
0 0 0 setrgbcolor
newpath
42290 19747 moveto
P$1q
fill
0 setlinewidth
[] 0 setdash
0 0 0 setrgbcolor
newpath
43873 19949 moveto
P$1r
43512 19613 moveto
P$1s
fill
0 setlinewidth
[] 0 setdash
0 0 0 setrgbcolor
newpath
44596 19732 moveto
P$1b
44221 19547 moveto
P$1i
fill
100 setlinewidth
0.66 0 0.21 setrgbcolor
newpath
37239 26836 moveto
36104 28934 34179 32496 33050 34585 curveto
stroke
0 setlinewidth
[] 0 setdash
0 0 0 setrgbcolor
newpath
36073 31249 moveto
P$1r
35712 30913 moveto
P$1s
fill
0 setlinewidth
[] 0 setdash
0 0 0 setrgbcolor
newpath
36796 31032 moveto
P$1b
36421 30847 moveto
P$1i
fill
100 setlinewidth
0.66 0 0.21 setrgbcolor
newpath
25973 26805 moveto
25826 28164 25805 30105 26550 31600 curveto
27152 32810 28230 33821 29280 34588 curveto
stroke
0 setlinewidth
[] 0 setdash
0 0 0 setrgbcolor
newpath
26746 31249 moveto
P$1t
fill
0 setlinewidth
[] 0 setdash
0 0 0 setrgbcolor
newpath
27793 30912 moveto
P$1u
27910 30912 moveto
P$1v
fill
0 setlinewidth
[] 0 setdash
0 0 0 setrgbcolor
newpath
28973 31249 moveto
P$1r
28612 30913 moveto
P$1s
fill
0 setlinewidth
[] 0 setdash
0 0 0 setrgbcolor
newpath
29235 30451 moveto
P$1f
29235 31249 moveto
P$1g
fill
0 setlinewidth
[] 0 setdash
0 0 0 setrgbcolor
newpath
29562 31249 moveto
P$1w
29835 30451 moveto
P$1f
29835 31249 moveto
P$1g
fill
0 setlinewidth
[] 0 setdash
0 0 0 setrgbcolor
newpath
30575 31002 moveto
P$1x
fill
0 setlinewidth
[] 0 setdash
0 0 0 setrgbcolor
newpath
31275 31166 moveto
P$1m
31265 30910 moveto
P$1n
fill
0 setlinewidth
[] 0 setdash
0 0 0 setrgbcolor
newpath
31535 31249 moveto
P$1y
fill
0 setlinewidth
[] 0 setdash
0 0 0 setrgbcolor
newpath
32673 31249 moveto
P$1r
32312 30913 moveto
P$1s
fill
0 setlinewidth
[] 0 setdash
0 0 0 setrgbcolor
newpath
32893 30912 moveto
P$1u
33010 30912 moveto
P$1z
fill
100 setlinewidth
0.66 0 0.21 setrgbcolor
newpath
10501 15536 moveto
10066 17633 9328 21195 8895 23285 curveto
stroke
0 setlinewidth
[] 0 setdash
0 0 0 setrgbcolor
newpath
10012 19496 moveto
P$20
10139 19497 moveto
P$21
fill
0 setlinewidth
[] 0 setdash
0 0 0 setrgbcolor
newpath
11875 19866 moveto
P$1m
11865 19610 moveto
P$1n
fill
0 setlinewidth
[] 0 setdash
0 0 0 setrgbcolor
newpath
12785 19847 moveto
P$1h
fill
0 setlinewidth
[] 0 setdash
0 0 0 setrgbcolor
newpath
12934 19949 moveto
P$1l
13775 19866 moveto
P$1m
13765 19610 moveto
P$1n
fill
0 setlinewidth
[] 0 setdash
0 0 0 setrgbcolor
newpath
14223 19949 moveto
P$1o
14996 19732 moveto
P$1b
14621 19547 moveto
P$1i
14745 19191 moveto
P$1p
fill
0 setlinewidth
[] 0 setdash
0 0 0 setrgbcolor
newpath
15190 19747 moveto
P$1q
fill
0 setlinewidth
[] 0 setdash
0 0 0 setrgbcolor
newpath
16773 19949 moveto
P$1r
16412 19613 moveto
P$1s
fill
0 setlinewidth
[] 0 setdash
0 0 0 setrgbcolor
newpath
17496 19732 moveto
P$1b
17121 19547 moveto
P$1i
fill
100 setlinewidth
0.66 0 0.21 setrgbcolor
newpath
32150 38136 moveto
32150 40234 32150 43796 32150 45885 curveto
stroke
0 setlinewidth
[] 0 setdash
0 0 0 setrgbcolor
newpath
32356 42549 moveto
P$22
fill
0 setlinewidth
[] 0 setdash
0 0 0 setrgbcolor
newpath
33093 42212 moveto
P$1u
33210 42212 moveto
P$1v
fill
0 setlinewidth
[] 0 setdash
0 0 0 setrgbcolor
newpath
33834 42549 moveto
P$1d
fill
0 setlinewidth
[] 0 setdash
0 0 0 setrgbcolor
newpath
34235 42549 moveto
P$1e
fill
0 setlinewidth
[] 0 setdash
0 0 0 setrgbcolor
newpath
35775 42466 moveto
P$1m
35765 42210 moveto
P$1n
fill
0 setlinewidth
[] 0 setdash
0 0 0 setrgbcolor
newpath
36473 42549 moveto
P$1r
36112 42213 moveto
P$1s
fill
0 setlinewidth
[] 0 setdash
0 0 0 setrgbcolor
newpath
36693 42212 moveto
P$1u
36810 42212 moveto
P$1v
fill
0 setlinewidth
[] 0 setdash
0 0 0 setrgbcolor
newpath
37835 42807 moveto
P$19
37939 42216 moveto
P$1a
fill
0 setlinewidth
[] 0 setdash
0 0 0 setrgbcolor
newpath
38493 42212 moveto
P$1u
38610 42212 moveto
P$1v
fill
0 setlinewidth
[] 0 setdash
0 0 0 setrgbcolor
newpath
39234 42549 moveto
P$1l
fill
grestore
showpage
%plantuml done
%%EOF
