%!PS-Adobe-3.0 EPSF-3.0
%%Creator: PlantUML v1.2021.7       
%%Title: noTitle
%%BoundingBox: 0 0 637 418
%%ColorUsage: Color
%%Origin: 0 0
%%EndComments

gsave
0 418 translate
.01 -.01 scale
/simplerect {
newpath moveto 1 index 0 rlineto
0 exch rlineto
neg 0 rlineto
} def
/roundrect {
newpath
dup 3 index add 2 index 2 index add 2 index 180 270 arc
2 index 5 index add 1 index sub 2 index 2 index add 2 index 270 0 arc
2 index 5 index add 1 index sub 2 index 5 index add 2 index sub 2 index 0 90 arc
dup 3 index add 2 index 5 index add 2 index sub 2 index 90 180 arc
pop pop pop pop pop 
} def
/rquadto {
3 index 3 index 4 2 roll rcurveto
} def
/P$w {
0 -85 rlineto
-31 46 -82 73 rquadto
-50 25 -106 25 rquadto
-57 0 -103 -25 rquadto
-45 -25 -67 -70 rquadto
-20 -46 -20 -126 rquadto
0 -360 rlineto
151 0 rlineto
0 262 rlineto
0 120 7 146 rquadto
9 26 31 43 rquadto
21 15 56 15 rquadto
37 0 68 -20 rquadto
31 -21 42 -53 rquadto
10 -32 10 -154 rquadto
0 -240 rlineto
151 0 rlineto
0 570 rlineto
-140 0 rlineto
} def
/P$x {
-137 -25 rlineto
23 -81 79 -120 rquadto
56 -40 167 -40 rquadto
101 0 150 23 rquadto
50 23 70 60 rquadto
20 35 20 134 rquadto
-1 176 rlineto
0 75 6 110 rquadto
7 35 28 76 rquadto
-150 0 rlineto
-6 -15 -14 -45 rquadto
-3 -12 -4 -17 rquadto
-39 37 -84 56 rquadto
-43 18 -93 18 rquadto
-87 0 -139 -46 rquadto
-50 -48 -50 -121 rquadto
0 -48 23 -85 rquadto
23 -37 64 -57 rquadto
42 -20 120 -35 rquadto
106 -18 146 -35 rquadto
0 -15 rlineto
0 -43 -21 -60 rquadto
-21 -18 -81 -18 rquadto
-39 0 -62 15 rquadto
-21 15 -35 54 rquadto
closepath
} def
/P$18 {
0 120 rlineto
-103 0 rlineto
0 229 rlineto
0 70 3 82 rquadto
3 10 12 18 rquadto
10 6 26 6 rquadto
20 0 60 -14 rquadto
12 117 rlineto
-53 21 -118 21 rquadto
-42 0 -75 -12 rquadto
-32 -14 -48 -35 rquadto
-14 -21 -20 -59 rquadto
-4 -26 -4 -106 rquadto
0 -248 rlineto
-68 0 rlineto
0 -120 rlineto
68 0 rlineto
0 -114 rlineto
151 -87 rlineto
0 201 rlineto
103 0 rlineto
} def
/P$j {
0 -1001 rlineto
123 0 rlineto
0 1001 rlineto
-123 0 rlineto
} def
/P$13 {
0 85 40 131 rquadto
40 45 100 45 rquadto
57 0 98 -45 rquadto
40 -45 40 -131 rquadto
0 -84 -40 -129 rquadto
-40 -45 -98 -45 rquadto
-59 0 -100 45 rquadto
-40 45 -40 129 rquadto
} def
/P$1o {
0 -98 rlineto
-79 114 -214 114 rquadto
-59 0 -112 -23 rquadto
-51 -23 -76 -57 rquadto
-25 -34 -34 -84 rquadto
-7 -32 -7 -106 rquadto
0 -417 rlineto
114 0 rlineto
0 373 rlineto
0 89 7 120 rquadto
10 45 45 71 rquadto
34 25 85 25 rquadto
51 0 96 -26 rquadto
45 -26 64 -71 rquadto
18 -45 18 -131 rquadto
0 -360 rlineto
114 0 rlineto
0 673 rlineto
-101 0 rlineto
} def
/P$23 {
240 0 rlineto
118 0 168 -43 rquadto
51 -45 51 -126 rquadto
0 -57 -29 -98 rquadto
-29 -42 -78 -56 rquadto
-31 -7 -115 -7 rquadto
-237 0 rlineto
0 332 rlineto
} def
/P$o {
0 -89 43 -171 rquadto
43 -82 123 -126 rquadto
81 -43 181 -43 rquadto
151 0 250 100 rquadto
98 98 98 250 rquadto
0 153 -100 254 rquadto
-98 100 -248 100 rquadto
-92 0 -176 -42 rquadto
-84 -42 -128 -121 rquadto
-43 -81 -43 -198 rquadto
closepath
} def
/P$16 {
-1 -65 -34 -98 rquadto
-31 -34 -76 -34 rquadto
-50 0 -82 35 rquadto
-31 35 -31 96 rquadto
225 0 rlineto
} def
/P$17 {
-148 26 rlineto
-7 -43 -34 -65 rquadto
-26 -23 -68 -23 rquadto
-56 0 -90 39 rquadto
-32 37 -32 129 rquadto
0 101 32 143 rquadto
34 42 92 42 rquadto
43 0 70 -25 rquadto
28 -25 39 -84 rquadto
148 25 rlineto
-23 103 -89 154 rquadto
-65 51 -175 51 rquadto
-126 0 -201 -78 rquadto
-73 -79 -73 -218 rquadto
0 -142 75 -220 rquadto
75 -78 201 -78 rquadto
104 0 165 45 rquadto
62 43 89 135 rquadto
} def
/P$s {
0 142 rlineto
-121 0 rlineto
0 270 rlineto
0 82 3 96 rquadto
3 14 15 23 rquadto
12 7 29 7 rquadto
25 0 71 -17 rquadto
15 139 rlineto
-62 26 -140 26 rquadto
-48 0 -87 -15 rquadto
-39 -17 -57 -42 rquadto
-17 -26 -23 -70 rquadto
-6 -31 -6 -125 rquadto
0 -293 rlineto
-81 0 rlineto
0 -142 rlineto
81 0 rlineto
0 -134 rlineto
179 -104 rlineto
0 239 rlineto
121 0 rlineto
closepath
} def
/P$8 {
0 -201 112 -300 rquadto
92 -79 228 -79 rquadto
148 0 243 98 rquadto
95 96 95 270 rquadto
0 140 -42 221 rquadto
-42 79 -123 125 rquadto
-79 43 -173 43 rquadto
-153 0 -246 -98 rquadto
-93 -98 -93 -281 rquadto
closepath
} def
/P$r {
0 114 45 168 rquadto
45 53 110 53 rquadto
60 0 101 -50 rquadto
42 -50 42 -162 rquadto
0 -106 -42 -157 rquadto
-42 -51 -104 -51 rquadto
-65 0 -109 51 rquadto
-43 50 -43 148 rquadto
} def
/P$1r {
112 -17 rlineto
9 67 53 104 rquadto
43 35 121 35 rquadto
78 0 115 -31 rquadto
39 -32 39 -76 rquadto
0 -39 -34 -60 rquadto
-23 -15 -117 -39 rquadto
-125 -31 -173 -54 rquadto
-48 -23 -73 -64 rquadto
-25 -40 -25 -90 rquadto
0 -45 20 -82 rquadto
20 -39 56 -64 rquadto
26 -20 71 -32 rquadto
46 -14 100 -14 rquadto
78 0 137 23 rquadto
60 21 89 60 rquadto
29 39 40 104 rquadto
-112 15 rlineto
-7 -53 -43 -81 rquadto
-35 -29 -103 -29 rquadto
-78 0 -112 26 rquadto
-34 25 -34 60 rquadto
0 21 14 39 rquadto
14 18 43 31 rquadto
17 6 101 28 rquadto
121 32 168 53 rquadto
48 20 75 60 rquadto
28 39 28 96 rquadto
0 57 -34 107 rquadto
-32 50 -95 78 rquadto
-62 28 -142 28 rquadto
-131 0 -200 -54 rquadto
-68 -54 -87 -162 rquadto
} def
/P$1h {
0 -132 rlineto
114 0 rlineto
0 132 rlineto
-114 0 rlineto
closepath
} def
/P$29 {
0 -931 rlineto
320 0 rlineto
109 0 165 14 rquadto
81 18 137 67 rquadto
73 60 109 157 rquadto
37 96 37 221 rquadto
0 106 -25 189 rquadto
-25 81 -64 134 rquadto
-39 53 -85 84 rquadto
-45 31 -110 46 rquadto
-64 15 -148 15 rquadto
-335 0 rlineto
closepath
} def
/P$2 {
0 -106 rlineto
-85 123 -231 123 rquadto
-64 0 -120 -25 rquadto
-54 -25 -82 -62 rquadto
-26 -37 -37 -90 rquadto
-7 -35 -7 -115 rquadto
0 -450 rlineto
123 0 rlineto
0 403 rlineto
0 96 7 129 rquadto
10 48 48 76 rquadto
37 28 93 28 rquadto
54 0 103 -28 rquadto
48 -29 68 -78 rquadto
20 -48 20 -142 rquadto
0 -389 rlineto
123 0 rlineto
0 726 rlineto
-109 0 rlineto
} def
/P$15 {
150 25 rlineto
-28 82 -90 126 rquadto
-62 42 -157 42 rquadto
-148 0 -220 -96 rquadto
-56 -78 -56 -196 rquadto
0 -142 73 -221 rquadto
75 -79 189 -79 rquadto
126 0 200 84 rquadto
73 82 70 256 rquadto
-378 0 rlineto
1 67 35 104 rquadto
35 37 87 37 rquadto
35 0 59 -18 rquadto
25 -20 37 -62 rquadto
closepath
} def
/P$22 {
0 -931 rlineto
351 0 rlineto
92 0 140 9 rquadto
68 10 115 43 rquadto
46 31 75 89 rquadto
28 57 28 128 rquadto
0 118 -76 201 rquadto
-75 81 -271 81 rquadto
-239 0 rlineto
0 378 rlineto
-123 0 rlineto
closepath
} def
/P$27 {
84 -178 rlineto
150 0 rlineto
-139 178 rlineto
-95 0 rlineto
} def
/P$12 {
0 -75 37 -145 rquadto
37 -70 104 -106 rquadto
68 -37 151 -37 rquadto
129 0 212 84 rquadto
82 82 82 210 rquadto
0 129 -84 215 rquadto
-82 84 -209 84 rquadto
-78 0 -150 -34 rquadto
-70 -35 -107 -104 rquadto
-37 -68 -37 -167 rquadto
closepath
} def
/P$7 {
0 -726 rlineto
121 0 rlineto
0 726 rlineto
-121 0 rlineto
} def
/P$1s {
-106 0 rlineto
0 -931 rlineto
115 0 rlineto
0 332 rlineto
71 -90 184 -90 rquadto
62 0 117 25 rquadto
56 25 92 70 rquadto
35 45 56 109 rquadto
20 64 20 137 rquadto
0 173 -85 268 rquadto
-85 93 -206 93 rquadto
-118 0 -187 -100 rquadto
0 84 rlineto
closepath
} def
/P$u {
157 0 rlineto
0 426 rlineto
0 101 6 131 rquadto
10 48 48 78 rquadto
39 29 104 29 rquadto
68 0 103 -28 rquadto
34 -28 40 -67 rquadto
7 -40 7 -134 rquadto
0 -435 rlineto
157 0 rlineto
0 414 rlineto
0 140 -12 200 rquadto
-12 57 -46 98 rquadto
-34 40 -93 65 rquadto
-57 23 -151 23 rquadto
-112 0 -170 -26 rquadto
-57 -26 -92 -67 rquadto
-34 -42 -43 -87 rquadto
-15 -68 -15 -200 rquadto
0 -420 rlineto
} def
/P$1f {
0 129 56 195 rquadto
56 64 142 64 rquadto
84 0 140 -64 rquadto
57 -65 57 -198 rquadto
0 -125 -57 -189 rquadto
-56 -65 -140 -65 rquadto
-85 0 -142 64 rquadto
-56 64 -56 193 rquadto
} def
/P$25 {
0 -585 rlineto
-100 0 rlineto
0 -87 rlineto
100 0 rlineto
0 -71 rlineto
0 -68 12 -101 rquadto
17 -43 57 -71 rquadto
42 -28 117 -28 rquadto
48 0 106 12 rquadto
-17 98 rlineto
-35 -6 -67 -6 rquadto
-51 0 -73 23 rquadto
-21 21 -21 82 rquadto
0 62 rlineto
131 0 rlineto
0 87 rlineto
-131 0 rlineto
0 585 rlineto
-114 0 rlineto
closepath
} def
/P$1b {
0 90 25 131 rquadto
35 59 101 59 rquadto
51 0 87 -43 rquadto
37 -45 37 -132 rquadto
0 -98 -35 -140 rquadto
-34 -43 -90 -43 rquadto
-53 0 -89 42 rquadto
-35 42 -35 128 rquadto
} def
/P$1w {
376 0 rlineto
-7 -85 -43 -128 rquadto
-54 -65 -140 -65 rquadto
-79 0 -132 53 rquadto
-53 51 -59 140 rquadto
closepath
} def
/P$20 {
0 129 53 192 rquadto
53 62 126 62 rquadto
76 0 131 -64 rquadto
54 -65 54 -200 rquadto
0 -129 -53 -193 rquadto
-53 -64 -126 -64 rquadto
-73 0 -129 68 rquadto
-56 67 -56 198 rquadto
} def
/P$21 {
376 0 rlineto
-7 -85 -43 -128 rquadto
-54 -65 -140 -65 rquadto
-79 0 -132 53 rquadto
-53 51 -59 140 rquadto
} def
/P$1g {
0 -931 rlineto
114 0 rlineto
0 931 rlineto
-114 0 rlineto
} def
/P$24 {
0 129 56 195 rquadto
56 64 142 64 rquadto
84 0 140 -64 rquadto
57 -65 57 -198 rquadto
0 -125 -57 -189 rquadto
-56 -65 -140 -65 rquadto
-85 0 -142 64 rquadto
-56 64 -56 193 rquadto
closepath
} def
/P$1x {
0 -673 rlineto
103 0 rlineto
0 95 rlineto
73 -110 214 -110 rquadto
60 0 110 21 rquadto
51 21 76 57 rquadto
26 34 35 84 rquadto
6 31 6 110 rquadto
0 414 rlineto
-114 0 rlineto
0 -409 rlineto
0 -70 -14 -104 rquadto
-12 -34 -46 -54 rquadto
-32 -21 -78 -21 rquadto
-73 0 -126 46 rquadto
-53 45 -53 175 rquadto
0 368 rlineto
-114 0 rlineto
} def
/P$1n {
-14 -106 rlineto
37 9 65 9 rquadto
39 0 60 -12 rquadto
23 -12 37 -35 rquadto
10 -17 35 -84 rquadto
3 -9 9 -28 rquadto
-256 -675 rlineto
123 0 rlineto
140 389 rlineto
26 75 48 156 rquadto
20 -78 46 -153 rquadto
145 -392 rlineto
114 0 rlineto
-256 684 rlineto
-42 110 -64 153 rquadto
-31 56 -70 82 rquadto
-39 26 -93 26 rquadto
-32 0 -73 -14 rquadto
} def
/P$c {
17 107 rlineto
-51 10 -92 10 rquadto
-67 0 -104 -20 rquadto
-35 -21 -51 -56 rquadto
-14 -34 -14 -145 rquadto
0 -417 rlineto
-90 0 rlineto
0 -96 rlineto
90 0 rlineto
0 -179 rlineto
121 -73 rlineto
0 253 rlineto
123 0 rlineto
0 96 rlineto
-123 0 rlineto
0 423 rlineto
0 53 6 68 rquadto
6 14 20 23 rquadto
15 9 42 9 rquadto
21 0 54 -4 rquadto
} def
/P$4 {
-67 26 -201 46 rquadto
-75 10 -107 25 rquadto
-31 12 -48 39 rquadto
-17 26 -17 57 rquadto
0 50 37 82 rquadto
37 32 109 32 rquadto
71 0 126 -31 rquadto
54 -31 81 -85 rquadto
20 -40 20 -121 rquadto
0 -45 rlineto
} def
/P$1c {
0 1009 rlineto
-267 0 rlineto
0 -118 rlineto
123 0 rlineto
0 -773 rlineto
-123 0 rlineto
0 -117 rlineto
267 0 rlineto
closepath
} def
/P$n {
0 -1001 rlineto
198 0 rlineto
237 709 rlineto
32 98 48 148 rquadto
17 -54 53 -160 rquadto
239 -696 rlineto
179 0 rlineto
0 1001 rlineto
-128 0 rlineto
0 -839 rlineto
-292 839 rlineto
-118 0 rlineto
-290 -853 rlineto
0 853 rlineto
-126 0 rlineto
} def
/P$a {
0 -1001 rlineto
131 0 rlineto
0 1001 rlineto
-131 0 rlineto
} def
/P$1p {
0 -84 rlineto
-64 100 -189 100 rquadto
-79 0 -148 -43 rquadto
-67 -45 -104 -125 rquadto
-37 -79 -37 -182 rquadto
0 -101 34 -182 rquadto
34 -82 101 -126 rquadto
67 -43 150 -43 rquadto
60 0 107 26 rquadto
48 25 78 65 rquadto
0 -334 rlineto
114 0 rlineto
0 931 rlineto
-106 0 rlineto
closepath
} def
/P$14 {
-151 0 rlineto
0 -290 rlineto
0 -92 -9 -118 rquadto
-9 -28 -31 -42 rquadto
-21 -15 -53 -15 rquadto
-39 0 -70 21 rquadto
-31 20 -43 56 rquadto
-10 34 -10 131 rquadto
0 257 rlineto
-150 0 rlineto
0 -570 rlineto
140 0 rlineto
0 84 rlineto
73 -96 187 -96 rquadto
50 0 90 18 rquadto
42 17 62 45 rquadto
21 26 29 62 rquadto
9 35 9 101 rquadto
0 354 rlineto
} def
/P$9 {
0 139 60 209 rquadto
60 68 153 68 rquadto
90 0 151 -70 rquadto
60 -70 60 -212 rquadto
0 -134 -60 -203 rquadto
-60 -70 -151 -70 rquadto
-92 0 -153 68 rquadto
-60 68 -60 209 rquadto
closepath
} def
/P$1z {
0 -931 rlineto
103 0 rlineto
0 87 rlineto
37 -51 82 -76 rquadto
46 -26 114 -26 rquadto
85 0 151 45 rquadto
65 43 98 125 rquadto
34 79 34 176 rquadto
0 103 -37 185 rquadto
-35 82 -107 128 rquadto
-70 43 -148 43 rquadto
-56 0 -101 -23 rquadto
-45 -25 -75 -62 rquadto
0 328 rlineto
-114 0 rlineto
closepath
} def
/P$l {
0 139 57 209 rquadto
59 68 139 68 rquadto
81 0 137 -65 rquadto
56 -67 56 -201 rquadto
0 -150 -57 -218 rquadto
-57 -70 -140 -70 rquadto
-82 0 -137 67 rquadto
-54 67 -54 210 rquadto
} def
/P$1 {
120 -18 rlineto
10 73 57 112 rquadto
46 39 131 39 rquadto
84 0 125 -34 rquadto
42 -34 42 -81 rquadto
0 -42 -37 -65 rquadto
-25 -17 -125 -42 rquadto
-135 -34 -189 -59 rquadto
-51 -25 -78 -68 rquadto
-26 -43 -26 -96 rquadto
0 -48 21 -89 rquadto
21 -42 60 -70 rquadto
28 -20 76 -34 rquadto
50 -15 107 -15 rquadto
84 0 148 25 rquadto
65 23 96 65 rquadto
31 42 42 112 rquadto
-120 17 rlineto
-7 -56 -48 -87 rquadto
-39 -31 -110 -31 rquadto
-84 0 -120 28 rquadto
-35 26 -35 65 rquadto
0 23 14 42 rquadto
15 20 48 32 rquadto
17 6 107 31 rquadto
131 35 182 57 rquadto
51 21 79 64 rquadto
29 42 29 104 rquadto
0 62 -35 117 rquadto
-34 53 -103 84 rquadto
-67 29 -153 29 rquadto
-140 0 -215 -59 rquadto
-73 -59 -93 -175 rquadto
} def
/P$1e {
0 -187 103 -276 rquadto
87 -75 212 -75 rquadto
139 0 226 90 rquadto
89 90 89 251 rquadto
0 129 -39 204 rquadto
-39 75 -114 117 rquadto
-75 40 -162 40 rquadto
-142 0 -229 -90 rquadto
-85 -90 -85 -262 rquadto
closepath
} def
/P$e {
404 0 rlineto
-7 -92 -46 -137 rquadto
-57 -70 -151 -70 rquadto
-85 0 -143 56 rquadto
-56 56 -62 151 rquadto
} def
/P$26 {
0 -673 rlineto
103 0 rlineto
0 101 rlineto
39 -71 71 -93 rquadto
34 -23 73 -23 rquadto
57 0 117 35 rquadto
-39 106 rlineto
-42 -25 -82 -25 rquadto
-37 0 -68 23 rquadto
-29 21 -42 62 rquadto
-18 60 -18 132 rquadto
0 353 rlineto
-114 0 rlineto
} def
/P$5 {
0 -726 rlineto
110 0 rlineto
0 110 rlineto
42 -78 78 -101 rquadto
35 -25 79 -25 rquadto
62 0 126 39 rquadto
-42 114 rlineto
-45 -26 -90 -26 rquadto
-40 0 -73 25 rquadto
-31 23 -45 67 rquadto
-20 65 -20 143 rquadto
0 379 rlineto
-123 0 rlineto
} def
/P$f {
0 -629 rlineto
-109 0 rlineto
0 -96 rlineto
109 0 rlineto
0 -76 rlineto
0 -73 12 -109 rquadto
18 -46 62 -76 rquadto
45 -29 126 -29 rquadto
51 0 114 12 rquadto
-18 106 rlineto
-37 -6 -71 -6 rquadto
-56 0 -79 23 rquadto
-23 23 -23 89 rquadto
0 67 rlineto
142 0 rlineto
0 96 rlineto
-142 0 rlineto
0 629 rlineto
-121 0 rlineto
} def
/P$19 {
160 0 rlineto
135 404 rlineto
132 -404 rlineto
156 0 rlineto
-201 548 rlineto
-35 100 rlineto
-18 50 -37 76 rquadto
-17 26 -40 42 rquadto
-23 15 -57 25 rquadto
-34 9 -78 9 rquadto
-42 0 -84 -9 rquadto
-14 -117 rlineto
35 6 64 6 rquadto
53 0 78 -31 rquadto
25 -29 39 -78 rquadto
-217 -571 rlineto
} def
/P$28 {
0 -673 rlineto
103 0 rlineto
0 95 rlineto
73 -110 214 -110 rquadto
60 0 110 21 rquadto
51 21 76 57 rquadto
26 34 35 84 rquadto
6 31 6 110 rquadto
0 414 rlineto
-114 0 rlineto
0 -409 rlineto
0 -70 -14 -104 rquadto
-12 -34 -46 -54 rquadto
-32 -21 -78 -21 rquadto
-73 0 -126 46 rquadto
-53 45 -53 175 rquadto
0 368 rlineto
-114 0 rlineto
closepath
} def
/P$k {
0 -92 rlineto
-70 109 -203 109 rquadto
-87 0 -160 -48 rquadto
-71 -48 -112 -134 rquadto
-39 -85 -39 -196 rquadto
0 -107 35 -196 rquadto
35 -89 107 -135 rquadto
73 -46 162 -46 rquadto
65 0 117 28 rquadto
51 26 82 71 rquadto
0 -359 rlineto
123 0 rlineto
0 1001 rlineto
-114 0 rlineto
closepath
} def
/P$1d {
117 -10 rlineto
7 70 37 115 rquadto
31 43 93 71 rquadto
64 26 143 26 rquadto
70 0 123 -20 rquadto
54 -20 81 -56 rquadto
26 -37 26 -81 rquadto
0 -43 -26 -76 rquadto
-25 -32 -82 -54 rquadto
-37 -14 -165 -45 rquadto
-128 -31 -179 -57 rquadto
-67 -34 -100 -85 rquadto
-32 -53 -32 -117 rquadto
0 -70 39 -131 rquadto
40 -60 117 -92 rquadto
78 -32 171 -32 rquadto
103 0 181 34 rquadto
79 32 121 98 rquadto
43 64 46 145 rquadto
-118 9 rlineto
-9 -89 -64 -132 rquadto
-54 -45 -162 -45 rquadto
-110 0 -162 40 rquadto
-51 40 -51 98 rquadto
0 50 35 82 rquadto
35 32 185 67 rquadto
150 32 206 57 rquadto
81 37 118 95 rquadto
39 57 39 132 rquadto
0 73 -42 139 rquadto
-42 65 -121 103 rquadto
-79 35 -179 35 rquadto
-126 0 -212 -35 rquadto
-84 -37 -132 -110 rquadto
-48 -75 -51 -167 rquadto
} def
/P$1l {
-62 53 -121 76 rquadto
-57 21 -125 21 rquadto
-112 0 -171 -54 rquadto
-59 -54 -59 -139 rquadto
0 -48 21 -89 rquadto
23 -42 59 -67 rquadto
37 -25 82 -37 rquadto
32 -7 101 -17 rquadto
137 -15 203 -39 rquadto
1 -23 1 -29 rquadto
0 -70 -32 -98 rquadto
-43 -39 -129 -39 rquadto
-81 0 -120 28 rquadto
-37 28 -56 100 rquadto
-110 -14 rlineto
14 -71 48 -115 rquadto
35 -45 101 -68 rquadto
67 -23 153 -23 rquadto
87 0 140 20 rquadto
54 20 79 51 rquadto
25 29 35 76 rquadto
4 29 4 106 rquadto
0 151 rlineto
0 159 7 201 rquadto
7 42 28 81 rquadto
-118 0 rlineto
-17 -35 -23 -82 rquadto
closepath
} def
/P$1a {
-139 0 rlineto
0 -84 rlineto
-35 50 -84 73 rquadto
-46 23 -93 23 rquadto
-98 0 -168 -78 rquadto
-70 -79 -70 -221 rquadto
0 -145 67 -220 rquadto
68 -75 173 -75 rquadto
95 0 165 79 rquadto
0 -284 rlineto
150 0 rlineto
0 787 rlineto
closepath
} def
/P$2b {
-256 -673 rlineto
120 0 rlineto
143 403 rlineto
23 65 43 135 rquadto
15 -53 42 -128 rquadto
150 -410 rlineto
117 0 rlineto
-254 673 rlineto
-106 0 rlineto
closepath
} def
/P$1m {
-62 26 -185 43 rquadto
-70 10 -100 23 rquadto
-29 12 -45 37 rquadto
-15 23 -15 53 rquadto
0 45 34 76 rquadto
34 29 101 29 rquadto
65 0 117 -28 rquadto
51 -29 76 -79 rquadto
17 -37 17 -114 rquadto
0 -42 rlineto
} def
/P$1j {
112 14 rlineto
-17 117 -93 182 rquadto
-76 65 -185 65 rquadto
-139 0 -223 -90 rquadto
-82 -90 -82 -259 rquadto
0 -109 35 -190 rquadto
35 -82 109 -123 rquadto
73 -40 160 -40 rquadto
109 0 179 56 rquadto
70 54 89 156 rquadto
-110 17 rlineto
-15 -67 -56 -101 rquadto
-39 -34 -96 -34 rquadto
-85 0 -140 62 rquadto
-53 60 -53 195 rquadto
0 135 51 198 rquadto
51 60 135 60 rquadto
67 0 112 -40 rquadto
45 -42 56 -128 rquadto
} def
/P$2a {
198 0 rlineto
92 0 143 -17 rquadto
53 -17 84 -48 rquadto
43 -43 67 -117 rquadto
25 -75 25 -179 rquadto
0 -146 -48 -225 rquadto
-46 -78 -115 -104 rquadto
-50 -18 -159 -18 rquadto
-195 0 rlineto
0 710 rlineto
} def
/P$b {
0 -726 rlineto
110 0 rlineto
0 103 rlineto
79 -118 231 -118 rquadto
65 0 120 23 rquadto
54 23 81 62 rquadto
28 37 39 90 rquadto
7 34 7 118 rquadto
0 446 rlineto
-123 0 rlineto
0 -442 rlineto
0 -75 -14 -110 rquadto
-14 -37 -51 -59 rquadto
-35 -23 -85 -23 rquadto
-78 0 -135 50 rquadto
-56 50 -56 189 rquadto
0 396 rlineto
-123 0 rlineto
} def
/P$1t {
0 121 34 175 rquadto
53 89 145 89 rquadto
75 0 129 -65 rquadto
54 -65 54 -193 rquadto
0 -132 -53 -195 rquadto
-51 -62 -126 -62 rquadto
-75 0 -129 65 rquadto
-54 64 -54 187 rquadto
} def
/P$1v {
118 14 rlineto
-28 104 -104 162 rquadto
-75 56 -192 56 rquadto
-148 0 -235 -90 rquadto
-85 -92 -85 -256 rquadto
0 -170 87 -264 rquadto
89 -93 228 -93 rquadto
135 0 220 92 rquadto
85 92 85 257 rquadto
0 10 0 31 rquadto
-503 0 rlineto
6 110 62 170 rquadto
56 59 140 59 rquadto
64 0 107 -32 rquadto
45 -34 70 -106 rquadto
closepath
} def
/P$1k {
15 100 rlineto
-48 10 -85 10 rquadto
-62 0 -96 -20 rquadto
-34 -20 -48 -51 rquadto
-14 -32 -14 -134 rquadto
0 -389 rlineto
-82 0 rlineto
0 -87 rlineto
82 0 rlineto
0 -167 rlineto
114 -68 rlineto
0 235 rlineto
115 0 rlineto
0 87 rlineto
-115 0 rlineto
0 395 rlineto
0 48 6 62 rquadto
6 14 18 21 rquadto
14 7 39 7 rquadto
20 0 51 -3 rquadto
} def
/P$p {
0 100 46 154 rquadto
48 53 118 53 rquadto
70 0 117 -53 rquadto
46 -54 46 -156 rquadto
0 -98 -46 -151 rquadto
-46 -53 -117 -53 rquadto
-70 0 -118 53 rquadto
-46 53 -46 153 rquadto
} def
/P$h {
132 34 rlineto
-42 162 -151 248 rquadto
-107 85 -264 85 rquadto
-162 0 -264 -65 rquadto
-101 -67 -154 -192 rquadto
-51 -125 -51 -268 rquadto
0 -156 59 -271 rquadto
59 -117 170 -176 rquadto
110 -60 242 -60 rquadto
151 0 253 76 rquadto
103 76 143 214 rquadto
-131 31 rlineto
-34 -109 -101 -159 rquadto
-65 -50 -165 -50 rquadto
-115 0 -193 56 rquadto
-78 54 -109 148 rquadto
-31 93 -31 192 rquadto
0 128 37 223 rquadto
37 95 115 142 rquadto
78 46 170 46 rquadto
110 0 187 -64 rquadto
78 -64 106 -190 rquadto
} def
/P$0 {
132 0 rlineto
0 578 rlineto
0 151 -34 240 rquadto
-34 89 -123 145 rquadto
-89 54 -234 54 rquadto
-140 0 -231 -48 rquadto
-89 -48 -128 -140 rquadto
-37 -92 -37 -251 rquadto
0 -578 rlineto
132 0 rlineto
0 578 rlineto
0 129 23 192 rquadto
25 60 84 95 rquadto
59 32 145 32 rquadto
145 0 207 -65 rquadto
62 -67 62 -254 rquadto
0 -578 rlineto
} def
/P$10 {
0 -139 rlineto
150 0 rlineto
0 139 rlineto
-150 0 rlineto
closepath
} def
/P$1y {
0 -673 rlineto
101 0 rlineto
0 93 rlineto
32 -50 84 -79 rquadto
53 -29 120 -29 rquadto
75 0 121 31 rquadto
48 31 68 85 rquadto
79 -117 207 -117 rquadto
100 0 153 56 rquadto
54 54 54 170 rquadto
0 462 rlineto
-112 0 rlineto
0 -425 rlineto
0 -68 -10 -98 rquadto
-10 -29 -40 -48 rquadto
-29 -18 -68 -18 rquadto
-71 0 -118 48 rquadto
-46 46 -46 150 rquadto
0 392 rlineto
-114 0 rlineto
0 -437 rlineto
0 -76 -28 -114 rquadto
-28 -39 -90 -39 rquadto
-48 0 -89 26 rquadto
-40 25 -59 73 rquadto
-18 48 -18 140 rquadto
0 350 rlineto
-114 0 rlineto
} def
/P$6 {
0 -140 rlineto
121 0 rlineto
0 140 rlineto
-121 0 rlineto
closepath
} def
/P$3 {
-67 57 -131 82 rquadto
-62 23 -135 23 rquadto
-118 0 -184 -57 rquadto
-64 -59 -64 -151 rquadto
0 -53 23 -96 rquadto
25 -43 64 -70 rquadto
40 -26 89 -40 rquadto
35 -9 109 -18 rquadto
150 -17 220 -42 rquadto
0 -25 0 -31 rquadto
0 -76 -34 -106 rquadto
-46 -42 -140 -42 rquadto
-85 0 -128 31 rquadto
-40 29 -60 106 rquadto
-120 -15 rlineto
15 -78 53 -125 rquadto
39 -46 109 -71 rquadto
71 -26 165 -26 rquadto
92 0 150 21 rquadto
57 21 84 54 rquadto
28 32 39 84 rquadto
6 31 6 112 rquadto
0 164 rlineto
0 171 7 217 rquadto
7 45 31 87 rquadto
-128 0 rlineto
-18 -39 -25 -89 rquadto
closepath
} def
/P$11 {
0 -570 rlineto
150 0 rlineto
0 570 rlineto
-150 0 rlineto
} def
/P$y {
-29 9 -92 23 rquadto
-62 12 -81 25 rquadto
-29 21 -29 53 rquadto
0 32 23 56 rquadto
23 21 59 21 rquadto
40 0 78 -26 rquadto
28 -20 35 -50 rquadto
6 -18 6 -73 rquadto
0 -29 rlineto
} def
/P$q {
167 0 rlineto
0 98 rlineto
32 -51 87 -82 rquadto
54 -31 121 -31 rquadto
118 0 200 92 rquadto
81 92 81 256 rquadto
0 168 -82 262 rquadto
-81 93 -198 93 rquadto
-56 0 -101 -21 rquadto
-45 -23 -95 -76 rquadto
0 339 rlineto
-179 0 rlineto
0 -929 rlineto
closepath
} def
/P$1u {
0 -673 rlineto
103 0 rlineto
0 101 rlineto
39 -71 71 -93 rquadto
34 -23 73 -23 rquadto
57 0 117 35 rquadto
-39 106 rlineto
-42 -25 -82 -25 rquadto
-37 0 -68 23 rquadto
-29 21 -42 62 rquadto
-18 60 -18 132 rquadto
0 353 rlineto
-114 0 rlineto
closepath
} def
/P$i {
0 139 60 209 rquadto
60 68 153 68 rquadto
90 0 151 -70 rquadto
60 -70 60 -212 rquadto
0 -134 -60 -203 rquadto
-60 -70 -151 -70 rquadto
-92 0 -153 68 rquadto
-60 68 -60 209 rquadto
} def
/P$1q {
0 129 53 193 rquadto
54 64 129 64 rquadto
75 0 126 -60 rquadto
53 -62 53 -187 rquadto
0 -139 -53 -203 rquadto
-53 -65 -131 -65 rquadto
-76 0 -128 62 rquadto
-50 62 -50 196 rquadto
} def
/P$g {
0 -100 rlineto
460 -529 rlineto
-78 3 -139 3 rquadto
-295 0 rlineto
0 -100 rlineto
593 0 rlineto
0 81 rlineto
-393 460 rlineto
-75 84 rlineto
82 -6 154 -6 rquadto
335 0 rlineto
0 106 rlineto
-642 0 rlineto
closepath
} def
/P$d {
128 15 rlineto
-31 112 -112 175 rquadto
-81 60 -207 60 rquadto
-159 0 -253 -98 rquadto
-92 -98 -92 -275 rquadto
0 -184 93 -284 rquadto
95 -101 245 -101 rquadto
145 0 237 100 rquadto
92 98 92 278 rquadto
0 10 0 32 rquadto
-542 0 rlineto
7 118 67 182 rquadto
60 64 153 64 rquadto
67 0 114 -35 rquadto
48 -35 76 -114 rquadto
closepath
} def
/P$v {
150 -23 rlineto
10 43 39 67 rquadto
29 21 82 21 rquadto
59 0 89 -20 rquadto
20 -15 20 -40 rquadto
0 -17 -10 -28 rquadto
-12 -10 -51 -20 rquadto
-181 -40 -231 -73 rquadto
-67 -46 -67 -128 rquadto
0 -75 57 -125 rquadto
59 -50 182 -50 rquadto
117 0 173 37 rquadto
56 37 78 112 rquadto
-142 26 rlineto
-9 -32 -34 -50 rquadto
-25 -18 -73 -18 rquadto
-59 0 -84 17 rquadto
-17 10 -17 29 rquadto
0 17 14 28 rquadto
20 15 140 43 rquadto
121 26 168 65 rquadto
48 40 48 112 rquadto
0 78 -65 134 rquadto
-65 56 -195 56 rquadto
-115 0 -184 -46 rquadto
-67 -46 -87 -128 rquadto
} def
/P$m {
0 -726 rlineto
110 0 rlineto
0 110 rlineto
42 -78 78 -101 rquadto
35 -25 79 -25 rquadto
62 0 126 39 rquadto
-42 114 rlineto
-45 -26 -90 -26 rquadto
-40 0 -73 25 rquadto
-31 23 -45 67 rquadto
-20 65 -20 143 rquadto
0 379 rlineto
-123 0 rlineto
closepath
} def
/P$1i {
0 -673 rlineto
114 0 rlineto
0 673 rlineto
-114 0 rlineto
} def
/P$t {
0 -1009 rlineto
267 0 rlineto
0 118 rlineto
-123 0 rlineto
0 771 rlineto
123 0 rlineto
0 118 rlineto
-267 0 rlineto
} def
/P$z {
-151 0 rlineto
0 -570 rlineto
140 0 rlineto
0 81 rlineto
35 -57 64 -75 rquadto
29 -18 65 -18 rquadto
51 0 100 28 rquadto
-46 131 rlineto
-37 -25 -70 -25 rquadto
-32 0 -54 18 rquadto
-21 17 -34 62 rquadto
-12 45 -12 190 rquadto
0 176 rlineto
} def
0.78 0.78 0.78 setrgbcolor
62200 21681 1400 11060 100 roundrect
closepath eofill
0.71 0.71 0.71 setrgbcolor
62100 21581 1450 11110 100 roundrect
closepath eofill
0.64 0.64 0.64 setrgbcolor
62000 21481 1500 11160 100 roundrect
closepath eofill
0.56 0.56 0.56 setrgbcolor
61900 21381 1550 11210 100 roundrect
closepath eofill
0.49 0.49 0.49 setrgbcolor
61800 21281 1600 11260 100 roundrect
closepath eofill
0.42 0.42 0.42 setrgbcolor
61700 21181 1650 11310 100 roundrect
closepath eofill
0.34 0.34 0.34 setrgbcolor
61600 21081 1700 11360 100 roundrect
closepath eofill
0.27 0.27 0.27 setrgbcolor
61500 20981 1750 11410 100 roundrect
closepath eofill
0.2 0.2 0.2 setrgbcolor
61400 20881 1800 11460 100 roundrect
closepath eofill
1 1 1 setrgbcolor
62200 21681 1000 10660 simplerect
closepath eofill
200 setlinewidth
0 0 0 setrgbcolor
62200 21681 1000 10660 simplerect
closepath stroke
100 setlinewidth
0.66 0 0.21 setrgbcolor
newpath
4700 8960 moveto
25{
0 500 rlineto
0 500 rmoveto
} repeat
0 82 rlineto
stroke
100 setlinewidth
0.66 0 0.21 setrgbcolor
newpath
22800 8960 moveto
25{
0 500 rlineto
0 500 rmoveto
} repeat
0 82 rlineto
stroke
100 setlinewidth
0.66 0 0.21 setrgbcolor
newpath
40850 8960 moveto
25{
0 500 rlineto
0 500 rmoveto
} repeat
0 82 rlineto
stroke
100 setlinewidth
0.66 0 0.21 setrgbcolor
newpath
59000 8960 moveto
25{
0 500 rlineto
0 500 rmoveto
} repeat
0 82 rlineto
stroke
0 setlinewidth
[] 0 setdash
0 0 0 setrgbcolor
newpath
2765 7651 moveto
P$0
fill
0 setlinewidth
[] 0 setdash
0 0 0 setrgbcolor
newpath
2943 8436 moveto
P$1
fill
0 setlinewidth
[] 0 setdash
0 0 0 setrgbcolor
newpath
4168 8653 moveto
P$2
fill
0 setlinewidth
[] 0 setdash
0 0 0 setrgbcolor
newpath
4965 8564 moveto
P$3
4956 8289 moveto
P$4
fill
0 setlinewidth
[] 0 setdash
0 0 0 setrgbcolor
newpath
5290 8653 moveto
P$5
fill
0 setlinewidth
[] 0 setdash
0 0 0 setrgbcolor
newpath
5793 7792 moveto
P$6
5793 8653 moveto
P$7
fill
0 setlinewidth
[] 0 setdash
0 0 0 setrgbcolor
newpath
6046 8290 moveto
P$8
6173 8290 moveto
P$9
fill
0.78 0.78 0.78 setrgbcolor
newpath
5100 1900 800 0 360 arc
closepath eofill
0.71 0.71 0.71 setrgbcolor
newpath
5100 1900 750 0 360 arc
closepath eofill
0.64 0.64 0.64 setrgbcolor
newpath
5100 1900 700 0 360 arc
closepath eofill
0.56 0.56 0.56 setrgbcolor
newpath
5100 1900 650 0 360 arc
closepath eofill
0.49 0.49 0.49 setrgbcolor
newpath
5100 1900 600 0 360 arc
closepath eofill
0.42 0.42 0.42 setrgbcolor
newpath
5100 1900 550 0 360 arc
closepath eofill
0.34 0.34 0.34 setrgbcolor
newpath
5100 1900 500 0 360 arc
closepath eofill
0.27 0.27 0.27 setrgbcolor
newpath
5100 1900 450 0 360 arc
closepath eofill
0.2 0.2 0.2 setrgbcolor
newpath
5100 1900 400 0 360 arc
closepath eofill
1 1 0.81 setrgbcolor
newpath
4700 1500 800 0 360 arc
closepath eofill
200 setlinewidth
0.66 0 0.21 setrgbcolor
newpath
4700 1500 800 0 360 arc
closepath stroke
200 setlinewidth
0.66 0 0.21 setrgbcolor
newpath
4700 2300 moveto
4700 5000 lineto
3400 3100 moveto
6000 3100 lineto
4700 5000 moveto
3400 6500 lineto
4700 5000 moveto
6000 6500 lineto
stroke
0 setlinewidth
[] 0 setdash
0 0 0 setrgbcolor
newpath
2765 34393 moveto
P$0
fill
0 setlinewidth
[] 0 setdash
0 0 0 setrgbcolor
newpath
2943 35178 moveto
P$1
fill
0 setlinewidth
[] 0 setdash
0 0 0 setrgbcolor
newpath
4168 35395 moveto
P$2
fill
0 setlinewidth
[] 0 setdash
0 0 0 setrgbcolor
newpath
4965 35306 moveto
P$3
4956 35031 moveto
P$4
fill
0 setlinewidth
[] 0 setdash
0 0 0 setrgbcolor
newpath
5290 35395 moveto
P$5
fill
0 setlinewidth
[] 0 setdash
0 0 0 setrgbcolor
newpath
5793 34534 moveto
P$6
5793 35395 moveto
P$7
fill
0 setlinewidth
[] 0 setdash
0 0 0 setrgbcolor
newpath
6046 35033 moveto
P$8
6173 35033 moveto
P$9
fill
0.78 0.78 0.78 setrgbcolor
newpath
5100 37103 800 0 360 arc
closepath eofill
0.71 0.71 0.71 setrgbcolor
newpath
5100 37103 750 0 360 arc
closepath eofill
0.64 0.64 0.64 setrgbcolor
newpath
5100 37103 700 0 360 arc
closepath eofill
0.56 0.56 0.56 setrgbcolor
newpath
5100 37103 650 0 360 arc
closepath eofill
0.49 0.49 0.49 setrgbcolor
newpath
5100 37103 600 0 360 arc
closepath eofill
0.42 0.42 0.42 setrgbcolor
newpath
5100 37103 550 0 360 arc
closepath eofill
0.34 0.34 0.34 setrgbcolor
newpath
5100 37103 500 0 360 arc
closepath eofill
0.27 0.27 0.27 setrgbcolor
newpath
5100 37103 450 0 360 arc
closepath eofill
0.2 0.2 0.2 setrgbcolor
newpath
5100 37103 400 0 360 arc
closepath eofill
1 1 0.81 setrgbcolor
newpath
4700 36703 800 0 360 arc
closepath eofill
200 setlinewidth
0.66 0 0.21 setrgbcolor
newpath
4700 36703 800 0 360 arc
closepath stroke
200 setlinewidth
0.66 0 0.21 setrgbcolor
newpath
4700 37503 moveto
4700 40203 lineto
3400 38303 moveto
6000 38303 lineto
4700 40203 moveto
3400 41703 lineto
4700 40203 moveto
6000 41703 lineto
stroke
0.78 0.78 0.78 setrgbcolor
6000 3160 20000 5700 100 roundrect
closepath eofill
0.71 0.71 0.71 setrgbcolor
5900 3060 20050 5750 100 roundrect
closepath eofill
0.64 0.64 0.64 setrgbcolor
5800 2960 20100 5800 100 roundrect
closepath eofill
0.56 0.56 0.56 setrgbcolor
5700 2860 20150 5850 100 roundrect
closepath eofill
0.49 0.49 0.49 setrgbcolor
5600 2760 20200 5900 100 roundrect
closepath eofill
0.42 0.42 0.42 setrgbcolor
5500 2660 20250 5950 100 roundrect
closepath eofill
0.34 0.34 0.34 setrgbcolor
5400 2560 20300 6000 100 roundrect
closepath eofill
0.27 0.27 0.27 setrgbcolor
5300 2460 20350 6050 100 roundrect
closepath eofill
0.2 0.2 0.2 setrgbcolor
5200 2360 20400 6100 100 roundrect
closepath eofill
1 1 0.81 setrgbcolor
6000 3160 19600 5300 simplerect
closepath eofill
150 setlinewidth
0.66 0 0.21 setrgbcolor
6000 3160 19600 5300 simplerect
closepath stroke
0 setlinewidth
[] 0 setdash
0 0 0 setrgbcolor
newpath
20431 7453 moveto
P$a
fill
0 setlinewidth
[] 0 setdash
0 0 0 setrgbcolor
newpath
20692 7453 moveto
P$b
fill
0 setlinewidth
[] 0 setdash
0 0 0 setrgbcolor
newpath
21760 7343 moveto
P$c
fill
0 setlinewidth
[] 0 setdash
0 0 0 setrgbcolor
newpath
22389 7218 moveto
P$d
21985 7020 moveto
P$e
fill
0 setlinewidth
[] 0 setdash
0 0 0 setrgbcolor
newpath
22690 7453 moveto
P$5
fill
0 setlinewidth
[] 0 setdash
0 0 0 setrgbcolor
newpath
23221 7453 moveto
P$f
fill
0 setlinewidth
[] 0 setdash
0 0 0 setrgbcolor
newpath
24065 7364 moveto
P$3
24056 7089 moveto
P$4
fill
0 setlinewidth
[] 0 setdash
0 0 0 setrgbcolor
newpath
24328 7453 moveto
P$g
fill
0.78 0.78 0.78 setrgbcolor
6000 3160 20000 34342 100 roundrect
closepath eofill
0.71 0.71 0.71 setrgbcolor
5900 3060 20050 34392 100 roundrect
closepath eofill
0.64 0.64 0.64 setrgbcolor
5800 2960 20100 34442 100 roundrect
closepath eofill
0.56 0.56 0.56 setrgbcolor
5700 2860 20150 34492 100 roundrect
closepath eofill
0.49 0.49 0.49 setrgbcolor
5600 2760 20200 34542 100 roundrect
closepath eofill
0.42 0.42 0.42 setrgbcolor
5500 2660 20250 34592 100 roundrect
closepath eofill
0.34 0.34 0.34 setrgbcolor
5400 2560 20300 34642 100 roundrect
closepath eofill
0.27 0.27 0.27 setrgbcolor
5300 2460 20350 34692 100 roundrect
closepath eofill
0.2 0.2 0.2 setrgbcolor
5200 2360 20400 34742 100 roundrect
closepath eofill
1 1 0.81 setrgbcolor
6000 3160 19600 33942 simplerect
closepath eofill
150 setlinewidth
0.66 0 0.21 setrgbcolor
6000 3160 19600 33942 simplerect
closepath stroke
0 setlinewidth
[] 0 setdash
0 0 0 setrgbcolor
newpath
20431 36095 moveto
P$a
fill
0 setlinewidth
[] 0 setdash
0 0 0 setrgbcolor
newpath
20692 36095 moveto
P$b
fill
0 setlinewidth
[] 0 setdash
0 0 0 setrgbcolor
newpath
21760 35986 moveto
P$c
fill
0 setlinewidth
[] 0 setdash
0 0 0 setrgbcolor
newpath
22389 35861 moveto
P$d
21985 35662 moveto
P$e
fill
0 setlinewidth
[] 0 setdash
0 0 0 setrgbcolor
newpath
22690 36095 moveto
P$5
fill
0 setlinewidth
[] 0 setdash
0 0 0 setrgbcolor
newpath
23221 36095 moveto
P$f
fill
0 setlinewidth
[] 0 setdash
0 0 0 setrgbcolor
newpath
24065 36006 moveto
P$3
24056 35731 moveto
P$4
fill
0 setlinewidth
[] 0 setdash
0 0 0 setrgbcolor
newpath
24328 36095 moveto
P$g
fill
0.78 0.78 0.78 setrgbcolor
8900 3160 36650 5700 100 roundrect
closepath eofill
0.71 0.71 0.71 setrgbcolor
8800 3060 36700 5750 100 roundrect
closepath eofill
0.64 0.64 0.64 setrgbcolor
8700 2960 36750 5800 100 roundrect
closepath eofill
0.56 0.56 0.56 setrgbcolor
8600 2860 36800 5850 100 roundrect
closepath eofill
0.49 0.49 0.49 setrgbcolor
8500 2760 36850 5900 100 roundrect
closepath eofill
0.42 0.42 0.42 setrgbcolor
8400 2660 36900 5950 100 roundrect
closepath eofill
0.34 0.34 0.34 setrgbcolor
8300 2560 36950 6000 100 roundrect
closepath eofill
0.27 0.27 0.27 setrgbcolor
8200 2460 37000 6050 100 roundrect
closepath eofill
0.2 0.2 0.2 setrgbcolor
8100 2360 37050 6100 100 roundrect
closepath eofill
1 1 0.81 setrgbcolor
8900 3160 36250 5300 simplerect
closepath eofill
150 setlinewidth
0.66 0 0.21 setrgbcolor
8900 3160 36250 5300 simplerect
closepath stroke
0 setlinewidth
[] 0 setdash
0 0 0 setrgbcolor
newpath
37773 7101 moveto
P$h
fill
0 setlinewidth
[] 0 setdash
0 0 0 setrgbcolor
newpath
37996 7090 moveto
P$8
38123 7090 moveto
P$i
fill
0 setlinewidth
[] 0 setdash
0 0 0 setrgbcolor
newpath
38842 7453 moveto
P$b
fill
0 setlinewidth
[] 0 setdash
0 0 0 setrgbcolor
newpath
39910 7343 moveto
P$c
fill
0 setlinewidth
[] 0 setdash
0 0 0 setrgbcolor
newpath
40040 7453 moveto
P$5
fill
0 setlinewidth
[] 0 setdash
0 0 0 setrgbcolor
newpath
40496 7090 moveto
P$8
40623 7090 moveto
P$i
fill
0 setlinewidth
[] 0 setdash
0 0 0 setrgbcolor
newpath
41339 7453 moveto
P$j
fill
0 setlinewidth
[] 0 setdash
0 0 0 setrgbcolor
newpath
42115 7364 moveto
P$3
42106 7089 moveto
P$4
fill
0 setlinewidth
[] 0 setdash
0 0 0 setrgbcolor
newpath
42914 7453 moveto
P$k
42525 7090 moveto
P$l
fill
0 setlinewidth
[] 0 setdash
0 0 0 setrgbcolor
newpath
43196 7090 moveto
P$8
43323 7090 moveto
P$i
fill
0 setlinewidth
[] 0 setdash
0 0 0 setrgbcolor
newpath
44040 7453 moveto
P$m
fill
0.78 0.78 0.78 setrgbcolor
8900 3160 36650 34342 100 roundrect
closepath eofill
0.71 0.71 0.71 setrgbcolor
8800 3060 36700 34392 100 roundrect
closepath eofill
0.64 0.64 0.64 setrgbcolor
8700 2960 36750 34442 100 roundrect
closepath eofill
0.56 0.56 0.56 setrgbcolor
8600 2860 36800 34492 100 roundrect
closepath eofill
0.49 0.49 0.49 setrgbcolor
8500 2760 36850 34542 100 roundrect
closepath eofill
0.42 0.42 0.42 setrgbcolor
8400 2660 36900 34592 100 roundrect
closepath eofill
0.34 0.34 0.34 setrgbcolor
8300 2560 36950 34642 100 roundrect
closepath eofill
0.27 0.27 0.27 setrgbcolor
8200 2460 37000 34692 100 roundrect
closepath eofill
0.2 0.2 0.2 setrgbcolor
8100 2360 37050 34742 100 roundrect
closepath eofill
1 1 0.81 setrgbcolor
8900 3160 36250 33942 simplerect
closepath eofill
150 setlinewidth
0.66 0 0.21 setrgbcolor
8900 3160 36250 33942 simplerect
closepath stroke
0 setlinewidth
[] 0 setdash
0 0 0 setrgbcolor
newpath
37773 35743 moveto
P$h
fill
0 setlinewidth
[] 0 setdash
0 0 0 setrgbcolor
newpath
37996 35733 moveto
P$8
38123 35733 moveto
P$i
fill
0 setlinewidth
[] 0 setdash
0 0 0 setrgbcolor
newpath
38842 36095 moveto
P$b
fill
0 setlinewidth
[] 0 setdash
0 0 0 setrgbcolor
newpath
39910 35986 moveto
P$c
fill
0 setlinewidth
[] 0 setdash
0 0 0 setrgbcolor
newpath
40040 36095 moveto
P$5
fill
0 setlinewidth
[] 0 setdash
0 0 0 setrgbcolor
newpath
40496 35733 moveto
P$8
40623 35733 moveto
P$i
fill
0 setlinewidth
[] 0 setdash
0 0 0 setrgbcolor
newpath
41339 36095 moveto
P$j
fill
0 setlinewidth
[] 0 setdash
0 0 0 setrgbcolor
newpath
42115 36006 moveto
P$3
42106 35731 moveto
P$4
fill
0 setlinewidth
[] 0 setdash
0 0 0 setrgbcolor
newpath
42914 36095 moveto
P$k
42525 35733 moveto
P$l
fill
0 setlinewidth
[] 0 setdash
0 0 0 setrgbcolor
newpath
43196 35733 moveto
P$8
43323 35733 moveto
P$i
fill
0 setlinewidth
[] 0 setdash
0 0 0 setrgbcolor
newpath
44040 36095 moveto
P$m
fill
0.78 0.78 0.78 setrgbcolor
6000 3160 56200 5700 100 roundrect
closepath eofill
0.71 0.71 0.71 setrgbcolor
5900 3060 56250 5750 100 roundrect
closepath eofill
0.64 0.64 0.64 setrgbcolor
5800 2960 56300 5800 100 roundrect
closepath eofill
0.56 0.56 0.56 setrgbcolor
5700 2860 56350 5850 100 roundrect
closepath eofill
0.49 0.49 0.49 setrgbcolor
5600 2760 56400 5900 100 roundrect
closepath eofill
0.42 0.42 0.42 setrgbcolor
5500 2660 56450 5950 100 roundrect
closepath eofill
0.34 0.34 0.34 setrgbcolor
5400 2560 56500 6000 100 roundrect
closepath eofill
0.27 0.27 0.27 setrgbcolor
5300 2460 56550 6050 100 roundrect
closepath eofill
0.2 0.2 0.2 setrgbcolor
5200 2360 56600 6100 100 roundrect
closepath eofill
1 1 0.81 setrgbcolor
6000 3160 55800 5300 simplerect
closepath eofill
150 setlinewidth
0.66 0 0.21 setrgbcolor
6000 3160 55800 5300 simplerect
closepath stroke
0 setlinewidth
[] 0 setdash
0 0 0 setrgbcolor
newpath
56604 7453 moveto
P$n
fill
0 setlinewidth
[] 0 setdash
0 0 0 setrgbcolor
newpath
57646 7090 moveto
P$8
57773 7090 moveto
P$i
fill
0 setlinewidth
[] 0 setdash
0 0 0 setrgbcolor
newpath
58964 7453 moveto
P$k
58575 7090 moveto
P$l
fill
0 setlinewidth
[] 0 setdash
0 0 0 setrgbcolor
newpath
59789 7218 moveto
P$d
59385 7020 moveto
P$e
fill
0 setlinewidth
[] 0 setdash
0 0 0 setrgbcolor
newpath
60089 7453 moveto
P$j
fill
0 setlinewidth
[] 0 setdash
0 0 0 setrgbcolor
newpath
60346 7090 moveto
P$8
60473 7090 moveto
P$9
fill
0.78 0.78 0.78 setrgbcolor
6000 3160 56200 34342 100 roundrect
closepath eofill
0.71 0.71 0.71 setrgbcolor
5900 3060 56250 34392 100 roundrect
closepath eofill
0.64 0.64 0.64 setrgbcolor
5800 2960 56300 34442 100 roundrect
closepath eofill
0.56 0.56 0.56 setrgbcolor
5700 2860 56350 34492 100 roundrect
closepath eofill
0.49 0.49 0.49 setrgbcolor
5600 2760 56400 34542 100 roundrect
closepath eofill
0.42 0.42 0.42 setrgbcolor
5500 2660 56450 34592 100 roundrect
closepath eofill
0.34 0.34 0.34 setrgbcolor
5400 2560 56500 34642 100 roundrect
closepath eofill
0.27 0.27 0.27 setrgbcolor
5300 2460 56550 34692 100 roundrect
closepath eofill
0.2 0.2 0.2 setrgbcolor
5200 2360 56600 34742 100 roundrect
closepath eofill
1 1 0.81 setrgbcolor
6000 3160 55800 33942 simplerect
closepath eofill
150 setlinewidth
0.66 0 0.21 setrgbcolor
6000 3160 55800 33942 simplerect
closepath stroke
0 setlinewidth
[] 0 setdash
0 0 0 setrgbcolor
newpath
56604 36095 moveto
P$n
fill
0 setlinewidth
[] 0 setdash
0 0 0 setrgbcolor
newpath
57646 35733 moveto
P$8
57773 35733 moveto
P$i
fill
0 setlinewidth
[] 0 setdash
0 0 0 setrgbcolor
newpath
58964 36095 moveto
P$k
58575 35733 moveto
P$l
fill
0 setlinewidth
[] 0 setdash
0 0 0 setrgbcolor
newpath
59789 35861 moveto
P$d
59385 35662 moveto
P$e
fill
0 setlinewidth
[] 0 setdash
0 0 0 setrgbcolor
newpath
60089 36095 moveto
P$j
fill
0 setlinewidth
[] 0 setdash
0 0 0 setrgbcolor
newpath
60346 35733 moveto
P$8
60473 35733 moveto
P$9
fill
0.93 0.93 0.93 setrgbcolor
newpath
1000 10660 moveto
7500 10660 lineto
7500 11460 lineto
6500 12460 lineto
1000 12460 lineto
1000 10660 lineto
closepath eofill
100 setlinewidth
0 0 0 setrgbcolor
newpath
1000 10660 moveto
7500 10660 lineto
7500 11460 lineto
6500 12460 lineto
1000 12460 lineto
1000 10660 lineto
stroke
200 setlinewidth
0 0 0 setrgbcolor
62200 21681 1000 10660 simplerect
closepath stroke
0 setlinewidth
[] 0 setdash
0 0 0 setrgbcolor
newpath
2551 11763 moveto
P$o
2734 11772 moveto
P$p
fill
0 setlinewidth
[] 0 setdash
0 0 0 setrgbcolor
newpath
3387 11437 moveto
P$q
3564 11762 moveto
P$r
fill
0 setlinewidth
[] 0 setdash
0 0 0 setrgbcolor
newpath
4503 11437 moveto
P$s
fill
0 setlinewidth
[] 0 setdash
0 0 0 setrgbcolor
newpath
9078 12224 moveto
P$t
fill
0 setlinewidth
[] 0 setdash
0 0 0 setrgbcolor
newpath
9479 11215 moveto
P$u
fill
0 setlinewidth
[] 0 setdash
0 0 0 setrgbcolor
newpath
10126 11840 moveto
P$v
fill
0 setlinewidth
[] 0 setdash
0 0 0 setrgbcolor
newpath
11254 12002 moveto
P$w
fill
0 setlinewidth
[] 0 setdash
0 0 0 setrgbcolor
newpath
11692 11605 moveto
P$x
11893 11729 moveto
P$y
fill
0 setlinewidth
[] 0 setdash
0 0 0 setrgbcolor
newpath
12323 12002 moveto
P$z
fill
0 setlinewidth
[] 0 setdash
0 0 0 setrgbcolor
newpath
12679 11354 moveto
P$10
12679 12002 moveto
P$11
fill
0 setlinewidth
[] 0 setdash
0 0 0 setrgbcolor
newpath
12943 11709 moveto
P$12
13098 11716 moveto
P$13
fill
0 setlinewidth
[] 0 setdash
0 0 0 setrgbcolor
newpath
14498 12002 moveto
P$14
fill
0 setlinewidth
[] 0 setdash
0 0 0 setrgbcolor
newpath
15009 11821 moveto
P$15
15017 11668 moveto
P$16
fill
0 setlinewidth
[] 0 setdash
0 0 0 setrgbcolor
newpath
15876 11601 moveto
P$17
fill
0 setlinewidth
[] 0 setdash
0 0 0 setrgbcolor
newpath
16309 11821 moveto
P$15
16317 11668 moveto
P$16
fill
0 setlinewidth
[] 0 setdash
0 0 0 setrgbcolor
newpath
16626 11840 moveto
P$v
fill
0 setlinewidth
[] 0 setdash
0 0 0 setrgbcolor
newpath
17379 11354 moveto
P$10
17379 12002 moveto
P$11
fill
0 setlinewidth
[] 0 setdash
0 0 0 setrgbcolor
newpath
17940 11432 moveto
P$18
fill
0 setlinewidth
[] 0 setdash
0 0 0 setrgbcolor
newpath
18192 11605 moveto
P$x
18393 11729 moveto
P$y
fill
0 setlinewidth
[] 0 setdash
0 0 0 setrgbcolor
newpath
19092 11605 moveto
P$x
19293 11729 moveto
P$y
fill
0 setlinewidth
[] 0 setdash
0 0 0 setrgbcolor
newpath
19507 11432 moveto
P$19
fill
0 setlinewidth
[] 0 setdash
0 0 0 setrgbcolor
newpath
20554 12002 moveto
P$w
fill
0 setlinewidth
[] 0 setdash
0 0 0 setrgbcolor
newpath
21401 12002 moveto
P$1a
21000 11705 moveto
P$1b
fill
0 setlinewidth
[] 0 setdash
0 0 0 setrgbcolor
newpath
21692 11605 moveto
P$x
21893 11729 moveto
P$y
fill
0 setlinewidth
[] 0 setdash
0 0 0 setrgbcolor
newpath
22387 11215 moveto
P$1c
fill
0.66 0 0.21 setrgbcolor
newpath
21600 15966 moveto
1000 400 rlineto
-1000 400 rlineto
400 -400 rlineto
21600 15966 lineto
closepath eofill
200 setlinewidth
0.66 0 0.21 setrgbcolor
newpath
21600 15966 moveto
1000 400 rlineto
-1000 400 rlineto
400 -400 rlineto
21600 15966 lineto
closepath stroke
100 setlinewidth
0.66 0 0.21 setrgbcolor
newpath
4700 16366 moveto
17500 0 rlineto
stroke
0 setlinewidth
[] 0 setdash
0 0 0 setrgbcolor
newpath
5457 13947 moveto
P$1d
fill
0 setlinewidth
[] 0 setdash
0 0 0 setrgbcolor
newpath
6343 13908 moveto
P$1e
6460 13908 moveto
P$1f
fill
0 setlinewidth
[] 0 setdash
0 0 0 setrgbcolor
newpath
7082 14245 moveto
P$1g
fill
0 setlinewidth
[] 0 setdash
0 0 0 setrgbcolor
newpath
7385 13447 moveto
P$1h
7385 14245 moveto
P$1i
fill
0 setlinewidth
[] 0 setdash
0 0 0 setrgbcolor
newpath
8125 13998 moveto
P$1j
fill
0 setlinewidth
[] 0 setdash
0 0 0 setrgbcolor
newpath
8385 13447 moveto
P$1h
8385 14245 moveto
P$1i
fill
0 setlinewidth
[] 0 setdash
0 0 0 setrgbcolor
newpath
8935 14144 moveto
P$1k
fill
0 setlinewidth
[] 0 setdash
0 0 0 setrgbcolor
newpath
9525 14162 moveto
P$1l
9515 13906 moveto
P$1m
fill
0 setlinewidth
[] 0 setdash
0 0 0 setrgbcolor
newpath
10625 14162 moveto
P$1l
10615 13906 moveto
P$1m
fill
0 setlinewidth
[] 0 setdash
0 0 0 setrgbcolor
newpath
10881 14504 moveto
P$1n
fill
0 setlinewidth
[] 0 setdash
0 0 0 setrgbcolor
newpath
12028 14245 moveto
P$1o
fill
0 setlinewidth
[] 0 setdash
0 0 0 setrgbcolor
newpath
12723 14245 moveto
P$1p
12362 13909 moveto
P$1q
fill
0 setlinewidth
[] 0 setdash
0 0 0 setrgbcolor
newpath
13425 14162 moveto
P$1l
13415 13906 moveto
P$1m
fill
0 setlinewidth
[] 0 setdash
0 0 0 setrgbcolor
newpath
14040 14044 moveto
P$1r
fill
0 setlinewidth
[] 0 setdash
0 0 0 setrgbcolor
newpath
14743 13908 moveto
P$1e
14860 13908 moveto
P$1f
fill
0 setlinewidth
[] 0 setdash
0 0 0 setrgbcolor
newpath
15590 14245 moveto
P$1s
15589 13903 moveto
P$1t
fill
0 setlinewidth
[] 0 setdash
0 0 0 setrgbcolor
newpath
16184 14245 moveto
P$1u
17046 14028 moveto
P$1v
16671 13844 moveto
P$1w
fill
0 setlinewidth
[] 0 setdash
0 0 0 setrgbcolor
newpath
5928 15880 moveto
P$1o
fill
0 setlinewidth
[] 0 setdash
0 0 0 setrgbcolor
newpath
6185 15880 moveto
P$1x
fill
0 setlinewidth
[] 0 setdash
0 0 0 setrgbcolor
newpath
7725 15633 moveto
P$1j
fill
0 setlinewidth
[] 0 setdash
0 0 0 setrgbcolor
newpath
8425 15797 moveto
P$1l
8415 15541 moveto
P$1m
fill
0 setlinewidth
[] 0 setdash
0 0 0 setrgbcolor
newpath
8685 15880 moveto
P$1y
fill
0 setlinewidth
[] 0 setdash
0 0 0 setrgbcolor
newpath
9785 16138 moveto
P$1z
9889 15547 moveto
P$20
fill
0 setlinewidth
[] 0 setdash
0 0 0 setrgbcolor
newpath
10443 15543 moveto
P$1e
10560 15543 moveto
P$1f
fill
0 setlinewidth
[] 0 setdash
0 0 0 setrgbcolor
newpath
12023 15880 moveto
P$1p
11662 15544 moveto
P$1q
fill
0 setlinewidth
[] 0 setdash
0 0 0 setrgbcolor
newpath
12746 15663 moveto
P$1v
12371 15479 moveto
P$21
fill
0 setlinewidth
[] 0 setdash
0 0 0 setrgbcolor
newpath
12982 15880 moveto
P$1g
fill
0 setlinewidth
[] 0 setdash
0 0 0 setrgbcolor
newpath
13700 15880 moveto
P$22
13823 15393 moveto
P$23
fill
0 setlinewidth
[] 0 setdash
0 0 0 setrgbcolor
newpath
14584 15880 moveto
P$1u
14943 15543 moveto
P$1e
15060 15543 moveto
P$1f
fill
0 setlinewidth
[] 0 setdash
0 0 0 setrgbcolor
newpath
15935 15779 moveto
P$1k
fill
0 setlinewidth
[] 0 setdash
0 0 0 setrgbcolor
newpath
16043 15543 moveto
P$1e
16160 15543 moveto
P$1f
fill
0 setlinewidth
[] 0 setdash
0 0 0 setrgbcolor
newpath
17225 15633 moveto
P$1j
fill
0 setlinewidth
[] 0 setdash
0 0 0 setrgbcolor
newpath
17443 15543 moveto
P$1e
17560 15543 moveto
P$1f
fill
0 setlinewidth
[] 0 setdash
0 0 0 setrgbcolor
newpath
18182 15880 moveto
P$1g
fill
0 setlinewidth
[] 0 setdash
0 0 0 setrgbcolor
newpath
18443 15543 moveto
P$1e
18560 15543 moveto
P$24
fill
0.66 0 0.21 setrgbcolor
newpath
39700 19001 moveto
1000 400 rlineto
-1000 400 rlineto
400 -400 rlineto
39700 19001 lineto
closepath eofill
100 setlinewidth
0.66 0 0.21 setrgbcolor
newpath
39700 19001 moveto
1000 400 rlineto
-1000 400 rlineto
400 -400 rlineto
39700 19001 lineto
closepath stroke
100 setlinewidth
0.66 0 0.21 setrgbcolor
newpath
22800 19401 moveto
17500 0 rlineto
stroke
0 setlinewidth
[] 0 setdash
0 0 0 setrgbcolor
newpath
23557 18617 moveto
P$1d
fill
0 setlinewidth
[] 0 setdash
0 0 0 setrgbcolor
newpath
24443 18578 moveto
P$1e
24560 18578 moveto
P$1f
fill
0 setlinewidth
[] 0 setdash
0 0 0 setrgbcolor
newpath
25182 18915 moveto
P$1g
fill
0 setlinewidth
[] 0 setdash
0 0 0 setrgbcolor
newpath
25485 18117 moveto
P$1h
25485 18915 moveto
P$1i
fill
0 setlinewidth
[] 0 setdash
0 0 0 setrgbcolor
newpath
26225 18669 moveto
P$1j
fill
0 setlinewidth
[] 0 setdash
0 0 0 setrgbcolor
newpath
26485 18117 moveto
P$1h
26485 18915 moveto
P$1i
fill
0 setlinewidth
[] 0 setdash
0 0 0 setrgbcolor
newpath
27035 18814 moveto
P$1k
fill
0 setlinewidth
[] 0 setdash
0 0 0 setrgbcolor
newpath
27625 18833 moveto
P$1l
27615 18576 moveto
P$1m
fill
0 setlinewidth
[] 0 setdash
0 0 0 setrgbcolor
newpath
28285 18117 moveto
P$1h
28285 18915 moveto
P$1i
fill
0 setlinewidth
[] 0 setdash
0 0 0 setrgbcolor
newpath
28585 18915 moveto
P$1x
fill
0 setlinewidth
[] 0 setdash
0 0 0 setrgbcolor
newpath
29312 18915 moveto
P$25
29543 18578 moveto
P$1e
29660 18578 moveto
P$1f
fill
0 setlinewidth
[] 0 setdash
0 0 0 setrgbcolor
newpath
30284 18915 moveto
P$26
fill
0 setlinewidth
[] 0 setdash
0 0 0 setrgbcolor
newpath
30685 18915 moveto
P$1y
fill
0 setlinewidth
[] 0 setdash
0 0 0 setrgbcolor
newpath
32225 18833 moveto
P$1l
32215 18576 moveto
P$1m
fill
0 setlinewidth
[] 0 setdash
0 0 0 setrgbcolor
newpath
32925 18669 moveto
P$1j
fill
0 setlinewidth
[] 0 setdash
0 0 0 setrgbcolor
newpath
33185 18117 moveto
P$1h
33185 18915 moveto
P$1i
fill
0 setlinewidth
[] 0 setdash
0 0 0 setrgbcolor
newpath
33443 18578 moveto
P$1e
33560 18578 moveto
P$24
33695 18158 moveto
P$27
fill
0 setlinewidth
[] 0 setdash
0 0 0 setrgbcolor
newpath
34185 18915 moveto
P$28
fill
0.66 0 0.21 setrgbcolor
newpath
57800 22036 moveto
1000 400 rlineto
-1000 400 rlineto
400 -400 rlineto
57800 22036 lineto
closepath eofill
100 setlinewidth
0.66 0 0.21 setrgbcolor
newpath
57800 22036 moveto
1000 400 rlineto
-1000 400 rlineto
400 -400 rlineto
57800 22036 lineto
closepath stroke
100 setlinewidth
0.66 0 0.21 setrgbcolor
newpath
40900 22436 moveto
17500 0 rlineto
stroke
0 setlinewidth
[] 0 setdash
0 0 0 setrgbcolor
newpath
41657 21652 moveto
P$1d
fill
0 setlinewidth
[] 0 setdash
0 0 0 setrgbcolor
newpath
42543 21613 moveto
P$1e
42660 21613 moveto
P$1f
fill
0 setlinewidth
[] 0 setdash
0 0 0 setrgbcolor
newpath
43282 21951 moveto
P$1g
fill
0 setlinewidth
[] 0 setdash
0 0 0 setrgbcolor
newpath
43585 21152 moveto
P$1h
43585 21951 moveto
P$1i
fill
0 setlinewidth
[] 0 setdash
0 0 0 setrgbcolor
newpath
44325 21704 moveto
P$1j
fill
0 setlinewidth
[] 0 setdash
0 0 0 setrgbcolor
newpath
44585 21152 moveto
P$1h
44585 21951 moveto
P$1i
fill
0 setlinewidth
[] 0 setdash
0 0 0 setrgbcolor
newpath
45135 21849 moveto
P$1k
fill
0 setlinewidth
[] 0 setdash
0 0 0 setrgbcolor
newpath
45725 21868 moveto
P$1l
45715 21612 moveto
P$1m
fill
0 setlinewidth
[] 0 setdash
0 0 0 setrgbcolor
newpath
46385 21152 moveto
P$1h
46385 21951 moveto
P$1i
fill
0 setlinewidth
[] 0 setdash
0 0 0 setrgbcolor
newpath
46685 21951 moveto
P$1x
fill
0 setlinewidth
[] 0 setdash
0 0 0 setrgbcolor
newpath
47412 21951 moveto
P$25
47643 21613 moveto
P$1e
47760 21613 moveto
P$1f
fill
0 setlinewidth
[] 0 setdash
0 0 0 setrgbcolor
newpath
48384 21951 moveto
P$26
fill
0 setlinewidth
[] 0 setdash
0 0 0 setrgbcolor
newpath
48785 21951 moveto
P$1y
fill
0 setlinewidth
[] 0 setdash
0 0 0 setrgbcolor
newpath
50325 21868 moveto
P$1l
50315 21612 moveto
P$1m
fill
0 setlinewidth
[] 0 setdash
0 0 0 setrgbcolor
newpath
51025 21704 moveto
P$1j
fill
0 setlinewidth
[] 0 setdash
0 0 0 setrgbcolor
newpath
51285 21152 moveto
P$1h
51285 21951 moveto
P$1i
fill
0 setlinewidth
[] 0 setdash
0 0 0 setrgbcolor
newpath
51543 21613 moveto
P$1e
51660 21613 moveto
P$24
51795 21193 moveto
P$27
fill
0 setlinewidth
[] 0 setdash
0 0 0 setrgbcolor
newpath
52285 21951 moveto
P$28
fill
0.66 0 0.21 setrgbcolor
newpath
42000 25071 moveto
-1000 400 rlineto
1000 400 rlineto
-400 -400 rlineto
42000 25071 lineto
closepath eofill
100 setlinewidth
0.66 0 0.21 setrgbcolor
newpath
42000 25071 moveto
-1000 400 rlineto
1000 400 rlineto
-400 -400 rlineto
42000 25071 lineto
closepath stroke
100 setlinewidth
0.66 0 0.21 setrgbcolor
newpath
41400 25471 moveto
17500 0 rlineto
stroke
0 setlinewidth
[] 0 setdash
0 0 0 setrgbcolor
newpath
42700 24986 moveto
P$29
42823 24876 moveto
P$2a
fill
0 setlinewidth
[] 0 setdash
0 0 0 setrgbcolor
newpath
44046 24769 moveto
P$1v
43671 24584 moveto
P$21
fill
0 setlinewidth
[] 0 setdash
0 0 0 setrgbcolor
newpath
44473 24986 moveto
P$2b
45228 24986 moveto
P$1o
fill
0 setlinewidth
[] 0 setdash
0 0 0 setrgbcolor
newpath
45946 24769 moveto
P$1v
45571 24584 moveto
P$21
fill
0 setlinewidth
[] 0 setdash
0 0 0 setrgbcolor
newpath
46182 24986 moveto
P$1g
fill
0 setlinewidth
[] 0 setdash
0 0 0 setrgbcolor
newpath
46673 24986 moveto
P$2b
47446 24769 moveto
P$1v
47071 24584 moveto
P$21
fill
0 setlinewidth
[] 0 setdash
0 0 0 setrgbcolor
newpath
48085 24187 moveto
P$1h
48085 24986 moveto
P$1i
fill
0 setlinewidth
[] 0 setdash
0 0 0 setrgbcolor
newpath
48385 24986 moveto
P$1x
fill
0 setlinewidth
[] 0 setdash
0 0 0 setrgbcolor
newpath
49112 24986 moveto
P$25
49343 24648 moveto
P$1e
49460 24648 moveto
P$1f
fill
0 setlinewidth
[] 0 setdash
0 0 0 setrgbcolor
newpath
50084 24986 moveto
P$26
fill
0 setlinewidth
[] 0 setdash
0 0 0 setrgbcolor
newpath
50840 24784 moveto
P$1r
fill
0 setlinewidth
[] 0 setdash
0 0 0 setrgbcolor
newpath
51543 24648 moveto
P$1e
51660 24648 moveto
P$1f
fill
0 setlinewidth
[] 0 setdash
0 0 0 setrgbcolor
newpath
52390 24986 moveto
P$1s
52389 24644 moveto
P$1t
fill
0 setlinewidth
[] 0 setdash
0 0 0 setrgbcolor
newpath
52984 24986 moveto
P$1u
53846 24769 moveto
P$1v
53471 24584 moveto
P$21
fill
0 setlinewidth
[] 0 setdash
0 0 0 setrgbcolor
newpath
54925 24739 moveto
P$1j
fill
0 setlinewidth
[] 0 setdash
0 0 0 setrgbcolor
newpath
55625 24903 moveto
P$1l
55615 24647 moveto
P$1m
fill
0 setlinewidth
[] 0 setdash
0 0 0 setrgbcolor
newpath
55885 24986 moveto
P$1y
fill
0 setlinewidth
[] 0 setdash
0 0 0 setrgbcolor
newpath
56985 25244 moveto
P$1z
57089 24653 moveto
P$20
fill
0 setlinewidth
[] 0 setdash
0 0 0 setrgbcolor
newpath
57643 24648 moveto
P$1e
57760 24648 moveto
P$24
fill
0.66 0 0.21 setrgbcolor
newpath
23900 28107 moveto
-1000 400 rlineto
1000 400 rlineto
-400 -400 rlineto
23900 28107 lineto
closepath eofill
100 setlinewidth
0.66 0 0.21 setrgbcolor
newpath
23900 28107 moveto
-1000 400 rlineto
1000 400 rlineto
-400 -400 rlineto
23900 28107 lineto
closepath stroke
100 setlinewidth
0.66 0 0.21 setrgbcolor
newpath
23300 28507 moveto
17500 0 rlineto
stroke
0 setlinewidth
[] 0 setdash
0 0 0 setrgbcolor
newpath
24600 28021 moveto
P$29
24723 27912 moveto
P$2a
fill
0 setlinewidth
[] 0 setdash
0 0 0 setrgbcolor
newpath
25946 27804 moveto
P$1v
25571 27619 moveto
P$21
fill
0 setlinewidth
[] 0 setdash
0 0 0 setrgbcolor
newpath
26373 28021 moveto
P$2b
27128 28021 moveto
P$1o
fill
0 setlinewidth
[] 0 setdash
0 0 0 setrgbcolor
newpath
27846 27804 moveto
P$1v
27471 27619 moveto
P$21
fill
0 setlinewidth
[] 0 setdash
0 0 0 setrgbcolor
newpath
28082 28021 moveto
P$1g
fill
0 setlinewidth
[] 0 setdash
0 0 0 setrgbcolor
newpath
28573 28021 moveto
P$2b
29346 27804 moveto
P$1v
28971 27619 moveto
P$21
fill
0 setlinewidth
[] 0 setdash
0 0 0 setrgbcolor
newpath
29985 27222 moveto
P$1h
29985 28021 moveto
P$1i
fill
0 setlinewidth
[] 0 setdash
0 0 0 setrgbcolor
newpath
30285 28021 moveto
P$1x
fill
0 setlinewidth
[] 0 setdash
0 0 0 setrgbcolor
newpath
31012 28021 moveto
P$25
31243 27683 moveto
P$1e
31360 27683 moveto
P$1f
fill
0 setlinewidth
[] 0 setdash
0 0 0 setrgbcolor
newpath
31984 28021 moveto
P$26
fill
0 setlinewidth
[] 0 setdash
0 0 0 setrgbcolor
newpath
32740 27819 moveto
P$1r
fill
0 setlinewidth
[] 0 setdash
0 0 0 setrgbcolor
newpath
33443 27683 moveto
P$1e
33560 27683 moveto
P$1f
fill
0 setlinewidth
[] 0 setdash
0 0 0 setrgbcolor
newpath
34290 28021 moveto
P$1s
34289 27679 moveto
P$1t
fill
0 setlinewidth
[] 0 setdash
0 0 0 setrgbcolor
newpath
34884 28021 moveto
P$1u
35746 27804 moveto
P$1v
35371 27619 moveto
P$21
fill
0 setlinewidth
[] 0 setdash
0 0 0 setrgbcolor
newpath
36825 27774 moveto
P$1j
fill
0 setlinewidth
[] 0 setdash
0 0 0 setrgbcolor
newpath
37525 27938 moveto
P$1l
37515 27682 moveto
P$1m
fill
0 setlinewidth
[] 0 setdash
0 0 0 setrgbcolor
newpath
37785 28021 moveto
P$1y
fill
0 setlinewidth
[] 0 setdash
0 0 0 setrgbcolor
newpath
38885 28279 moveto
P$1z
38989 27688 moveto
P$20
fill
0 setlinewidth
[] 0 setdash
0 0 0 setrgbcolor
newpath
39543 27683 moveto
P$1e
39660 27683 moveto
P$24
fill
0.66 0 0.21 setrgbcolor
newpath
5800 31142 moveto
-1000 400 rlineto
1000 400 rlineto
-400 -400 rlineto
5800 31142 lineto
closepath eofill
100 setlinewidth
0.66 0 0.21 setrgbcolor
newpath
5800 31142 moveto
-1000 400 rlineto
1000 400 rlineto
-400 -400 rlineto
5800 31142 lineto
closepath stroke
100 setlinewidth
0.66 0 0.21 setrgbcolor
newpath
5200 31542 moveto
17500 0 rlineto
stroke
0 setlinewidth
[] 0 setdash
0 0 0 setrgbcolor
newpath
6500 31056 moveto
P$29
6623 30947 moveto
P$2a
fill
0 setlinewidth
[] 0 setdash
0 0 0 setrgbcolor
newpath
7846 30839 moveto
P$1v
7471 30654 moveto
P$21
fill
0 setlinewidth
[] 0 setdash
0 0 0 setrgbcolor
newpath
8273 31056 moveto
P$2b
9028 31056 moveto
P$1o
fill
0 setlinewidth
[] 0 setdash
0 0 0 setrgbcolor
newpath
9746 30839 moveto
P$1v
9371 30654 moveto
P$21
fill
0 setlinewidth
[] 0 setdash
0 0 0 setrgbcolor
newpath
9982 31056 moveto
P$1g
fill
0 setlinewidth
[] 0 setdash
0 0 0 setrgbcolor
newpath
10473 31056 moveto
P$2b
11246 30839 moveto
P$1v
10871 30654 moveto
P$21
fill
0 setlinewidth
[] 0 setdash
0 0 0 setrgbcolor
newpath
11885 30258 moveto
P$1h
11885 31056 moveto
P$1i
fill
0 setlinewidth
[] 0 setdash
0 0 0 setrgbcolor
newpath
12185 31056 moveto
P$1x
fill
0 setlinewidth
[] 0 setdash
0 0 0 setrgbcolor
newpath
12912 31056 moveto
P$25
13143 30719 moveto
P$1e
13260 30719 moveto
P$1f
fill
0 setlinewidth
[] 0 setdash
0 0 0 setrgbcolor
newpath
13884 31056 moveto
P$26
fill
0 setlinewidth
[] 0 setdash
0 0 0 setrgbcolor
newpath
14640 30854 moveto
P$1r
fill
0 setlinewidth
[] 0 setdash
0 0 0 setrgbcolor
newpath
15343 30719 moveto
P$1e
15460 30719 moveto
P$1f
fill
0 setlinewidth
[] 0 setdash
0 0 0 setrgbcolor
newpath
16190 31056 moveto
P$1s
16189 30714 moveto
P$1t
fill
0 setlinewidth
[] 0 setdash
0 0 0 setrgbcolor
newpath
16784 31056 moveto
P$1u
17646 30839 moveto
P$1v
17271 30654 moveto
P$21
fill
0 setlinewidth
[] 0 setdash
0 0 0 setrgbcolor
newpath
18725 30809 moveto
P$1j
fill
0 setlinewidth
[] 0 setdash
0 0 0 setrgbcolor
newpath
19425 30973 moveto
P$1l
19415 30717 moveto
P$1m
fill
0 setlinewidth
[] 0 setdash
0 0 0 setrgbcolor
newpath
19685 31056 moveto
P$1y
fill
0 setlinewidth
[] 0 setdash
0 0 0 setrgbcolor
newpath
20785 31314 moveto
P$1z
20889 30723 moveto
P$20
fill
0 setlinewidth
[] 0 setdash
0 0 0 setrgbcolor
newpath
21443 30719 moveto
P$1e
21560 30719 moveto
P$24
fill
grestore
showpage
%plantuml done
%%EOF
