%!PS-Adobe-3.0 EPSF-3.0
%%Creator: PlantUML v1.2021.7       
%%Title: noTitle
%%BoundingBox: 0 0 849 419
%%ColorUsage: Color
%%Origin: 0 0
%%EndComments

gsave
0 419 translate
.01 -.01 scale
/simplerect {
newpath moveto 1 index 0 rlineto
0 exch rlineto
neg 0 rlineto
} def
/roundrect {
newpath
dup 3 index add 2 index 2 index add 2 index 180 270 arc
2 index 5 index add 1 index sub 2 index 2 index add 2 index 270 0 arc
2 index 5 index add 1 index sub 2 index 5 index add 2 index sub 2 index 0 90 arc
dup 3 index add 2 index 5 index add 2 index sub 2 index 90 180 arc
pop pop pop pop pop 
} def
/rquadto {
3 index 3 index 4 2 roll rcurveto
} def
/P$1a {
0 120 rlineto
-103 0 rlineto
0 229 rlineto
0 70 3 82 rquadto
3 10 12 18 rquadto
10 6 26 6 rquadto
20 0 60 -14 rquadto
12 117 rlineto
-53 21 -118 21 rquadto
-42 0 -75 -12 rquadto
-32 -14 -48 -35 rquadto
-14 -21 -20 -59 rquadto
-4 -26 -4 -106 rquadto
0 -248 rlineto
-68 0 rlineto
0 -120 rlineto
68 0 rlineto
0 -114 rlineto
151 -87 rlineto
0 201 rlineto
103 0 rlineto
} def
/P$1b {
140 0 rlineto
0 84 rlineto
26 -43 73 -70 rquadto
46 -26 104 -26 rquadto
98 0 167 78 rquadto
70 76 70 215 rquadto
0 143 -70 223 rquadto
-68 78 -168 78 rquadto
-46 0 -85 -18 rquadto
-37 -18 -81 -64 rquadto
0 287 rlineto
-150 0 rlineto
0 -787 rlineto
closepath
} def
/P$13 {
0 85 40 131 rquadto
40 45 100 45 rquadto
57 0 98 -45 rquadto
40 -45 40 -131 rquadto
0 -84 -40 -129 rquadto
-40 -45 -98 -45 rquadto
-59 0 -100 45 rquadto
-40 45 -40 129 rquadto
} def
/P$8 {
0 -201 112 -300 rquadto
92 -79 228 -79 rquadto
148 0 243 98 rquadto
95 96 95 270 rquadto
0 140 -42 221 rquadto
-42 79 -123 125 rquadto
-79 43 -173 43 rquadto
-153 0 -246 -98 rquadto
-93 -98 -93 -281 rquadto
closepath
} def
/P$2n {
112 -17 rlineto
9 67 53 104 rquadto
43 35 121 35 rquadto
78 0 115 -31 rquadto
39 -32 39 -76 rquadto
0 -39 -34 -60 rquadto
-23 -15 -117 -39 rquadto
-125 -31 -173 -54 rquadto
-48 -23 -73 -64 rquadto
-25 -40 -25 -90 rquadto
0 -45 20 -82 rquadto
20 -39 56 -64 rquadto
26 -20 71 -32 rquadto
46 -14 100 -14 rquadto
78 0 137 23 rquadto
60 21 89 60 rquadto
29 39 40 104 rquadto
-112 15 rlineto
-7 -53 -43 -81 rquadto
-35 -29 -103 -29 rquadto
-78 0 -112 26 rquadto
-34 25 -34 60 rquadto
0 21 14 39 rquadto
14 18 43 31 rquadto
17 6 101 28 rquadto
121 32 168 53 rquadto
48 20 75 60 rquadto
28 39 28 96 rquadto
0 57 -34 107 rquadto
-32 50 -95 78 rquadto
-62 28 -142 28 rquadto
-131 0 -200 -54 rquadto
-68 -54 -87 -162 rquadto
} def
/P$2l {
-82 0 rlineto
190 -304 190 -609 rquadto
0 -120 -28 -237 rquadto
-20 -95 -59 -182 rquadto
-25 -56 -103 -190 rquadto
82 0 rlineto
118 159 176 320 rquadto
48 139 48 289 rquadto
0 171 -65 332 rquadto
-65 159 -159 278 rquadto
closepath
} def
/P$2 {
0 -106 rlineto
-85 123 -231 123 rquadto
-64 0 -120 -25 rquadto
-54 -25 -82 -62 rquadto
-26 -37 -37 -90 rquadto
-7 -35 -7 -115 rquadto
0 -450 rlineto
123 0 rlineto
0 403 rlineto
0 96 7 129 rquadto
10 48 48 76 rquadto
37 28 93 28 rquadto
54 0 103 -28 rquadto
48 -29 68 -78 rquadto
20 -48 20 -142 rquadto
0 -389 rlineto
123 0 rlineto
0 726 rlineto
-109 0 rlineto
} def
/P$16 {
150 25 rlineto
-28 82 -90 126 rquadto
-62 42 -157 42 rquadto
-148 0 -220 -96 rquadto
-56 -78 -56 -196 rquadto
0 -142 73 -221 rquadto
75 -79 189 -79 rquadto
126 0 200 84 rquadto
73 82 70 256 rquadto
-378 0 rlineto
1 67 35 104 rquadto
35 37 87 37 rquadto
35 0 59 -18 rquadto
25 -20 37 -62 rquadto
closepath
} def
/P$7 {
0 -726 rlineto
121 0 rlineto
0 726 rlineto
-121 0 rlineto
} def
/P$2t {
-106 0 rlineto
0 -931 rlineto
115 0 rlineto
0 332 rlineto
71 -90 184 -90 rquadto
62 0 117 25 rquadto
56 25 92 70 rquadto
35 45 56 109 rquadto
20 64 20 137 rquadto
0 173 -85 268 rquadto
-85 93 -206 93 rquadto
-118 0 -187 -100 rquadto
0 84 rlineto
closepath
} def
/P$27 {
0 129 56 195 rquadto
56 64 142 64 rquadto
84 0 140 -64 rquadto
57 -65 57 -198 rquadto
0 -125 -57 -189 rquadto
-56 -65 -140 -65 rquadto
-85 0 -142 64 rquadto
-56 64 -56 193 rquadto
} def
/P$15 {
0 90 25 131 rquadto
35 59 101 59 rquadto
51 0 87 -43 rquadto
37 -45 37 -132 rquadto
0 -98 -35 -140 rquadto
-34 -43 -90 -43 rquadto
-53 0 -89 42 rquadto
-35 42 -35 128 rquadto
} def
/P$2j {
0 129 56 195 rquadto
56 64 142 64 rquadto
84 0 140 -64 rquadto
57 -65 57 -198 rquadto
0 -125 -57 -189 rquadto
-56 -65 -140 -65 rquadto
-85 0 -142 64 rquadto
-56 64 -56 193 rquadto
closepath
} def
/P$c {
17 107 rlineto
-51 10 -92 10 rquadto
-67 0 -104 -20 rquadto
-35 -21 -51 -56 rquadto
-14 -34 -14 -145 rquadto
0 -417 rlineto
-90 0 rlineto
0 -96 rlineto
90 0 rlineto
0 -179 rlineto
121 -73 rlineto
0 253 rlineto
123 0 rlineto
0 96 rlineto
-123 0 rlineto
0 423 rlineto
0 53 6 68 rquadto
6 14 20 23 rquadto
15 9 42 9 rquadto
21 0 54 -4 rquadto
} def
/P$1t {
0 142 rlineto
-121 0 rlineto
0 270 rlineto
0 82 3 96 rquadto
3 14 15 23 rquadto
12 7 29 7 rquadto
25 0 71 -17 rquadto
15 139 rlineto
-62 26 -140 26 rquadto
-48 0 -87 -15 rquadto
-39 -17 -57 -42 rquadto
-17 -26 -23 -70 rquadto
-6 -31 -6 -125 rquadto
0 -293 rlineto
-81 0 rlineto
0 -142 rlineto
81 0 rlineto
0 -134 rlineto
179 -104 rlineto
0 239 rlineto
121 0 rlineto
} def
/P$1j {
0 1009 rlineto
-267 0 rlineto
0 -118 rlineto
123 0 rlineto
0 -773 rlineto
-123 0 rlineto
0 -117 rlineto
267 0 rlineto
closepath
} def
/P$2e {
0 129 54 195 rquadto
54 65 131 65 rquadto
73 0 125 -62 rquadto
53 -62 53 -187 rquadto
0 -135 -56 -203 rquadto
-54 -68 -129 -68 rquadto
-73 0 -126 64 rquadto
-51 62 -51 196 rquadto
} def
/P$1v {
0 -931 rlineto
178 0 rlineto
0 931 rlineto
-178 0 rlineto
} def
/P$a {
0 -1001 rlineto
131 0 rlineto
0 1001 rlineto
-131 0 rlineto
} def
/P$1m {
0 -931 rlineto
121 0 rlineto
0 931 rlineto
-121 0 rlineto
} def
/P$2w {
246 -350 rlineto
-228 -323 rlineto
142 0 rlineto
104 157 rlineto
28 45 46 75 rquadto
26 -42 50 -73 rquadto
114 -159 rlineto
137 0 rlineto
-234 317 rlineto
251 356 rlineto
-140 0 rlineto
-137 -209 rlineto
-37 -56 rlineto
-176 265 rlineto
-139 0 rlineto
} def
/P$9 {
0 139 60 209 rquadto
60 68 153 68 rquadto
90 0 151 -70 rquadto
60 -70 60 -212 rquadto
0 -134 -60 -203 rquadto
-60 -70 -151 -70 rquadto
-92 0 -153 68 rquadto
-60 68 -60 209 rquadto
closepath
} def
/P$1 {
120 -18 rlineto
10 73 57 112 rquadto
46 39 131 39 rquadto
84 0 125 -34 rquadto
42 -34 42 -81 rquadto
0 -42 -37 -65 rquadto
-25 -17 -125 -42 rquadto
-135 -34 -189 -59 rquadto
-51 -25 -78 -68 rquadto
-26 -43 -26 -96 rquadto
0 -48 21 -89 rquadto
21 -42 60 -70 rquadto
28 -20 76 -34 rquadto
50 -15 107 -15 rquadto
84 0 148 25 rquadto
65 23 96 65 rquadto
31 42 42 112 rquadto
-120 17 rlineto
-7 -56 -48 -87 rquadto
-39 -31 -110 -31 rquadto
-84 0 -120 28 rquadto
-35 26 -35 65 rquadto
0 23 14 42 rquadto
15 20 48 32 rquadto
17 6 107 31 rquadto
131 35 182 57 rquadto
51 21 79 64 rquadto
29 42 29 104 rquadto
0 62 -35 117 rquadto
-34 53 -103 84 rquadto
-67 29 -153 29 rquadto
-140 0 -215 -59 rquadto
-73 -59 -93 -175 rquadto
} def
/P$26 {
0 -187 103 -276 rquadto
87 -75 212 -75 rquadto
139 0 226 90 rquadto
89 90 89 251 rquadto
0 129 -39 204 rquadto
-39 75 -114 117 rquadto
-75 40 -162 40 rquadto
-142 0 -229 -90 rquadto
-85 -90 -85 -262 rquadto
closepath
} def
/P$e {
404 0 rlineto
-7 -92 -46 -137 rquadto
-57 -70 -151 -70 rquadto
-85 0 -143 56 rquadto
-56 56 -62 151 rquadto
} def
/P$1n {
0 -673 rlineto
103 0 rlineto
0 101 rlineto
39 -71 71 -93 rquadto
34 -23 73 -23 rquadto
57 0 117 35 rquadto
-39 106 rlineto
-42 -25 -82 -25 rquadto
-37 0 -68 23 rquadto
-29 21 -42 62 rquadto
-18 60 -18 132 rquadto
0 353 rlineto
-114 0 rlineto
} def
/P$5 {
0 -726 rlineto
110 0 rlineto
0 110 rlineto
42 -78 78 -101 rquadto
35 -25 79 -25 rquadto
62 0 126 39 rquadto
-42 114 rlineto
-45 -26 -90 -26 rquadto
-40 0 -73 25 rquadto
-31 23 -45 67 rquadto
-20 65 -20 143 rquadto
0 379 rlineto
-123 0 rlineto
} def
/P$k {
0 -92 rlineto
-70 109 -203 109 rquadto
-87 0 -160 -48 rquadto
-71 -48 -112 -134 rquadto
-39 -85 -39 -196 rquadto
0 -107 35 -196 rquadto
35 -89 107 -135 rquadto
73 -46 162 -46 rquadto
65 0 117 28 rquadto
51 26 82 71 rquadto
0 -359 rlineto
123 0 rlineto
0 1001 rlineto
-114 0 rlineto
closepath
} def
/P$1y {
117 -10 rlineto
7 70 37 115 rquadto
31 43 93 71 rquadto
64 26 143 26 rquadto
70 0 123 -20 rquadto
54 -20 81 -56 rquadto
26 -37 26 -81 rquadto
0 -43 -26 -76 rquadto
-25 -32 -82 -54 rquadto
-37 -14 -165 -45 rquadto
-128 -31 -179 -57 rquadto
-67 -34 -100 -85 rquadto
-32 -53 -32 -117 rquadto
0 -70 39 -131 rquadto
40 -60 117 -92 rquadto
78 -32 171 -32 rquadto
103 0 181 34 rquadto
79 32 121 98 rquadto
43 64 46 145 rquadto
-118 9 rlineto
-9 -89 -64 -132 rquadto
-54 -45 -162 -45 rquadto
-110 0 -162 40 rquadto
-51 40 -51 98 rquadto
0 50 35 82 rquadto
35 32 185 67 rquadto
150 32 206 57 rquadto
81 37 118 95 rquadto
39 57 39 132 rquadto
0 73 -42 139 rquadto
-42 65 -121 103 rquadto
-79 35 -179 35 rquadto
-126 0 -212 -35 rquadto
-84 -37 -132 -110 rquadto
-48 -75 -51 -167 rquadto
} def
/P$14 {
-139 0 rlineto
0 -84 rlineto
-35 50 -84 73 rquadto
-46 23 -93 23 rquadto
-98 0 -168 -78 rquadto
-70 -79 -70 -221 rquadto
0 -145 67 -220 rquadto
68 -75 173 -75 rquadto
95 0 165 79 rquadto
0 -284 rlineto
150 0 rlineto
0 787 rlineto
closepath
} def
/P$1h {
-151 0 rlineto
0 -568 rlineto
-81 76 -193 114 rquadto
0 -135 rlineto
59 -20 128 -73 rquadto
68 -54 95 -126 rquadto
121 0 rlineto
0 790 rlineto
} def
/P$2s {
-256 -673 rlineto
120 0 rlineto
143 403 rlineto
23 65 43 135 rquadto
15 -53 42 -128 rquadto
150 -410 rlineto
117 0 rlineto
-254 673 rlineto
-106 0 rlineto
closepath
} def
/P$1l {
-31 -176 rlineto
0 -153 rlineto
129 0 rlineto
0 153 rlineto
-29 176 rlineto
-68 0 rlineto
} def
/P$29 {
112 14 rlineto
-17 117 -93 182 rquadto
-76 65 -185 65 rquadto
-139 0 -223 -90 rquadto
-82 -90 -82 -259 rquadto
0 -109 35 -190 rquadto
35 -82 109 -123 rquadto
73 -40 160 -40 rquadto
109 0 179 56 rquadto
70 54 89 156 rquadto
-110 17 rlineto
-15 -67 -56 -101 rquadto
-39 -34 -96 -34 rquadto
-85 0 -140 62 rquadto
-53 60 -53 195 rquadto
0 135 51 198 rquadto
51 60 135 60 rquadto
67 0 112 -40 rquadto
45 -42 56 -128 rquadto
} def
/P$b {
0 -726 rlineto
110 0 rlineto
0 103 rlineto
79 -118 231 -118 rquadto
65 0 120 23 rquadto
54 23 81 62 rquadto
28 37 39 90 rquadto
7 34 7 118 rquadto
0 446 rlineto
-123 0 rlineto
0 -442 rlineto
0 -75 -14 -110 rquadto
-14 -37 -51 -59 rquadto
-35 -23 -85 -23 rquadto
-78 0 -135 50 rquadto
-56 50 -56 189 rquadto
0 396 rlineto
-123 0 rlineto
} def
/P$2u {
0 121 34 175 rquadto
53 89 145 89 rquadto
75 0 129 -65 rquadto
54 -65 54 -193 rquadto
0 -132 -53 -195 rquadto
-51 -62 -126 -62 rquadto
-75 0 -129 65 rquadto
-54 64 -54 187 rquadto
} def
/P$1k {
-32 -176 rlineto
0 -153 rlineto
129 0 rlineto
0 153 rlineto
-28 176 rlineto
-68 0 rlineto
} def
/P$1w {
318 -485 rlineto
-289 -445 rlineto
220 0 rlineto
185 300 rlineto
182 -300 rlineto
217 0 rlineto
-289 453 rlineto
318 478 rlineto
-226 0 rlineto
-206 -321 rlineto
-207 321 rlineto
-225 0 rlineto
closepath
} def
/P$h {
132 34 rlineto
-42 162 -151 248 rquadto
-107 85 -264 85 rquadto
-162 0 -264 -65 rquadto
-101 -67 -154 -192 rquadto
-51 -125 -51 -268 rquadto
0 -156 59 -271 rquadto
59 -117 170 -176 rquadto
110 -60 242 -60 rquadto
151 0 253 76 rquadto
103 76 143 214 rquadto
-131 31 rlineto
-34 -109 -101 -159 rquadto
-65 -50 -165 -50 rquadto
-115 0 -193 56 rquadto
-78 54 -109 148 rquadto
-31 93 -31 192 rquadto
0 128 37 223 rquadto
37 95 115 142 rquadto
78 46 170 46 rquadto
110 0 187 -64 rquadto
78 -64 106 -190 rquadto
} def
/P$6 {
0 -140 rlineto
121 0 rlineto
0 140 rlineto
-121 0 rlineto
closepath
} def
/P$3 {
-67 57 -131 82 rquadto
-62 23 -135 23 rquadto
-118 0 -184 -57 rquadto
-64 -59 -64 -151 rquadto
0 -53 23 -96 rquadto
25 -43 64 -70 rquadto
40 -26 89 -40 rquadto
35 -9 109 -18 rquadto
150 -17 220 -42 rquadto
0 -25 0 -31 rquadto
0 -76 -34 -106 rquadto
-46 -42 -140 -42 rquadto
-85 0 -128 31 rquadto
-40 29 -60 106 rquadto
-120 -15 rlineto
15 -78 53 -125 rquadto
39 -46 109 -71 rquadto
71 -26 165 -26 rquadto
92 0 150 21 rquadto
57 21 84 54 rquadto
28 32 39 84 rquadto
6 31 6 112 rquadto
0 164 rlineto
0 171 7 217 rquadto
7 45 31 87 rquadto
-128 0 rlineto
-18 -39 -25 -89 rquadto
closepath
} def
/P$28 {
359 -484 rlineto
-317 -446 rlineto
146 0 rlineto
168 239 rlineto
53 75 75 114 rquadto
31 -50 73 -106 rquadto
187 -246 rlineto
132 0 rlineto
-326 439 rlineto
353 492 rlineto
-153 0 rlineto
-234 -331 rlineto
-18 -29 -40 -62 rquadto
-31 50 -43 68 rquadto
-234 325 rlineto
-146 0 rlineto
} def
/P$2x {
0 -92 rlineto
429 -493 rlineto
-73 4 -129 4 rquadto
-273 0 rlineto
0 -92 rlineto
550 0 rlineto
0 75 rlineto
-364 428 rlineto
-71 78 rlineto
78 -6 145 -6 rquadto
310 0 rlineto
0 98 rlineto
-596 0 rlineto
closepath
} def
/P$1u {
-176 31 rlineto
-7 -51 -40 -78 rquadto
-31 -26 -81 -26 rquadto
-65 0 -106 45 rquadto
-39 45 -39 154 rquadto
0 118 40 168 rquadto
40 50 107 50 rquadto
51 0 82 -28 rquadto
32 -29 45 -100 rquadto
176 29 rlineto
-28 120 -106 182 rquadto
-76 60 -206 60 rquadto
-148 0 -235 -93 rquadto
-87 -93 -87 -257 rquadto
0 -167 87 -259 rquadto
87 -93 239 -93 rquadto
123 0 195 53 rquadto
73 53 104 160 rquadto
} def
/P$q {
167 0 rlineto
0 98 rlineto
32 -51 87 -82 rquadto
54 -31 121 -31 rquadto
118 0 200 92 rquadto
81 92 81 256 rquadto
0 168 -82 262 rquadto
-81 93 -198 93 rquadto
-56 0 -101 -21 rquadto
-45 -23 -95 -76 rquadto
0 339 rlineto
-179 0 rlineto
0 -929 rlineto
closepath
} def
/P$2h {
0 -673 rlineto
103 0 rlineto
0 101 rlineto
39 -71 71 -93 rquadto
34 -23 73 -23 rquadto
57 0 117 35 rquadto
-39 106 rlineto
-42 -25 -82 -25 rquadto
-37 0 -68 23 rquadto
-29 21 -42 62 rquadto
-18 60 -18 132 rquadto
0 353 rlineto
-114 0 rlineto
closepath
} def
/P$1q {
0 -931 rlineto
301 0 rlineto
170 0 223 14 rquadto
79 21 132 92 rquadto
54 70 54 181 rquadto
0 84 -31 143 rquadto
-31 57 -79 92 rquadto
-46 32 -96 43 rquadto
-67 12 -195 12 rquadto
-121 0 rlineto
0 351 rlineto
-187 0 rlineto
closepath
} def
/P$25 {
0 129 53 193 rquadto
54 64 129 64 rquadto
75 0 126 -60 rquadto
53 -62 53 -187 rquadto
0 -139 -53 -203 rquadto
-53 -65 -131 -65 rquadto
-76 0 -128 62 rquadto
-50 62 -50 196 rquadto
} def
/P$2d {
0 -329 rlineto
-26 37 -75 62 rquadto
-48 25 -101 25 rquadto
-120 0 -207 -95 rquadto
-85 -96 -85 -264 rquadto
0 -101 34 -181 rquadto
35 -81 103 -121 rquadto
67 -42 146 -42 rquadto
125 0 196 104 rquadto
0 -89 rlineto
103 0 rlineto
0 931 rlineto
-114 0 rlineto
closepath
} def
/P$2v {
112 -17 rlineto
9 67 53 104 rquadto
43 35 121 35 rquadto
78 0 115 -31 rquadto
39 -32 39 -76 rquadto
0 -39 -34 -60 rquadto
-23 -15 -117 -39 rquadto
-125 -31 -173 -54 rquadto
-48 -23 -73 -64 rquadto
-25 -40 -25 -90 rquadto
0 -45 20 -82 rquadto
20 -39 56 -64 rquadto
26 -20 71 -32 rquadto
46 -14 100 -14 rquadto
78 0 137 23 rquadto
60 21 89 60 rquadto
29 39 40 104 rquadto
-112 15 rlineto
-7 -53 -43 -81 rquadto
-35 -29 -103 -29 rquadto
-78 0 -112 26 rquadto
-34 25 -34 60 rquadto
0 21 14 39 rquadto
14 18 43 31 rquadto
17 6 101 28 rquadto
121 32 168 53 rquadto
48 20 75 60 rquadto
28 39 28 96 rquadto
0 57 -34 107 rquadto
-32 50 -95 78 rquadto
-62 28 -142 28 rquadto
-131 0 -200 -54 rquadto
-68 -54 -87 -162 rquadto
closepath
} def
/P$1p {
-62 26 -185 43 rquadto
-70 10 -100 23 rquadto
-29 12 -45 37 rquadto
-15 23 -15 53 rquadto
0 45 34 76 rquadto
34 29 101 29 rquadto
65 0 117 -28 rquadto
51 -29 76 -79 rquadto
17 -37 17 -114 rquadto
0 -42 rlineto
closepath
} def
/P$z {
-151 0 rlineto
0 -570 rlineto
140 0 rlineto
0 81 rlineto
35 -57 64 -75 rquadto
29 -18 65 -18 rquadto
51 0 100 28 rquadto
-46 131 rlineto
-37 -25 -70 -25 rquadto
-32 0 -54 18 rquadto
-21 17 -34 62 rquadto
-12 45 -12 190 rquadto
0 176 rlineto
} def
/P$w {
0 -85 rlineto
-31 46 -82 73 rquadto
-50 25 -106 25 rquadto
-57 0 -103 -25 rquadto
-45 -25 -67 -70 rquadto
-20 -46 -20 -126 rquadto
0 -360 rlineto
151 0 rlineto
0 262 rlineto
0 120 7 146 rquadto
9 26 31 43 rquadto
21 15 56 15 rquadto
37 0 68 -20 rquadto
31 -21 42 -53 rquadto
10 -32 10 -154 rquadto
0 -240 rlineto
151 0 rlineto
0 570 rlineto
-140 0 rlineto
} def
/P$x {
-137 -25 rlineto
23 -81 79 -120 rquadto
56 -40 167 -40 rquadto
101 0 150 23 rquadto
50 23 70 60 rquadto
20 35 20 134 rquadto
-1 176 rlineto
0 75 6 110 rquadto
7 35 28 76 rquadto
-150 0 rlineto
-6 -15 -14 -45 rquadto
-3 -12 -4 -17 rquadto
-39 37 -84 56 rquadto
-43 18 -93 18 rquadto
-87 0 -139 -46 rquadto
-50 -48 -50 -121 rquadto
0 -48 23 -85 rquadto
23 -37 64 -57 rquadto
42 -20 120 -35 rquadto
106 -18 146 -35 rquadto
0 -15 rlineto
0 -43 -21 -60 rquadto
-21 -18 -81 -18 rquadto
-39 0 -62 15 rquadto
-21 15 -35 54 rquadto
closepath
} def
/P$j {
0 -1001 rlineto
123 0 rlineto
0 1001 rlineto
-123 0 rlineto
} def
/P$2a {
0 -98 rlineto
-79 114 -214 114 rquadto
-59 0 -112 -23 rquadto
-51 -23 -76 -57 rquadto
-25 -34 -34 -84 rquadto
-7 -32 -7 -106 rquadto
0 -417 rlineto
114 0 rlineto
0 373 rlineto
0 89 7 120 rquadto
10 45 45 71 rquadto
34 25 85 25 rquadto
51 0 96 -26 rquadto
45 -26 64 -71 rquadto
18 -45 18 -131 rquadto
0 -360 rlineto
114 0 rlineto
0 673 rlineto
-101 0 rlineto
} def
/P$o {
0 -89 43 -171 rquadto
43 -82 123 -126 rquadto
81 -43 181 -43 rquadto
151 0 250 100 rquadto
98 98 98 250 rquadto
0 153 -100 254 rquadto
-98 100 -248 100 rquadto
-92 0 -176 -42 rquadto
-84 -42 -128 -121 rquadto
-43 -81 -43 -198 rquadto
closepath
} def
/P$17 {
-1 -65 -34 -98 rquadto
-31 -34 -76 -34 rquadto
-50 0 -82 35 rquadto
-31 35 -31 96 rquadto
225 0 rlineto
} def
/P$18 {
-148 26 rlineto
-7 -43 -34 -65 rquadto
-26 -23 -68 -23 rquadto
-56 0 -90 39 rquadto
-32 37 -32 129 rquadto
0 101 32 143 rquadto
34 42 92 42 rquadto
43 0 70 -25 rquadto
28 -25 39 -84 rquadto
148 25 rlineto
-23 103 -89 154 rquadto
-65 51 -175 51 rquadto
-126 0 -201 -78 rquadto
-73 -79 -73 -218 rquadto
0 -142 75 -220 rquadto
75 -78 201 -78 rquadto
104 0 165 45 rquadto
62 43 89 135 rquadto
} def
/P$s {
0 142 rlineto
-121 0 rlineto
0 270 rlineto
0 82 3 96 rquadto
3 14 15 23 rquadto
12 7 29 7 rquadto
25 0 71 -17 rquadto
15 139 rlineto
-62 26 -140 26 rquadto
-48 0 -87 -15 rquadto
-39 -17 -57 -42 rquadto
-17 -26 -23 -70 rquadto
-6 -31 -6 -125 rquadto
0 -293 rlineto
-81 0 rlineto
0 -142 rlineto
81 0 rlineto
0 -134 rlineto
179 -104 rlineto
0 239 rlineto
121 0 rlineto
closepath
} def
/P$r {
0 114 45 168 rquadto
45 53 110 53 rquadto
60 0 101 -50 rquadto
42 -50 42 -162 rquadto
0 -106 -42 -157 rquadto
-42 -51 -104 -51 rquadto
-65 0 -109 51 rquadto
-43 50 -43 148 rquadto
} def
/P$1z {
0 -132 rlineto
114 0 rlineto
0 132 rlineto
-114 0 rlineto
closepath
} def
/P$2p {
357 -931 rlineto
131 0 rlineto
381 931 rlineto
-140 0 rlineto
-107 -281 rlineto
-389 0 rlineto
-103 281 rlineto
-129 0 rlineto
closepath
} def
/P$12 {
0 -75 37 -145 rquadto
37 -70 104 -106 rquadto
68 -37 151 -37 rquadto
129 0 212 84 rquadto
82 82 82 210 rquadto
0 129 -84 215 rquadto
-82 84 -209 84 rquadto
-78 0 -150 -34 rquadto
-70 -35 -107 -104 rquadto
-37 -68 -37 -167 rquadto
closepath
} def
/P$u {
157 0 rlineto
0 426 rlineto
0 101 6 131 rquadto
10 48 48 78 rquadto
39 29 104 29 rquadto
68 0 103 -28 rquadto
34 -28 40 -67 rquadto
7 -40 7 -134 rquadto
0 -435 rlineto
157 0 rlineto
0 414 rlineto
0 140 -12 200 rquadto
-12 57 -46 98 rquadto
-34 40 -93 65 rquadto
-57 23 -151 23 rquadto
-112 0 -170 -26 rquadto
-57 -26 -92 -67 rquadto
-34 -42 -43 -87 rquadto
-15 -68 -15 -200 rquadto
0 -420 rlineto
} def
/P$2m {
0 -931 rlineto
184 0 rlineto
220 659 rlineto
31 92 45 137 rquadto
15 -50 48 -148 rquadto
223 -648 rlineto
165 0 rlineto
0 931 rlineto
-118 0 rlineto
0 -778 rlineto
-270 778 rlineto
-110 0 rlineto
-268 -792 rlineto
0 792 rlineto
-118 0 rlineto
} def
/P$2g {
0 129 53 192 rquadto
53 62 126 62 rquadto
76 0 131 -64 rquadto
54 -65 54 -200 rquadto
0 -129 -53 -193 rquadto
-53 -64 -126 -64 rquadto
-73 0 -129 68 rquadto
-56 67 -56 198 rquadto
} def
/P$2r {
0 -92 rlineto
429 -493 rlineto
-73 4 -129 4 rquadto
-273 0 rlineto
0 -92 rlineto
550 0 rlineto
0 75 rlineto
-364 428 rlineto
-71 78 rlineto
78 -6 145 -6 rquadto
310 0 rlineto
0 98 rlineto
-596 0 rlineto
} def
/P$22 {
376 0 rlineto
-7 -85 -43 -128 rquadto
-54 -65 -140 -65 rquadto
-79 0 -132 53 rquadto
-53 51 -59 140 rquadto
} def
/P$2c {
0 -931 rlineto
114 0 rlineto
0 931 rlineto
-114 0 rlineto
} def
/P$23 {
0 -673 rlineto
103 0 rlineto
0 95 rlineto
73 -110 214 -110 rquadto
60 0 110 21 rquadto
51 21 76 57 rquadto
26 34 35 84 rquadto
6 31 6 110 rquadto
0 414 rlineto
-114 0 rlineto
0 -409 rlineto
0 -70 -14 -104 rquadto
-12 -34 -46 -54 rquadto
-32 -21 -78 -21 rquadto
-73 0 -126 46 rquadto
-53 45 -53 175 rquadto
0 368 rlineto
-114 0 rlineto
} def
/P$4 {
-67 26 -201 46 rquadto
-75 10 -107 25 rquadto
-31 12 -48 39 rquadto
-17 26 -17 57 rquadto
0 50 37 82 rquadto
37 32 109 32 rquadto
71 0 126 -31 rquadto
54 -31 81 -85 rquadto
20 -40 20 -121 rquadto
0 -45 rlineto
} def
/P$n {
0 -1001 rlineto
198 0 rlineto
237 709 rlineto
32 98 48 148 rquadto
17 -54 53 -160 rquadto
239 -696 rlineto
179 0 rlineto
0 1001 rlineto
-128 0 rlineto
0 -839 rlineto
-292 839 rlineto
-118 0 rlineto
-290 -853 rlineto
0 853 rlineto
-126 0 rlineto
} def
/P$24 {
0 -84 rlineto
-64 100 -189 100 rquadto
-79 0 -148 -43 rquadto
-67 -45 -104 -125 rquadto
-37 -79 -37 -182 rquadto
0 -101 34 -182 rquadto
34 -82 101 -126 rquadto
67 -43 150 -43 rquadto
60 0 107 26 rquadto
48 25 78 65 rquadto
0 -334 rlineto
114 0 rlineto
0 931 rlineto
-106 0 rlineto
closepath
} def
/P$19 {
-151 0 rlineto
0 -290 rlineto
0 -92 -9 -118 rquadto
-9 -28 -31 -42 rquadto
-21 -15 -53 -15 rquadto
-39 0 -70 21 rquadto
-31 20 -43 56 rquadto
-10 34 -10 131 rquadto
0 257 rlineto
-150 0 rlineto
0 -570 rlineto
140 0 rlineto
0 84 rlineto
73 -96 187 -96 rquadto
50 0 90 18 rquadto
42 17 62 45 rquadto
21 26 29 62 rquadto
9 35 9 101 rquadto
0 354 rlineto
} def
/P$1f {
0 -787 rlineto
154 0 rlineto
323 526 rlineto
0 -526 rlineto
146 0 rlineto
0 787 rlineto
-159 0 rlineto
-317 -514 rlineto
0 514 rlineto
-148 0 rlineto
} def
/P$2f {
0 -931 rlineto
103 0 rlineto
0 87 rlineto
37 -51 82 -76 rquadto
46 -26 114 -26 rquadto
85 0 151 45 rquadto
65 43 98 125 rquadto
34 79 34 176 rquadto
0 103 -37 185 rquadto
-35 82 -107 128 rquadto
-70 43 -148 43 rquadto
-56 0 -101 -23 rquadto
-45 -25 -75 -62 rquadto
0 328 rlineto
-114 0 rlineto
closepath
} def
/P$l {
0 139 57 209 rquadto
59 68 139 68 rquadto
81 0 137 -65 rquadto
56 -67 56 -201 rquadto
0 -150 -57 -218 rquadto
-57 -70 -140 -70 rquadto
-82 0 -137 67 rquadto
-54 67 -54 210 rquadto
} def
/P$2o {
0 -931 rlineto
114 0 rlineto
0 334 rlineto
79 -92 201 -92 rquadto
75 0 129 29 rquadto
56 29 79 81 rquadto
23 51 23 151 rquadto
0 426 rlineto
-114 0 rlineto
0 -426 rlineto
0 -85 -37 -125 rquadto
-35 -39 -104 -39 rquadto
-50 0 -95 26 rquadto
-45 25 -64 70 rquadto
-18 45 -18 125 rquadto
0 368 rlineto
-114 0 rlineto
} def
/P$1s {
-178 0 rlineto
0 -673 rlineto
165 0 rlineto
0 95 rlineto
42 -68 76 -89 rquadto
34 -21 76 -21 rquadto
60 0 117 32 rquadto
-54 156 rlineto
-45 -29 -84 -29 rquadto
-37 0 -64 21 rquadto
-25 20 -40 75 rquadto
-14 53 -14 225 rquadto
0 207 rlineto
} def
/P$f {
0 -629 rlineto
-109 0 rlineto
0 -96 rlineto
109 0 rlineto
0 -76 rlineto
0 -73 12 -109 rquadto
18 -46 62 -76 rquadto
45 -29 126 -29 rquadto
51 0 114 12 rquadto
-18 106 rlineto
-37 -6 -71 -6 rquadto
-56 0 -79 23 rquadto
-23 23 -23 89 rquadto
0 67 rlineto
142 0 rlineto
0 96 rlineto
-142 0 rlineto
0 629 rlineto
-121 0 rlineto
} def
/P$1r {
0 264 rlineto
103 0 rlineto
110 0 148 -14 rquadto
37 -15 57 -45 rquadto
21 -31 21 -73 rquadto
0 -50 -29 -82 rquadto
-29 -32 -76 -42 rquadto
-32 -6 -134 -6 rquadto
-90 0 rlineto
} def
/P$1o {
-62 53 -121 76 rquadto
-57 21 -125 21 rquadto
-112 0 -171 -54 rquadto
-59 -54 -59 -139 rquadto
0 -48 21 -89 rquadto
23 -42 59 -67 rquadto
37 -25 82 -37 rquadto
32 -7 101 -17 rquadto
137 -15 203 -39 rquadto
1 -23 1 -29 rquadto
0 -70 -32 -98 rquadto
-43 -39 -129 -39 rquadto
-81 0 -120 28 rquadto
-37 28 -56 100 rquadto
-110 -14 rlineto
14 -71 48 -115 rquadto
35 -45 101 -68 rquadto
67 -23 153 -23 rquadto
87 0 140 20 rquadto
54 20 79 51 rquadto
25 29 35 76 rquadto
4 29 4 106 rquadto
0 151 rlineto
0 159 7 201 rquadto
7 42 28 81 rquadto
-118 0 rlineto
-17 -35 -23 -82 rquadto
closepath
} def
/P$2b {
-62 26 -185 43 rquadto
-70 10 -100 23 rquadto
-29 12 -45 37 rquadto
-15 23 -15 53 rquadto
0 45 34 76 rquadto
34 29 101 29 rquadto
65 0 117 -28 rquadto
51 -29 76 -79 rquadto
17 -37 17 -114 rquadto
0 -42 rlineto
} def
/P$21 {
118 14 rlineto
-28 104 -104 162 rquadto
-75 56 -192 56 rquadto
-148 0 -235 -90 rquadto
-85 -92 -85 -256 rquadto
0 -170 87 -264 rquadto
89 -93 228 -93 rquadto
135 0 220 92 rquadto
85 92 85 257 rquadto
0 10 0 31 rquadto
-503 0 rlineto
6 110 62 170 rquadto
56 59 140 59 rquadto
64 0 107 -32 rquadto
45 -34 70 -106 rquadto
closepath
} def
/P$1c {
0 96 37 143 rquadto
39 45 93 45 rquadto
53 0 87 -42 rquadto
35 -42 35 -139 rquadto
0 -89 -35 -132 rquadto
-35 -43 -89 -43 rquadto
-56 0 -93 43 rquadto
-35 42 -35 125 rquadto
} def
/P$2i {
15 100 rlineto
-48 10 -85 10 rquadto
-62 0 -96 -20 rquadto
-34 -20 -48 -51 rquadto
-14 -32 -14 -134 rquadto
0 -389 rlineto
-82 0 rlineto
0 -87 rlineto
82 0 rlineto
0 -167 rlineto
114 -68 rlineto
0 235 rlineto
115 0 rlineto
0 87 rlineto
-115 0 rlineto
0 395 rlineto
0 48 6 62 rquadto
6 14 18 21 rquadto
14 7 39 7 rquadto
20 0 51 -3 rquadto
} def
/P$p {
0 100 46 154 rquadto
48 53 118 53 rquadto
70 0 117 -53 rquadto
46 -54 46 -156 rquadto
0 -98 -46 -151 rquadto
-46 -53 -117 -53 rquadto
-70 0 -118 53 rquadto
-46 53 -46 153 rquadto
} def
/P$0 {
132 0 rlineto
0 578 rlineto
0 151 -34 240 rquadto
-34 89 -123 145 rquadto
-89 54 -234 54 rquadto
-140 0 -231 -48 rquadto
-89 -48 -128 -140 rquadto
-37 -92 -37 -251 rquadto
0 -578 rlineto
132 0 rlineto
0 578 rlineto
0 129 23 192 rquadto
25 60 84 95 rquadto
59 32 145 32 rquadto
145 0 207 -65 rquadto
62 -67 62 -254 rquadto
0 -578 rlineto
} def
/P$10 {
0 -139 rlineto
150 0 rlineto
0 139 rlineto
-150 0 rlineto
closepath
} def
/P$1d {
0 -287 rlineto
-29 39 -73 60 rquadto
-43 21 -95 21 rquadto
-96 0 -159 -73 rquadto
-75 -84 -75 -231 rquadto
0 -137 68 -214 rquadto
70 -76 173 -76 rquadto
57 0 98 25 rquadto
42 23 75 71 rquadto
0 -84 rlineto
139 0 rlineto
0 787 rlineto
-151 0 rlineto
closepath
} def
/P$1g {
0 -204 rlineto
-206 0 rlineto
0 -140 rlineto
206 0 rlineto
0 -204 rlineto
137 0 rlineto
0 204 rlineto
207 0 rlineto
0 140 rlineto
-207 0 rlineto
0 204 rlineto
-137 0 rlineto
} def
/P$2k {
0 -673 rlineto
101 0 rlineto
0 93 rlineto
32 -50 84 -79 rquadto
53 -29 120 -29 rquadto
75 0 121 31 rquadto
48 31 68 85 rquadto
79 -117 207 -117 rquadto
100 0 153 56 rquadto
54 54 54 170 rquadto
0 462 rlineto
-112 0 rlineto
0 -425 rlineto
0 -68 -10 -98 rquadto
-10 -29 -40 -48 rquadto
-29 -18 -68 -18 rquadto
-71 0 -118 48 rquadto
-46 46 -46 150 rquadto
0 392 rlineto
-114 0 rlineto
0 -437 rlineto
0 -76 -28 -114 rquadto
-28 -39 -90 -39 rquadto
-48 0 -89 26 rquadto
-40 25 -59 73 rquadto
-18 48 -18 140 rquadto
0 350 rlineto
-114 0 rlineto
} def
/P$1x {
-95 -118 -160 -278 rquadto
-65 -160 -65 -332 rquadto
0 -150 50 -289 rquadto
56 -160 176 -320 rquadto
81 0 rlineto
-76 132 -101 189 rquadto
-39 87 -60 182 rquadto
-26 118 -26 239 rquadto
0 304 189 609 rquadto
-81 0 rlineto
} def
/P$11 {
0 -570 rlineto
150 0 rlineto
0 570 rlineto
-150 0 rlineto
} def
/P$1e {
0 -87 -35 -129 rquadto
-35 -43 -89 -43 rquadto
-54 0 -92 43 rquadto
-35 43 -35 137 rquadto
0 95 34 137 rquadto
35 40 89 40 rquadto
51 0 90 -46 rquadto
39 -46 39 -139 rquadto
} def
/P$y {
-29 9 -92 23 rquadto
-62 12 -81 25 rquadto
-29 21 -29 53 rquadto
0 32 23 56 rquadto
23 21 59 21 rquadto
40 0 78 -26 rquadto
28 -20 35 -50 rquadto
6 -18 6 -73 rquadto
0 -29 rlineto
} def
/P$1i {
0 -151 rlineto
295 0 rlineto
0 151 rlineto
-295 0 rlineto
} def
/P$i {
0 139 60 209 rquadto
60 68 153 68 rquadto
90 0 151 -70 rquadto
60 -70 60 -212 rquadto
0 -134 -60 -203 rquadto
-60 -70 -151 -70 rquadto
-92 0 -153 68 rquadto
-60 68 -60 209 rquadto
} def
/P$g {
0 -100 rlineto
460 -529 rlineto
-78 3 -139 3 rquadto
-295 0 rlineto
0 -100 rlineto
593 0 rlineto
0 81 rlineto
-393 460 rlineto
-75 84 rlineto
82 -6 154 -6 rquadto
335 0 rlineto
0 106 rlineto
-642 0 rlineto
closepath
} def
/P$d {
128 15 rlineto
-31 112 -112 175 rquadto
-81 60 -207 60 rquadto
-159 0 -253 -98 rquadto
-92 -98 -92 -275 rquadto
0 -184 93 -284 rquadto
95 -101 245 -101 rquadto
145 0 237 100 rquadto
92 98 92 278 rquadto
0 10 0 32 rquadto
-542 0 rlineto
7 118 67 182 rquadto
60 64 153 64 rquadto
67 0 114 -35 rquadto
48 -35 76 -114 rquadto
closepath
} def
/P$v {
150 -23 rlineto
10 43 39 67 rquadto
29 21 82 21 rquadto
59 0 89 -20 rquadto
20 -15 20 -40 rquadto
0 -17 -10 -28 rquadto
-12 -10 -51 -20 rquadto
-181 -40 -231 -73 rquadto
-67 -46 -67 -128 rquadto
0 -75 57 -125 rquadto
59 -50 182 -50 rquadto
117 0 173 37 rquadto
56 37 78 112 rquadto
-142 26 rlineto
-9 -32 -34 -50 rquadto
-25 -18 -73 -18 rquadto
-59 0 -84 17 rquadto
-17 10 -17 29 rquadto
0 17 14 28 rquadto
20 15 140 43 rquadto
121 26 168 65 rquadto
48 40 48 112 rquadto
0 78 -65 134 rquadto
-65 56 -195 56 rquadto
-115 0 -184 -46 rquadto
-67 -46 -87 -128 rquadto
} def
/P$m {
0 -726 rlineto
110 0 rlineto
0 110 rlineto
42 -78 78 -101 rquadto
35 -25 79 -25 rquadto
62 0 126 39 rquadto
-42 114 rlineto
-45 -26 -90 -26 rquadto
-40 0 -73 25 rquadto
-31 23 -45 67 rquadto
-20 65 -20 143 rquadto
0 379 rlineto
-123 0 rlineto
closepath
} def
/P$20 {
0 -673 rlineto
114 0 rlineto
0 673 rlineto
-114 0 rlineto
} def
/P$t {
0 -1009 rlineto
267 0 rlineto
0 118 rlineto
-123 0 rlineto
0 771 rlineto
123 0 rlineto
0 118 rlineto
-267 0 rlineto
} def
/P$2q {
315 0 rlineto
-98 -257 rlineto
-43 -117 -65 -192 rquadto
-17 89 -50 178 rquadto
-101 271 rlineto
} def
0.78 0.78 0.78 setrgbcolor
83400 21816 1400 11060 100 roundrect
closepath eofill
0.71 0.71 0.71 setrgbcolor
83300 21716 1450 11110 100 roundrect
closepath eofill
0.64 0.64 0.64 setrgbcolor
83200 21616 1500 11160 100 roundrect
closepath eofill
0.56 0.56 0.56 setrgbcolor
83100 21516 1550 11210 100 roundrect
closepath eofill
0.49 0.49 0.49 setrgbcolor
83000 21416 1600 11260 100 roundrect
closepath eofill
0.42 0.42 0.42 setrgbcolor
82900 21316 1650 11310 100 roundrect
closepath eofill
0.34 0.34 0.34 setrgbcolor
82800 21216 1700 11360 100 roundrect
closepath eofill
0.27 0.27 0.27 setrgbcolor
82700 21116 1750 11410 100 roundrect
closepath eofill
0.2 0.2 0.2 setrgbcolor
82600 21016 1800 11460 100 roundrect
closepath eofill
1 1 1 setrgbcolor
83400 21816 1000 10660 simplerect
closepath eofill
200 setlinewidth
0 0 0 setrgbcolor
83400 21816 1000 10660 simplerect
closepath stroke
100 setlinewidth
0.66 0 0.21 setrgbcolor
newpath
4700 8960 moveto
25{
0 500 rlineto
0 500 rmoveto
} repeat
0 217 rlineto
stroke
100 setlinewidth
0.66 0 0.21 setrgbcolor
newpath
23900 8960 moveto
25{
0 500 rlineto
0 500 rmoveto
} repeat
0 217 rlineto
stroke
100 setlinewidth
0.66 0 0.21 setrgbcolor
newpath
47350 8960 moveto
25{
0 500 rlineto
0 500 rmoveto
} repeat
0 217 rlineto
stroke
100 setlinewidth
0.66 0 0.21 setrgbcolor
newpath
70900 8960 moveto
25{
0 500 rlineto
0 500 rmoveto
} repeat
0 217 rlineto
stroke
0 setlinewidth
[] 0 setdash
0 0 0 setrgbcolor
newpath
2765 7651 moveto
P$0
fill
0 setlinewidth
[] 0 setdash
0 0 0 setrgbcolor
newpath
2943 8436 moveto
P$1
fill
0 setlinewidth
[] 0 setdash
0 0 0 setrgbcolor
newpath
4168 8653 moveto
P$2
fill
0 setlinewidth
[] 0 setdash
0 0 0 setrgbcolor
newpath
4965 8564 moveto
P$3
4956 8289 moveto
P$4
fill
0 setlinewidth
[] 0 setdash
0 0 0 setrgbcolor
newpath
5290 8653 moveto
P$5
fill
0 setlinewidth
[] 0 setdash
0 0 0 setrgbcolor
newpath
5793 7792 moveto
P$6
5793 8653 moveto
P$7
fill
0 setlinewidth
[] 0 setdash
0 0 0 setrgbcolor
newpath
6046 8290 moveto
P$8
6173 8290 moveto
P$9
fill
0.78 0.78 0.78 setrgbcolor
newpath
5100 1900 800 0 360 arc
closepath eofill
0.71 0.71 0.71 setrgbcolor
newpath
5100 1900 750 0 360 arc
closepath eofill
0.64 0.64 0.64 setrgbcolor
newpath
5100 1900 700 0 360 arc
closepath eofill
0.56 0.56 0.56 setrgbcolor
newpath
5100 1900 650 0 360 arc
closepath eofill
0.49 0.49 0.49 setrgbcolor
newpath
5100 1900 600 0 360 arc
closepath eofill
0.42 0.42 0.42 setrgbcolor
newpath
5100 1900 550 0 360 arc
closepath eofill
0.34 0.34 0.34 setrgbcolor
newpath
5100 1900 500 0 360 arc
closepath eofill
0.27 0.27 0.27 setrgbcolor
newpath
5100 1900 450 0 360 arc
closepath eofill
0.2 0.2 0.2 setrgbcolor
newpath
5100 1900 400 0 360 arc
closepath eofill
1 1 0.81 setrgbcolor
newpath
4700 1500 800 0 360 arc
closepath eofill
200 setlinewidth
0.66 0 0.21 setrgbcolor
newpath
4700 1500 800 0 360 arc
closepath stroke
200 setlinewidth
0.66 0 0.21 setrgbcolor
newpath
4700 2300 moveto
4700 5000 lineto
3400 3100 moveto
6000 3100 lineto
4700 5000 moveto
3400 6500 lineto
4700 5000 moveto
6000 6500 lineto
stroke
0 setlinewidth
[] 0 setdash
0 0 0 setrgbcolor
newpath
2765 34529 moveto
P$0
fill
0 setlinewidth
[] 0 setdash
0 0 0 setrgbcolor
newpath
2943 35313 moveto
P$1
fill
0 setlinewidth
[] 0 setdash
0 0 0 setrgbcolor
newpath
4168 35530 moveto
P$2
fill
0 setlinewidth
[] 0 setdash
0 0 0 setrgbcolor
newpath
4965 35441 moveto
P$3
4956 35166 moveto
P$4
fill
0 setlinewidth
[] 0 setdash
0 0 0 setrgbcolor
newpath
5290 35530 moveto
P$5
fill
0 setlinewidth
[] 0 setdash
0 0 0 setrgbcolor
newpath
5793 34669 moveto
P$6
5793 35530 moveto
P$7
fill
0 setlinewidth
[] 0 setdash
0 0 0 setrgbcolor
newpath
6046 35168 moveto
P$8
6173 35168 moveto
P$9
fill
0.78 0.78 0.78 setrgbcolor
newpath
5100 37238 800 0 360 arc
closepath eofill
0.71 0.71 0.71 setrgbcolor
newpath
5100 37238 750 0 360 arc
closepath eofill
0.64 0.64 0.64 setrgbcolor
newpath
5100 37238 700 0 360 arc
closepath eofill
0.56 0.56 0.56 setrgbcolor
newpath
5100 37238 650 0 360 arc
closepath eofill
0.49 0.49 0.49 setrgbcolor
newpath
5100 37238 600 0 360 arc
closepath eofill
0.42 0.42 0.42 setrgbcolor
newpath
5100 37238 550 0 360 arc
closepath eofill
0.34 0.34 0.34 setrgbcolor
newpath
5100 37238 500 0 360 arc
closepath eofill
0.27 0.27 0.27 setrgbcolor
newpath
5100 37238 450 0 360 arc
closepath eofill
0.2 0.2 0.2 setrgbcolor
newpath
5100 37238 400 0 360 arc
closepath eofill
1 1 0.81 setrgbcolor
newpath
4700 36838 800 0 360 arc
closepath eofill
200 setlinewidth
0.66 0 0.21 setrgbcolor
newpath
4700 36838 800 0 360 arc
closepath stroke
200 setlinewidth
0.66 0 0.21 setrgbcolor
newpath
4700 37638 moveto
4700 40338 lineto
3400 38438 moveto
6000 38438 lineto
4700 40338 moveto
3400 41838 lineto
4700 40338 moveto
6000 41838 lineto
stroke
0.78 0.78 0.78 setrgbcolor
6000 3160 21100 5700 100 roundrect
closepath eofill
0.71 0.71 0.71 setrgbcolor
5900 3060 21150 5750 100 roundrect
closepath eofill
0.64 0.64 0.64 setrgbcolor
5800 2960 21200 5800 100 roundrect
closepath eofill
0.56 0.56 0.56 setrgbcolor
5700 2860 21250 5850 100 roundrect
closepath eofill
0.49 0.49 0.49 setrgbcolor
5600 2760 21300 5900 100 roundrect
closepath eofill
0.42 0.42 0.42 setrgbcolor
5500 2660 21350 5950 100 roundrect
closepath eofill
0.34 0.34 0.34 setrgbcolor
5400 2560 21400 6000 100 roundrect
closepath eofill
0.27 0.27 0.27 setrgbcolor
5300 2460 21450 6050 100 roundrect
closepath eofill
0.2 0.2 0.2 setrgbcolor
5200 2360 21500 6100 100 roundrect
closepath eofill
1 1 0.81 setrgbcolor
6000 3160 20700 5300 simplerect
closepath eofill
150 setlinewidth
0.66 0 0.21 setrgbcolor
6000 3160 20700 5300 simplerect
closepath stroke
0 setlinewidth
[] 0 setdash
0 0 0 setrgbcolor
newpath
21531 7453 moveto
P$a
fill
0 setlinewidth
[] 0 setdash
0 0 0 setrgbcolor
newpath
21792 7453 moveto
P$b
fill
0 setlinewidth
[] 0 setdash
0 0 0 setrgbcolor
newpath
22860 7343 moveto
P$c
fill
0 setlinewidth
[] 0 setdash
0 0 0 setrgbcolor
newpath
23489 7218 moveto
P$d
23085 7020 moveto
P$e
fill
0 setlinewidth
[] 0 setdash
0 0 0 setrgbcolor
newpath
23790 7453 moveto
P$5
fill
0 setlinewidth
[] 0 setdash
0 0 0 setrgbcolor
newpath
24321 7453 moveto
P$f
fill
0 setlinewidth
[] 0 setdash
0 0 0 setrgbcolor
newpath
25165 7364 moveto
P$3
25156 7089 moveto
P$4
fill
0 setlinewidth
[] 0 setdash
0 0 0 setrgbcolor
newpath
25428 7453 moveto
P$g
fill
0.78 0.78 0.78 setrgbcolor
6000 3160 21100 34477 100 roundrect
closepath eofill
0.71 0.71 0.71 setrgbcolor
5900 3060 21150 34527 100 roundrect
closepath eofill
0.64 0.64 0.64 setrgbcolor
5800 2960 21200 34577 100 roundrect
closepath eofill
0.56 0.56 0.56 setrgbcolor
5700 2860 21250 34627 100 roundrect
closepath eofill
0.49 0.49 0.49 setrgbcolor
5600 2760 21300 34677 100 roundrect
closepath eofill
0.42 0.42 0.42 setrgbcolor
5500 2660 21350 34727 100 roundrect
closepath eofill
0.34 0.34 0.34 setrgbcolor
5400 2560 21400 34777 100 roundrect
closepath eofill
0.27 0.27 0.27 setrgbcolor
5300 2460 21450 34827 100 roundrect
closepath eofill
0.2 0.2 0.2 setrgbcolor
5200 2360 21500 34877 100 roundrect
closepath eofill
1 1 0.81 setrgbcolor
6000 3160 20700 34077 simplerect
closepath eofill
150 setlinewidth
0.66 0 0.21 setrgbcolor
6000 3160 20700 34077 simplerect
closepath stroke
0 setlinewidth
[] 0 setdash
0 0 0 setrgbcolor
newpath
21531 36230 moveto
P$a
fill
0 setlinewidth
[] 0 setdash
0 0 0 setrgbcolor
newpath
21792 36230 moveto
P$b
fill
0 setlinewidth
[] 0 setdash
0 0 0 setrgbcolor
newpath
22860 36121 moveto
P$c
fill
0 setlinewidth
[] 0 setdash
0 0 0 setrgbcolor
newpath
23489 35996 moveto
P$d
23085 35797 moveto
P$e
fill
0 setlinewidth
[] 0 setdash
0 0 0 setrgbcolor
newpath
23790 36230 moveto
P$5
fill
0 setlinewidth
[] 0 setdash
0 0 0 setrgbcolor
newpath
24321 36230 moveto
P$f
fill
0 setlinewidth
[] 0 setdash
0 0 0 setrgbcolor
newpath
25165 36141 moveto
P$3
25156 35866 moveto
P$4
fill
0 setlinewidth
[] 0 setdash
0 0 0 setrgbcolor
newpath
25428 36230 moveto
P$g
fill
0.78 0.78 0.78 setrgbcolor
8900 3160 43150 5700 100 roundrect
closepath eofill
0.71 0.71 0.71 setrgbcolor
8800 3060 43200 5750 100 roundrect
closepath eofill
0.64 0.64 0.64 setrgbcolor
8700 2960 43250 5800 100 roundrect
closepath eofill
0.56 0.56 0.56 setrgbcolor
8600 2860 43300 5850 100 roundrect
closepath eofill
0.49 0.49 0.49 setrgbcolor
8500 2760 43350 5900 100 roundrect
closepath eofill
0.42 0.42 0.42 setrgbcolor
8400 2660 43400 5950 100 roundrect
closepath eofill
0.34 0.34 0.34 setrgbcolor
8300 2560 43450 6000 100 roundrect
closepath eofill
0.27 0.27 0.27 setrgbcolor
8200 2460 43500 6050 100 roundrect
closepath eofill
0.2 0.2 0.2 setrgbcolor
8100 2360 43550 6100 100 roundrect
closepath eofill
1 1 0.81 setrgbcolor
8900 3160 42750 5300 simplerect
closepath eofill
150 setlinewidth
0.66 0 0.21 setrgbcolor
8900 3160 42750 5300 simplerect
closepath stroke
0 setlinewidth
[] 0 setdash
0 0 0 setrgbcolor
newpath
44273 7101 moveto
P$h
fill
0 setlinewidth
[] 0 setdash
0 0 0 setrgbcolor
newpath
44496 7090 moveto
P$8
44623 7090 moveto
P$i
fill
0 setlinewidth
[] 0 setdash
0 0 0 setrgbcolor
newpath
45342 7453 moveto
P$b
fill
0 setlinewidth
[] 0 setdash
0 0 0 setrgbcolor
newpath
46410 7343 moveto
P$c
fill
0 setlinewidth
[] 0 setdash
0 0 0 setrgbcolor
newpath
46540 7453 moveto
P$5
fill
0 setlinewidth
[] 0 setdash
0 0 0 setrgbcolor
newpath
46996 7090 moveto
P$8
47123 7090 moveto
P$i
fill
0 setlinewidth
[] 0 setdash
0 0 0 setrgbcolor
newpath
47839 7453 moveto
P$j
fill
0 setlinewidth
[] 0 setdash
0 0 0 setrgbcolor
newpath
48615 7364 moveto
P$3
48606 7089 moveto
P$4
fill
0 setlinewidth
[] 0 setdash
0 0 0 setrgbcolor
newpath
49414 7453 moveto
P$k
49025 7090 moveto
P$l
fill
0 setlinewidth
[] 0 setdash
0 0 0 setrgbcolor
newpath
49696 7090 moveto
P$8
49823 7090 moveto
P$i
fill
0 setlinewidth
[] 0 setdash
0 0 0 setrgbcolor
newpath
50540 7453 moveto
P$m
fill
0.78 0.78 0.78 setrgbcolor
8900 3160 43150 34477 100 roundrect
closepath eofill
0.71 0.71 0.71 setrgbcolor
8800 3060 43200 34527 100 roundrect
closepath eofill
0.64 0.64 0.64 setrgbcolor
8700 2960 43250 34577 100 roundrect
closepath eofill
0.56 0.56 0.56 setrgbcolor
8600 2860 43300 34627 100 roundrect
closepath eofill
0.49 0.49 0.49 setrgbcolor
8500 2760 43350 34677 100 roundrect
closepath eofill
0.42 0.42 0.42 setrgbcolor
8400 2660 43400 34727 100 roundrect
closepath eofill
0.34 0.34 0.34 setrgbcolor
8300 2560 43450 34777 100 roundrect
closepath eofill
0.27 0.27 0.27 setrgbcolor
8200 2460 43500 34827 100 roundrect
closepath eofill
0.2 0.2 0.2 setrgbcolor
8100 2360 43550 34877 100 roundrect
closepath eofill
1 1 0.81 setrgbcolor
8900 3160 42750 34077 simplerect
closepath eofill
150 setlinewidth
0.66 0 0.21 setrgbcolor
8900 3160 42750 34077 simplerect
closepath stroke
0 setlinewidth
[] 0 setdash
0 0 0 setrgbcolor
newpath
44273 35879 moveto
P$h
fill
0 setlinewidth
[] 0 setdash
0 0 0 setrgbcolor
newpath
44496 35868 moveto
P$8
44623 35868 moveto
P$i
fill
0 setlinewidth
[] 0 setdash
0 0 0 setrgbcolor
newpath
45342 36230 moveto
P$b
fill
0 setlinewidth
[] 0 setdash
0 0 0 setrgbcolor
newpath
46410 36121 moveto
P$c
fill
0 setlinewidth
[] 0 setdash
0 0 0 setrgbcolor
newpath
46540 36230 moveto
P$5
fill
0 setlinewidth
[] 0 setdash
0 0 0 setrgbcolor
newpath
46996 35868 moveto
P$8
47123 35868 moveto
P$i
fill
0 setlinewidth
[] 0 setdash
0 0 0 setrgbcolor
newpath
47839 36230 moveto
P$j
fill
0 setlinewidth
[] 0 setdash
0 0 0 setrgbcolor
newpath
48615 36141 moveto
P$3
48606 35866 moveto
P$4
fill
0 setlinewidth
[] 0 setdash
0 0 0 setrgbcolor
newpath
49414 36230 moveto
P$k
49025 35868 moveto
P$l
fill
0 setlinewidth
[] 0 setdash
0 0 0 setrgbcolor
newpath
49696 35868 moveto
P$8
49823 35868 moveto
P$i
fill
0 setlinewidth
[] 0 setdash
0 0 0 setrgbcolor
newpath
50540 36230 moveto
P$m
fill
0.78 0.78 0.78 setrgbcolor
6000 3160 68100 5700 100 roundrect
closepath eofill
0.71 0.71 0.71 setrgbcolor
5900 3060 68150 5750 100 roundrect
closepath eofill
0.64 0.64 0.64 setrgbcolor
5800 2960 68200 5800 100 roundrect
closepath eofill
0.56 0.56 0.56 setrgbcolor
5700 2860 68250 5850 100 roundrect
closepath eofill
0.49 0.49 0.49 setrgbcolor
5600 2760 68300 5900 100 roundrect
closepath eofill
0.42 0.42 0.42 setrgbcolor
5500 2660 68350 5950 100 roundrect
closepath eofill
0.34 0.34 0.34 setrgbcolor
5400 2560 68400 6000 100 roundrect
closepath eofill
0.27 0.27 0.27 setrgbcolor
5300 2460 68450 6050 100 roundrect
closepath eofill
0.2 0.2 0.2 setrgbcolor
5200 2360 68500 6100 100 roundrect
closepath eofill
1 1 0.81 setrgbcolor
6000 3160 67700 5300 simplerect
closepath eofill
150 setlinewidth
0.66 0 0.21 setrgbcolor
6000 3160 67700 5300 simplerect
closepath stroke
0 setlinewidth
[] 0 setdash
0 0 0 setrgbcolor
newpath
68504 7453 moveto
P$n
fill
0 setlinewidth
[] 0 setdash
0 0 0 setrgbcolor
newpath
69546 7090 moveto
P$8
69673 7090 moveto
P$i
fill
0 setlinewidth
[] 0 setdash
0 0 0 setrgbcolor
newpath
70864 7453 moveto
P$k
70475 7090 moveto
P$l
fill
0 setlinewidth
[] 0 setdash
0 0 0 setrgbcolor
newpath
71689 7218 moveto
P$d
71285 7020 moveto
P$e
fill
0 setlinewidth
[] 0 setdash
0 0 0 setrgbcolor
newpath
71989 7453 moveto
P$j
fill
0 setlinewidth
[] 0 setdash
0 0 0 setrgbcolor
newpath
72246 7090 moveto
P$8
72373 7090 moveto
P$9
fill
0.78 0.78 0.78 setrgbcolor
6000 3160 68100 34477 100 roundrect
closepath eofill
0.71 0.71 0.71 setrgbcolor
5900 3060 68150 34527 100 roundrect
closepath eofill
0.64 0.64 0.64 setrgbcolor
5800 2960 68200 34577 100 roundrect
closepath eofill
0.56 0.56 0.56 setrgbcolor
5700 2860 68250 34627 100 roundrect
closepath eofill
0.49 0.49 0.49 setrgbcolor
5600 2760 68300 34677 100 roundrect
closepath eofill
0.42 0.42 0.42 setrgbcolor
5500 2660 68350 34727 100 roundrect
closepath eofill
0.34 0.34 0.34 setrgbcolor
5400 2560 68400 34777 100 roundrect
closepath eofill
0.27 0.27 0.27 setrgbcolor
5300 2460 68450 34827 100 roundrect
closepath eofill
0.2 0.2 0.2 setrgbcolor
5200 2360 68500 34877 100 roundrect
closepath eofill
1 1 0.81 setrgbcolor
6000 3160 67700 34077 simplerect
closepath eofill
150 setlinewidth
0.66 0 0.21 setrgbcolor
6000 3160 67700 34077 simplerect
closepath stroke
0 setlinewidth
[] 0 setdash
0 0 0 setrgbcolor
newpath
68504 36230 moveto
P$n
fill
0 setlinewidth
[] 0 setdash
0 0 0 setrgbcolor
newpath
69546 35868 moveto
P$8
69673 35868 moveto
P$i
fill
0 setlinewidth
[] 0 setdash
0 0 0 setrgbcolor
newpath
70864 36230 moveto
P$k
70475 35868 moveto
P$l
fill
0 setlinewidth
[] 0 setdash
0 0 0 setrgbcolor
newpath
71689 35996 moveto
P$d
71285 35797 moveto
P$e
fill
0 setlinewidth
[] 0 setdash
0 0 0 setrgbcolor
newpath
71989 36230 moveto
P$j
fill
0 setlinewidth
[] 0 setdash
0 0 0 setrgbcolor
newpath
72246 35868 moveto
P$8
72373 35868 moveto
P$9
fill
0.93 0.93 0.93 setrgbcolor
newpath
1000 10660 moveto
7500 10660 lineto
7500 11460 lineto
6500 12460 lineto
1000 12460 lineto
1000 10660 lineto
closepath eofill
100 setlinewidth
0 0 0 setrgbcolor
newpath
1000 10660 moveto
7500 10660 lineto
7500 11460 lineto
6500 12460 lineto
1000 12460 lineto
1000 10660 lineto
stroke
200 setlinewidth
0 0 0 setrgbcolor
83400 21816 1000 10660 simplerect
closepath stroke
0 setlinewidth
[] 0 setdash
0 0 0 setrgbcolor
newpath
2551 11763 moveto
P$o
2734 11772 moveto
P$p
fill
0 setlinewidth
[] 0 setdash
0 0 0 setrgbcolor
newpath
3387 11437 moveto
P$q
3564 11762 moveto
P$r
fill
0 setlinewidth
[] 0 setdash
0 0 0 setrgbcolor
newpath
4503 11437 moveto
P$s
fill
0 setlinewidth
[] 0 setdash
0 0 0 setrgbcolor
newpath
9078 12224 moveto
P$t
fill
0 setlinewidth
[] 0 setdash
0 0 0 setrgbcolor
newpath
9479 11215 moveto
P$u
fill
0 setlinewidth
[] 0 setdash
0 0 0 setrgbcolor
newpath
10126 11840 moveto
P$v
fill
0 setlinewidth
[] 0 setdash
0 0 0 setrgbcolor
newpath
11254 12002 moveto
P$w
fill
0 setlinewidth
[] 0 setdash
0 0 0 setrgbcolor
newpath
11692 11605 moveto
P$x
11893 11729 moveto
P$y
fill
0 setlinewidth
[] 0 setdash
0 0 0 setrgbcolor
newpath
12323 12002 moveto
P$z
fill
0 setlinewidth
[] 0 setdash
0 0 0 setrgbcolor
newpath
12679 11354 moveto
P$10
12679 12002 moveto
P$11
fill
0 setlinewidth
[] 0 setdash
0 0 0 setrgbcolor
newpath
12943 11709 moveto
P$12
13098 11716 moveto
P$13
fill
0 setlinewidth
[] 0 setdash
0 0 0 setrgbcolor
newpath
14501 12002 moveto
P$14
14100 11705 moveto
P$15
fill
0 setlinewidth
[] 0 setdash
0 0 0 setrgbcolor
newpath
15009 11821 moveto
P$16
15017 11668 moveto
P$17
fill
0 setlinewidth
[] 0 setdash
0 0 0 setrgbcolor
newpath
15876 11601 moveto
P$18
fill
0 setlinewidth
[] 0 setdash
0 0 0 setrgbcolor
newpath
15979 11354 moveto
P$10
15979 12002 moveto
P$11
fill
0 setlinewidth
[] 0 setdash
0 0 0 setrgbcolor
newpath
16801 12002 moveto
P$14
16400 11705 moveto
P$15
fill
0 setlinewidth
[] 0 setdash
0 0 0 setrgbcolor
newpath
17309 11821 moveto
P$16
17317 11668 moveto
P$17
fill
0 setlinewidth
[] 0 setdash
0 0 0 setrgbcolor
newpath
18476 11601 moveto
P$18
fill
0 setlinewidth
[] 0 setdash
0 0 0 setrgbcolor
newpath
18723 12002 moveto
P$z
fill
0 setlinewidth
[] 0 setdash
0 0 0 setrgbcolor
newpath
19409 11821 moveto
P$16
19417 11668 moveto
P$17
fill
0 setlinewidth
[] 0 setdash
0 0 0 setrgbcolor
newpath
19892 11605 moveto
P$x
20093 11729 moveto
P$y
fill
0 setlinewidth
[] 0 setdash
0 0 0 setrgbcolor
newpath
20523 12002 moveto
P$z
fill
0 setlinewidth
[] 0 setdash
0 0 0 setrgbcolor
newpath
21292 11605 moveto
P$x
21493 11729 moveto
P$y
fill
0 setlinewidth
[] 0 setdash
0 0 0 setrgbcolor
newpath
22298 12002 moveto
P$19
fill
0 setlinewidth
[] 0 setdash
0 0 0 setrgbcolor
newpath
22740 11432 moveto
P$1a
fill
0 setlinewidth
[] 0 setdash
0 0 0 setrgbcolor
newpath
23209 11821 moveto
P$16
23217 11668 moveto
P$17
fill
0 setlinewidth
[] 0 setdash
0 0 0 setrgbcolor
newpath
23526 11840 moveto
P$v
fill
0 setlinewidth
[] 0 setdash
0 0 0 setrgbcolor
newpath
24575 11432 moveto
P$1b
24723 11707 moveto
P$1c
fill
0 setlinewidth
[] 0 setdash
0 0 0 setrgbcolor
newpath
25392 11605 moveto
P$x
25593 11729 moveto
P$y
fill
0 setlinewidth
[] 0 setdash
0 0 0 setrgbcolor
newpath
26251 12220 moveto
P$1d
26256 11710 moveto
P$1e
fill
0 setlinewidth
[] 0 setdash
0 0 0 setrgbcolor
newpath
26954 12002 moveto
P$w
fill
0 setlinewidth
[] 0 setdash
0 0 0 setrgbcolor
newpath
27609 11821 moveto
P$16
27617 11668 moveto
P$17
fill
0 setlinewidth
[] 0 setdash
0 0 0 setrgbcolor
newpath
28240 11432 moveto
P$1a
fill
0 setlinewidth
[] 0 setdash
0 0 0 setrgbcolor
newpath
28709 11821 moveto
P$16
28717 11668 moveto
P$17
fill
0 setlinewidth
[] 0 setdash
0 0 0 setrgbcolor
newpath
29901 12002 moveto
P$14
29500 11705 moveto
P$15
fill
0 setlinewidth
[] 0 setdash
0 0 0 setrgbcolor
newpath
30409 11821 moveto
P$16
30417 11668 moveto
P$17
fill
0 setlinewidth
[] 0 setdash
0 0 0 setrgbcolor
newpath
31576 11601 moveto
P$18
fill
0 setlinewidth
[] 0 setdash
0 0 0 setrgbcolor
newpath
31792 11605 moveto
P$x
31993 11729 moveto
P$y
fill
0 setlinewidth
[] 0 setdash
0 0 0 setrgbcolor
newpath
32275 11432 moveto
P$1b
32423 11707 moveto
P$1c
fill
0 setlinewidth
[] 0 setdash
0 0 0 setrgbcolor
newpath
33092 11605 moveto
P$x
33293 11729 moveto
P$y
fill
0 setlinewidth
[] 0 setdash
0 0 0 setrgbcolor
newpath
33881 12002 moveto
P$1f
fill
0 setlinewidth
[] 0 setdash
0 0 0 setrgbcolor
newpath
34751 11888 moveto
P$1g
fill
0 setlinewidth
[] 0 setdash
0 0 0 setrgbcolor
newpath
35532 12002 moveto
P$1h
fill
0 setlinewidth
[] 0 setdash
0 0 0 setrgbcolor
newpath
36043 11709 moveto
P$12
36198 11716 moveto
P$13
fill
0 setlinewidth
[] 0 setdash
0 0 0 setrgbcolor
newpath
37081 12002 moveto
P$1f
fill
0 setlinewidth
[] 0 setdash
0 0 0 setrgbcolor
newpath
37762 11793 moveto
P$1i
fill
0 setlinewidth
[] 0 setdash
0 0 0 setrgbcolor
newpath
38532 12002 moveto
P$1h
fill
0 setlinewidth
[] 0 setdash
0 0 0 setrgbcolor
newpath
38987 11215 moveto
P$1j
fill
0.66 0 0.21 setrgbcolor
newpath
22700 17601 moveto
1000 400 rlineto
-1000 400 rlineto
400 -400 rlineto
22700 17601 lineto
closepath eofill
200 setlinewidth
0.66 0 0.21 setrgbcolor
newpath
22700 17601 moveto
1000 400 rlineto
-1000 400 rlineto
400 -400 rlineto
22700 17601 lineto
closepath stroke
100 setlinewidth
0.66 0 0.21 setrgbcolor
newpath
4700 18001 moveto
18600 0 rlineto
stroke
0 setlinewidth
[] 0 setdash
0 0 0 setrgbcolor
newpath
5492 13644 moveto
P$1k
fill
0 setlinewidth
[] 0 setdash
0 0 0 setrgbcolor
newpath
5701 13644 moveto
P$1l
fill
0 setlinewidth
[] 0 setdash
0 0 0 setrgbcolor
newpath
6021 14245 moveto
P$1m
fill
0 setlinewidth
[] 0 setdash
0 0 0 setrgbcolor
newpath
6284 14245 moveto
P$1n
fill
0 setlinewidth
[] 0 setdash
0 0 0 setrgbcolor
newpath
7525 14162 moveto
P$1o
7515 13906 moveto
P$1p
fill
0 setlinewidth
[] 0 setdash
0 0 0 setrgbcolor
newpath
8195 14245 moveto
P$1q
8382 13472 moveto
P$1r
fill
0 setlinewidth
[] 0 setdash
0 0 0 setrgbcolor
newpath
9264 14245 moveto
P$1s
fill
0 setlinewidth
[] 0 setdash
0 0 0 setrgbcolor
newpath
9551 13898 moveto
P$o
9734 13908 moveto
P$p
fill
0 setlinewidth
[] 0 setdash
0 0 0 setrgbcolor
newpath
10703 13572 moveto
P$1t
fill
0 setlinewidth
[] 0 setdash
0 0 0 setrgbcolor
newpath
10751 13898 moveto
P$o
10934 13908 moveto
P$p
fill
0 setlinewidth
[] 0 setdash
0 0 0 setrgbcolor
newpath
12181 13770 moveto
P$1u
fill
0 setlinewidth
[] 0 setdash
0 0 0 setrgbcolor
newpath
12251 13898 moveto
P$o
12434 13908 moveto
P$p
fill
0 setlinewidth
[] 0 setdash
0 0 0 setrgbcolor
newpath
13093 14245 moveto
P$1v
fill
0 setlinewidth
[] 0 setdash
0 0 0 setrgbcolor
newpath
13451 13898 moveto
P$o
13634 13908 moveto
P$p
fill
0 setlinewidth
[] 0 setdash
0 0 0 setrgbcolor
newpath
14600 14245 moveto
P$1w
fill
0 setlinewidth
[] 0 setdash
0 0 0 setrgbcolor
newpath
5704 16154 moveto
P$1x
fill
0 setlinewidth
[] 0 setdash
0 0 0 setrgbcolor
newpath
5857 15582 moveto
P$1y
fill
0 setlinewidth
[] 0 setdash
0 0 0 setrgbcolor
newpath
6785 15082 moveto
P$1z
6785 15880 moveto
P$20
fill
0 setlinewidth
[] 0 setdash
0 0 0 setrgbcolor
newpath
7546 15663 moveto
P$21
7171 15479 moveto
P$22
fill
0 setlinewidth
[] 0 setdash
0 0 0 setrgbcolor
newpath
7785 15880 moveto
P$23
fill
0 setlinewidth
[] 0 setdash
0 0 0 setrgbcolor
newpath
8923 15880 moveto
P$24
8562 15544 moveto
P$25
fill
0 setlinewidth
[] 0 setdash
0 0 0 setrgbcolor
newpath
9143 15543 moveto
P$26
9260 15543 moveto
P$27
fill
0 setlinewidth
[] 0 setdash
0 0 0 setrgbcolor
newpath
10206 15880 moveto
P$28
fill
0 setlinewidth
[] 0 setdash
0 0 0 setrgbcolor
newpath
11825 15633 moveto
P$29
fill
0 setlinewidth
[] 0 setdash
0 0 0 setrgbcolor
newpath
12528 15880 moveto
P$2a
fill
0 setlinewidth
[] 0 setdash
0 0 0 setrgbcolor
newpath
13225 15797 moveto
P$1o
13215 15541 moveto
P$2b
fill
0 setlinewidth
[] 0 setdash
0 0 0 setrgbcolor
newpath
13482 15880 moveto
P$2c
fill
0 setlinewidth
[] 0 setdash
0 0 0 setrgbcolor
newpath
14215 16138 moveto
P$2d
13862 15541 moveto
P$2e
fill
0 setlinewidth
[] 0 setdash
0 0 0 setrgbcolor
newpath
14928 15880 moveto
P$2a
fill
0 setlinewidth
[] 0 setdash
0 0 0 setrgbcolor
newpath
15185 15082 moveto
P$1z
15185 15880 moveto
P$20
fill
0 setlinewidth
[] 0 setdash
0 0 0 setrgbcolor
newpath
15946 15663 moveto
P$21
15571 15479 moveto
P$22
fill
0 setlinewidth
[] 0 setdash
0 0 0 setrgbcolor
newpath
16184 15880 moveto
P$1n
fill
0 setlinewidth
[] 0 setdash
0 0 0 setrgbcolor
newpath
16985 16138 moveto
P$2f
17089 15547 moveto
P$2g
fill
0 setlinewidth
[] 0 setdash
0 0 0 setrgbcolor
newpath
17684 15880 moveto
P$2h
18043 15543 moveto
P$26
18160 15543 moveto
P$27
fill
0 setlinewidth
[] 0 setdash
0 0 0 setrgbcolor
newpath
19035 15779 moveto
P$2i
fill
0 setlinewidth
[] 0 setdash
0 0 0 setrgbcolor
newpath
19143 15543 moveto
P$26
19260 15543 moveto
P$27
fill
0 setlinewidth
[] 0 setdash
0 0 0 setrgbcolor
newpath
20325 15633 moveto
P$29
fill
0 setlinewidth
[] 0 setdash
0 0 0 setrgbcolor
newpath
20543 15543 moveto
P$26
20660 15543 moveto
P$27
fill
0 setlinewidth
[] 0 setdash
0 0 0 setrgbcolor
newpath
21282 15880 moveto
P$2c
fill
0 setlinewidth
[] 0 setdash
0 0 0 setrgbcolor
newpath
21543 15543 moveto
P$26
21660 15543 moveto
P$2j
fill
0 setlinewidth
[] 0 setdash
0 0 0 setrgbcolor
newpath
5925 17269 moveto
P$29
fill
0 setlinewidth
[] 0 setdash
0 0 0 setrgbcolor
newpath
6143 17178 moveto
P$26
6260 17178 moveto
P$27
fill
0 setlinewidth
[] 0 setdash
0 0 0 setrgbcolor
newpath
6885 17515 moveto
P$23
fill
0 setlinewidth
[] 0 setdash
0 0 0 setrgbcolor
newpath
7835 17414 moveto
P$2i
fill
0 setlinewidth
[] 0 setdash
0 0 0 setrgbcolor
newpath
8446 17298 moveto
P$21
8071 17114 moveto
P$22
fill
0 setlinewidth
[] 0 setdash
0 0 0 setrgbcolor
newpath
8685 17515 moveto
P$2k
fill
0 setlinewidth
[] 0 setdash
0 0 0 setrgbcolor
newpath
9785 17773 moveto
P$2f
9889 17183 moveto
P$2g
fill
0 setlinewidth
[] 0 setdash
0 0 0 setrgbcolor
newpath
10482 17515 moveto
P$2c
fill
0 setlinewidth
[] 0 setdash
0 0 0 setrgbcolor
newpath
11225 17433 moveto
P$1o
11215 17176 moveto
P$2b
fill
0 setlinewidth
[] 0 setdash
0 0 0 setrgbcolor
newpath
11923 17515 moveto
P$24
11562 17179 moveto
P$25
fill
0 setlinewidth
[] 0 setdash
0 0 0 setrgbcolor
newpath
12143 17178 moveto
P$26
12260 17178 moveto
P$27
fill
0 setlinewidth
[] 0 setdash
0 0 0 setrgbcolor
newpath
13725 17433 moveto
P$1o
13715 17176 moveto
P$2b
fill
0 setlinewidth
[] 0 setdash
0 0 0 setrgbcolor
newpath
13985 17515 moveto
P$23
fill
0 setlinewidth
[] 0 setdash
0 0 0 setrgbcolor
newpath
14935 17414 moveto
P$2i
fill
0 setlinewidth
[] 0 setdash
0 0 0 setrgbcolor
newpath
15546 17298 moveto
P$21
15171 17114 moveto
P$22
fill
0 setlinewidth
[] 0 setdash
0 0 0 setrgbcolor
newpath
15784 17515 moveto
P$1n
fill
0 setlinewidth
[] 0 setdash
0 0 0 setrgbcolor
newpath
16185 16717 moveto
P$1z
16185 17515 moveto
P$20
fill
0 setlinewidth
[] 0 setdash
0 0 0 setrgbcolor
newpath
16443 17178 moveto
P$26
16560 17178 moveto
P$27
fill
0 setlinewidth
[] 0 setdash
0 0 0 setrgbcolor
newpath
17184 17515 moveto
P$1n
fill
0 setlinewidth
[] 0 setdash
0 0 0 setrgbcolor
newpath
17585 17515 moveto
P$2k
fill
0 setlinewidth
[] 0 setdash
0 0 0 setrgbcolor
newpath
19146 17298 moveto
P$21
18771 17114 moveto
P$22
fill
0 setlinewidth
[] 0 setdash
0 0 0 setrgbcolor
newpath
19385 17515 moveto
P$23
fill
0 setlinewidth
[] 0 setdash
0 0 0 setrgbcolor
newpath
20335 17414 moveto
P$2i
fill
0 setlinewidth
[] 0 setdash
0 0 0 setrgbcolor
newpath
20946 17298 moveto
P$21
20571 17114 moveto
P$22
fill
0 setlinewidth
[] 0 setdash
0 0 0 setrgbcolor
newpath
21260 17789 moveto
P$2l
fill
0.66 0 0.21 setrgbcolor
newpath
46200 20636 moveto
1000 400 rlineto
-1000 400 rlineto
400 -400 rlineto
46200 20636 lineto
closepath eofill
100 setlinewidth
0.66 0 0.21 setrgbcolor
newpath
46200 20636 moveto
1000 400 rlineto
-1000 400 rlineto
400 -400 rlineto
46200 20636 lineto
closepath stroke
100 setlinewidth
0.66 0 0.21 setrgbcolor
newpath
23900 21036 moveto
22900 0 rlineto
stroke
0 setlinewidth
[] 0 setdash
0 0 0 setrgbcolor
newpath
24696 20551 moveto
P$2m
fill
0 setlinewidth
[] 0 setdash
0 0 0 setrgbcolor
newpath
26225 20468 moveto
P$1o
26215 20212 moveto
P$2b
fill
0 setlinewidth
[] 0 setdash
0 0 0 setrgbcolor
newpath
26485 20551 moveto
P$23
fill
0 setlinewidth
[] 0 setdash
0 0 0 setrgbcolor
newpath
27623 20551 moveto
P$24
27262 20215 moveto
P$25
fill
0 setlinewidth
[] 0 setdash
0 0 0 setrgbcolor
newpath
28325 20468 moveto
P$1o
28315 20212 moveto
P$2b
fill
0 setlinewidth
[] 0 setdash
0 0 0 setrgbcolor
newpath
29425 20304 moveto
P$29
fill
0 setlinewidth
[] 0 setdash
0 0 0 setrgbcolor
newpath
30125 20468 moveto
P$1o
30115 20212 moveto
P$2b
fill
0 setlinewidth
[] 0 setdash
0 0 0 setrgbcolor
newpath
30385 20551 moveto
P$2k
fill
0 setlinewidth
[] 0 setdash
0 0 0 setrgbcolor
newpath
31485 20808 moveto
P$2f
31589 20218 moveto
P$2g
fill
0 setlinewidth
[] 0 setdash
0 0 0 setrgbcolor
newpath
32143 20213 moveto
P$26
32260 20213 moveto
P$27
fill
0 setlinewidth
[] 0 setdash
0 0 0 setrgbcolor
newpath
32840 20349 moveto
P$2n
fill
0 setlinewidth
[] 0 setdash
0 0 0 setrgbcolor
newpath
34446 20333 moveto
P$21
34071 20149 moveto
P$22
fill
0 setlinewidth
[] 0 setdash
0 0 0 setrgbcolor
newpath
34640 20349 moveto
P$2n
fill
0 setlinewidth
[] 0 setdash
0 0 0 setrgbcolor
newpath
35825 20304 moveto
P$29
fill
0 setlinewidth
[] 0 setdash
0 0 0 setrgbcolor
newpath
36084 20551 moveto
P$1n
fill
0 setlinewidth
[] 0 setdash
0 0 0 setrgbcolor
newpath
36485 19752 moveto
P$1z
36485 20551 moveto
P$20
fill
0 setlinewidth
[] 0 setdash
0 0 0 setrgbcolor
newpath
37035 20449 moveto
P$2i
fill
0 setlinewidth
[] 0 setdash
0 0 0 setrgbcolor
newpath
37143 20213 moveto
P$26
37260 20213 moveto
P$27
fill
0 setlinewidth
[] 0 setdash
0 0 0 setrgbcolor
newpath
37840 20349 moveto
P$2n
fill
0 setlinewidth
[] 0 setdash
0 0 0 setrgbcolor
newpath
38985 20551 moveto
P$2o
fill
0 setlinewidth
[] 0 setdash
0 0 0 setrgbcolor
newpath
40125 20468 moveto
P$1o
40115 20212 moveto
P$2b
fill
0 setlinewidth
[] 0 setdash
0 0 0 setrgbcolor
newpath
40340 20349 moveto
P$2n
fill
0 setlinewidth
[] 0 setdash
0 0 0 setrgbcolor
newpath
41335 20449 moveto
P$2i
fill
0 setlinewidth
[] 0 setdash
0 0 0 setrgbcolor
newpath
41925 20468 moveto
P$1o
41915 20212 moveto
P$2b
fill
0 setlinewidth
[] 0 setdash
0 0 0 setrgbcolor
newpath
43025 20468 moveto
P$1o
43015 20212 moveto
P$2b
fill
0 setlinewidth
[] 0 setdash
0 0 0 setrgbcolor
newpath
43285 20551 moveto
P$2o
fill
0 setlinewidth
[] 0 setdash
0 0 0 setrgbcolor
newpath
43943 20213 moveto
P$26
44060 20213 moveto
P$27
fill
0 setlinewidth
[] 0 setdash
0 0 0 setrgbcolor
newpath
44684 20551 moveto
P$2h
45525 20468 moveto
P$1o
45515 20212 moveto
P$1p
fill
0.66 0 0.21 setrgbcolor
newpath
69700 23671 moveto
1000 400 rlineto
-1000 400 rlineto
400 -400 rlineto
69700 23671 lineto
closepath eofill
100 setlinewidth
0.66 0 0.21 setrgbcolor
newpath
69700 23671 moveto
1000 400 rlineto
-1000 400 rlineto
400 -400 rlineto
69700 23671 lineto
closepath stroke
100 setlinewidth
0.66 0 0.21 setrgbcolor
newpath
47400 24071 moveto
22900 0 rlineto
stroke
0 setlinewidth
[] 0 setdash
0 0 0 setrgbcolor
newpath
48196 23586 moveto
P$2m
fill
0 setlinewidth
[] 0 setdash
0 0 0 setrgbcolor
newpath
49725 23503 moveto
P$1o
49715 23247 moveto
P$2b
fill
0 setlinewidth
[] 0 setdash
0 0 0 setrgbcolor
newpath
49985 23586 moveto
P$23
fill
0 setlinewidth
[] 0 setdash
0 0 0 setrgbcolor
newpath
51123 23586 moveto
P$24
50762 23250 moveto
P$25
fill
0 setlinewidth
[] 0 setdash
0 0 0 setrgbcolor
newpath
51825 23503 moveto
P$1o
51815 23247 moveto
P$2b
fill
0 setlinewidth
[] 0 setdash
0 0 0 setrgbcolor
newpath
52925 23339 moveto
P$29
fill
0 setlinewidth
[] 0 setdash
0 0 0 setrgbcolor
newpath
53625 23503 moveto
P$1o
53615 23247 moveto
P$2b
fill
0 setlinewidth
[] 0 setdash
0 0 0 setrgbcolor
newpath
53885 23586 moveto
P$2k
fill
0 setlinewidth
[] 0 setdash
0 0 0 setrgbcolor
newpath
54985 23844 moveto
P$2f
55089 23253 moveto
P$2g
fill
0 setlinewidth
[] 0 setdash
0 0 0 setrgbcolor
newpath
55643 23248 moveto
P$26
55760 23248 moveto
P$27
fill
0 setlinewidth
[] 0 setdash
0 0 0 setrgbcolor
newpath
56340 23384 moveto
P$2n
fill
0 setlinewidth
[] 0 setdash
0 0 0 setrgbcolor
newpath
57946 23369 moveto
P$21
57571 23184 moveto
P$22
fill
0 setlinewidth
[] 0 setdash
0 0 0 setrgbcolor
newpath
58140 23384 moveto
P$2n
fill
0 setlinewidth
[] 0 setdash
0 0 0 setrgbcolor
newpath
59325 23339 moveto
P$29
fill
0 setlinewidth
[] 0 setdash
0 0 0 setrgbcolor
newpath
59584 23586 moveto
P$1n
fill
0 setlinewidth
[] 0 setdash
0 0 0 setrgbcolor
newpath
59985 22787 moveto
P$1z
59985 23586 moveto
P$20
fill
0 setlinewidth
[] 0 setdash
0 0 0 setrgbcolor
newpath
60535 23484 moveto
P$2i
fill
0 setlinewidth
[] 0 setdash
0 0 0 setrgbcolor
newpath
60643 23248 moveto
P$26
60760 23248 moveto
P$27
fill
0 setlinewidth
[] 0 setdash
0 0 0 setrgbcolor
newpath
61340 23384 moveto
P$2n
fill
0 setlinewidth
[] 0 setdash
0 0 0 setrgbcolor
newpath
62485 23586 moveto
P$2o
fill
0 setlinewidth
[] 0 setdash
0 0 0 setrgbcolor
newpath
63625 23503 moveto
P$1o
63615 23247 moveto
P$2b
fill
0 setlinewidth
[] 0 setdash
0 0 0 setrgbcolor
newpath
63840 23384 moveto
P$2n
fill
0 setlinewidth
[] 0 setdash
0 0 0 setrgbcolor
newpath
64835 23484 moveto
P$2i
fill
0 setlinewidth
[] 0 setdash
0 0 0 setrgbcolor
newpath
65425 23503 moveto
P$1o
65415 23247 moveto
P$2b
fill
0 setlinewidth
[] 0 setdash
0 0 0 setrgbcolor
newpath
66525 23503 moveto
P$1o
66515 23247 moveto
P$2b
fill
0 setlinewidth
[] 0 setdash
0 0 0 setrgbcolor
newpath
66785 23586 moveto
P$2o
fill
0 setlinewidth
[] 0 setdash
0 0 0 setrgbcolor
newpath
67443 23248 moveto
P$26
67560 23248 moveto
P$27
fill
0 setlinewidth
[] 0 setdash
0 0 0 setrgbcolor
newpath
68184 23586 moveto
P$2h
69025 23503 moveto
P$1o
69015 23247 moveto
P$1p
fill
100 setlinewidth
0.66 0 0.21 setrgbcolor
newpath
70900 30377 moveto
4200 0 rlineto
stroke
100 setlinewidth
0.66 0 0.21 setrgbcolor
newpath
75100 30377 moveto
0 1300 rlineto
stroke
100 setlinewidth
0.66 0 0.21 setrgbcolor
newpath
71000 31677 moveto
4100 0 rlineto
stroke
0.66 0 0.21 setrgbcolor
newpath
72000 31277 moveto
-1000 400 rlineto
1000 400 rlineto
-400 -400 rlineto
72000 31277 lineto
closepath eofill
100 setlinewidth
0.66 0 0.21 setrgbcolor
newpath
72000 31277 moveto
-1000 400 rlineto
1000 400 rlineto
-400 -400 rlineto
72000 31277 lineto
closepath stroke
0 setlinewidth
[] 0 setdash
0 0 0 setrgbcolor
newpath
71598 26621 moveto
P$2p
71867 26238 moveto
P$2q
fill
0 setlinewidth
[] 0 setdash
0 0 0 setrgbcolor
newpath
73025 26374 moveto
P$29
fill
0 setlinewidth
[] 0 setdash
0 0 0 setrgbcolor
newpath
73535 26519 moveto
P$2i
fill
0 setlinewidth
[] 0 setdash
0 0 0 setrgbcolor
newpath
74128 26621 moveto
P$2a
fill
0 setlinewidth
[] 0 setdash
0 0 0 setrgbcolor
newpath
74825 26538 moveto
P$1o
74815 26282 moveto
P$2b
fill
0 setlinewidth
[] 0 setdash
0 0 0 setrgbcolor
newpath
75082 26621 moveto
P$2c
fill
0 setlinewidth
[] 0 setdash
0 0 0 setrgbcolor
newpath
75385 25822 moveto
P$1z
75385 26621 moveto
P$20
fill
0 setlinewidth
[] 0 setdash
0 0 0 setrgbcolor
newpath
75625 26621 moveto
P$2r
fill
0 setlinewidth
[] 0 setdash
0 0 0 setrgbcolor
newpath
76825 26538 moveto
P$1o
76815 26282 moveto
P$2b
fill
0 setlinewidth
[] 0 setdash
0 0 0 setrgbcolor
newpath
77673 26621 moveto
P$2s
78425 26538 moveto
P$1o
78415 26282 moveto
P$2b
fill
0 setlinewidth
[] 0 setdash
0 0 0 setrgbcolor
newpath
78684 26621 moveto
P$1n
fill
0 setlinewidth
[] 0 setdash
0 0 0 setrgbcolor
newpath
79085 25822 moveto
P$1z
79085 26621 moveto
P$20
fill
0 setlinewidth
[] 0 setdash
0 0 0 setrgbcolor
newpath
79825 26538 moveto
P$1o
79815 26282 moveto
P$2b
fill
0 setlinewidth
[] 0 setdash
0 0 0 setrgbcolor
newpath
80190 26621 moveto
P$2t
80189 26279 moveto
P$2u
fill
0 setlinewidth
[] 0 setdash
0 0 0 setrgbcolor
newpath
80782 26621 moveto
P$2c
fill
0 setlinewidth
[] 0 setdash
0 0 0 setrgbcolor
newpath
81546 26404 moveto
P$21
81171 26219 moveto
P$22
fill
0 setlinewidth
[] 0 setdash
0 0 0 setrgbcolor
newpath
81740 26419 moveto
P$2v
fill
0 setlinewidth
[] 0 setdash
0 0 0 setrgbcolor
newpath
72523 28256 moveto
P$24
72162 27920 moveto
P$25
fill
0 setlinewidth
[] 0 setdash
0 0 0 setrgbcolor
newpath
73246 28039 moveto
P$21
72871 27854 moveto
P$22
fill
0 setlinewidth
[] 0 setdash
0 0 0 setrgbcolor
newpath
73882 28256 moveto
P$2c
fill
0 setlinewidth
[] 0 setdash
0 0 0 setrgbcolor
newpath
74143 27919 moveto
P$26
74260 27919 moveto
P$27
fill
0 setlinewidth
[] 0 setdash
0 0 0 setrgbcolor
newpath
74840 28054 moveto
P$2n
fill
0 setlinewidth
[] 0 setdash
0 0 0 setrgbcolor
newpath
76425 28009 moveto
P$29
fill
0 setlinewidth
[] 0 setdash
0 0 0 setrgbcolor
newpath
77125 28173 moveto
P$1o
77115 27917 moveto
P$2b
fill
0 setlinewidth
[] 0 setdash
0 0 0 setrgbcolor
newpath
77385 28256 moveto
P$2k
fill
0 setlinewidth
[] 0 setdash
0 0 0 setrgbcolor
newpath
78485 28514 moveto
P$2f
78589 27923 moveto
P$2g
fill
0 setlinewidth
[] 0 setdash
0 0 0 setrgbcolor
newpath
79143 27919 moveto
P$26
79260 27919 moveto
P$27
fill
0 setlinewidth
[] 0 setdash
0 0 0 setrgbcolor
newpath
79840 28054 moveto
P$2v
fill
0 setlinewidth
[] 0 setdash
0 0 0 setrgbcolor
newpath
72085 30149 moveto
P$2f
72189 29558 moveto
P$2g
fill
0 setlinewidth
[] 0 setdash
0 0 0 setrgbcolor
newpath
73225 29808 moveto
P$1o
73215 29552 moveto
P$2b
fill
0 setlinewidth
[] 0 setdash
0 0 0 setrgbcolor
newpath
73484 29891 moveto
P$2h
74325 29808 moveto
P$1o
74315 29552 moveto
P$2b
fill
0 setlinewidth
[] 0 setdash
0 0 0 setrgbcolor
newpath
74982 29891 moveto
P$2c
fill
0 setlinewidth
[] 0 setdash
0 0 0 setrgbcolor
newpath
75725 29808 moveto
P$1o
75715 29552 moveto
P$2b
fill
0 setlinewidth
[] 0 setdash
0 0 0 setrgbcolor
newpath
76385 30149 moveto
P$2f
76489 29558 moveto
P$2g
fill
0 setlinewidth
[] 0 setdash
0 0 0 setrgbcolor
newpath
77084 29891 moveto
P$2h
77443 29554 moveto
P$26
77560 29554 moveto
P$27
fill
0 setlinewidth
[] 0 setdash
0 0 0 setrgbcolor
newpath
78109 29891 moveto
P$2w
fill
0 setlinewidth
[] 0 setdash
0 0 0 setrgbcolor
newpath
78885 29093 moveto
P$1z
78885 29891 moveto
P$20
fill
0 setlinewidth
[] 0 setdash
0 0 0 setrgbcolor
newpath
79185 29891 moveto
P$2k
fill
0 setlinewidth
[] 0 setdash
0 0 0 setrgbcolor
newpath
80725 29808 moveto
P$1o
80715 29552 moveto
P$2b
fill
0 setlinewidth
[] 0 setdash
0 0 0 setrgbcolor
newpath
81573 29891 moveto
P$2s
82346 29674 moveto
P$21
81971 29490 moveto
P$22
fill
0 setlinewidth
[] 0 setdash
0 0 0 setrgbcolor
newpath
82525 29891 moveto
P$2x
fill
grestore
showpage
%plantuml done
%%EOF
