%!PS-Adobe-3.0 EPSF-3.0
%%Creator: PlantUML v1.2022.5       
%%Title: noTitle
%%BoundingBox: 0 0 583 635
%%ColorUsage: Color
%%Origin: 0 0
%%EndComments

gsave
0 635 translate
.01 -.01 scale
/roundrect {
newpath
dup 3 index add 2 index 2 index add 2 index 180 270 arc
2 index 5 index add 1 index sub 2 index 2 index add 2 index 270 0 arc
2 index 5 index add 1 index sub 2 index 5 index add 2 index sub 2 index 0 90 arc
dup 3 index add 2 index 5 index add 2 index sub 2 index 90 180 arc
pop pop pop pop pop 
} def
/rquadto {
3 index 3 index 4 2 roll rcurveto
} def
/P$b {
0 -176 rlineto
192 0 rlineto
0 176 rlineto
-192 0 rlineto
closepath
} def
/P$1i {
0 -354 rlineto
-28 39 -79 67 rquadto
-51 26 -109 26 rquadto
-129 0 -223 -103 rquadto
-92 -104 -92 -284 rquadto
0 -109 37 -195 rquadto
37 -87 109 -131 rquadto
71 -45 159 -45 rquadto
134 0 210 112 rquadto
0 -96 rlineto
110 0 rlineto
0 1004 rlineto
-123 0 rlineto
closepath
} def
/P$d {
178 0 rlineto
0 107 rlineto
35 -54 95 -89 rquadto
59 -34 131 -34 rquadto
126 0 214 100 rquadto
89 98 89 275 rquadto
0 181 -89 282 rquadto
-89 101 -215 101 rquadto
-59 0 -109 -23 rquadto
-48 -25 -101 -82 rquadto
0 365 rlineto
-192 0 rlineto
0 -1003 rlineto
closepath
} def
/P$5 {
0 153 rlineto
-131 0 rlineto
0 293 rlineto
0 87 3 103 rquadto
4 14 17 25 rquadto
14 9 34 9 rquadto
26 0 76 -18 rquadto
15 148 rlineto
-65 29 -151 29 rquadto
-51 0 -93 -17 rquadto
-40 -18 -60 -45 rquadto
-18 -28 -26 -75 rquadto
-6 -34 -6 -135 rquadto
0 -317 rlineto
-87 0 rlineto
0 -153 rlineto
87 0 rlineto
0 -143 rlineto
192 -112 rlineto
0 256 rlineto
131 0 rlineto
} def
/P$l {
-37 12 -117 29 rquadto
-79 17 -104 32 rquadto
-37 26 -37 67 rquadto
0 40 29 70 rquadto
29 29 76 29 rquadto
51 0 100 -34 rquadto
34 -26 45 -64 rquadto
7 -23 7 -93 rquadto
0 -37 rlineto
} def
/P$1r {
0 -1001 rlineto
132 0 rlineto
0 882 rlineto
492 0 rlineto
0 118 rlineto
-625 0 rlineto
} def
/P$11 {
0 -1001 rlineto
123 0 rlineto
0 1001 rlineto
-123 0 rlineto
} def
/P$w {
0 140 56 207 rquadto
57 67 139 67 rquadto
81 0 139 -68 rquadto
59 -70 59 -215 rquadto
0 -139 -57 -207 rquadto
-56 -68 -135 -68 rquadto
-78 0 -139 73 rquadto
-60 73 -60 212 rquadto
} def
/P$7 {
0 -1001 rlineto
192 0 rlineto
0 1001 rlineto
-192 0 rlineto
} def
/P$c {
0 -726 rlineto
192 0 rlineto
0 726 rlineto
-192 0 rlineto
} def
/P$15 {
0 -201 112 -300 rquadto
92 -79 228 -79 rquadto
148 0 243 98 rquadto
95 96 95 270 rquadto
0 140 -42 221 rquadto
-42 79 -123 125 rquadto
-79 43 -173 43 rquadto
-153 0 -246 -98 rquadto
-93 -98 -93 -281 rquadto
closepath
} def
/P$1v {
214 0 rlineto
98 0 154 -17 rquadto
57 -18 90 -53 rquadto
46 -46 73 -126 rquadto
26 -79 26 -193 rquadto
0 -156 -51 -240 rquadto
-51 -84 -125 -114 rquadto
-54 -20 -171 -20 rquadto
-210 0 rlineto
0 765 rlineto
} def
/P$1k {
0 -106 rlineto
-85 123 -231 123 rquadto
-64 0 -120 -25 rquadto
-54 -25 -82 -62 rquadto
-26 -37 -37 -90 rquadto
-7 -35 -7 -115 rquadto
0 -450 rlineto
123 0 rlineto
0 403 rlineto
0 96 7 129 rquadto
10 48 48 76 rquadto
37 28 93 28 rquadto
54 0 103 -28 rquadto
48 -29 68 -78 rquadto
20 -48 20 -142 rquadto
0 -389 rlineto
123 0 rlineto
0 726 rlineto
-109 0 rlineto
} def
/P$p {
0 -110 -45 -165 rquadto
-45 -54 -114 -54 rquadto
-70 0 -117 56 rquadto
-46 54 -46 175 rquadto
0 120 45 173 rquadto
45 51 112 51 rquadto
65 0 115 -59 rquadto
50 -59 50 -176 rquadto
} def
/P$3 {
0 -95 46 -184 rquadto
46 -90 132 -137 rquadto
87 -46 193 -46 rquadto
165 0 270 107 rquadto
104 106 104 268 rquadto
0 165 -106 275 rquadto
-106 107 -267 107 rquadto
-100 0 -190 -45 rquadto
-90 -45 -137 -132 rquadto
-46 -87 -46 -212 rquadto
closepath
} def
/P$g {
0 -1001 rlineto
192 0 rlineto
0 360 rlineto
89 -101 210 -101 rquadto
132 0 218 96 rquadto
87 95 87 275 rquadto
0 185 -89 287 rquadto
-89 100 -214 100 rquadto
-62 0 -123 -31 rquadto
-60 -31 -104 -92 rquadto
0 106 rlineto
-178 0 rlineto
closepath
} def
/P$q {
0 -109 rlineto
-39 59 -104 93 rquadto
-64 32 -135 32 rquadto
-73 0 -131 -32 rquadto
-57 -32 -84 -90 rquadto
-25 -57 -25 -160 rquadto
0 -459 rlineto
192 0 rlineto
0 334 rlineto
0 153 9 187 rquadto
10 34 39 54 rquadto
28 20 71 20 rquadto
48 0 87 -26 rquadto
39 -28 53 -67 rquadto
14 -40 14 -196 rquadto
0 -306 rlineto
192 0 rlineto
0 726 rlineto
-178 0 rlineto
} def
/P$13 {
0 -726 rlineto
121 0 rlineto
0 726 rlineto
-121 0 rlineto
} def
/P$n {
93 -203 rlineto
215 0 rlineto
-187 203 rlineto
-121 0 rlineto
} def
/P$v {
0 -1004 rlineto
112 0 rlineto
0 95 rlineto
39 -56 89 -82 rquadto
50 -28 121 -28 rquadto
92 0 162 48 rquadto
71 46 107 134 rquadto
35 87 35 190 rquadto
0 110 -40 201 rquadto
-39 89 -115 137 rquadto
-75 46 -159 46 rquadto
-60 0 -110 -26 rquadto
-48 -26 -79 -65 rquadto
0 353 rlineto
-123 0 rlineto
closepath
} def
/P$1f {
0 139 57 209 rquadto
59 68 139 68 rquadto
81 0 137 -65 rquadto
56 -67 56 -201 rquadto
0 -150 -57 -218 rquadto
-57 -70 -140 -70 rquadto
-82 0 -137 67 rquadto
-54 67 -54 210 rquadto
closepath
} def
/P$1s {
0 -1001 rlineto
675 0 rlineto
0 117 rlineto
-543 0 rlineto
0 310 rlineto
470 0 rlineto
0 118 rlineto
-470 0 rlineto
0 454 rlineto
-131 0 rlineto
} def
/P$j {
-1 -84 -42 -126 rquadto
-40 -43 -100 -43 rquadto
-62 0 -104 45 rquadto
-40 46 -39 125 rquadto
285 0 rlineto
} def
/P$17 {
90 -192 rlineto
162 0 rlineto
-151 192 rlineto
-101 0 rlineto
} def
/P$k {
-173 -31 rlineto
28 -104 100 -154 rquadto
71 -51 214 -51 rquadto
128 0 190 31 rquadto
64 29 89 76 rquadto
25 46 25 171 rquadto
-1 223 rlineto
0 96 9 142 rquadto
9 45 34 96 rquadto
-189 0 rlineto
-7 -18 -18 -56 rquadto
-4 -17 -7 -23 rquadto
-48 48 -104 73 rquadto
-56 23 -120 23 rquadto
-110 0 -176 -60 rquadto
-64 -60 -64 -154 rquadto
0 -60 29 -109 rquadto
29 -48 81 -73 rquadto
53 -26 153 -45 rquadto
134 -25 187 -46 rquadto
0 -18 rlineto
0 -56 -28 -79 rquadto
-26 -23 -103 -23 rquadto
-51 0 -79 20 rquadto
-28 20 -46 70 rquadto
closepath
} def
/P$19 {
17 107 rlineto
-51 10 -92 10 rquadto
-67 0 -104 -20 rquadto
-35 -21 -51 -56 rquadto
-14 -34 -14 -145 rquadto
0 -417 rlineto
-90 0 rlineto
0 -96 rlineto
90 0 rlineto
0 -179 rlineto
121 -73 rlineto
0 253 rlineto
123 0 rlineto
0 96 rlineto
-123 0 rlineto
0 423 rlineto
0 53 6 68 rquadto
6 14 20 23 rquadto
15 9 42 9 rquadto
21 0 54 -4 rquadto
} def
/P$1h {
259 0 rlineto
128 0 181 -48 rquadto
54 -48 54 -134 rquadto
0 -64 -31 -107 rquadto
-31 -45 -84 -59 rquadto
-32 -9 -123 -9 rquadto
-256 0 rlineto
0 359 rlineto
} def
/P$1n {
259 0 rlineto
128 0 181 -48 rquadto
54 -48 54 -134 rquadto
0 -64 -31 -107 rquadto
-31 -45 -84 -59 rquadto
-32 -9 -123 -9 rquadto
-256 0 rlineto
0 359 rlineto
closepath
} def
/P$u {
-67 26 -201 46 rquadto
-75 10 -107 25 rquadto
-31 12 -48 39 rquadto
-17 26 -17 57 rquadto
0 50 37 82 rquadto
37 32 109 32 rquadto
71 0 126 -31 rquadto
54 -31 81 -85 rquadto
20 -40 20 -121 rquadto
0 -45 rlineto
} def
/P$1e {
404 0 rlineto
-7 -92 -46 -137 rquadto
-57 -70 -151 -70 rquadto
-85 0 -143 56 rquadto
-56 56 -62 151 rquadto
closepath
} def
/P$1j {
0 140 59 210 rquadto
59 70 140 70 rquadto
79 0 135 -67 rquadto
56 -67 56 -203 rquadto
0 -143 -59 -217 rquadto
-59 -73 -140 -73 rquadto
-79 0 -135 68 rquadto
-56 67 -56 210 rquadto
} def
/P$1x {
0 -1001 rlineto
198 0 rlineto
237 709 rlineto
32 98 48 148 rquadto
17 -54 53 -160 rquadto
239 -696 rlineto
179 0 rlineto
0 1001 rlineto
-128 0 rlineto
0 -839 rlineto
-292 839 rlineto
-118 0 rlineto
-290 -853 rlineto
0 853 rlineto
-126 0 rlineto
} def
/P$8 {
192 -28 rlineto
12 54 50 84 rquadto
37 29 106 29 rquadto
73 0 110 -28 rquadto
26 -18 26 -51 rquadto
0 -21 -14 -35 rquadto
-14 -14 -64 -25 rquadto
-232 -51 -295 -93 rquadto
-85 -59 -85 -164 rquadto
0 -93 73 -157 rquadto
75 -64 232 -64 rquadto
148 0 220 48 rquadto
73 48 100 143 rquadto
-181 32 rlineto
-10 -42 -43 -64 rquadto
-32 -23 -92 -23 rquadto
-76 0 -109 21 rquadto
-21 14 -21 39 rquadto
0 20 20 34 rquadto
25 18 178 54 rquadto
154 34 215 84 rquadto
59 51 59 143 rquadto
0 100 -84 171 rquadto
-82 71 -245 71 rquadto
-148 0 -235 -60 rquadto
-85 -60 -112 -164 rquadto
} def
/P$1w {
0 -1001 rlineto
131 0 rlineto
0 1001 rlineto
-131 0 rlineto
} def
/P$m {
0 107 51 165 rquadto
51 56 126 56 rquadto
75 0 125 -56 rquadto
51 -57 51 -167 rquadto
0 -106 -51 -164 rquadto
-50 -57 -125 -57 rquadto
-75 0 -126 57 rquadto
-51 57 -51 165 rquadto
closepath
} def
/P$1q {
-89 0 rlineto
204 -328 204 -657 rquadto
0 -128 -29 -254 rquadto
-23 -103 -64 -196 rquadto
-26 -60 -110 -204 rquadto
89 0 rlineto
128 170 189 343 rquadto
53 150 53 312 rquadto
0 184 -71 356 rquadto
-70 171 -170 301 rquadto
closepath
} def
/P$i {
192 32 rlineto
-37 104 -117 160 rquadto
-79 54 -198 54 rquadto
-189 0 -281 -125 rquadto
-71 -98 -71 -250 rquadto
0 -179 93 -281 rquadto
95 -103 240 -103 rquadto
160 0 254 107 rquadto
93 106 89 326 rquadto
-481 0 rlineto
3 85 46 134 rquadto
45 46 110 46 rquadto
45 0 75 -25 rquadto
31 -25 46 -79 rquadto
closepath
} def
/P$16 {
0 139 60 209 rquadto
60 68 153 68 rquadto
90 0 151 -70 rquadto
60 -70 60 -212 rquadto
0 -134 -60 -203 rquadto
-60 -70 -151 -70 rquadto
-92 0 -153 68 rquadto
-60 68 -60 209 rquadto
closepath
} def
/P$1y {
384 -1001 rlineto
142 0 rlineto
410 1001 rlineto
-151 0 rlineto
-117 -303 rlineto
-418 0 rlineto
-109 303 rlineto
-140 0 rlineto
closepath
} def
/P$y {
0 139 57 209 rquadto
59 68 139 68 rquadto
81 0 137 -65 rquadto
56 -67 56 -201 rquadto
0 -150 -57 -218 rquadto
-57 -70 -140 -70 rquadto
-82 0 -137 67 rquadto
-54 67 -54 210 rquadto
} def
/P$1c {
120 -18 rlineto
10 73 57 112 rquadto
46 39 131 39 rquadto
84 0 125 -34 rquadto
42 -34 42 -81 rquadto
0 -42 -37 -65 rquadto
-25 -17 -125 -42 rquadto
-135 -34 -189 -59 rquadto
-51 -25 -78 -68 rquadto
-26 -43 -26 -96 rquadto
0 -48 21 -89 rquadto
21 -42 60 -70 rquadto
28 -20 76 -34 rquadto
50 -15 107 -15 rquadto
84 0 148 25 rquadto
65 23 96 65 rquadto
31 42 42 112 rquadto
-120 17 rlineto
-7 -56 -48 -87 rquadto
-39 -31 -110 -31 rquadto
-84 0 -120 28 rquadto
-35 26 -35 65 rquadto
0 23 14 42 rquadto
15 20 48 32 rquadto
17 6 107 31 rquadto
131 35 182 57 rquadto
51 21 79 64 rquadto
29 42 29 104 rquadto
0 62 -35 117 rquadto
-34 53 -103 84 rquadto
-67 29 -153 29 rquadto
-140 0 -215 -59 rquadto
-73 -59 -93 -175 rquadto
} def
/P$e {
0 121 48 181 rquadto
50 57 118 57 rquadto
67 0 110 -53 rquadto
45 -54 45 -176 rquadto
0 -114 -46 -168 rquadto
-45 -56 -112 -56 rquadto
-70 0 -117 54 rquadto
-46 54 -46 160 rquadto
} def
/P$10 {
404 0 rlineto
-7 -92 -46 -137 rquadto
-57 -70 -151 -70 rquadto
-85 0 -143 56 rquadto
-56 56 -62 151 rquadto
} def
/P$1a {
0 -726 rlineto
110 0 rlineto
0 110 rlineto
42 -78 78 -101 rquadto
35 -25 79 -25 rquadto
62 0 126 39 rquadto
-42 114 rlineto
-45 -26 -90 -26 rquadto
-40 0 -73 25 rquadto
-31 23 -45 67 rquadto
-20 65 -20 143 rquadto
0 379 rlineto
-123 0 rlineto
} def
/P$1z {
339 0 rlineto
-104 -278 rlineto
-46 -126 -70 -207 rquadto
-18 96 -54 190 rquadto
-109 295 rlineto
} def
/P$1 {
0 284 rlineto
110 0 rlineto
118 0 159 -15 rquadto
40 -15 62 -48 rquadto
23 -34 23 -78 rquadto
0 -54 -32 -90 rquadto
-31 -35 -81 -45 rquadto
-35 -6 -145 -6 rquadto
-96 0 rlineto
} def
/P$r {
192 -28 rlineto
12 54 50 84 rquadto
37 29 106 29 rquadto
73 0 110 -28 rquadto
26 -18 26 -51 rquadto
0 -21 -14 -35 rquadto
-14 -14 -64 -25 rquadto
-232 -51 -295 -93 rquadto
-85 -59 -85 -164 rquadto
0 -93 73 -157 rquadto
75 -64 232 -64 rquadto
148 0 220 48 rquadto
73 48 100 143 rquadto
-181 32 rlineto
-10 -42 -43 -64 rquadto
-32 -23 -92 -23 rquadto
-76 0 -109 21 rquadto
-21 14 -21 39 rquadto
0 20 20 34 rquadto
25 18 178 54 rquadto
154 34 215 84 rquadto
59 51 59 143 rquadto
0 100 -84 171 rquadto
-82 71 -245 71 rquadto
-148 0 -235 -60 rquadto
-85 -60 -112 -164 rquadto
closepath
} def
/P$x {
0 -92 rlineto
-70 109 -203 109 rquadto
-87 0 -160 -48 rquadto
-71 -48 -112 -134 rquadto
-39 -85 -39 -196 rquadto
0 -107 35 -196 rquadto
35 -89 107 -135 rquadto
73 -46 162 -46 rquadto
65 0 117 28 rquadto
51 26 82 71 rquadto
0 -359 rlineto
123 0 rlineto
0 1001 rlineto
-114 0 rlineto
closepath
} def
/P$14 {
121 15 rlineto
-20 125 -103 196 rquadto
-81 70 -200 70 rquadto
-148 0 -239 -96 rquadto
-90 -98 -90 -281 rquadto
0 -117 39 -204 rquadto
39 -89 118 -132 rquadto
79 -43 173 -43 rquadto
117 0 192 59 rquadto
76 59 96 170 rquadto
-118 18 rlineto
-17 -73 -60 -109 rquadto
-43 -37 -104 -37 rquadto
-93 0 -151 67 rquadto
-57 65 -57 209 rquadto
0 146 56 214 rquadto
56 65 145 65 rquadto
73 0 121 -43 rquadto
48 -45 60 -137 rquadto
} def
/P$9 {
-178 0 rlineto
0 -106 rlineto
-43 62 -104 93 rquadto
-60 29 -121 29 rquadto
-125 0 -214 -101 rquadto
-89 -101 -89 -281 rquadto
0 -184 85 -279 rquadto
87 -96 220 -96 rquadto
121 0 210 101 rquadto
0 -360 rlineto
190 0 rlineto
0 1001 rlineto
closepath
} def
/P$1u {
0 -1001 rlineto
345 0 rlineto
117 0 178 14 rquadto
85 18 146 71 rquadto
79 67 118 171 rquadto
39 103 39 237 rquadto
0 114 -26 203 rquadto
-26 87 -68 145 rquadto
-40 57 -90 90 rquadto
-50 32 -120 50 rquadto
-68 17 -159 17 rquadto
-362 0 rlineto
closepath
} def
/P$1b {
0 -726 rlineto
110 0 rlineto
0 103 rlineto
79 -118 231 -118 rquadto
65 0 120 23 rquadto
54 23 81 62 rquadto
28 37 39 90 rquadto
7 34 7 118 rquadto
0 446 rlineto
-123 0 rlineto
0 -442 rlineto
0 -75 -14 -110 rquadto
-14 -37 -51 -59 rquadto
-35 -23 -85 -23 rquadto
-78 0 -135 50 rquadto
-56 50 -56 189 rquadto
0 396 rlineto
-123 0 rlineto
} def
/P$18 {
0 -726 rlineto
110 0 rlineto
0 103 rlineto
79 -118 231 -118 rquadto
65 0 120 23 rquadto
54 23 81 62 rquadto
28 37 39 90 rquadto
7 34 7 118 rquadto
0 446 rlineto
-123 0 rlineto
0 -442 rlineto
0 -75 -14 -110 rquadto
-14 -37 -51 -59 rquadto
-35 -23 -85 -23 rquadto
-78 0 -135 50 rquadto
-56 50 -56 189 rquadto
0 396 rlineto
-123 0 rlineto
closepath
} def
/P$h {
0 112 35 165 rquadto
50 76 132 76 rquadto
62 0 107 -53 rquadto
45 -54 45 -171 rquadto
0 -125 -45 -179 rquadto
-45 -54 -115 -54 rquadto
-68 0 -115 54 rquadto
-45 53 -45 162 rquadto
} def
/P$s {
132 34 rlineto
-42 162 -151 248 rquadto
-107 85 -264 85 rquadto
-162 0 -264 -65 rquadto
-101 -67 -154 -192 rquadto
-51 -125 -51 -268 rquadto
0 -156 59 -271 rquadto
59 -117 170 -176 rquadto
110 -60 242 -60 rquadto
151 0 253 76 rquadto
103 76 143 214 rquadto
-131 31 rlineto
-34 -109 -101 -159 rquadto
-65 -50 -165 -50 rquadto
-115 0 -193 56 rquadto
-78 54 -109 148 rquadto
-31 93 -31 192 rquadto
0 128 37 223 rquadto
37 95 115 142 rquadto
78 46 170 46 rquadto
110 0 187 -64 rquadto
78 -64 106 -190 rquadto
} def
/P$6 {
-189 34 rlineto
-9 -57 -43 -85 rquadto
-32 -28 -87 -28 rquadto
-71 0 -114 50 rquadto
-42 48 -42 164 rquadto
0 129 42 182 rquadto
43 53 117 53 rquadto
54 0 89 -31 rquadto
35 -31 50 -106 rquadto
189 31 rlineto
-29 131 -114 198 rquadto
-82 65 -223 65 rquadto
-159 0 -254 -100 rquadto
-93 -101 -93 -279 rquadto
0 -179 95 -279 rquadto
95 -100 257 -100 rquadto
131 0 209 57 rquadto
79 56 112 173 rquadto
} def
/P$1t {
132 0 rlineto
0 578 rlineto
0 151 -34 240 rquadto
-34 89 -123 145 rquadto
-89 54 -234 54 rquadto
-140 0 -231 -48 rquadto
-89 -48 -128 -140 rquadto
-37 -92 -37 -251 rquadto
0 -578 rlineto
132 0 rlineto
0 578 rlineto
0 129 23 192 rquadto
25 60 84 95 rquadto
59 32 145 32 rquadto
145 0 207 -65 rquadto
62 -67 62 -254 rquadto
0 -578 rlineto
} def
/P$1m {
0 -884 rlineto
-329 0 rlineto
0 -117 rlineto
793 0 rlineto
0 117 rlineto
-331 0 rlineto
0 884 rlineto
-132 0 rlineto
} def
/P$12 {
0 -140 rlineto
121 0 rlineto
0 140 rlineto
-121 0 rlineto
closepath
} def
/P$t {
-67 57 -131 82 rquadto
-62 23 -135 23 rquadto
-118 0 -184 -57 rquadto
-64 -59 -64 -151 rquadto
0 -53 23 -96 rquadto
25 -43 64 -70 rquadto
40 -26 89 -40 rquadto
35 -9 109 -18 rquadto
150 -17 220 -42 rquadto
0 -25 0 -31 rquadto
0 -76 -34 -106 rquadto
-46 -42 -140 -42 rquadto
-85 0 -128 31 rquadto
-40 29 -60 106 rquadto
-120 -15 rlineto
15 -78 53 -125 rquadto
39 -46 109 -71 rquadto
71 -26 165 -26 rquadto
92 0 150 21 rquadto
57 21 84 54 rquadto
28 32 39 84 rquadto
6 31 6 112 rquadto
0 164 rlineto
0 171 7 217 rquadto
7 45 31 87 rquadto
-128 0 rlineto
-18 -39 -25 -89 rquadto
closepath
} def
/P$1l {
0 -1001 rlineto
132 0 rlineto
0 410 rlineto
520 0 rlineto
0 -410 rlineto
132 0 rlineto
0 1001 rlineto
-132 0 rlineto
0 -471 rlineto
-520 0 rlineto
0 471 rlineto
-132 0 rlineto
} def
/P$0 {
0 -1001 rlineto
325 0 rlineto
184 0 240 14 rquadto
85 23 143 98 rquadto
59 75 59 195 rquadto
0 92 -34 154 rquadto
-32 62 -84 98 rquadto
-51 35 -106 48 rquadto
-71 14 -209 14 rquadto
-131 0 rlineto
0 378 rlineto
-203 0 rlineto
closepath
} def
/P$a {
0 115 32 167 rquadto
46 75 129 75 rquadto
65 0 112 -56 rquadto
46 -56 46 -168 rquadto
0 -125 -45 -179 rquadto
-45 -54 -115 -54 rquadto
-68 0 -115 54 rquadto
-45 53 -45 162 rquadto
} def
/P$o {
0 -365 rlineto
-37 48 -93 78 rquadto
-56 28 -120 28 rquadto
-125 0 -204 -93 rquadto
-93 -109 -93 -295 rquadto
0 -175 87 -271 rquadto
89 -98 220 -98 rquadto
73 0 125 31 rquadto
53 29 95 92 rquadto
0 -107 rlineto
176 0 rlineto
0 1003 rlineto
-192 0 rlineto
closepath
} def
/P$1o {
125 -10 rlineto
9 75 42 123 rquadto
32 48 100 78 rquadto
68 29 154 29 rquadto
75 0 132 -21 rquadto
59 -23 87 -62 rquadto
28 -39 28 -85 rquadto
0 -46 -28 -81 rquadto
-26 -35 -89 -60 rquadto
-40 -15 -179 -48 rquadto
-137 -32 -192 -62 rquadto
-71 -37 -107 -92 rquadto
-34 -56 -34 -126 rquadto
0 -75 42 -140 rquadto
43 -67 126 -100 rquadto
82 -34 184 -34 rquadto
110 0 195 35 rquadto
85 35 131 106 rquadto
45 68 50 156 rquadto
-128 9 rlineto
-9 -93 -68 -142 rquadto
-59 -50 -175 -50 rquadto
-120 0 -175 45 rquadto
-54 43 -54 106 rquadto
0 53 39 89 rquadto
37 34 198 71 rquadto
162 35 221 62 rquadto
87 40 129 103 rquadto
42 60 42 142 rquadto
0 79 -46 151 rquadto
-45 70 -131 109 rquadto
-85 39 -192 39 rquadto
-135 0 -228 -39 rquadto
-92 -40 -145 -120 rquadto
-51 -79 -54 -179 rquadto
} def
/P$1p {
-103 -129 -173 -301 rquadto
-70 -171 -70 -356 rquadto
0 -162 53 -312 rquadto
60 -173 190 -343 rquadto
87 0 rlineto
-82 142 -109 203 rquadto
-42 93 -65 196 rquadto
-29 126 -29 256 rquadto
0 329 204 657 rquadto
-87 0 rlineto
} def
/P$2 {
-192 0 rlineto
0 -726 rlineto
178 0 rlineto
0 103 rlineto
46 -71 82 -95 rquadto
35 -23 82 -23 rquadto
65 0 126 35 rquadto
-59 167 rlineto
-48 -31 -90 -31 rquadto
-40 0 -68 23 rquadto
-26 21 -43 79 rquadto
-15 57 -15 242 rquadto
0 225 rlineto
} def
/P$1d {
0 139 60 209 rquadto
60 68 153 68 rquadto
90 0 151 -70 rquadto
60 -70 60 -212 rquadto
0 -134 -60 -203 rquadto
-60 -70 -151 -70 rquadto
-92 0 -153 68 rquadto
-60 68 -60 209 rquadto
} def
/P$f {
-192 0 rlineto
0 -370 rlineto
0 -117 -12 -151 rquadto
-12 -35 -40 -54 rquadto
-26 -18 -65 -18 rquadto
-50 0 -90 28 rquadto
-39 26 -54 71 rquadto
-14 45 -14 167 rquadto
0 328 rlineto
-192 0 rlineto
0 -726 rlineto
179 0 rlineto
0 107 rlineto
93 -123 239 -123 rquadto
62 0 115 23 rquadto
53 21 79 57 rquadto
26 35 37 81 rquadto
10 43 10 128 rquadto
0 451 rlineto
} def
/P$4 {
0 107 51 165 rquadto
51 56 126 56 rquadto
75 0 125 -56 rquadto
51 -57 51 -167 rquadto
0 -106 -51 -164 rquadto
-50 -57 -125 -57 rquadto
-75 0 -126 57 rquadto
-51 57 -51 165 rquadto
} def
/P$z {
128 15 rlineto
-31 112 -112 175 rquadto
-81 60 -207 60 rquadto
-159 0 -253 -98 rquadto
-92 -98 -92 -275 rquadto
0 -184 93 -284 rquadto
95 -101 245 -101 rquadto
145 0 237 100 rquadto
92 98 92 278 rquadto
0 10 0 32 rquadto
-542 0 rlineto
7 118 67 182 rquadto
60 64 153 64 rquadto
67 0 114 -35 rquadto
48 -35 76 -114 rquadto
closepath
} def
/P$1g {
0 -1001 rlineto
378 0 rlineto
100 0 153 9 rquadto
73 12 123 46 rquadto
50 34 79 96 rquadto
31 60 31 135 rquadto
0 128 -81 217 rquadto
-81 87 -293 87 rquadto
-257 0 rlineto
0 407 rlineto
-132 0 rlineto
closepath
} def
100 setlinewidth
0.09 0.09 0.09 setrgbcolor
57500 62700 700 700 250 roundrect
closepath stroke
0 setlinewidth
[] 0 setdash
0 0 0 setrgbcolor
newpath
11051 2353 moveto
P$0
11254 1520 moveto
P$1
fill
0 setlinewidth
[] 0 setdash
0 0 0 setrgbcolor
newpath
12134 2353 moveto
P$2
fill
0 setlinewidth
[] 0 setdash
0 0 0 setrgbcolor
newpath
12506 1979 moveto
P$3
12703 1990 moveto
P$4
fill
0 setlinewidth
[] 0 setdash
0 0 0 setrgbcolor
newpath
13782 1626 moveto
P$5
fill
0 setlinewidth
[] 0 setdash
0 0 0 setrgbcolor
newpath
13906 1979 moveto
P$3
14103 1990 moveto
P$4
fill
0 setlinewidth
[] 0 setdash
0 0 0 setrgbcolor
newpath
15482 1842 moveto
P$6
fill
0 setlinewidth
[] 0 setdash
0 0 0 setrgbcolor
newpath
15606 1979 moveto
P$3
15803 1990 moveto
P$4
fill
0 setlinewidth
[] 0 setdash
0 0 0 setrgbcolor
newpath
16550 2353 moveto
P$7
fill
0 setlinewidth
[] 0 setdash
0 0 0 setrgbcolor
newpath
16906 1979 moveto
P$3
17103 1990 moveto
P$4
fill
0 setlinewidth
[] 0 setdash
0 0 0 setrgbcolor
newpath
17782 2145 moveto
P$8
fill
0 setlinewidth
[] 0 setdash
0 0 0 setrgbcolor
newpath
19715 2353 moveto
P$9
19203 1975 moveto
P$a
fill
0 setlinewidth
[] 0 setdash
0 0 0 setrgbcolor
newpath
19950 1528 moveto
P$b
19950 2353 moveto
P$c
fill
0 setlinewidth
[] 0 setdash
0 0 0 setrgbcolor
newpath
20282 2145 moveto
P$8
fill
0 setlinewidth
[] 0 setdash
0 0 0 setrgbcolor
newpath
21145 1626 moveto
P$d
21334 1978 moveto
P$e
fill
0 setlinewidth
[] 0 setdash
0 0 0 setrgbcolor
newpath
22006 1979 moveto
P$3
22203 1990 moveto
P$4
fill
0 setlinewidth
[] 0 setdash
0 0 0 setrgbcolor
newpath
23610 2353 moveto
P$f
fill
0 setlinewidth
[] 0 setdash
0 0 0 setrgbcolor
newpath
23850 1528 moveto
P$b
23850 2353 moveto
P$c
fill
0 setlinewidth
[] 0 setdash
0 0 0 setrgbcolor
newpath
24242 2353 moveto
P$g
24432 1975 moveto
P$h
fill
0 setlinewidth
[] 0 setdash
0 0 0 setrgbcolor
newpath
25150 2353 moveto
P$7
fill
0 setlinewidth
[] 0 setdash
0 0 0 setrgbcolor
newpath
25970 2122 moveto
P$i
25981 1928 moveto
P$j
fill
0 setlinewidth
[] 0 setdash
0 0 0 setrgbcolor
newpath
26382 2145 moveto
P$8
fill
0 setlinewidth
[] 0 setdash
0 0 0 setrgbcolor
newpath
27645 1626 moveto
P$d
27834 1978 moveto
P$e
fill
0 setlinewidth
[] 0 setdash
0 0 0 setrgbcolor
newpath
28693 1848 moveto
P$k
28951 2004 moveto
P$l
fill
0 setlinewidth
[] 0 setdash
0 0 0 setrgbcolor
newpath
29534 2353 moveto
P$2
fill
0 setlinewidth
[] 0 setdash
0 0 0 setrgbcolor
newpath
30093 1848 moveto
P$k
30351 2004 moveto
P$l
fill
0 setlinewidth
[] 0 setdash
0 0 0 setrgbcolor
newpath
31150 2353 moveto
P$7
fill
0 setlinewidth
[] 0 setdash
0 0 0 setrgbcolor
newpath
31693 1848 moveto
P$k
31951 2004 moveto
P$l
fill
0 setlinewidth
[] 0 setdash
0 0 0 setrgbcolor
newpath
33382 1842 moveto
P$6
fill
0 setlinewidth
[] 0 setdash
0 0 0 setrgbcolor
newpath
33734 2353 moveto
P$2
fill
0 setlinewidth
[] 0 setdash
0 0 0 setrgbcolor
newpath
34570 2122 moveto
P$i
34581 1928 moveto
P$j
fill
0 setlinewidth
[] 0 setdash
0 0 0 setrgbcolor
newpath
35193 1848 moveto
P$k
35451 2004 moveto
P$l
fill
0 setlinewidth
[] 0 setdash
0 0 0 setrgbcolor
newpath
36482 1842 moveto
P$6
fill
0 setlinewidth
[] 0 setdash
0 0 0 setrgbcolor
newpath
36650 1528 moveto
P$b
36650 2353 moveto
P$c
fill
0 setlinewidth
[] 0 setdash
0 0 0 setrgbcolor
newpath
37006 1979 moveto
P$3
37203 1990 moveto
P$m
37284 1537 moveto
P$n
fill
0 setlinewidth
[] 0 setdash
0 0 0 setrgbcolor
newpath
38610 2353 moveto
P$f
fill
0 setlinewidth
[] 0 setdash
0 0 0 setrgbcolor
newpath
39915 2353 moveto
P$9
39403 1975 moveto
P$a
fill
0 setlinewidth
[] 0 setdash
0 0 0 setrgbcolor
newpath
40570 2122 moveto
P$i
40581 1928 moveto
P$j
fill
0 setlinewidth
[] 0 setdash
0 0 0 setrgbcolor
newpath
41445 1626 moveto
P$d
41634 1978 moveto
P$e
fill
0 setlinewidth
[] 0 setdash
0 0 0 setrgbcolor
newpath
42493 1848 moveto
P$k
42751 2004 moveto
P$l
fill
0 setlinewidth
[] 0 setdash
0 0 0 setrgbcolor
newpath
43625 2629 moveto
P$o
43631 1981 moveto
P$p
fill
0 setlinewidth
[] 0 setdash
0 0 0 setrgbcolor
newpath
44528 2353 moveto
P$q
fill
0 setlinewidth
[] 0 setdash
0 0 0 setrgbcolor
newpath
45370 2122 moveto
P$i
45381 1928 moveto
P$j
fill
0 setlinewidth
[] 0 setdash
0 0 0 setrgbcolor
newpath
46182 1626 moveto
P$5
fill
0 setlinewidth
[] 0 setdash
0 0 0 setrgbcolor
newpath
46770 2122 moveto
P$i
46781 1928 moveto
P$j
fill
0 setlinewidth
[] 0 setdash
0 0 0 setrgbcolor
newpath
47182 2145 moveto
P$r
fill
gsave
1 0.229 scale
0.95 0.95 0.95 setrgbcolor
newpath
26425 202159 8275 0 360 arc
closepath eofill
50 setlinewidth
0.09 0.09 0.09 setrgbcolor
newpath
26425 202159 8275 0 360 arc
closepath stroke
grestore
0 setlinewidth
[] 0 setdash
0 0 0 setrgbcolor
newpath
21198 46316 moveto
P$s
fill
0 setlinewidth
[] 0 setdash
0 0 0 setrgbcolor
newpath
21940 46578 moveto
P$t
21931 46303 moveto
P$u
fill
0 setlinewidth
[] 0 setdash
0 0 0 setrgbcolor
newpath
22267 46946 moveto
P$v
22378 46308 moveto
P$w
fill
0 setlinewidth
[] 0 setdash
0 0 0 setrgbcolor
newpath
23540 46578 moveto
P$t
23531 46303 moveto
P$u
fill
0 setlinewidth
[] 0 setdash
0 0 0 setrgbcolor
newpath
24739 46667 moveto
P$x
24350 46305 moveto
P$y
fill
0 setlinewidth
[] 0 setdash
0 0 0 setrgbcolor
newpath
25564 46433 moveto
P$z
25161 46235 moveto
P$10
fill
0 setlinewidth
[] 0 setdash
0 0 0 setrgbcolor
newpath
26740 46578 moveto
P$t
26731 46303 moveto
P$u
fill
0 setlinewidth
[] 0 setdash
0 0 0 setrgbcolor
newpath
27067 46946 moveto
P$v
27178 46308 moveto
P$w
fill
0 setlinewidth
[] 0 setdash
0 0 0 setrgbcolor
newpath
27864 46667 moveto
P$11
fill
0 setlinewidth
[] 0 setdash
0 0 0 setrgbcolor
newpath
28168 45806 moveto
P$12
28168 46667 moveto
P$13
fill
0 setlinewidth
[] 0 setdash
0 0 0 setrgbcolor
newpath
28940 46402 moveto
P$14
fill
0 setlinewidth
[] 0 setdash
0 0 0 setrgbcolor
newpath
29640 46578 moveto
P$t
29631 46303 moveto
P$u
fill
0 setlinewidth
[] 0 setdash
0 0 0 setrgbcolor
newpath
30440 46402 moveto
P$14
fill
0 setlinewidth
[] 0 setdash
0 0 0 setrgbcolor
newpath
30668 45806 moveto
P$12
30668 46667 moveto
P$13
fill
0 setlinewidth
[] 0 setdash
0 0 0 setrgbcolor
newpath
30922 46305 moveto
P$15
31048 46305 moveto
P$16
31193 45852 moveto
P$17
fill
0 setlinewidth
[] 0 setdash
0 0 0 setrgbcolor
newpath
31767 46667 moveto
P$18
fill
gsave
1 0.2287 scale
0.95 0.95 0.95 setrgbcolor
newpath
26458 114605 8358 0 360 arc
closepath eofill
50 setlinewidth
0.09 0.09 0.09 setrgbcolor
newpath
26458 114605 8358 0 360 arc
closepath stroke
grestore
0 setlinewidth
[] 0 setdash
0 0 0 setrgbcolor
newpath
21132 26233 moveto
P$s
fill
0 setlinewidth
[] 0 setdash
0 0 0 setrgbcolor
newpath
21874 26495 moveto
P$t
21864 26220 moveto
P$u
fill
0 setlinewidth
[] 0 setdash
0 0 0 setrgbcolor
newpath
22200 26862 moveto
P$v
22311 26225 moveto
P$w
fill
0 setlinewidth
[] 0 setdash
0 0 0 setrgbcolor
newpath
23474 26495 moveto
P$t
23464 26220 moveto
P$u
fill
0 setlinewidth
[] 0 setdash
0 0 0 setrgbcolor
newpath
24672 26584 moveto
P$x
24283 26222 moveto
P$y
fill
0 setlinewidth
[] 0 setdash
0 0 0 setrgbcolor
newpath
25497 26350 moveto
P$z
25094 26151 moveto
P$10
fill
0 setlinewidth
[] 0 setdash
0 0 0 setrgbcolor
newpath
26469 26475 moveto
P$19
fill
0 setlinewidth
[] 0 setdash
0 0 0 setrgbcolor
newpath
26599 26584 moveto
P$1a
fill
0 setlinewidth
[] 0 setdash
0 0 0 setrgbcolor
newpath
27574 26495 moveto
P$t
27564 26220 moveto
P$u
fill
0 setlinewidth
[] 0 setdash
0 0 0 setrgbcolor
newpath
27900 26584 moveto
P$1b
fill
0 setlinewidth
[] 0 setdash
0 0 0 setrgbcolor
newpath
28652 26367 moveto
P$1c
fill
0 setlinewidth
[] 0 setdash
0 0 0 setrgbcolor
newpath
29400 26862 moveto
P$v
29511 26225 moveto
P$w
fill
0 setlinewidth
[] 0 setdash
0 0 0 setrgbcolor
newpath
30155 26222 moveto
P$15
30282 26222 moveto
P$1d
fill
0 setlinewidth
[] 0 setdash
0 0 0 setrgbcolor
newpath
30999 26584 moveto
P$1a
fill
0 setlinewidth
[] 0 setdash
0 0 0 setrgbcolor
newpath
31769 26475 moveto
P$19
fill
0 setlinewidth
[] 0 setdash
0 0 0 setrgbcolor
newpath
32397 26350 moveto
P$z
31994 26151 moveto
P$1e
fill
gsave
1 0.2358 scale
0.95 0.95 0.95 setrgbcolor
newpath
26458 81355 6708 0 360 arc
closepath eofill
50 setlinewidth
0.09 0.09 0.09 setrgbcolor
newpath
26458 81355 6708 0 360 arc
closepath stroke
grestore
0 setlinewidth
[] 0 setdash
0 0 0 setrgbcolor
newpath
23031 19281 moveto
P$s
fill
0 setlinewidth
[] 0 setdash
0 0 0 setrgbcolor
newpath
23774 19544 moveto
P$t
23764 19269 moveto
P$u
fill
0 setlinewidth
[] 0 setdash
0 0 0 setrgbcolor
newpath
24100 19911 moveto
P$v
24211 19273 moveto
P$w
fill
0 setlinewidth
[] 0 setdash
0 0 0 setrgbcolor
newpath
25374 19544 moveto
P$t
25364 19269 moveto
P$u
fill
0 setlinewidth
[] 0 setdash
0 0 0 setrgbcolor
newpath
26572 19633 moveto
P$x
26183 19270 moveto
P$y
fill
0 setlinewidth
[] 0 setdash
0 0 0 setrgbcolor
newpath
27397 19398 moveto
P$z
26994 19200 moveto
P$10
fill
0 setlinewidth
[] 0 setdash
0 0 0 setrgbcolor
newpath
28099 19633 moveto
P$1a
fill
0 setlinewidth
[] 0 setdash
0 0 0 setrgbcolor
newpath
29097 19398 moveto
P$z
28694 19200 moveto
P$10
fill
0 setlinewidth
[] 0 setdash
0 0 0 setrgbcolor
newpath
29872 19633 moveto
P$x
29483 19270 moveto
P$1f
fill
gsave
1 0.3155 scale
0.95 0.95 0.95 setrgbcolor
newpath
7209 71952 4909 0 360 arc
closepath eofill
50 setlinewidth
0.09 0.09 0.09 setrgbcolor
newpath
7209 71952 4909 0 360 arc
closepath stroke
grestore
0 setlinewidth
[] 0 setdash
0 0 0 setrgbcolor
newpath
4421 23138 moveto
P$1g
4554 22613 moveto
P$1h
fill
0 setlinewidth
[] 0 setdash
0 0 0 setrgbcolor
newpath
5779 23049 moveto
P$t
5770 22774 moveto
P$u
fill
0 setlinewidth
[] 0 setdash
0 0 0 setrgbcolor
newpath
6568 23416 moveto
P$1i
6188 22772 moveto
P$1j
fill
0 setlinewidth
[] 0 setdash
0 0 0 setrgbcolor
newpath
7382 23138 moveto
P$1k
fill
0 setlinewidth
[] 0 setdash
0 0 0 setrgbcolor
newpath
8202 22903 moveto
P$z
7799 22705 moveto
P$10
fill
0 setlinewidth
[] 0 setdash
0 0 0 setrgbcolor
newpath
8774 23028 moveto
P$19
fill
0 setlinewidth
[] 0 setdash
0 0 0 setrgbcolor
newpath
9402 22903 moveto
P$z
8999 22705 moveto
P$1e
fill
gsave
1 0.2322 scale
0.95 0.95 0.95 setrgbcolor
newpath
26448 39098 7448 0 360 arc
closepath eofill
50 setlinewidth
0.09 0.09 0.09 setrgbcolor
newpath
26448 39098 7448 0 360 arc
closepath stroke
grestore
0 setlinewidth
[] 0 setdash
0 0 0 setrgbcolor
newpath
21971 9179 moveto
P$s
fill
0 setlinewidth
[] 0 setdash
0 0 0 setrgbcolor
newpath
22713 9442 moveto
P$t
22704 9167 moveto
P$u
fill
0 setlinewidth
[] 0 setdash
0 0 0 setrgbcolor
newpath
23040 9809 moveto
P$v
23151 9171 moveto
P$w
fill
0 setlinewidth
[] 0 setdash
0 0 0 setrgbcolor
newpath
24313 9442 moveto
P$t
24304 9167 moveto
P$u
fill
0 setlinewidth
[] 0 setdash
0 0 0 setrgbcolor
newpath
25512 9531 moveto
P$x
25123 9168 moveto
P$y
fill
0 setlinewidth
[] 0 setdash
0 0 0 setrgbcolor
newpath
26337 9296 moveto
P$z
25934 9098 moveto
P$10
fill
0 setlinewidth
[] 0 setdash
0 0 0 setrgbcolor
newpath
27537 9296 moveto
P$z
27134 9098 moveto
P$10
fill
0 setlinewidth
[] 0 setdash
0 0 0 setrgbcolor
newpath
27840 9531 moveto
P$1b
fill
0 setlinewidth
[] 0 setdash
0 0 0 setrgbcolor
newpath
28637 9531 moveto
P$11
fill
0 setlinewidth
[] 0 setdash
0 0 0 setrgbcolor
newpath
29413 9442 moveto
P$t
29404 9167 moveto
P$u
fill
0 setlinewidth
[] 0 setdash
0 0 0 setrgbcolor
newpath
30213 9265 moveto
P$14
fill
0 setlinewidth
[] 0 setdash
0 0 0 setrgbcolor
newpath
30937 9296 moveto
P$z
30534 9098 moveto
P$1e
fill
gsave
1 0.4183 scale
0.95 0.95 0.95 setrgbcolor
newpath
48694 143911 3694 0 360 arc
closepath eofill
50 setlinewidth
0.09 0.09 0.09 setrgbcolor
newpath
48694 143911 3694 0 360 arc
closepath stroke
grestore
0 setlinewidth
[] 0 setdash
0 0 0 setrgbcolor
newpath
47006 60568 moveto
P$1l
fill
0 setlinewidth
[] 0 setdash
0 0 0 setrgbcolor
newpath
48156 60568 moveto
P$1m
fill
0 setlinewidth
[] 0 setdash
0 0 0 setrgbcolor
newpath
49056 60568 moveto
P$1m
fill
0 setlinewidth
[] 0 setdash
0 0 0 setrgbcolor
newpath
49701 60568 moveto
P$1g
49834 60043 moveto
P$1n
fill
gsave
1 0.2303 scale
0.95 0.95 0.95 setrgbcolor
newpath
48707 231481 7907 0 360 arc
closepath eofill
50 setlinewidth
0.09 0.09 0.09 setrgbcolor
newpath
48707 231481 7907 0 360 arc
closepath stroke
grestore
0 setlinewidth
[] 0 setdash
0 0 0 setrgbcolor
newpath
43080 53733 moveto
P$1l
fill
0 setlinewidth
[] 0 setdash
0 0 0 setrgbcolor
newpath
44230 53733 moveto
P$1m
fill
0 setlinewidth
[] 0 setdash
0 0 0 setrgbcolor
newpath
45130 53733 moveto
P$1m
fill
0 setlinewidth
[] 0 setdash
0 0 0 setrgbcolor
newpath
45775 53733 moveto
P$1g
45908 53208 moveto
P$1h
fill
0 setlinewidth
[] 0 setdash
0 0 0 setrgbcolor
newpath
46630 53412 moveto
P$1o
fill
0 setlinewidth
[] 0 setdash
0 0 0 setrgbcolor
newpath
48195 54029 moveto
P$1p
fill
0 setlinewidth
[] 0 setdash
0 0 0 setrgbcolor
newpath
48414 53371 moveto
P$15
48540 53371 moveto
P$1d
fill
0 setlinewidth
[] 0 setdash
0 0 0 setrgbcolor
newpath
49259 54012 moveto
P$v
49370 53374 moveto
P$w
fill
0 setlinewidth
[] 0 setdash
0 0 0 setrgbcolor
newpath
50533 53468 moveto
P$14
fill
0 setlinewidth
[] 0 setdash
0 0 0 setrgbcolor
newpath
50761 52873 moveto
P$12
50761 53733 moveto
P$13
fill
0 setlinewidth
[] 0 setdash
0 0 0 setrgbcolor
newpath
51014 53371 moveto
P$15
51140 53371 moveto
P$1d
fill
0 setlinewidth
[] 0 setdash
0 0 0 setrgbcolor
newpath
51859 53733 moveto
P$1b
fill
0 setlinewidth
[] 0 setdash
0 0 0 setrgbcolor
newpath
53133 53644 moveto
P$t
53123 53369 moveto
P$u
fill
0 setlinewidth
[] 0 setdash
0 0 0 setrgbcolor
newpath
53456 53733 moveto
P$11
fill
0 setlinewidth
[] 0 setdash
0 0 0 setrgbcolor
newpath
53840 54029 moveto
P$1q
fill
gsave
1 0.2334 scale
0.95 0.95 0.95 setrgbcolor
newpath
48692 198307 7192 0 360 arc
closepath eofill
50 setlinewidth
0.09 0.09 0.09 setrgbcolor
newpath
48692 198307 7192 0 360 arc
closepath stroke
grestore
0 setlinewidth
[] 0 setdash
0 0 0 setrgbcolor
newpath
43805 46408 moveto
P$1o
fill
0 setlinewidth
[] 0 setdash
0 0 0 setrgbcolor
newpath
44705 46408 moveto
P$1o
fill
0 setlinewidth
[] 0 setdash
0 0 0 setrgbcolor
newpath
45645 46730 moveto
P$1r
fill
0 setlinewidth
[] 0 setdash
0 0 0 setrgbcolor
newpath
47070 47025 moveto
P$1p
fill
0 setlinewidth
[] 0 setdash
0 0 0 setrgbcolor
newpath
47289 46367 moveto
P$15
47416 46367 moveto
P$1d
fill
0 setlinewidth
[] 0 setdash
0 0 0 setrgbcolor
newpath
48134 47008 moveto
P$v
48245 46370 moveto
P$w
fill
0 setlinewidth
[] 0 setdash
0 0 0 setrgbcolor
newpath
49408 46464 moveto
P$14
fill
0 setlinewidth
[] 0 setdash
0 0 0 setrgbcolor
newpath
49636 45869 moveto
P$12
49636 46730 moveto
P$13
fill
0 setlinewidth
[] 0 setdash
0 0 0 setrgbcolor
newpath
49889 46367 moveto
P$15
50016 46367 moveto
P$1d
fill
0 setlinewidth
[] 0 setdash
0 0 0 setrgbcolor
newpath
50734 46730 moveto
P$1b
fill
0 setlinewidth
[] 0 setdash
0 0 0 setrgbcolor
newpath
52008 46641 moveto
P$t
51998 46366 moveto
P$u
fill
0 setlinewidth
[] 0 setdash
0 0 0 setrgbcolor
newpath
52331 46730 moveto
P$11
fill
0 setlinewidth
[] 0 setdash
0 0 0 setrgbcolor
newpath
52716 47025 moveto
P$1q
fill
gsave
1 0.2332 scale
0.95 0.95 0.95 setrgbcolor
newpath
48678 168891 7228 0 360 arc
closepath eofill
50 setlinewidth
0.09 0.09 0.09 setrgbcolor
newpath
48678 168891 7228 0 360 arc
closepath stroke
grestore
0 setlinewidth
[] 0 setdash
0 0 0 setrgbcolor
newpath
43794 39837 moveto
P$1s
fill
0 setlinewidth
[] 0 setdash
0 0 0 setrgbcolor
newpath
44941 39837 moveto
P$1m
fill
0 setlinewidth
[] 0 setdash
0 0 0 setrgbcolor
newpath
45586 39837 moveto
P$1g
45719 39312 moveto
P$1h
fill
0 setlinewidth
[] 0 setdash
0 0 0 setrgbcolor
newpath
47106 40132 moveto
P$1p
fill
0 setlinewidth
[] 0 setdash
0 0 0 setrgbcolor
newpath
47325 39474 moveto
P$15
47452 39474 moveto
P$1d
fill
0 setlinewidth
[] 0 setdash
0 0 0 setrgbcolor
newpath
48170 40115 moveto
P$v
48281 39478 moveto
P$w
fill
0 setlinewidth
[] 0 setdash
0 0 0 setrgbcolor
newpath
49444 39571 moveto
P$14
fill
0 setlinewidth
[] 0 setdash
0 0 0 setrgbcolor
newpath
49672 38976 moveto
P$12
49672 39837 moveto
P$13
fill
0 setlinewidth
[] 0 setdash
0 0 0 setrgbcolor
newpath
49925 39474 moveto
P$15
50052 39474 moveto
P$1d
fill
0 setlinewidth
[] 0 setdash
0 0 0 setrgbcolor
newpath
50770 39837 moveto
P$1b
fill
0 setlinewidth
[] 0 setdash
0 0 0 setrgbcolor
newpath
52044 39748 moveto
P$t
52034 39473 moveto
P$u
fill
0 setlinewidth
[] 0 setdash
0 0 0 setrgbcolor
newpath
52367 39837 moveto
P$11
fill
0 setlinewidth
[] 0 setdash
0 0 0 setrgbcolor
newpath
52752 40132 moveto
P$1q
fill
gsave
1 0.4939 scale
0.95 0.95 0.95 setrgbcolor
newpath
48678 65993 3128 0 360 arc
closepath eofill
50 setlinewidth
0.09 0.09 0.09 setrgbcolor
newpath
48678 65993 3128 0 360 arc
closepath stroke
grestore
0 setlinewidth
[] 0 setdash
0 0 0 setrgbcolor
newpath
47640 32968 moveto
P$1m
fill
0 setlinewidth
[] 0 setdash
0 0 0 setrgbcolor
newpath
49001 32616 moveto
P$s
fill
0 setlinewidth
[] 0 setdash
0 0 0 setrgbcolor
newpath
49286 32968 moveto
P$1g
49419 32443 moveto
P$1n
fill
gsave
1 0.4939 scale
0.95 0.95 0.95 setrgbcolor
newpath
48678 52631 3128 0 360 arc
closepath eofill
50 setlinewidth
0.09 0.09 0.09 setrgbcolor
newpath
48678 52631 3128 0 360 arc
closepath stroke
grestore
0 setlinewidth
[] 0 setdash
0 0 0 setrgbcolor
newpath
48044 25366 moveto
P$1t
fill
0 setlinewidth
[] 0 setdash
0 0 0 setrgbcolor
newpath
48286 26368 moveto
P$1u
48419 26249 moveto
P$1v
fill
0 setlinewidth
[] 0 setdash
0 0 0 setrgbcolor
newpath
49286 26368 moveto
P$1g
49419 25843 moveto
P$1n
fill
gsave
1 0.7737 scale
0.95 0.95 0.95 setrgbcolor
newpath
48697 25067 1997 0 360 arc
closepath eofill
50 setlinewidth
0.09 0.09 0.09 setrgbcolor
newpath
48697 25067 1997 0 360 arc
closepath stroke
grestore
0 setlinewidth
[] 0 setdash
0 0 0 setrgbcolor
newpath
48228 19768 moveto
P$1w
fill
0 setlinewidth
[] 0 setdash
0 0 0 setrgbcolor
newpath
48504 19768 moveto
P$1g
48637 19243 moveto
P$1n
fill
gsave
1 0.4438 scale
0.95 0.95 0.95 setrgbcolor
newpath
48681 28833 3481 0 360 arc
closepath eofill
50 setlinewidth
0.09 0.09 0.09 setrgbcolor
newpath
48681 28833 3481 0 360 arc
closepath stroke
grestore
0 setlinewidth
[] 0 setdash
0 0 0 setrgbcolor
newpath
47163 13168 moveto
P$1w
fill
0 setlinewidth
[] 0 setdash
0 0 0 setrgbcolor
newpath
48155 12816 moveto
P$s
fill
0 setlinewidth
[] 0 setdash
0 0 0 setrgbcolor
newpath
48436 13168 moveto
P$1x
fill
0 setlinewidth
[] 0 setdash
0 0 0 setrgbcolor
newpath
49539 13168 moveto
P$1g
49672 12643 moveto
P$1n
fill
gsave
1 0.2327 scale
0.95 0.95 0.95 setrgbcolor
newpath
48687 25815 7337 0 360 arc
closepath eofill
50 setlinewidth
0.09 0.09 0.09 setrgbcolor
newpath
48687 25815 7337 0 360 arc
closepath stroke
grestore
0 setlinewidth
[] 0 setdash
0 0 0 setrgbcolor
newpath
43642 6459 moveto
P$1x
fill
0 setlinewidth
[] 0 setdash
0 0 0 setrgbcolor
newpath
44636 6459 moveto
P$1y
44925 6048 moveto
P$1z
fill
0 setlinewidth
[] 0 setdash
0 0 0 setrgbcolor
newpath
46361 6107 moveto
P$s
fill
0 setlinewidth
[] 0 setdash
0 0 0 setrgbcolor
newpath
47265 6754 moveto
P$1p
fill
0 setlinewidth
[] 0 setdash
0 0 0 setrgbcolor
newpath
47484 6096 moveto
P$15
47611 6096 moveto
P$1d
fill
0 setlinewidth
[] 0 setdash
0 0 0 setrgbcolor
newpath
48329 6737 moveto
P$v
48440 6099 moveto
P$w
fill
0 setlinewidth
[] 0 setdash
0 0 0 setrgbcolor
newpath
49603 6193 moveto
P$14
fill
0 setlinewidth
[] 0 setdash
0 0 0 setrgbcolor
newpath
49831 5598 moveto
P$12
49831 6459 moveto
P$13
fill
0 setlinewidth
[] 0 setdash
0 0 0 setrgbcolor
newpath
50084 6096 moveto
P$15
50211 6096 moveto
P$1d
fill
0 setlinewidth
[] 0 setdash
0 0 0 setrgbcolor
newpath
50929 6459 moveto
P$1b
fill
0 setlinewidth
[] 0 setdash
0 0 0 setrgbcolor
newpath
52203 6370 moveto
P$t
52193 6095 moveto
P$u
fill
0 setlinewidth
[] 0 setdash
0 0 0 setrgbcolor
newpath
52526 6459 moveto
P$11
fill
0 setlinewidth
[] 0 setdash
0 0 0 setrgbcolor
newpath
52911 6754 moveto
P$1q
fill
100 setlinewidth
0.09 0.09 0.09 setrgbcolor
newpath
8521 24212 moveto
11765 28231 20618 39199 24493 43999 curveto
stroke
0.09 0.09 0.09 setrgbcolor
newpath
24830 44416 moveto
-251 -952 rlineto
-61 562 rlineto
-562 -61 rlineto
875 451 rlineto
24830 44416 lineto
closepath eofill
100 setlinewidth
0.09 0.09 0.09 setrgbcolor
newpath
24830 44416 moveto
-251 -952 rlineto
-61 562 rlineto
-562 -61 rlineto
875 451 rlineto
24830 44416 lineto
closepath stroke
100 setlinewidth
0.09 0.09 0.09 setrgbcolor
newpath
11481 23468 moveto
13801 23894 16746 24435 19402 24923 curveto
stroke
0.09 0.09 0.09 setrgbcolor
newpath
19894 25014 moveto
-813 -555 rlineto
321 465 rlineto
-465 321 rlineto
957 -231 rlineto
19894 25014 lineto
closepath eofill
100 setlinewidth
0.09 0.09 0.09 setrgbcolor
newpath
19894 25014 moveto
-813 -555 rlineto
321 465 rlineto
-465 321 rlineto
957 -231 rlineto
19894 25014 lineto
closepath stroke
100 setlinewidth
0.09 0.09 0.09 setrgbcolor
newpath
11481 21932 moveto
14152 21441 17652 20798 20586 20258 curveto
stroke
0.09 0.09 0.09 setrgbcolor
newpath
21089 20167 moveto
-957 -228 rlineto
466 320 rlineto
-320 466 rlineto
811 -557 rlineto
21089 20167 lineto
closepath eofill
100 setlinewidth
0.09 0.09 0.09 setrgbcolor
newpath
21089 20167 moveto
-957 -228 rlineto
466 320 rlineto
-320 466 rlineto
811 -557 rlineto
21089 20167 lineto
closepath stroke
100 setlinewidth
0.09 0.09 0.09 setrgbcolor
newpath
9303 21270 moveto
12731 18822 19730 13826 23609 11057 curveto
stroke
0.09 0.09 0.09 setrgbcolor
newpath
24020 10763 moveto
-965 196 rlineto
557 93 rlineto
-93 557 rlineto
500 -847 rlineto
24020 10763 lineto
closepath eofill
100 setlinewidth
0.09 0.09 0.09 setrgbcolor
newpath
24020 10763 moveto
-965 196 rlineto
557 93 rlineto
-93 557 rlineto
500 -847 rlineto
24020 10763 lineto
closepath stroke
100 setlinewidth
0.09 0.09 0.09 setrgbcolor
newpath
31416 44777 moveto
35094 43626 40118 42054 43783 40907 curveto
stroke
0.09 0.09 0.09 setrgbcolor
newpath
44269 40755 moveto
-978 -111 rlineto
501 261 rlineto
-261 501 rlineto
738 -651 rlineto
44269 40755 lineto
closepath eofill
100 setlinewidth
0.09 0.09 0.09 setrgbcolor
newpath
44269 40755 moveto
-978 -111 rlineto
501 261 rlineto
-261 501 rlineto
738 -651 rlineto
44269 40755 lineto
closepath stroke
100 setlinewidth
0.09 0.09 0.09 setrgbcolor
newpath
28714 48136 moveto
31419 50372 36248 54175 40800 56800 curveto
42249 57635 43941 58397 45379 58986 curveto
stroke
0.09 0.09 0.09 setrgbcolor
newpath
45856 59179 moveto
-684 -708 rlineto
220 520 rlineto
-520 220 rlineto
984 -33 rlineto
45856 59179 lineto
closepath eofill
100 setlinewidth
0.09 0.09 0.09 setrgbcolor
newpath
45856 59179 moveto
-684 -708 rlineto
220 520 rlineto
-520 220 rlineto
984 -33 rlineto
45856 59179 lineto
closepath stroke
100 setlinewidth
0.09 0.09 0.09 setrgbcolor
newpath
31389 47836 moveto
34980 48976 39866 50527 43515 51686 curveto
stroke
0.09 0.09 0.09 setrgbcolor
newpath
43999 51839 moveto
-736 -653 rlineto
260 502 rlineto
-502 260 rlineto
978 -109 rlineto
43999 51839 lineto
closepath eofill
100 setlinewidth
0.09 0.09 0.09 setrgbcolor
newpath
43999 51839 moveto
-736 -653 rlineto
260 502 rlineto
-502 260 rlineto
978 -109 rlineto
43999 51839 lineto
closepath stroke
100 setlinewidth
0.09 0.09 0.09 setrgbcolor
newpath
34761 46300 moveto
36792 46300 38961 46300 40964 46300 curveto
stroke
0.09 0.09 0.09 setrgbcolor
newpath
41470 46300 moveto
-900 -400 rlineto
400 400 rlineto
-400 400 rlineto
900 -400 rlineto
41470 46300 lineto
closepath eofill
100 setlinewidth
0.09 0.09 0.09 setrgbcolor
newpath
41470 46300 moveto
-900 -400 rlineto
400 400 rlineto
-400 400 rlineto
900 -400 rlineto
41470 46300 lineto
closepath stroke
100 setlinewidth
0.09 0.09 0.09 setrgbcolor
newpath
31664 27683 moveto
35920 28920 41845 30639 45441 31683 curveto
stroke
0.09 0.09 0.09 setrgbcolor
newpath
45954 31832 moveto
-751 -636 rlineto
271 495 rlineto
-495 272 rlineto
975 -131 rlineto
45954 31832 lineto
closepath eofill
100 setlinewidth
0.09 0.09 0.09 setrgbcolor
newpath
45954 31832 moveto
-751 -636 rlineto
271 495 rlineto
-495 272 rlineto
975 -131 rlineto
45954 31832 lineto
closepath stroke
100 setlinewidth
0.09 0.09 0.09 setrgbcolor
newpath
34823 26125 moveto
38355 26093 42289 26057 45046 26032 curveto
stroke
0.09 0.09 0.09 setrgbcolor
newpath
45547 26027 moveto
-903 -392 rlineto
403 396 rlineto
-396 403 rlineto
896 -407 rlineto
45547 26027 lineto
closepath eofill
100 setlinewidth
0.09 0.09 0.09 setrgbcolor
newpath
45547 26027 moveto
-903 -392 rlineto
403 396 rlineto
-396 403 rlineto
896 -407 rlineto
45547 26027 lineto
closepath stroke
100 setlinewidth
0.09 0.09 0.09 setrgbcolor
newpath
33166 19260 moveto
37555 19300 43060 19350 46169 19377 curveto
stroke
0.09 0.09 0.09 setrgbcolor
newpath
46683 19383 moveto
-896 -407 rlineto
396 403 rlineto
-403 396 rlineto
903 -392 rlineto
46683 19383 lineto
closepath eofill
100 setlinewidth
0.09 0.09 0.09 setrgbcolor
newpath
46683 19383 moveto
-896 -407 rlineto
396 403 rlineto
-403 396 rlineto
903 -392 rlineto
46683 19383 lineto
closepath stroke
100 setlinewidth
0.09 0.09 0.09 setrgbcolor
newpath
30775 17974 moveto
34976 16754 41337 14907 45216 13782 curveto
stroke
0.09 0.09 0.09 setrgbcolor
newpath
45723 13635 moveto
-975 -132 rlineto
495 272 rlineto
-272 495 rlineto
752 -635 rlineto
45723 13635 lineto
closepath eofill
100 setlinewidth
0.09 0.09 0.09 setrgbcolor
newpath
45723 13635 moveto
-975 -132 rlineto
495 272 rlineto
-272 495 rlineto
752 -635 rlineto
45723 13635 lineto
closepath stroke
100 setlinewidth
0.09 0.09 0.09 setrgbcolor
newpath
32898 8208 moveto
35701 7813 38998 7350 41846 6949 curveto
stroke
0.09 0.09 0.09 setrgbcolor
newpath
42373 6875 moveto
-947 -269 rlineto
452 339 rlineto
-339 452 rlineto
835 -522 rlineto
42373 6875 lineto
closepath eofill
100 setlinewidth
0.09 0.09 0.09 setrgbcolor
newpath
42373 6875 moveto
-947 -269 rlineto
452 339 rlineto
-339 452 rlineto
835 -522 rlineto
42373 6875 lineto
closepath stroke
grestore
showpage
%plantuml done
%%EOF
