%!PS-Adobe-3.0 EPSF-3.0
%%Creator: PlantUML v1.2021.7       
%%Title: noTitle
%%BoundingBox: 0 0 458 339
%%ColorUsage: Color
%%Origin: 0 0
%%EndComments

gsave
0 339 translate
.01 -.01 scale
/simplerect {
newpath moveto 1 index 0 rlineto
0 exch rlineto
neg 0 rlineto
} def
/roundrect {
newpath
dup 3 index add 2 index 2 index add 2 index 180 270 arc
2 index 5 index add 1 index sub 2 index 2 index add 2 index 270 0 arc
2 index 5 index add 1 index sub 2 index 5 index add 2 index sub 2 index 0 90 arc
dup 3 index add 2 index 5 index add 2 index sub 2 index 90 180 arc
pop pop pop pop pop 
} def
/rquadto {
3 index 3 index 4 2 roll rcurveto
} def
/P$w {
0 -85 rlineto
-31 46 -82 73 rquadto
-50 25 -106 25 rquadto
-57 0 -103 -25 rquadto
-45 -25 -67 -70 rquadto
-20 -46 -20 -126 rquadto
0 -360 rlineto
151 0 rlineto
0 262 rlineto
0 120 7 146 rquadto
9 26 31 43 rquadto
21 15 56 15 rquadto
37 0 68 -20 rquadto
31 -21 42 -53 rquadto
10 -32 10 -154 rquadto
0 -240 rlineto
151 0 rlineto
0 570 rlineto
-140 0 rlineto
} def
/P$x {
-137 -25 rlineto
23 -81 79 -120 rquadto
56 -40 167 -40 rquadto
101 0 150 23 rquadto
50 23 70 60 rquadto
20 35 20 134 rquadto
-1 176 rlineto
0 75 6 110 rquadto
7 35 28 76 rquadto
-150 0 rlineto
-6 -15 -14 -45 rquadto
-3 -12 -4 -17 rquadto
-39 37 -84 56 rquadto
-43 18 -93 18 rquadto
-87 0 -139 -46 rquadto
-50 -48 -50 -121 rquadto
0 -48 23 -85 rquadto
23 -37 64 -57 rquadto
42 -20 120 -35 rquadto
106 -18 146 -35 rquadto
0 -15 rlineto
0 -43 -21 -60 rquadto
-21 -18 -81 -18 rquadto
-39 0 -62 15 rquadto
-21 15 -35 54 rquadto
closepath
} def
/P$1b {
0 120 rlineto
-103 0 rlineto
0 229 rlineto
0 70 3 82 rquadto
3 10 12 18 rquadto
10 6 26 6 rquadto
20 0 60 -14 rquadto
12 117 rlineto
-53 21 -118 21 rquadto
-42 0 -75 -12 rquadto
-32 -14 -48 -35 rquadto
-14 -21 -20 -59 rquadto
-4 -26 -4 -106 rquadto
0 -248 rlineto
-68 0 rlineto
0 -120 rlineto
68 0 rlineto
0 -114 rlineto
151 -87 rlineto
0 201 rlineto
103 0 rlineto
} def
/P$1c {
140 0 rlineto
0 84 rlineto
26 -43 73 -70 rquadto
46 -26 104 -26 rquadto
98 0 167 78 rquadto
70 76 70 215 rquadto
0 143 -70 223 rquadto
-68 78 -168 78 rquadto
-46 0 -85 -18 rquadto
-37 -18 -81 -64 rquadto
0 287 rlineto
-150 0 rlineto
0 -787 rlineto
closepath
} def
/P$j {
0 -1001 rlineto
123 0 rlineto
0 1001 rlineto
-123 0 rlineto
} def
/P$13 {
0 85 40 131 rquadto
40 45 100 45 rquadto
57 0 98 -45 rquadto
40 -45 40 -131 rquadto
0 -84 -40 -129 rquadto
-40 -45 -98 -45 rquadto
-59 0 -100 45 rquadto
-40 45 -40 129 rquadto
} def
/P$1v {
0 -98 rlineto
-79 114 -214 114 rquadto
-59 0 -112 -23 rquadto
-51 -23 -76 -57 rquadto
-25 -34 -34 -84 rquadto
-7 -32 -7 -106 rquadto
0 -417 rlineto
114 0 rlineto
0 373 rlineto
0 89 7 120 rquadto
10 45 45 71 rquadto
34 25 85 25 rquadto
51 0 96 -26 rquadto
45 -26 64 -71 rquadto
18 -45 18 -131 rquadto
0 -360 rlineto
114 0 rlineto
0 673 rlineto
-101 0 rlineto
} def
/P$o {
0 -89 43 -171 rquadto
43 -82 123 -126 rquadto
81 -43 181 -43 rquadto
151 0 250 100 rquadto
98 98 98 250 rquadto
0 153 -100 254 rquadto
-98 100 -248 100 rquadto
-92 0 -176 -42 rquadto
-84 -42 -128 -121 rquadto
-43 -81 -43 -198 rquadto
closepath
} def
/P$17 {
-1 -65 -34 -98 rquadto
-31 -34 -76 -34 rquadto
-50 0 -82 35 rquadto
-31 35 -31 96 rquadto
225 0 rlineto
} def
/P$18 {
-148 26 rlineto
-7 -43 -34 -65 rquadto
-26 -23 -68 -23 rquadto
-56 0 -90 39 rquadto
-32 37 -32 129 rquadto
0 101 32 143 rquadto
34 42 92 42 rquadto
43 0 70 -25 rquadto
28 -25 39 -84 rquadto
148 25 rlineto
-23 103 -89 154 rquadto
-65 51 -175 51 rquadto
-126 0 -201 -78 rquadto
-73 -79 -73 -218 rquadto
0 -142 75 -220 rquadto
75 -78 201 -78 rquadto
104 0 165 45 rquadto
62 43 89 135 rquadto
} def
/P$s {
0 142 rlineto
-121 0 rlineto
0 270 rlineto
0 82 3 96 rquadto
3 14 15 23 rquadto
12 7 29 7 rquadto
25 0 71 -17 rquadto
15 139 rlineto
-62 26 -140 26 rquadto
-48 0 -87 -15 rquadto
-39 -17 -57 -42 rquadto
-17 -26 -23 -70 rquadto
-6 -31 -6 -125 rquadto
0 -293 rlineto
-81 0 rlineto
0 -142 rlineto
81 0 rlineto
0 -134 rlineto
179 -104 rlineto
0 239 rlineto
121 0 rlineto
closepath
} def
/P$8 {
0 -201 112 -300 rquadto
92 -79 228 -79 rquadto
148 0 243 98 rquadto
95 96 95 270 rquadto
0 140 -42 221 rquadto
-42 79 -123 125 rquadto
-79 43 -173 43 rquadto
-153 0 -246 -98 rquadto
-93 -98 -93 -281 rquadto
closepath
} def
/P$r {
0 114 45 168 rquadto
45 53 110 53 rquadto
60 0 101 -50 rquadto
42 -50 42 -162 rquadto
0 -106 -42 -157 rquadto
-42 -51 -104 -51 rquadto
-65 0 -109 51 rquadto
-43 50 -43 148 rquadto
} def
/P$1s {
112 -17 rlineto
9 67 53 104 rquadto
43 35 121 35 rquadto
78 0 115 -31 rquadto
39 -32 39 -76 rquadto
0 -39 -34 -60 rquadto
-23 -15 -117 -39 rquadto
-125 -31 -173 -54 rquadto
-48 -23 -73 -64 rquadto
-25 -40 -25 -90 rquadto
0 -45 20 -82 rquadto
20 -39 56 -64 rquadto
26 -20 71 -32 rquadto
46 -14 100 -14 rquadto
78 0 137 23 rquadto
60 21 89 60 rquadto
29 39 40 104 rquadto
-112 15 rlineto
-7 -53 -43 -81 rquadto
-35 -29 -103 -29 rquadto
-78 0 -112 26 rquadto
-34 25 -34 60 rquadto
0 21 14 39 rquadto
14 18 43 31 rquadto
17 6 101 28 rquadto
121 32 168 53 rquadto
48 20 75 60 rquadto
28 39 28 96 rquadto
0 57 -34 107 rquadto
-32 50 -95 78 rquadto
-62 28 -142 28 rquadto
-131 0 -200 -54 rquadto
-68 -54 -87 -162 rquadto
} def
/P$1j {
0 -132 rlineto
114 0 rlineto
0 132 rlineto
-114 0 rlineto
closepath
} def
/P$2 {
0 -106 rlineto
-85 123 -231 123 rquadto
-64 0 -120 -25 rquadto
-54 -25 -82 -62 rquadto
-26 -37 -37 -90 rquadto
-7 -35 -7 -115 rquadto
0 -450 rlineto
123 0 rlineto
0 403 rlineto
0 96 7 129 rquadto
10 48 48 76 rquadto
37 28 93 28 rquadto
54 0 103 -28 rquadto
48 -29 68 -78 rquadto
20 -48 20 -142 rquadto
0 -389 rlineto
123 0 rlineto
0 726 rlineto
-109 0 rlineto
} def
/P$16 {
150 25 rlineto
-28 82 -90 126 rquadto
-62 42 -157 42 rquadto
-148 0 -220 -96 rquadto
-56 -78 -56 -196 rquadto
0 -142 73 -221 rquadto
75 -79 189 -79 rquadto
126 0 200 84 rquadto
73 82 70 256 rquadto
-378 0 rlineto
1 67 35 104 rquadto
35 37 87 37 rquadto
35 0 59 -18 rquadto
25 -20 37 -62 rquadto
closepath
} def
/P$1t {
112 15 rlineto
6 51 37 75 rquadto
43 32 117 32 rquadto
78 0 121 -32 rquadto
43 -31 57 -89 rquadto
9 -34 9 -145 rquadto
-75 87 -187 87 rquadto
-139 0 -215 -100 rquadto
-75 -100 -75 -240 rquadto
0 -96 34 -178 rquadto
35 -81 101 -125 rquadto
65 -45 156 -45 rquadto
118 0 196 96 rquadto
0 -81 rlineto
104 0 rlineto
0 581 rlineto
0 157 -32 223 rquadto
-31 65 -101 103 rquadto
-68 39 -170 39 rquadto
-120 0 -195 -54 rquadto
-73 -53 -71 -162 rquadto
closepath
} def
/P$1y {
357 -931 rlineto
131 0 rlineto
381 931 rlineto
-140 0 rlineto
-107 -281 rlineto
-389 0 rlineto
-103 281 rlineto
-129 0 rlineto
closepath
} def
/P$12 {
0 -75 37 -145 rquadto
37 -70 104 -106 rquadto
68 -37 151 -37 rquadto
129 0 212 84 rquadto
82 82 82 210 rquadto
0 129 -84 215 rquadto
-82 84 -209 84 rquadto
-78 0 -150 -34 rquadto
-70 -35 -107 -104 rquadto
-37 -68 -37 -167 rquadto
closepath
} def
/P$7 {
0 -726 rlineto
121 0 rlineto
0 726 rlineto
-121 0 rlineto
} def
/P$u {
157 0 rlineto
0 426 rlineto
0 101 6 131 rquadto
10 48 48 78 rquadto
39 29 104 29 rquadto
68 0 103 -28 rquadto
34 -28 40 -67 rquadto
7 -40 7 -134 rquadto
0 -435 rlineto
157 0 rlineto
0 414 rlineto
0 140 -12 200 rquadto
-12 57 -46 98 rquadto
-34 40 -93 65 rquadto
-57 23 -151 23 rquadto
-112 0 -170 -26 rquadto
-57 -26 -92 -67 rquadto
-34 -42 -43 -87 rquadto
-15 -68 -15 -200 rquadto
0 -420 rlineto
} def
/P$1r {
0 129 56 195 rquadto
56 64 142 64 rquadto
84 0 140 -64 rquadto
57 -65 57 -198 rquadto
0 -125 -57 -189 rquadto
-56 -65 -140 -65 rquadto
-85 0 -142 64 rquadto
-56 64 -56 193 rquadto
} def
/P$29 {
0 -931 rlineto
184 0 rlineto
220 659 rlineto
31 92 45 137 rquadto
15 -50 48 -148 rquadto
223 -648 rlineto
165 0 rlineto
0 931 rlineto
-118 0 rlineto
0 -778 rlineto
-270 778 rlineto
-110 0 rlineto
-268 -792 rlineto
0 792 rlineto
-118 0 rlineto
} def
/P$15 {
0 90 25 131 rquadto
35 59 101 59 rquadto
51 0 87 -43 rquadto
37 -45 37 -132 rquadto
0 -98 -35 -140 rquadto
-34 -43 -90 -43 rquadto
-53 0 -89 42 rquadto
-35 42 -35 128 rquadto
} def
/P$25 {
0 129 53 192 rquadto
53 62 126 62 rquadto
76 0 131 -64 rquadto
54 -65 54 -200 rquadto
0 -129 -53 -193 rquadto
-53 -64 -126 -64 rquadto
-73 0 -129 68 rquadto
-56 67 -56 198 rquadto
} def
/P$22 {
0 -92 rlineto
429 -493 rlineto
-73 4 -129 4 rquadto
-273 0 rlineto
0 -92 rlineto
550 0 rlineto
0 75 rlineto
-364 428 rlineto
-71 78 rlineto
78 -6 145 -6 rquadto
310 0 rlineto
0 98 rlineto
-596 0 rlineto
} def
/P$28 {
376 0 rlineto
-7 -85 -43 -128 rquadto
-54 -65 -140 -65 rquadto
-79 0 -132 53 rquadto
-53 51 -59 140 rquadto
} def
/P$21 {
0 -931 rlineto
114 0 rlineto
0 931 rlineto
-114 0 rlineto
} def
/P$2a {
0 129 56 195 rquadto
56 64 142 64 rquadto
84 0 140 -64 rquadto
57 -65 57 -198 rquadto
0 -125 -57 -189 rquadto
-56 -65 -140 -65 rquadto
-85 0 -142 64 rquadto
-56 64 -56 193 rquadto
closepath
} def
/P$1h {
0 -673 rlineto
103 0 rlineto
0 95 rlineto
73 -110 214 -110 rquadto
60 0 110 21 rquadto
51 21 76 57 rquadto
26 34 35 84 rquadto
6 31 6 110 rquadto
0 414 rlineto
-114 0 rlineto
0 -409 rlineto
0 -70 -14 -104 rquadto
-12 -34 -46 -54 rquadto
-32 -21 -78 -21 rquadto
-73 0 -126 46 rquadto
-53 45 -53 175 rquadto
0 368 rlineto
-114 0 rlineto
} def
/P$c {
17 107 rlineto
-51 10 -92 10 rquadto
-67 0 -104 -20 rquadto
-35 -21 -51 -56 rquadto
-14 -34 -14 -145 rquadto
0 -417 rlineto
-90 0 rlineto
0 -96 rlineto
90 0 rlineto
0 -179 rlineto
121 -73 rlineto
0 253 rlineto
123 0 rlineto
0 96 rlineto
-123 0 rlineto
0 423 rlineto
0 53 6 68 rquadto
6 14 20 23 rquadto
15 9 42 9 rquadto
21 0 54 -4 rquadto
} def
/P$4 {
-67 26 -201 46 rquadto
-75 10 -107 25 rquadto
-31 12 -48 39 rquadto
-17 26 -17 57 rquadto
0 50 37 82 rquadto
37 32 109 32 rquadto
71 0 126 -31 rquadto
54 -31 81 -85 rquadto
20 -40 20 -121 rquadto
0 -45 rlineto
} def
/P$1f {
0 1009 rlineto
-267 0 rlineto
0 -118 rlineto
123 0 rlineto
0 -773 rlineto
-123 0 rlineto
0 -117 rlineto
267 0 rlineto
closepath
} def
/P$n {
0 -1001 rlineto
198 0 rlineto
237 709 rlineto
32 98 48 148 rquadto
17 -54 53 -160 rquadto
239 -696 rlineto
179 0 rlineto
0 1001 rlineto
-128 0 rlineto
0 -839 rlineto
-292 839 rlineto
-118 0 rlineto
-290 -853 rlineto
0 853 rlineto
-126 0 rlineto
} def
/P$a {
0 -1001 rlineto
131 0 rlineto
0 1001 rlineto
-131 0 rlineto
} def
/P$1g {
0 -931 rlineto
671 0 rlineto
0 110 rlineto
-548 0 rlineto
0 284 rlineto
514 0 rlineto
0 109 rlineto
-514 0 rlineto
0 317 rlineto
570 0 rlineto
0 109 rlineto
-693 0 rlineto
} def
/P$1n {
0 -84 rlineto
-64 100 -189 100 rquadto
-79 0 -148 -43 rquadto
-67 -45 -104 -125 rquadto
-37 -79 -37 -182 rquadto
0 -101 34 -182 rquadto
34 -82 101 -126 rquadto
67 -43 150 -43 rquadto
60 0 107 26 rquadto
48 25 78 65 rquadto
0 -334 rlineto
114 0 rlineto
0 931 rlineto
-106 0 rlineto
closepath
} def
/P$1e {
-151 0 rlineto
0 -290 rlineto
0 -92 -9 -118 rquadto
-9 -28 -31 -42 rquadto
-21 -15 -53 -15 rquadto
-39 0 -70 21 rquadto
-31 20 -43 56 rquadto
-10 34 -10 131 rquadto
0 257 rlineto
-150 0 rlineto
0 -570 rlineto
140 0 rlineto
0 84 rlineto
73 -96 187 -96 rquadto
50 0 90 18 rquadto
42 17 62 45 rquadto
21 26 29 62 rquadto
9 35 9 101 rquadto
0 354 rlineto
} def
/P$9 {
0 139 60 209 rquadto
60 68 153 68 rquadto
90 0 151 -70 rquadto
60 -70 60 -212 rquadto
0 -134 -60 -203 rquadto
-60 -70 -151 -70 rquadto
-92 0 -153 68 rquadto
-60 68 -60 209 rquadto
closepath
} def
/P$24 {
0 -931 rlineto
103 0 rlineto
0 87 rlineto
37 -51 82 -76 rquadto
46 -26 114 -26 rquadto
85 0 151 45 rquadto
65 43 98 125 rquadto
34 79 34 176 rquadto
0 103 -37 185 rquadto
-35 82 -107 128 rquadto
-70 43 -148 43 rquadto
-56 0 -101 -23 rquadto
-45 -25 -75 -62 rquadto
0 328 rlineto
-114 0 rlineto
closepath
} def
/P$l {
0 139 57 209 rquadto
59 68 139 68 rquadto
81 0 137 -65 rquadto
56 -67 56 -201 rquadto
0 -150 -57 -218 rquadto
-57 -70 -140 -70 rquadto
-82 0 -137 67 rquadto
-54 67 -54 210 rquadto
} def
/P$1 {
120 -18 rlineto
10 73 57 112 rquadto
46 39 131 39 rquadto
84 0 125 -34 rquadto
42 -34 42 -81 rquadto
0 -42 -37 -65 rquadto
-25 -17 -125 -42 rquadto
-135 -34 -189 -59 rquadto
-51 -25 -78 -68 rquadto
-26 -43 -26 -96 rquadto
0 -48 21 -89 rquadto
21 -42 60 -70 rquadto
28 -20 76 -34 rquadto
50 -15 107 -15 rquadto
84 0 148 25 rquadto
65 23 96 65 rquadto
31 42 42 112 rquadto
-120 17 rlineto
-7 -56 -48 -87 rquadto
-39 -31 -110 -31 rquadto
-84 0 -120 28 rquadto
-35 26 -35 65 rquadto
0 23 14 42 rquadto
15 20 48 32 rquadto
17 6 107 31 rquadto
131 35 182 57 rquadto
51 21 79 64 rquadto
29 42 29 104 rquadto
0 62 -35 117 rquadto
-34 53 -103 84 rquadto
-67 29 -153 29 rquadto
-140 0 -215 -59 rquadto
-73 -59 -93 -175 rquadto
} def
/P$19 {
-229 -570 rlineto
157 0 rlineto
107 290 rlineto
31 96 rlineto
12 -35 15 -48 rquadto
7 -23 15 -48 rquadto
109 -290 rlineto
154 0 rlineto
-226 570 rlineto
-135 0 rlineto
} def
/P$1q {
0 -187 103 -276 rquadto
87 -75 212 -75 rquadto
139 0 226 90 rquadto
89 90 89 251 rquadto
0 129 -39 204 rquadto
-39 75 -114 117 rquadto
-75 40 -162 40 rquadto
-142 0 -229 -90 rquadto
-85 -90 -85 -262 rquadto
closepath
} def
/P$e {
404 0 rlineto
-7 -92 -46 -137 rquadto
-57 -70 -151 -70 rquadto
-85 0 -143 56 rquadto
-56 56 -62 151 rquadto
} def
/P$5 {
0 -726 rlineto
110 0 rlineto
0 110 rlineto
42 -78 78 -101 rquadto
35 -25 79 -25 rquadto
62 0 126 39 rquadto
-42 114 rlineto
-45 -26 -90 -26 rquadto
-40 0 -73 25 rquadto
-31 23 -45 67 rquadto
-20 65 -20 143 rquadto
0 379 rlineto
-123 0 rlineto
} def
/P$f {
0 -629 rlineto
-109 0 rlineto
0 -96 rlineto
109 0 rlineto
0 -76 rlineto
0 -73 12 -109 rquadto
18 -46 62 -76 rquadto
45 -29 126 -29 rquadto
51 0 114 12 rquadto
-18 106 rlineto
-37 -6 -71 -6 rquadto
-56 0 -79 23 rquadto
-23 23 -23 89 rquadto
0 67 rlineto
142 0 rlineto
0 96 rlineto
-142 0 rlineto
0 629 rlineto
-121 0 rlineto
} def
/P$26 {
0 -673 rlineto
103 0 rlineto
0 95 rlineto
73 -110 214 -110 rquadto
60 0 110 21 rquadto
51 21 76 57 rquadto
26 34 35 84 rquadto
6 31 6 110 rquadto
0 414 rlineto
-114 0 rlineto
0 -409 rlineto
0 -70 -14 -104 rquadto
-12 -34 -46 -54 rquadto
-32 -21 -78 -21 rquadto
-73 0 -126 46 rquadto
-53 45 -53 175 rquadto
0 368 rlineto
-114 0 rlineto
closepath
} def
/P$k {
0 -92 rlineto
-70 109 -203 109 rquadto
-87 0 -160 -48 rquadto
-71 -48 -112 -134 rquadto
-39 -85 -39 -196 rquadto
0 -107 35 -196 rquadto
35 -89 107 -135 rquadto
73 -46 162 -46 rquadto
65 0 117 28 rquadto
51 26 82 71 rquadto
0 -359 rlineto
123 0 rlineto
0 1001 rlineto
-114 0 rlineto
closepath
} def
/P$1l {
-62 53 -121 76 rquadto
-57 21 -125 21 rquadto
-112 0 -171 -54 rquadto
-59 -54 -59 -139 rquadto
0 -48 21 -89 rquadto
23 -42 59 -67 rquadto
37 -25 82 -37 rquadto
32 -7 101 -17 rquadto
137 -15 203 -39 rquadto
1 -23 1 -29 rquadto
0 -70 -32 -98 rquadto
-43 -39 -129 -39 rquadto
-81 0 -120 28 rquadto
-37 28 -56 100 rquadto
-110 -14 rlineto
14 -71 48 -115 rquadto
35 -45 101 -68 rquadto
67 -23 153 -23 rquadto
87 0 140 20 rquadto
54 20 79 51 rquadto
25 29 35 76 rquadto
4 29 4 106 rquadto
0 151 rlineto
0 159 7 201 rquadto
7 42 28 81 rquadto
-118 0 rlineto
-17 -35 -23 -82 rquadto
closepath
} def
/P$14 {
-139 0 rlineto
0 -84 rlineto
-35 50 -84 73 rquadto
-46 23 -93 23 rquadto
-98 0 -168 -78 rquadto
-70 -79 -70 -221 rquadto
0 -145 67 -220 rquadto
68 -75 173 -75 rquadto
95 0 165 79 rquadto
0 -284 rlineto
150 0 rlineto
0 787 rlineto
closepath
} def
/P$1i {
-256 -673 rlineto
120 0 rlineto
143 403 rlineto
23 65 43 135 rquadto
15 -53 42 -128 rquadto
150 -410 rlineto
117 0 rlineto
-254 673 rlineto
-106 0 rlineto
closepath
} def
/P$1m {
-62 26 -185 43 rquadto
-70 10 -100 23 rquadto
-29 12 -45 37 rquadto
-15 23 -15 53 rquadto
0 45 34 76 rquadto
34 29 101 29 rquadto
65 0 117 -28 rquadto
51 -29 76 -79 rquadto
17 -37 17 -114 rquadto
0 -42 rlineto
} def
/P$20 {
112 14 rlineto
-17 117 -93 182 rquadto
-76 65 -185 65 rquadto
-139 0 -223 -90 rquadto
-82 -90 -82 -259 rquadto
0 -109 35 -190 rquadto
35 -82 109 -123 rquadto
73 -40 160 -40 rquadto
109 0 179 56 rquadto
70 54 89 156 rquadto
-110 17 rlineto
-15 -67 -56 -101 rquadto
-39 -34 -96 -34 rquadto
-85 0 -140 62 rquadto
-53 60 -53 195 rquadto
0 135 51 198 rquadto
51 60 135 60 rquadto
67 0 112 -40 rquadto
45 -42 56 -128 rquadto
} def
/P$b {
0 -726 rlineto
110 0 rlineto
0 103 rlineto
79 -118 231 -118 rquadto
65 0 120 23 rquadto
54 23 81 62 rquadto
28 37 39 90 rquadto
7 34 7 118 rquadto
0 446 rlineto
-123 0 rlineto
0 -442 rlineto
0 -75 -14 -110 rquadto
-14 -37 -51 -59 rquadto
-35 -23 -85 -23 rquadto
-78 0 -135 50 rquadto
-56 50 -56 189 rquadto
0 396 rlineto
-123 0 rlineto
} def
/P$1a {
0 -787 rlineto
150 0 rlineto
0 787 rlineto
-150 0 rlineto
} def
/P$27 {
118 14 rlineto
-28 104 -104 162 rquadto
-75 56 -192 56 rquadto
-148 0 -235 -90 rquadto
-85 -92 -85 -256 rquadto
0 -170 87 -264 rquadto
89 -93 228 -93 rquadto
135 0 220 92 rquadto
85 92 85 257 rquadto
0 10 0 31 rquadto
-503 0 rlineto
6 110 62 170 rquadto
56 59 140 59 rquadto
64 0 107 -32 rquadto
45 -34 70 -106 rquadto
closepath
} def
/P$1d {
0 96 37 143 rquadto
39 45 93 45 rquadto
53 0 87 -42 rquadto
35 -42 35 -139 rquadto
0 -89 -35 -132 rquadto
-35 -43 -89 -43 rquadto
-56 0 -93 43 rquadto
-35 42 -35 125 rquadto
} def
/P$1p {
15 100 rlineto
-48 10 -85 10 rquadto
-62 0 -96 -20 rquadto
-34 -20 -48 -51 rquadto
-14 -32 -14 -134 rquadto
0 -389 rlineto
-82 0 rlineto
0 -87 rlineto
82 0 rlineto
0 -167 rlineto
114 -68 rlineto
0 235 rlineto
115 0 rlineto
0 87 rlineto
-115 0 rlineto
0 395 rlineto
0 48 6 62 rquadto
6 14 18 21 rquadto
14 7 39 7 rquadto
20 0 51 -3 rquadto
} def
/P$p {
0 100 46 154 rquadto
48 53 118 53 rquadto
70 0 117 -53 rquadto
46 -54 46 -156 rquadto
0 -98 -46 -151 rquadto
-46 -53 -117 -53 rquadto
-70 0 -118 53 rquadto
-46 53 -46 153 rquadto
} def
/P$1u {
0 131 51 192 rquadto
53 60 132 60 rquadto
79 0 132 -59 rquadto
53 -60 53 -190 rquadto
0 -123 -54 -185 rquadto
-54 -64 -132 -64 rquadto
-76 0 -129 62 rquadto
-53 62 -53 184 rquadto
} def
/P$h {
132 34 rlineto
-42 162 -151 248 rquadto
-107 85 -264 85 rquadto
-162 0 -264 -65 rquadto
-101 -67 -154 -192 rquadto
-51 -125 -51 -268 rquadto
0 -156 59 -271 rquadto
59 -117 170 -176 rquadto
110 -60 242 -60 rquadto
151 0 253 76 rquadto
103 76 143 214 rquadto
-131 31 rlineto
-34 -109 -101 -159 rquadto
-65 -50 -165 -50 rquadto
-115 0 -193 56 rquadto
-78 54 -109 148 rquadto
-31 93 -31 192 rquadto
0 128 37 223 rquadto
37 95 115 142 rquadto
78 46 170 46 rquadto
110 0 187 -64 rquadto
78 -64 106 -190 rquadto
} def
/P$0 {
132 0 rlineto
0 578 rlineto
0 151 -34 240 rquadto
-34 89 -123 145 rquadto
-89 54 -234 54 rquadto
-140 0 -231 -48 rquadto
-89 -48 -128 -140 rquadto
-37 -92 -37 -251 rquadto
0 -578 rlineto
132 0 rlineto
0 578 rlineto
0 129 23 192 rquadto
25 60 84 95 rquadto
59 32 145 32 rquadto
145 0 207 -65 rquadto
62 -67 62 -254 rquadto
0 -578 rlineto
} def
/P$10 {
0 -139 rlineto
150 0 rlineto
0 139 rlineto
-150 0 rlineto
closepath
} def
/P$23 {
0 -673 rlineto
101 0 rlineto
0 93 rlineto
32 -50 84 -79 rquadto
53 -29 120 -29 rquadto
75 0 121 31 rquadto
48 31 68 85 rquadto
79 -117 207 -117 rquadto
100 0 153 56 rquadto
54 54 54 170 rquadto
0 462 rlineto
-112 0 rlineto
0 -425 rlineto
0 -68 -10 -98 rquadto
-10 -29 -40 -48 rquadto
-29 -18 -68 -18 rquadto
-71 0 -118 48 rquadto
-46 46 -46 150 rquadto
0 392 rlineto
-114 0 rlineto
0 -437 rlineto
0 -76 -28 -114 rquadto
-28 -39 -90 -39 rquadto
-48 0 -89 26 rquadto
-40 25 -59 73 rquadto
-18 48 -18 140 rquadto
0 350 rlineto
-114 0 rlineto
} def
/P$6 {
0 -140 rlineto
121 0 rlineto
0 140 rlineto
-121 0 rlineto
closepath
} def
/P$3 {
-67 57 -131 82 rquadto
-62 23 -135 23 rquadto
-118 0 -184 -57 rquadto
-64 -59 -64 -151 rquadto
0 -53 23 -96 rquadto
25 -43 64 -70 rquadto
40 -26 89 -40 rquadto
35 -9 109 -18 rquadto
150 -17 220 -42 rquadto
0 -25 0 -31 rquadto
0 -76 -34 -106 rquadto
-46 -42 -140 -42 rquadto
-85 0 -128 31 rquadto
-40 29 -60 106 rquadto
-120 -15 rlineto
15 -78 53 -125 rquadto
39 -46 109 -71 rquadto
71 -26 165 -26 rquadto
92 0 150 21 rquadto
57 21 84 54 rquadto
28 32 39 84 rquadto
6 31 6 112 rquadto
0 164 rlineto
0 171 7 217 rquadto
7 45 31 87 rquadto
-128 0 rlineto
-18 -39 -25 -89 rquadto
closepath
} def
/P$11 {
0 -570 rlineto
150 0 rlineto
0 570 rlineto
-150 0 rlineto
} def
/P$y {
-29 9 -92 23 rquadto
-62 12 -81 25 rquadto
-29 21 -29 53 rquadto
0 32 23 56 rquadto
23 21 59 21 rquadto
40 0 78 -26 rquadto
28 -20 35 -50 rquadto
6 -18 6 -73 rquadto
0 -29 rlineto
} def
/P$q {
167 0 rlineto
0 98 rlineto
32 -51 87 -82 rquadto
54 -31 121 -31 rquadto
118 0 200 92 rquadto
81 92 81 256 rquadto
0 168 -82 262 rquadto
-81 93 -198 93 rquadto
-56 0 -101 -21 rquadto
-45 -23 -95 -76 rquadto
0 339 rlineto
-179 0 rlineto
0 -929 rlineto
closepath
} def
/P$1w {
0 -673 rlineto
103 0 rlineto
0 101 rlineto
39 -71 71 -93 rquadto
34 -23 73 -23 rquadto
57 0 117 35 rquadto
-39 106 rlineto
-42 -25 -82 -25 rquadto
-37 0 -68 23 rquadto
-29 21 -42 62 rquadto
-18 60 -18 132 rquadto
0 353 rlineto
-114 0 rlineto
closepath
} def
/P$i {
0 139 60 209 rquadto
60 68 153 68 rquadto
90 0 151 -70 rquadto
60 -70 60 -212 rquadto
0 -134 -60 -203 rquadto
-60 -70 -151 -70 rquadto
-92 0 -153 68 rquadto
-60 68 -60 209 rquadto
} def
/P$1o {
0 129 53 193 rquadto
54 64 129 64 rquadto
75 0 126 -60 rquadto
53 -62 53 -187 rquadto
0 -139 -53 -203 rquadto
-53 -65 -131 -65 rquadto
-76 0 -128 62 rquadto
-50 62 -50 196 rquadto
} def
/P$1x {
112 -17 rlineto
9 67 53 104 rquadto
43 35 121 35 rquadto
78 0 115 -31 rquadto
39 -32 39 -76 rquadto
0 -39 -34 -60 rquadto
-23 -15 -117 -39 rquadto
-125 -31 -173 -54 rquadto
-48 -23 -73 -64 rquadto
-25 -40 -25 -90 rquadto
0 -45 20 -82 rquadto
20 -39 56 -64 rquadto
26 -20 71 -32 rquadto
46 -14 100 -14 rquadto
78 0 137 23 rquadto
60 21 89 60 rquadto
29 39 40 104 rquadto
-112 15 rlineto
-7 -53 -43 -81 rquadto
-35 -29 -103 -29 rquadto
-78 0 -112 26 rquadto
-34 25 -34 60 rquadto
0 21 14 39 rquadto
14 18 43 31 rquadto
17 6 101 28 rquadto
121 32 168 53 rquadto
48 20 75 60 rquadto
28 39 28 96 rquadto
0 57 -34 107 rquadto
-32 50 -95 78 rquadto
-62 28 -142 28 rquadto
-131 0 -200 -54 rquadto
-68 -54 -87 -162 rquadto
closepath
} def
/P$g {
0 -100 rlineto
460 -529 rlineto
-78 3 -139 3 rquadto
-295 0 rlineto
0 -100 rlineto
593 0 rlineto
0 81 rlineto
-393 460 rlineto
-75 84 rlineto
82 -6 154 -6 rquadto
335 0 rlineto
0 106 rlineto
-642 0 rlineto
closepath
} def
/P$d {
128 15 rlineto
-31 112 -112 175 rquadto
-81 60 -207 60 rquadto
-159 0 -253 -98 rquadto
-92 -98 -92 -275 rquadto
0 -184 93 -284 rquadto
95 -101 245 -101 rquadto
145 0 237 100 rquadto
92 98 92 278 rquadto
0 10 0 32 rquadto
-542 0 rlineto
7 118 67 182 rquadto
60 64 153 64 rquadto
67 0 114 -35 rquadto
48 -35 76 -114 rquadto
closepath
} def
/P$v {
150 -23 rlineto
10 43 39 67 rquadto
29 21 82 21 rquadto
59 0 89 -20 rquadto
20 -15 20 -40 rquadto
0 -17 -10 -28 rquadto
-12 -10 -51 -20 rquadto
-181 -40 -231 -73 rquadto
-67 -46 -67 -128 rquadto
0 -75 57 -125 rquadto
59 -50 182 -50 rquadto
117 0 173 37 rquadto
56 37 78 112 rquadto
-142 26 rlineto
-9 -32 -34 -50 rquadto
-25 -18 -73 -18 rquadto
-59 0 -84 17 rquadto
-17 10 -17 29 rquadto
0 17 14 28 rquadto
20 15 140 43 rquadto
121 26 168 65 rquadto
48 40 48 112 rquadto
0 78 -65 134 rquadto
-65 56 -195 56 rquadto
-115 0 -184 -46 rquadto
-67 -46 -87 -128 rquadto
} def
/P$m {
0 -726 rlineto
110 0 rlineto
0 110 rlineto
42 -78 78 -101 rquadto
35 -25 79 -25 rquadto
62 0 126 39 rquadto
-42 114 rlineto
-45 -26 -90 -26 rquadto
-40 0 -73 25 rquadto
-31 23 -45 67 rquadto
-20 65 -20 143 rquadto
0 379 rlineto
-123 0 rlineto
closepath
} def
/P$1k {
0 -673 rlineto
114 0 rlineto
0 673 rlineto
-114 0 rlineto
} def
/P$t {
0 -1009 rlineto
267 0 rlineto
0 118 rlineto
-123 0 rlineto
0 771 rlineto
123 0 rlineto
0 118 rlineto
-267 0 rlineto
} def
/P$1z {
315 0 rlineto
-98 -257 rlineto
-43 -117 -65 -192 rquadto
-17 89 -50 178 rquadto
-101 271 rlineto
} def
/P$z {
-151 0 rlineto
0 -570 rlineto
140 0 rlineto
0 81 rlineto
35 -57 64 -75 rquadto
29 -18 65 -18 rquadto
51 0 100 28 rquadto
-46 131 rlineto
-37 -25 -70 -25 rquadto
-32 0 -54 18 rquadto
-21 17 -34 62 rquadto
-12 45 -12 190 rquadto
0 176 rlineto
} def
0.78 0.78 0.78 setrgbcolor
39400 13875 6300 11060 100 roundrect
closepath eofill
0.71 0.71 0.71 setrgbcolor
39300 13775 6350 11110 100 roundrect
closepath eofill
0.64 0.64 0.64 setrgbcolor
39200 13675 6400 11160 100 roundrect
closepath eofill
0.56 0.56 0.56 setrgbcolor
39100 13575 6450 11210 100 roundrect
closepath eofill
0.49 0.49 0.49 setrgbcolor
39000 13475 6500 11260 100 roundrect
closepath eofill
0.42 0.42 0.42 setrgbcolor
38900 13375 6550 11310 100 roundrect
closepath eofill
0.34 0.34 0.34 setrgbcolor
38800 13275 6600 11360 100 roundrect
closepath eofill
0.27 0.27 0.27 setrgbcolor
38700 13175 6650 11410 100 roundrect
closepath eofill
0.2 0.2 0.2 setrgbcolor
38600 13075 6700 11460 100 roundrect
closepath eofill
1 1 1 setrgbcolor
39400 13875 5900 10660 simplerect
closepath eofill
200 setlinewidth
0 0 0 setrgbcolor
39400 13875 5900 10660 simplerect
closepath stroke
100 setlinewidth
0.66 0 0.21 setrgbcolor
newpath
3200 8960 moveto
17{
0 500 rlineto
0 500 rmoveto
} repeat
0 276 rlineto
stroke
100 setlinewidth
0.66 0 0.21 setrgbcolor
newpath
10100 8960 moveto
17{
0 500 rlineto
0 500 rmoveto
} repeat
0 276 rlineto
stroke
100 setlinewidth
0.66 0 0.21 setrgbcolor
newpath
25550 8960 moveto
17{
0 500 rlineto
0 500 rmoveto
} repeat
0 276 rlineto
stroke
100 setlinewidth
0.66 0 0.21 setrgbcolor
newpath
41100 8960 moveto
17{
0 500 rlineto
0 500 rmoveto
} repeat
0 276 rlineto
stroke
0 setlinewidth
[] 0 setdash
0 0 0 setrgbcolor
newpath
1265 7651 moveto
P$0
fill
0 setlinewidth
[] 0 setdash
0 0 0 setrgbcolor
newpath
1443 8436 moveto
P$1
fill
0 setlinewidth
[] 0 setdash
0 0 0 setrgbcolor
newpath
2668 8653 moveto
P$2
fill
0 setlinewidth
[] 0 setdash
0 0 0 setrgbcolor
newpath
3465 8564 moveto
P$3
3456 8289 moveto
P$4
fill
0 setlinewidth
[] 0 setdash
0 0 0 setrgbcolor
newpath
3790 8653 moveto
P$5
fill
0 setlinewidth
[] 0 setdash
0 0 0 setrgbcolor
newpath
4293 7792 moveto
P$6
4293 8653 moveto
P$7
fill
0 setlinewidth
[] 0 setdash
0 0 0 setrgbcolor
newpath
4546 8290 moveto
P$8
4673 8290 moveto
P$9
fill
0.78 0.78 0.78 setrgbcolor
newpath
3600 1900 800 0 360 arc
closepath eofill
0.71 0.71 0.71 setrgbcolor
newpath
3600 1900 750 0 360 arc
closepath eofill
0.64 0.64 0.64 setrgbcolor
newpath
3600 1900 700 0 360 arc
closepath eofill
0.56 0.56 0.56 setrgbcolor
newpath
3600 1900 650 0 360 arc
closepath eofill
0.49 0.49 0.49 setrgbcolor
newpath
3600 1900 600 0 360 arc
closepath eofill
0.42 0.42 0.42 setrgbcolor
newpath
3600 1900 550 0 360 arc
closepath eofill
0.34 0.34 0.34 setrgbcolor
newpath
3600 1900 500 0 360 arc
closepath eofill
0.27 0.27 0.27 setrgbcolor
newpath
3600 1900 450 0 360 arc
closepath eofill
0.2 0.2 0.2 setrgbcolor
newpath
3600 1900 400 0 360 arc
closepath eofill
1 1 0.81 setrgbcolor
newpath
3200 1500 800 0 360 arc
closepath eofill
200 setlinewidth
0.66 0 0.21 setrgbcolor
newpath
3200 1500 800 0 360 arc
closepath stroke
200 setlinewidth
0.66 0 0.21 setrgbcolor
newpath
3200 2300 moveto
3200 5000 lineto
1900 3100 moveto
4500 3100 lineto
3200 5000 moveto
1900 6500 lineto
3200 5000 moveto
4500 6500 lineto
stroke
0 setlinewidth
[] 0 setdash
0 0 0 setrgbcolor
newpath
1265 26588 moveto
P$0
fill
0 setlinewidth
[] 0 setdash
0 0 0 setrgbcolor
newpath
1443 27372 moveto
P$1
fill
0 setlinewidth
[] 0 setdash
0 0 0 setrgbcolor
newpath
2668 27590 moveto
P$2
fill
0 setlinewidth
[] 0 setdash
0 0 0 setrgbcolor
newpath
3465 27500 moveto
P$3
3456 27225 moveto
P$4
fill
0 setlinewidth
[] 0 setdash
0 0 0 setrgbcolor
newpath
3790 27590 moveto
P$5
fill
0 setlinewidth
[] 0 setdash
0 0 0 setrgbcolor
newpath
4293 26729 moveto
P$6
4293 27590 moveto
P$7
fill
0 setlinewidth
[] 0 setdash
0 0 0 setrgbcolor
newpath
4546 27227 moveto
P$8
4673 27227 moveto
P$9
fill
0.78 0.78 0.78 setrgbcolor
newpath
3600 29297 800 0 360 arc
closepath eofill
0.71 0.71 0.71 setrgbcolor
newpath
3600 29297 750 0 360 arc
closepath eofill
0.64 0.64 0.64 setrgbcolor
newpath
3600 29297 700 0 360 arc
closepath eofill
0.56 0.56 0.56 setrgbcolor
newpath
3600 29297 650 0 360 arc
closepath eofill
0.49 0.49 0.49 setrgbcolor
newpath
3600 29297 600 0 360 arc
closepath eofill
0.42 0.42 0.42 setrgbcolor
newpath
3600 29297 550 0 360 arc
closepath eofill
0.34 0.34 0.34 setrgbcolor
newpath
3600 29297 500 0 360 arc
closepath eofill
0.27 0.27 0.27 setrgbcolor
newpath
3600 29297 450 0 360 arc
closepath eofill
0.2 0.2 0.2 setrgbcolor
newpath
3600 29297 400 0 360 arc
closepath eofill
1 1 0.81 setrgbcolor
newpath
3200 28897 800 0 360 arc
closepath eofill
200 setlinewidth
0.66 0 0.21 setrgbcolor
newpath
3200 28897 800 0 360 arc
closepath stroke
200 setlinewidth
0.66 0 0.21 setrgbcolor
newpath
3200 29697 moveto
3200 32397 lineto
1900 30497 moveto
4500 30497 lineto
3200 32397 moveto
1900 33897 lineto
3200 32397 moveto
4500 33897 lineto
stroke
0.78 0.78 0.78 setrgbcolor
6000 3160 7300 5700 100 roundrect
closepath eofill
0.71 0.71 0.71 setrgbcolor
5900 3060 7350 5750 100 roundrect
closepath eofill
0.64 0.64 0.64 setrgbcolor
5800 2960 7400 5800 100 roundrect
closepath eofill
0.56 0.56 0.56 setrgbcolor
5700 2860 7450 5850 100 roundrect
closepath eofill
0.49 0.49 0.49 setrgbcolor
5600 2760 7500 5900 100 roundrect
closepath eofill
0.42 0.42 0.42 setrgbcolor
5500 2660 7550 5950 100 roundrect
closepath eofill
0.34 0.34 0.34 setrgbcolor
5400 2560 7600 6000 100 roundrect
closepath eofill
0.27 0.27 0.27 setrgbcolor
5300 2460 7650 6050 100 roundrect
closepath eofill
0.2 0.2 0.2 setrgbcolor
5200 2360 7700 6100 100 roundrect
closepath eofill
1 1 0.81 setrgbcolor
6000 3160 6900 5300 simplerect
closepath eofill
150 setlinewidth
0.66 0 0.21 setrgbcolor
6000 3160 6900 5300 simplerect
closepath stroke
0 setlinewidth
[] 0 setdash
0 0 0 setrgbcolor
newpath
7731 7453 moveto
P$a
fill
0 setlinewidth
[] 0 setdash
0 0 0 setrgbcolor
newpath
7992 7453 moveto
P$b
fill
0 setlinewidth
[] 0 setdash
0 0 0 setrgbcolor
newpath
9060 7343 moveto
P$c
fill
0 setlinewidth
[] 0 setdash
0 0 0 setrgbcolor
newpath
9689 7218 moveto
P$d
9285 7020 moveto
P$e
fill
0 setlinewidth
[] 0 setdash
0 0 0 setrgbcolor
newpath
9990 7453 moveto
P$5
fill
0 setlinewidth
[] 0 setdash
0 0 0 setrgbcolor
newpath
10521 7453 moveto
P$f
fill
0 setlinewidth
[] 0 setdash
0 0 0 setrgbcolor
newpath
11365 7364 moveto
P$3
11356 7089 moveto
P$4
fill
0 setlinewidth
[] 0 setdash
0 0 0 setrgbcolor
newpath
11628 7453 moveto
P$g
fill
0.78 0.78 0.78 setrgbcolor
6000 3160 7300 26536 100 roundrect
closepath eofill
0.71 0.71 0.71 setrgbcolor
5900 3060 7350 26586 100 roundrect
closepath eofill
0.64 0.64 0.64 setrgbcolor
5800 2960 7400 26636 100 roundrect
closepath eofill
0.56 0.56 0.56 setrgbcolor
5700 2860 7450 26686 100 roundrect
closepath eofill
0.49 0.49 0.49 setrgbcolor
5600 2760 7500 26736 100 roundrect
closepath eofill
0.42 0.42 0.42 setrgbcolor
5500 2660 7550 26786 100 roundrect
closepath eofill
0.34 0.34 0.34 setrgbcolor
5400 2560 7600 26836 100 roundrect
closepath eofill
0.27 0.27 0.27 setrgbcolor
5300 2460 7650 26886 100 roundrect
closepath eofill
0.2 0.2 0.2 setrgbcolor
5200 2360 7700 26936 100 roundrect
closepath eofill
1 1 0.81 setrgbcolor
6000 3160 6900 26136 simplerect
closepath eofill
150 setlinewidth
0.66 0 0.21 setrgbcolor
6000 3160 6900 26136 simplerect
closepath stroke
0 setlinewidth
[] 0 setdash
0 0 0 setrgbcolor
newpath
7731 28290 moveto
P$a
fill
0 setlinewidth
[] 0 setdash
0 0 0 setrgbcolor
newpath
7992 28290 moveto
P$b
fill
0 setlinewidth
[] 0 setdash
0 0 0 setrgbcolor
newpath
9060 28180 moveto
P$c
fill
0 setlinewidth
[] 0 setdash
0 0 0 setrgbcolor
newpath
9689 28055 moveto
P$d
9285 27857 moveto
P$e
fill
0 setlinewidth
[] 0 setdash
0 0 0 setrgbcolor
newpath
9990 28290 moveto
P$5
fill
0 setlinewidth
[] 0 setdash
0 0 0 setrgbcolor
newpath
10521 28290 moveto
P$f
fill
0 setlinewidth
[] 0 setdash
0 0 0 setrgbcolor
newpath
11365 28200 moveto
P$3
11356 27925 moveto
P$4
fill
0 setlinewidth
[] 0 setdash
0 0 0 setrgbcolor
newpath
11628 28290 moveto
P$g
fill
0.78 0.78 0.78 setrgbcolor
8900 3160 21350 5700 100 roundrect
closepath eofill
0.71 0.71 0.71 setrgbcolor
8800 3060 21400 5750 100 roundrect
closepath eofill
0.64 0.64 0.64 setrgbcolor
8700 2960 21450 5800 100 roundrect
closepath eofill
0.56 0.56 0.56 setrgbcolor
8600 2860 21500 5850 100 roundrect
closepath eofill
0.49 0.49 0.49 setrgbcolor
8500 2760 21550 5900 100 roundrect
closepath eofill
0.42 0.42 0.42 setrgbcolor
8400 2660 21600 5950 100 roundrect
closepath eofill
0.34 0.34 0.34 setrgbcolor
8300 2560 21650 6000 100 roundrect
closepath eofill
0.27 0.27 0.27 setrgbcolor
8200 2460 21700 6050 100 roundrect
closepath eofill
0.2 0.2 0.2 setrgbcolor
8100 2360 21750 6100 100 roundrect
closepath eofill
1 1 0.81 setrgbcolor
8900 3160 20950 5300 simplerect
closepath eofill
150 setlinewidth
0.66 0 0.21 setrgbcolor
8900 3160 20950 5300 simplerect
closepath stroke
0 setlinewidth
[] 0 setdash
0 0 0 setrgbcolor
newpath
22473 7101 moveto
P$h
fill
0 setlinewidth
[] 0 setdash
0 0 0 setrgbcolor
newpath
22696 7090 moveto
P$8
22823 7090 moveto
P$i
fill
0 setlinewidth
[] 0 setdash
0 0 0 setrgbcolor
newpath
23542 7453 moveto
P$b
fill
0 setlinewidth
[] 0 setdash
0 0 0 setrgbcolor
newpath
24610 7343 moveto
P$c
fill
0 setlinewidth
[] 0 setdash
0 0 0 setrgbcolor
newpath
24740 7453 moveto
P$5
fill
0 setlinewidth
[] 0 setdash
0 0 0 setrgbcolor
newpath
25196 7090 moveto
P$8
25323 7090 moveto
P$i
fill
0 setlinewidth
[] 0 setdash
0 0 0 setrgbcolor
newpath
26039 7453 moveto
P$j
fill
0 setlinewidth
[] 0 setdash
0 0 0 setrgbcolor
newpath
26815 7364 moveto
P$3
26806 7089 moveto
P$4
fill
0 setlinewidth
[] 0 setdash
0 0 0 setrgbcolor
newpath
27614 7453 moveto
P$k
27225 7090 moveto
P$l
fill
0 setlinewidth
[] 0 setdash
0 0 0 setrgbcolor
newpath
27896 7090 moveto
P$8
28023 7090 moveto
P$i
fill
0 setlinewidth
[] 0 setdash
0 0 0 setrgbcolor
newpath
28740 7453 moveto
P$m
fill
0.78 0.78 0.78 setrgbcolor
8900 3160 21350 26536 100 roundrect
closepath eofill
0.71 0.71 0.71 setrgbcolor
8800 3060 21400 26586 100 roundrect
closepath eofill
0.64 0.64 0.64 setrgbcolor
8700 2960 21450 26636 100 roundrect
closepath eofill
0.56 0.56 0.56 setrgbcolor
8600 2860 21500 26686 100 roundrect
closepath eofill
0.49 0.49 0.49 setrgbcolor
8500 2760 21550 26736 100 roundrect
closepath eofill
0.42 0.42 0.42 setrgbcolor
8400 2660 21600 26786 100 roundrect
closepath eofill
0.34 0.34 0.34 setrgbcolor
8300 2560 21650 26836 100 roundrect
closepath eofill
0.27 0.27 0.27 setrgbcolor
8200 2460 21700 26886 100 roundrect
closepath eofill
0.2 0.2 0.2 setrgbcolor
8100 2360 21750 26936 100 roundrect
closepath eofill
1 1 0.81 setrgbcolor
8900 3160 20950 26136 simplerect
closepath eofill
150 setlinewidth
0.66 0 0.21 setrgbcolor
8900 3160 20950 26136 simplerect
closepath stroke
0 setlinewidth
[] 0 setdash
0 0 0 setrgbcolor
newpath
22473 27938 moveto
P$h
fill
0 setlinewidth
[] 0 setdash
0 0 0 setrgbcolor
newpath
22696 27927 moveto
P$8
22823 27927 moveto
P$i
fill
0 setlinewidth
[] 0 setdash
0 0 0 setrgbcolor
newpath
23542 28290 moveto
P$b
fill
0 setlinewidth
[] 0 setdash
0 0 0 setrgbcolor
newpath
24610 28180 moveto
P$c
fill
0 setlinewidth
[] 0 setdash
0 0 0 setrgbcolor
newpath
24740 28290 moveto
P$5
fill
0 setlinewidth
[] 0 setdash
0 0 0 setrgbcolor
newpath
25196 27927 moveto
P$8
25323 27927 moveto
P$i
fill
0 setlinewidth
[] 0 setdash
0 0 0 setrgbcolor
newpath
26039 28290 moveto
P$j
fill
0 setlinewidth
[] 0 setdash
0 0 0 setrgbcolor
newpath
26815 28200 moveto
P$3
26806 27925 moveto
P$4
fill
0 setlinewidth
[] 0 setdash
0 0 0 setrgbcolor
newpath
27614 28290 moveto
P$k
27225 27927 moveto
P$l
fill
0 setlinewidth
[] 0 setdash
0 0 0 setrgbcolor
newpath
27896 27927 moveto
P$8
28023 27927 moveto
P$i
fill
0 setlinewidth
[] 0 setdash
0 0 0 setrgbcolor
newpath
28740 28290 moveto
P$m
fill
0.78 0.78 0.78 setrgbcolor
6000 3160 38300 5700 100 roundrect
closepath eofill
0.71 0.71 0.71 setrgbcolor
5900 3060 38350 5750 100 roundrect
closepath eofill
0.64 0.64 0.64 setrgbcolor
5800 2960 38400 5800 100 roundrect
closepath eofill
0.56 0.56 0.56 setrgbcolor
5700 2860 38450 5850 100 roundrect
closepath eofill
0.49 0.49 0.49 setrgbcolor
5600 2760 38500 5900 100 roundrect
closepath eofill
0.42 0.42 0.42 setrgbcolor
5500 2660 38550 5950 100 roundrect
closepath eofill
0.34 0.34 0.34 setrgbcolor
5400 2560 38600 6000 100 roundrect
closepath eofill
0.27 0.27 0.27 setrgbcolor
5300 2460 38650 6050 100 roundrect
closepath eofill
0.2 0.2 0.2 setrgbcolor
5200 2360 38700 6100 100 roundrect
closepath eofill
1 1 0.81 setrgbcolor
6000 3160 37900 5300 simplerect
closepath eofill
150 setlinewidth
0.66 0 0.21 setrgbcolor
6000 3160 37900 5300 simplerect
closepath stroke
0 setlinewidth
[] 0 setdash
0 0 0 setrgbcolor
newpath
38704 7453 moveto
P$n
fill
0 setlinewidth
[] 0 setdash
0 0 0 setrgbcolor
newpath
39746 7090 moveto
P$8
39873 7090 moveto
P$i
fill
0 setlinewidth
[] 0 setdash
0 0 0 setrgbcolor
newpath
41064 7453 moveto
P$k
40675 7090 moveto
P$l
fill
0 setlinewidth
[] 0 setdash
0 0 0 setrgbcolor
newpath
41889 7218 moveto
P$d
41485 7020 moveto
P$e
fill
0 setlinewidth
[] 0 setdash
0 0 0 setrgbcolor
newpath
42189 7453 moveto
P$j
fill
0 setlinewidth
[] 0 setdash
0 0 0 setrgbcolor
newpath
42446 7090 moveto
P$8
42573 7090 moveto
P$9
fill
0.78 0.78 0.78 setrgbcolor
6000 3160 38300 26536 100 roundrect
closepath eofill
0.71 0.71 0.71 setrgbcolor
5900 3060 38350 26586 100 roundrect
closepath eofill
0.64 0.64 0.64 setrgbcolor
5800 2960 38400 26636 100 roundrect
closepath eofill
0.56 0.56 0.56 setrgbcolor
5700 2860 38450 26686 100 roundrect
closepath eofill
0.49 0.49 0.49 setrgbcolor
5600 2760 38500 26736 100 roundrect
closepath eofill
0.42 0.42 0.42 setrgbcolor
5500 2660 38550 26786 100 roundrect
closepath eofill
0.34 0.34 0.34 setrgbcolor
5400 2560 38600 26836 100 roundrect
closepath eofill
0.27 0.27 0.27 setrgbcolor
5300 2460 38650 26886 100 roundrect
closepath eofill
0.2 0.2 0.2 setrgbcolor
5200 2360 38700 26936 100 roundrect
closepath eofill
1 1 0.81 setrgbcolor
6000 3160 37900 26136 simplerect
closepath eofill
150 setlinewidth
0.66 0 0.21 setrgbcolor
6000 3160 37900 26136 simplerect
closepath stroke
0 setlinewidth
[] 0 setdash
0 0 0 setrgbcolor
newpath
38704 28290 moveto
P$n
fill
0 setlinewidth
[] 0 setdash
0 0 0 setrgbcolor
newpath
39746 27927 moveto
P$8
39873 27927 moveto
P$i
fill
0 setlinewidth
[] 0 setdash
0 0 0 setrgbcolor
newpath
41064 28290 moveto
P$k
40675 27927 moveto
P$l
fill
0 setlinewidth
[] 0 setdash
0 0 0 setrgbcolor
newpath
41889 28055 moveto
P$d
41485 27857 moveto
P$e
fill
0 setlinewidth
[] 0 setdash
0 0 0 setrgbcolor
newpath
42189 28290 moveto
P$j
fill
0 setlinewidth
[] 0 setdash
0 0 0 setrgbcolor
newpath
42446 27927 moveto
P$8
42573 27927 moveto
P$9
fill
0.93 0.93 0.93 setrgbcolor
newpath
5900 10660 moveto
12400 10660 lineto
12400 11460 lineto
11400 12460 lineto
5900 12460 lineto
5900 10660 lineto
closepath eofill
100 setlinewidth
0 0 0 setrgbcolor
newpath
5900 10660 moveto
12400 10660 lineto
12400 11460 lineto
11400 12460 lineto
5900 12460 lineto
5900 10660 lineto
stroke
200 setlinewidth
0 0 0 setrgbcolor
39400 13875 5900 10660 simplerect
closepath stroke
0 setlinewidth
[] 0 setdash
0 0 0 setrgbcolor
newpath
7451 11763 moveto
P$o
7634 11772 moveto
P$p
fill
0 setlinewidth
[] 0 setdash
0 0 0 setrgbcolor
newpath
8287 11437 moveto
P$q
8464 11762 moveto
P$r
fill
0 setlinewidth
[] 0 setdash
0 0 0 setrgbcolor
newpath
9403 11437 moveto
P$s
fill
0 setlinewidth
[] 0 setdash
0 0 0 setrgbcolor
newpath
13978 12224 moveto
P$t
fill
0 setlinewidth
[] 0 setdash
0 0 0 setrgbcolor
newpath
14379 11215 moveto
P$u
fill
0 setlinewidth
[] 0 setdash
0 0 0 setrgbcolor
newpath
15026 11840 moveto
P$v
fill
0 setlinewidth
[] 0 setdash
0 0 0 setrgbcolor
newpath
16154 12002 moveto
P$w
fill
0 setlinewidth
[] 0 setdash
0 0 0 setrgbcolor
newpath
16592 11605 moveto
P$x
16793 11729 moveto
P$y
fill
0 setlinewidth
[] 0 setdash
0 0 0 setrgbcolor
newpath
17223 12002 moveto
P$z
fill
0 setlinewidth
[] 0 setdash
0 0 0 setrgbcolor
newpath
17579 11354 moveto
P$10
17579 12002 moveto
P$11
fill
0 setlinewidth
[] 0 setdash
0 0 0 setrgbcolor
newpath
17843 11709 moveto
P$12
17998 11716 moveto
P$13
fill
0 setlinewidth
[] 0 setdash
0 0 0 setrgbcolor
newpath
19401 12002 moveto
P$14
19000 11705 moveto
P$15
fill
0 setlinewidth
[] 0 setdash
0 0 0 setrgbcolor
newpath
19909 11821 moveto
P$16
19917 11668 moveto
P$17
fill
0 setlinewidth
[] 0 setdash
0 0 0 setrgbcolor
newpath
20776 11601 moveto
P$18
fill
0 setlinewidth
[] 0 setdash
0 0 0 setrgbcolor
newpath
20879 11354 moveto
P$10
20879 12002 moveto
P$11
fill
0 setlinewidth
[] 0 setdash
0 0 0 setrgbcolor
newpath
21701 12002 moveto
P$14
21300 11705 moveto
P$15
fill
0 setlinewidth
[] 0 setdash
0 0 0 setrgbcolor
newpath
22209 11821 moveto
P$16
22217 11668 moveto
P$17
fill
0 setlinewidth
[] 0 setdash
0 0 0 setrgbcolor
newpath
23035 12002 moveto
P$19
fill
0 setlinewidth
[] 0 setdash
0 0 0 setrgbcolor
newpath
23443 11709 moveto
P$12
23598 11716 moveto
P$13
fill
0 setlinewidth
[] 0 setdash
0 0 0 setrgbcolor
newpath
24179 12002 moveto
P$1a
fill
0 setlinewidth
[] 0 setdash
0 0 0 setrgbcolor
newpath
24635 12002 moveto
P$19
fill
0 setlinewidth
[] 0 setdash
0 0 0 setrgbcolor
newpath
25409 11821 moveto
P$16
25417 11668 moveto
P$17
fill
0 setlinewidth
[] 0 setdash
0 0 0 setrgbcolor
newpath
25923 12002 moveto
P$z
fill
0 setlinewidth
[] 0 setdash
0 0 0 setrgbcolor
newpath
26692 11605 moveto
P$x
26893 11729 moveto
P$y
fill
0 setlinewidth
[] 0 setdash
0 0 0 setrgbcolor
newpath
27809 11821 moveto
P$16
27817 11668 moveto
P$17
fill
0 setlinewidth
[] 0 setdash
0 0 0 setrgbcolor
newpath
28701 12002 moveto
P$14
28300 11705 moveto
P$15
fill
0 setlinewidth
[] 0 setdash
0 0 0 setrgbcolor
newpath
28879 11354 moveto
P$10
28879 12002 moveto
P$11
fill
0 setlinewidth
[] 0 setdash
0 0 0 setrgbcolor
newpath
29440 11432 moveto
P$1b
fill
0 setlinewidth
[] 0 setdash
0 0 0 setrgbcolor
newpath
29692 11605 moveto
P$x
29893 11729 moveto
P$y
fill
0 setlinewidth
[] 0 setdash
0 0 0 setrgbcolor
newpath
30323 12002 moveto
P$z
fill
0 setlinewidth
[] 0 setdash
0 0 0 setrgbcolor
newpath
30975 11432 moveto
P$1c
31123 11707 moveto
P$1d
fill
0 setlinewidth
[] 0 setdash
0 0 0 setrgbcolor
newpath
31823 12002 moveto
P$z
fill
0 setlinewidth
[] 0 setdash
0 0 0 setrgbcolor
newpath
32143 11709 moveto
P$12
32298 11716 moveto
P$13
fill
0 setlinewidth
[] 0 setdash
0 0 0 setrgbcolor
newpath
33140 11432 moveto
P$1b
fill
0 setlinewidth
[] 0 setdash
0 0 0 setrgbcolor
newpath
33243 11709 moveto
P$12
33398 11716 moveto
P$13
fill
0 setlinewidth
[] 0 setdash
0 0 0 setrgbcolor
newpath
34476 11601 moveto
P$18
fill
0 setlinewidth
[] 0 setdash
0 0 0 setrgbcolor
newpath
34543 11709 moveto
P$12
34698 11716 moveto
P$13
fill
0 setlinewidth
[] 0 setdash
0 0 0 setrgbcolor
newpath
35279 12002 moveto
P$1a
fill
0 setlinewidth
[] 0 setdash
0 0 0 setrgbcolor
newpath
35543 11709 moveto
P$12
35698 11716 moveto
P$13
fill
0 setlinewidth
[] 0 setdash
0 0 0 setrgbcolor
newpath
36692 11605 moveto
P$x
36893 11729 moveto
P$y
fill
0 setlinewidth
[] 0 setdash
0 0 0 setrgbcolor
newpath
37698 12002 moveto
P$1e
fill
0 setlinewidth
[] 0 setdash
0 0 0 setrgbcolor
newpath
38140 11432 moveto
P$1b
fill
0 setlinewidth
[] 0 setdash
0 0 0 setrgbcolor
newpath
38609 11821 moveto
P$16
38617 11668 moveto
P$17
fill
0 setlinewidth
[] 0 setdash
0 0 0 setrgbcolor
newpath
39123 12002 moveto
P$z
fill
0 setlinewidth
[] 0 setdash
0 0 0 setrgbcolor
newpath
39479 11354 moveto
P$10
39479 12002 moveto
P$11
fill
0 setlinewidth
[] 0 setdash
0 0 0 setrgbcolor
newpath
39743 11709 moveto
P$12
39898 11716 moveto
P$13
fill
0 setlinewidth
[] 0 setdash
0 0 0 setrgbcolor
newpath
40623 12002 moveto
P$z
fill
0 setlinewidth
[] 0 setdash
0 0 0 setrgbcolor
newpath
41187 11215 moveto
P$1f
fill
0.66 0 0.21 setrgbcolor
newpath
26700 14331 moveto
-1000 400 rlineto
1000 400 rlineto
-400 -400 rlineto
26700 14331 lineto
closepath eofill
200 setlinewidth
0.66 0 0.21 setrgbcolor
newpath
26700 14331 moveto
-1000 400 rlineto
1000 400 rlineto
-400 -400 rlineto
26700 14331 lineto
closepath stroke
100 setlinewidth
0.66 0 0.21 setrgbcolor
newpath
26100 14731 moveto
14900 0 rlineto
stroke
0 setlinewidth
[] 0 setdash
0 0 0 setrgbcolor
newpath
27403 14245 moveto
P$1g
fill
0 setlinewidth
[] 0 setdash
0 0 0 setrgbcolor
newpath
28285 14245 moveto
P$1h
fill
0 setlinewidth
[] 0 setdash
0 0 0 setrgbcolor
newpath
29173 14245 moveto
P$1i
29485 13447 moveto
P$1j
29485 14245 moveto
P$1k
fill
0 setlinewidth
[] 0 setdash
0 0 0 setrgbcolor
newpath
30225 14162 moveto
P$1l
30215 13906 moveto
P$1m
fill
0 setlinewidth
[] 0 setdash
0 0 0 setrgbcolor
newpath
31323 14245 moveto
P$1n
30962 13909 moveto
P$1o
fill
0 setlinewidth
[] 0 setdash
0 0 0 setrgbcolor
newpath
32025 14162 moveto
P$1l
32015 13906 moveto
P$1m
fill
0 setlinewidth
[] 0 setdash
0 0 0 setrgbcolor
newpath
32535 14144 moveto
P$1p
fill
0 setlinewidth
[] 0 setdash
0 0 0 setrgbcolor
newpath
32643 13908 moveto
P$1q
32760 13908 moveto
P$1r
fill
0 setlinewidth
[] 0 setdash
0 0 0 setrgbcolor
newpath
33340 14044 moveto
P$1s
fill
0 setlinewidth
[] 0 setdash
0 0 0 setrgbcolor
newpath
34464 14301 moveto
P$1t
34559 13897 moveto
P$1u
fill
0 setlinewidth
[] 0 setdash
0 0 0 setrgbcolor
newpath
35628 14245 moveto
P$1v
fill
0 setlinewidth
[] 0 setdash
0 0 0 setrgbcolor
newpath
36325 14162 moveto
P$1l
36315 13906 moveto
P$1m
fill
0 setlinewidth
[] 0 setdash
0 0 0 setrgbcolor
newpath
36584 14245 moveto
P$1w
37423 14245 moveto
P$1n
37062 13909 moveto
P$1o
fill
0 setlinewidth
[] 0 setdash
0 0 0 setrgbcolor
newpath
38125 14162 moveto
P$1l
38115 13906 moveto
P$1m
fill
0 setlinewidth
[] 0 setdash
0 0 0 setrgbcolor
newpath
38823 14245 moveto
P$1n
38462 13909 moveto
P$1o
fill
0 setlinewidth
[] 0 setdash
0 0 0 setrgbcolor
newpath
39043 13908 moveto
P$1q
39160 13908 moveto
P$1r
fill
0 setlinewidth
[] 0 setdash
0 0 0 setrgbcolor
newpath
39740 14044 moveto
P$1x
fill
0.66 0 0.21 setrgbcolor
newpath
11200 17366 moveto
-1000 400 rlineto
1000 400 rlineto
-400 -400 rlineto
11200 17366 lineto
closepath eofill
100 setlinewidth
0.66 0 0.21 setrgbcolor
newpath
11200 17366 moveto
-1000 400 rlineto
1000 400 rlineto
-400 -400 rlineto
11200 17366 lineto
closepath stroke
100 setlinewidth
0.66 0 0.21 setrgbcolor
newpath
10600 17766 moveto
14900 0 rlineto
stroke
0 setlinewidth
[] 0 setdash
0 0 0 setrgbcolor
newpath
11903 17280 moveto
P$1g
fill
0 setlinewidth
[] 0 setdash
0 0 0 setrgbcolor
newpath
12785 17280 moveto
P$1h
fill
0 setlinewidth
[] 0 setdash
0 0 0 setrgbcolor
newpath
13673 17280 moveto
P$1i
13985 16482 moveto
P$1j
13985 17280 moveto
P$1k
fill
0 setlinewidth
[] 0 setdash
0 0 0 setrgbcolor
newpath
14725 17197 moveto
P$1l
14715 16941 moveto
P$1m
fill
0 setlinewidth
[] 0 setdash
0 0 0 setrgbcolor
newpath
15823 17280 moveto
P$1n
15462 16944 moveto
P$1o
fill
0 setlinewidth
[] 0 setdash
0 0 0 setrgbcolor
newpath
16525 17197 moveto
P$1l
16515 16941 moveto
P$1m
fill
0 setlinewidth
[] 0 setdash
0 0 0 setrgbcolor
newpath
17035 17179 moveto
P$1p
fill
0 setlinewidth
[] 0 setdash
0 0 0 setrgbcolor
newpath
17143 16943 moveto
P$1q
17260 16943 moveto
P$1r
fill
0 setlinewidth
[] 0 setdash
0 0 0 setrgbcolor
newpath
17840 17079 moveto
P$1s
fill
0 setlinewidth
[] 0 setdash
0 0 0 setrgbcolor
newpath
18964 17337 moveto
P$1t
19059 16932 moveto
P$1u
fill
0 setlinewidth
[] 0 setdash
0 0 0 setrgbcolor
newpath
20128 17280 moveto
P$1v
fill
0 setlinewidth
[] 0 setdash
0 0 0 setrgbcolor
newpath
20825 17197 moveto
P$1l
20815 16941 moveto
P$1m
fill
0 setlinewidth
[] 0 setdash
0 0 0 setrgbcolor
newpath
21084 17280 moveto
P$1w
21923 17280 moveto
P$1n
21562 16944 moveto
P$1o
fill
0 setlinewidth
[] 0 setdash
0 0 0 setrgbcolor
newpath
22625 17197 moveto
P$1l
22615 16941 moveto
P$1m
fill
0 setlinewidth
[] 0 setdash
0 0 0 setrgbcolor
newpath
23323 17280 moveto
P$1n
22962 16944 moveto
P$1o
fill
0 setlinewidth
[] 0 setdash
0 0 0 setrgbcolor
newpath
23543 16943 moveto
P$1q
23660 16943 moveto
P$1r
fill
0 setlinewidth
[] 0 setdash
0 0 0 setrgbcolor
newpath
24240 17079 moveto
P$1x
fill
100 setlinewidth
0.66 0 0.21 setrgbcolor
newpath
10100 22436 moveto
4200 0 rlineto
stroke
100 setlinewidth
0.66 0 0.21 setrgbcolor
newpath
14300 22436 moveto
0 1300 rlineto
stroke
100 setlinewidth
0.66 0 0.21 setrgbcolor
newpath
10200 23736 moveto
4100 0 rlineto
stroke
0.66 0 0.21 setrgbcolor
newpath
11200 23336 moveto
-1000 400 rlineto
1000 400 rlineto
-400 -400 rlineto
11200 23336 lineto
closepath eofill
100 setlinewidth
0.66 0 0.21 setrgbcolor
newpath
11200 23336 moveto
-1000 400 rlineto
1000 400 rlineto
-400 -400 rlineto
11200 23336 lineto
closepath stroke
0 setlinewidth
[] 0 setdash
0 0 0 setrgbcolor
newpath
10798 20315 moveto
P$1y
11067 19933 moveto
P$1z
fill
0 setlinewidth
[] 0 setdash
0 0 0 setrgbcolor
newpath
12225 20069 moveto
P$20
fill
0 setlinewidth
[] 0 setdash
0 0 0 setrgbcolor
newpath
12735 20214 moveto
P$1p
fill
0 setlinewidth
[] 0 setdash
0 0 0 setrgbcolor
newpath
13328 20315 moveto
P$1v
fill
0 setlinewidth
[] 0 setdash
0 0 0 setrgbcolor
newpath
14025 20233 moveto
P$1l
14015 19976 moveto
P$1m
fill
0 setlinewidth
[] 0 setdash
0 0 0 setrgbcolor
newpath
14282 20315 moveto
P$21
fill
0 setlinewidth
[] 0 setdash
0 0 0 setrgbcolor
newpath
14585 19517 moveto
P$1j
14585 20315 moveto
P$1k
fill
0 setlinewidth
[] 0 setdash
0 0 0 setrgbcolor
newpath
14825 20315 moveto
P$22
fill
0 setlinewidth
[] 0 setdash
0 0 0 setrgbcolor
newpath
16025 20233 moveto
P$1l
16015 19976 moveto
P$1m
fill
0 setlinewidth
[] 0 setdash
0 0 0 setrgbcolor
newpath
17125 20069 moveto
P$20
fill
0 setlinewidth
[] 0 setdash
0 0 0 setrgbcolor
newpath
17825 20233 moveto
P$1l
17815 19976 moveto
P$1m
fill
0 setlinewidth
[] 0 setdash
0 0 0 setrgbcolor
newpath
18085 20315 moveto
P$23
fill
0 setlinewidth
[] 0 setdash
0 0 0 setrgbcolor
newpath
19185 20573 moveto
P$24
19289 19983 moveto
P$25
fill
0 setlinewidth
[] 0 setdash
0 0 0 setrgbcolor
newpath
19843 19978 moveto
P$1q
19960 19978 moveto
P$1r
fill
0 setlinewidth
[] 0 setdash
0 0 0 setrgbcolor
newpath
20540 20114 moveto
P$1s
fill
0 setlinewidth
[] 0 setdash
0 0 0 setrgbcolor
newpath
22125 20069 moveto
P$20
fill
0 setlinewidth
[] 0 setdash
0 0 0 setrgbcolor
newpath
22343 19978 moveto
P$1q
22460 19978 moveto
P$1r
fill
0 setlinewidth
[] 0 setdash
0 0 0 setrgbcolor
newpath
23085 20315 moveto
P$26
fill
0 setlinewidth
[] 0 setdash
0 0 0 setrgbcolor
newpath
11282 21951 moveto
P$21
fill
0 setlinewidth
[] 0 setdash
0 0 0 setrgbcolor
newpath
11543 21613 moveto
P$1q
11660 21613 moveto
P$1r
fill
0 setlinewidth
[] 0 setdash
0 0 0 setrgbcolor
newpath
12240 21749 moveto
P$1s
fill
0 setlinewidth
[] 0 setdash
0 0 0 setrgbcolor
newpath
13823 21951 moveto
P$1n
13462 21615 moveto
P$1o
fill
0 setlinewidth
[] 0 setdash
0 0 0 setrgbcolor
newpath
14525 21868 moveto
P$1l
14515 21612 moveto
P$1m
fill
0 setlinewidth
[] 0 setdash
0 0 0 setrgbcolor
newpath
15035 21849 moveto
P$1p
fill
0 setlinewidth
[] 0 setdash
0 0 0 setrgbcolor
newpath
15143 21613 moveto
P$1q
15260 21613 moveto
P$1r
fill
0 setlinewidth
[] 0 setdash
0 0 0 setrgbcolor
newpath
15840 21749 moveto
P$1s
fill
0 setlinewidth
[] 0 setdash
0 0 0 setrgbcolor
newpath
17423 21951 moveto
P$1n
17062 21615 moveto
P$1o
fill
0 setlinewidth
[] 0 setdash
0 0 0 setrgbcolor
newpath
18146 21733 moveto
P$27
17771 21549 moveto
P$28
fill
0 setlinewidth
[] 0 setdash
0 0 0 setrgbcolor
newpath
18382 21951 moveto
P$21
fill
0 setlinewidth
[] 0 setdash
0 0 0 setrgbcolor
newpath
19096 21951 moveto
P$29
fill
0 setlinewidth
[] 0 setdash
0 0 0 setrgbcolor
newpath
20143 21613 moveto
P$1q
20260 21613 moveto
P$1r
fill
0 setlinewidth
[] 0 setdash
0 0 0 setrgbcolor
newpath
21323 21951 moveto
P$1n
20962 21615 moveto
P$1o
fill
0 setlinewidth
[] 0 setdash
0 0 0 setrgbcolor
newpath
22046 21733 moveto
P$27
21671 21549 moveto
P$28
fill
0 setlinewidth
[] 0 setdash
0 0 0 setrgbcolor
newpath
22282 21951 moveto
P$21
fill
0 setlinewidth
[] 0 setdash
0 0 0 setrgbcolor
newpath
22543 21613 moveto
P$1q
22660 21613 moveto
P$2a
fill
grestore
showpage
%plantuml done
%%EOF
