%!PS-Adobe-3.0 EPSF-3.0
%%Creator: PlantUML v1.2022.5       
%%Title: noTitle
%%BoundingBox: 0 0 610 374
%%ColorUsage: Color
%%Origin: 0 0
%%EndComments

gsave
0 374 translate
.01 -.01 scale
/simplerect {
newpath moveto 1 index 0 rlineto
0 exch rlineto
neg 0 rlineto
} def
/roundrect {
newpath
dup 3 index add 2 index 2 index add 2 index 180 270 arc
2 index 5 index add 1 index sub 2 index 2 index add 2 index 270 0 arc
2 index 5 index add 1 index sub 2 index 5 index add 2 index sub 2 index 0 90 arc
dup 3 index add 2 index 5 index add 2 index sub 2 index 90 180 arc
pop pop pop pop pop 
} def
/rquadto {
3 index 3 index 4 2 roll rcurveto
} def
/P$2n {
84 -178 rlineto
150 0 rlineto
-139 178 rlineto
-95 0 rlineto
closepath
} def
/P$r {
0 -1001 rlineto
132 0 rlineto
0 882 rlineto
492 0 rlineto
0 118 rlineto
-625 0 rlineto
} def
/P$y {
215 0 rlineto
89 0 126 -10 rquadto
51 -15 76 -50 rquadto
25 -35 25 -87 rquadto
0 -50 -23 -87 rquadto
-23 -39 -68 -53 rquadto
-43 -14 -151 -14 rquadto
-200 0 rlineto
0 303 rlineto
closepath
} def
/P$p {
0 140 56 207 rquadto
57 67 139 67 rquadto
81 0 139 -68 rquadto
59 -70 59 -215 rquadto
0 -139 -57 -207 rquadto
-56 -68 -135 -68 rquadto
-78 0 -139 73 rquadto
-60 73 -60 212 rquadto
} def
/P$6 {
0 -201 112 -300 rquadto
92 -79 228 -79 rquadto
148 0 243 98 rquadto
95 96 95 270 rquadto
0 140 -42 221 rquadto
-42 79 -123 125 rquadto
-79 43 -173 43 rquadto
-153 0 -246 -98 rquadto
-93 -98 -93 -281 rquadto
closepath
} def
/P$1a {
112 -17 rlineto
9 67 53 104 rquadto
43 35 121 35 rquadto
78 0 115 -31 rquadto
39 -32 39 -76 rquadto
0 -39 -34 -60 rquadto
-23 -15 -117 -39 rquadto
-125 -31 -173 -54 rquadto
-48 -23 -73 -64 rquadto
-25 -40 -25 -90 rquadto
0 -45 20 -82 rquadto
20 -39 56 -64 rquadto
26 -20 71 -32 rquadto
46 -14 100 -14 rquadto
78 0 137 23 rquadto
60 21 89 60 rquadto
29 39 40 104 rquadto
-112 15 rlineto
-7 -53 -43 -81 rquadto
-35 -29 -103 -29 rquadto
-78 0 -112 26 rquadto
-34 25 -34 60 rquadto
0 21 14 39 rquadto
14 18 43 31 rquadto
17 6 101 28 rquadto
121 32 168 53 rquadto
48 20 75 60 rquadto
28 39 28 96 rquadto
0 57 -34 107 rquadto
-32 50 -95 78 rquadto
-62 28 -142 28 rquadto
-131 0 -200 -54 rquadto
-68 -54 -87 -162 rquadto
} def
/P$10 {
0 -106 rlineto
-85 123 -231 123 rquadto
-64 0 -120 -25 rquadto
-54 -25 -82 -62 rquadto
-26 -37 -37 -90 rquadto
-7 -35 -7 -115 rquadto
0 -450 rlineto
123 0 rlineto
0 403 rlineto
0 96 7 129 rquadto
10 48 48 76 rquadto
37 28 93 28 rquadto
54 0 103 -28 rquadto
48 -29 68 -78 rquadto
20 -48 20 -142 rquadto
0 -389 rlineto
123 0 rlineto
0 726 rlineto
-109 0 rlineto
} def
/P$2f {
15 100 rlineto
-48 10 -85 10 rquadto
-62 0 -96 -20 rquadto
-34 -20 -48 -51 rquadto
-14 -32 -14 -134 rquadto
0 -389 rlineto
-82 0 rlineto
0 -87 rlineto
82 0 rlineto
0 -167 rlineto
114 -68 rlineto
0 235 rlineto
115 0 rlineto
0 87 rlineto
-115 0 rlineto
0 395 rlineto
0 48 6 62 rquadto
6 14 18 21 rquadto
14 7 39 7 rquadto
20 0 51 -3 rquadto
closepath
} def
/P$1j {
84 -178 rlineto
150 0 rlineto
-139 178 rlineto
-95 0 rlineto
} def
/P$b {
0 -726 rlineto
121 0 rlineto
0 726 rlineto
-121 0 rlineto
} def
/P$1e {
-106 0 rlineto
0 -931 rlineto
115 0 rlineto
0 332 rlineto
71 -90 184 -90 rquadto
62 0 117 25 rquadto
56 25 92 70 rquadto
35 45 56 109 rquadto
20 64 20 137 rquadto
0 173 -85 268 rquadto
-85 93 -206 93 rquadto
-118 0 -187 -100 rquadto
0 84 rlineto
closepath
} def
/P$1h {
0 129 56 195 rquadto
56 64 142 64 rquadto
84 0 140 -64 rquadto
57 -65 57 -198 rquadto
0 -125 -57 -189 rquadto
-56 -65 -140 -65 rquadto
-85 0 -142 64 rquadto
-56 64 -56 193 rquadto
} def
/P$29 {
0 -585 rlineto
-100 0 rlineto
0 -87 rlineto
100 0 rlineto
0 -71 rlineto
0 -68 12 -101 rquadto
17 -43 57 -71 rquadto
42 -28 117 -28 rquadto
48 0 106 12 rquadto
-17 98 rlineto
-35 -6 -67 -6 rquadto
-51 0 -73 23 rquadto
-21 21 -21 82 rquadto
0 62 rlineto
131 0 rlineto
0 87 rlineto
-131 0 rlineto
0 585 rlineto
-114 0 rlineto
closepath
} def
/P$o {
0 -1004 rlineto
112 0 rlineto
0 95 rlineto
39 -56 89 -82 rquadto
50 -28 121 -28 rquadto
92 0 162 48 rquadto
71 46 107 134 rquadto
35 87 35 190 rquadto
0 110 -40 201 rquadto
-39 89 -115 137 rquadto
-75 46 -159 46 rquadto
-60 0 -110 -26 rquadto
-48 -26 -79 -65 rquadto
0 353 rlineto
-123 0 rlineto
closepath
} def
/P$1i {
0 129 56 195 rquadto
56 64 142 64 rquadto
84 0 140 -64 rquadto
57 -65 57 -198 rquadto
0 -125 -57 -189 rquadto
-56 -65 -140 -65 rquadto
-85 0 -142 64 rquadto
-56 64 -56 193 rquadto
closepath
} def
/P$20 {
-14 -106 rlineto
37 9 65 9 rquadto
39 0 60 -12 rquadto
23 -12 37 -35 rquadto
10 -17 35 -84 rquadto
3 -9 9 -28 rquadto
-256 -675 rlineto
123 0 rlineto
140 389 rlineto
26 75 48 156 rquadto
20 -78 46 -153 rquadto
145 -392 rlineto
114 0 rlineto
-256 684 rlineto
-42 110 -64 153 rquadto
-31 56 -70 82 rquadto
-39 26 -93 26 rquadto
-32 0 -73 -14 rquadto
} def
/P$i {
17 107 rlineto
-51 10 -92 10 rquadto
-67 0 -104 -20 rquadto
-35 -21 -51 -56 rquadto
-14 -34 -14 -145 rquadto
0 -417 rlineto
-90 0 rlineto
0 -96 rlineto
90 0 rlineto
0 -179 rlineto
121 -73 rlineto
0 253 rlineto
123 0 rlineto
0 96 rlineto
-123 0 rlineto
0 423 rlineto
0 53 6 68 rquadto
6 14 20 23 rquadto
15 9 42 9 rquadto
21 0 54 -4 rquadto
} def
/P$u {
0 -140 rlineto
140 0 rlineto
0 140 rlineto
-140 0 rlineto
} def
/P$n {
404 0 rlineto
-7 -92 -46 -137 rquadto
-57 -70 -151 -70 rquadto
-85 0 -143 56 rquadto
-56 56 -62 151 rquadto
closepath
} def
/P$1u {
0 129 54 195 rquadto
54 65 131 65 rquadto
73 0 125 -62 rquadto
53 -62 53 -187 rquadto
0 -135 -56 -203 rquadto
-54 -68 -129 -68 rquadto
-73 0 -126 64 rquadto
-51 62 -51 196 rquadto
} def
/P$19 {
0 -931 rlineto
671 0 rlineto
0 110 rlineto
-548 0 rlineto
0 284 rlineto
514 0 rlineto
0 109 rlineto
-514 0 rlineto
0 317 rlineto
570 0 rlineto
0 109 rlineto
-693 0 rlineto
} def
/P$9 {
0 143 56 209 rquadto
56 65 142 65 rquadto
84 0 142 -65 rquadto
57 -65 57 -204 rquadto
0 -132 -59 -200 rquadto
-59 -68 -142 -68 rquadto
-82 0 -140 67 rquadto
-56 65 -56 196 rquadto
} def
/P$17 {
-89 0 rlineto
204 -328 204 -657 rquadto
0 -128 -29 -254 rquadto
-23 -103 -64 -196 rquadto
-26 -60 -110 -204 rquadto
89 0 rlineto
128 170 189 343 rquadto
53 150 53 312 rquadto
0 184 -71 356 rquadto
-70 171 -170 301 rquadto
closepath
} def
/P$s {
120 -18 rlineto
10 73 57 112 rquadto
46 39 131 39 rquadto
84 0 125 -34 rquadto
42 -34 42 -81 rquadto
0 -42 -37 -65 rquadto
-25 -17 -125 -42 rquadto
-135 -34 -189 -59 rquadto
-51 -25 -78 -68 rquadto
-26 -43 -26 -96 rquadto
0 -48 21 -89 rquadto
21 -42 60 -70 rquadto
28 -20 76 -34 rquadto
50 -15 107 -15 rquadto
84 0 148 25 rquadto
65 23 96 65 rquadto
31 42 42 112 rquadto
-120 17 rlineto
-7 -56 -48 -87 rquadto
-39 -31 -110 -31 rquadto
-84 0 -120 28 rquadto
-35 26 -35 65 rquadto
0 23 14 42 rquadto
15 20 48 32 rquadto
17 6 107 31 rquadto
131 35 182 57 rquadto
51 21 79 64 rquadto
29 42 29 104 rquadto
0 62 -35 117 rquadto
-34 53 -103 84 rquadto
-67 29 -153 29 rquadto
-140 0 -215 -59 rquadto
-73 -59 -93 -175 rquadto
} def
/P$1g {
0 -187 103 -276 rquadto
87 -75 212 -75 rquadto
139 0 226 90 rquadto
89 90 89 251 rquadto
0 129 -39 204 rquadto
-39 75 -114 117 rquadto
-75 40 -162 40 rquadto
-142 0 -229 -90 rquadto
-85 -90 -85 -262 rquadto
closepath
} def
/P$4 {
404 0 rlineto
-7 -92 -46 -137 rquadto
-57 -70 -151 -70 rquadto
-85 0 -143 56 rquadto
-56 56 -62 151 rquadto
} def
/P$25 {
0 -673 rlineto
103 0 rlineto
0 101 rlineto
39 -71 71 -93 rquadto
34 -23 73 -23 rquadto
57 0 117 35 rquadto
-39 106 rlineto
-42 -25 -82 -25 rquadto
-37 0 -68 23 rquadto
-29 21 -42 62 rquadto
-18 60 -18 132 rquadto
0 353 rlineto
-114 0 rlineto
} def
/P$l {
0 -726 rlineto
110 0 rlineto
0 110 rlineto
42 -78 78 -101 rquadto
35 -25 79 -25 rquadto
62 0 126 39 rquadto
-42 114 rlineto
-45 -26 -90 -26 rquadto
-40 0 -73 25 rquadto
-31 23 -45 67 rquadto
-20 65 -20 143 rquadto
0 379 rlineto
-123 0 rlineto
} def
/P$27 {
201 0 rlineto
81 0 117 -10 rquadto
46 -14 70 -46 rquadto
23 -32 23 -81 rquadto
0 -46 -21 -81 rquadto
-21 -35 -64 -48 rquadto
-40 -12 -140 -12 rquadto
-185 0 rlineto
0 281 rlineto
closepath
} def
/P$c {
0 -92 rlineto
-70 109 -203 109 rquadto
-87 0 -160 -48 rquadto
-71 -48 -112 -134 rquadto
-39 -85 -39 -196 rquadto
0 -107 35 -196 rquadto
35 -89 107 -135 rquadto
73 -46 162 -46 rquadto
65 0 117 28 rquadto
51 26 82 71 rquadto
0 -359 rlineto
123 0 rlineto
0 1001 rlineto
-114 0 rlineto
closepath
} def
/P$2k {
117 -10 rlineto
7 70 37 115 rquadto
31 43 93 71 rquadto
64 26 143 26 rquadto
70 0 123 -20 rquadto
54 -20 81 -56 rquadto
26 -37 26 -81 rquadto
0 -43 -26 -76 rquadto
-25 -32 -82 -54 rquadto
-37 -14 -165 -45 rquadto
-128 -31 -179 -57 rquadto
-67 -34 -100 -85 rquadto
-32 -53 -32 -117 rquadto
0 -70 39 -131 rquadto
40 -60 117 -92 rquadto
78 -32 171 -32 rquadto
103 0 181 34 rquadto
79 32 121 98 rquadto
43 64 46 145 rquadto
-118 9 rlineto
-9 -89 -64 -132 rquadto
-54 -45 -162 -45 rquadto
-110 0 -162 40 rquadto
-51 40 -51 98 rquadto
0 50 35 82 rquadto
35 32 185 67 rquadto
150 32 206 57 rquadto
81 37 118 95 rquadto
39 57 39 132 rquadto
0 73 -42 139 rquadto
-42 65 -121 103 rquadto
-79 35 -179 35 rquadto
-126 0 -212 -35 rquadto
-84 -37 -132 -110 rquadto
-48 -75 -51 -167 rquadto
} def
/P$2e {
0 -931 rlineto
123 0 rlineto
0 821 rlineto
457 0 rlineto
0 109 rlineto
-581 0 rlineto
} def
/P$21 {
-256 -673 rlineto
120 0 rlineto
143 403 rlineto
23 65 43 135 rquadto
15 -53 42 -128 rquadto
150 -410 rlineto
117 0 rlineto
-254 673 rlineto
-106 0 rlineto
closepath
} def
/P$1y {
112 14 rlineto
-17 117 -93 182 rquadto
-76 65 -185 65 rquadto
-139 0 -223 -90 rquadto
-82 -90 -82 -259 rquadto
0 -109 35 -190 rquadto
35 -82 109 -123 rquadto
73 -40 160 -40 rquadto
109 0 179 56 rquadto
70 54 89 156 rquadto
-110 17 rlineto
-15 -67 -56 -101 rquadto
-39 -34 -96 -34 rquadto
-85 0 -140 62 rquadto
-53 60 -53 195 rquadto
0 135 51 198 rquadto
51 60 135 60 rquadto
67 0 112 -40 rquadto
45 -42 56 -128 rquadto
} def
/P$0 {
15 -21 34 -32 rquadto
18 -10 40 -10 rquadto
37 0 60 26 rquadto
23 25 23 85 rquadto
0 145 rlineto
0 60 -23 87 rquadto
-23 26 -60 26 rquadto
-34 0 -54 -20 rquadto
-20 -18 -31 -70 rquadto
-4 -35 -23 -54 rquadto
-32 -37 -93 -59 rquadto
-60 -21 -123 -21 rquadto
-76 0 -140 32 rquadto
-62 32 -112 107 rquadto
-48 75 -48 178 rquadto
0 109 rlineto
0 123 89 206 rquadto
89 81 248 81 rquadto
93 0 159 -25 rquadto
39 -15 81 -59 rquadto
26 -26 40 -34 rquadto
15 -7 35 -7 rquadto
32 0 57 26 rquadto
26 25 26 59 rquadto
0 34 -34 75 rquadto
-50 57 -129 90 rquadto
-107 45 -237 45 rquadto
-151 0 -271 -62 rquadto
-98 -50 -167 -156 rquadto
-68 -107 -68 -235 rquadto
0 -115 rlineto
0 -132 60 -246 rquadto
62 -115 171 -176 rquadto
109 -62 232 -62 rquadto
73 0 137 17 rquadto
65 15 120 51 rquadto
closepath
} def
/P$k {
0 -726 rlineto
110 0 rlineto
0 103 rlineto
79 -118 231 -118 rquadto
65 0 120 23 rquadto
54 23 81 62 rquadto
28 37 39 90 rquadto
7 34 7 118 rquadto
0 446 rlineto
-123 0 rlineto
0 -442 rlineto
0 -75 -14 -110 rquadto
-14 -37 -51 -59 rquadto
-35 -23 -85 -23 rquadto
-78 0 -135 50 rquadto
-56 50 -56 189 rquadto
0 396 rlineto
-123 0 rlineto
} def
/P$1f {
0 121 34 175 rquadto
53 89 145 89 rquadto
75 0 129 -65 rquadto
54 -65 54 -193 rquadto
0 -132 -53 -195 rquadto
-51 -62 -126 -62 rquadto
-75 0 -129 65 rquadto
-54 64 -54 187 rquadto
} def
/P$2c {
0 131 51 192 rquadto
53 60 132 60 rquadto
79 0 132 -59 rquadto
53 -60 53 -190 rquadto
0 -123 -54 -185 rquadto
-54 -64 -132 -64 rquadto
-76 0 -129 62 rquadto
-53 62 -53 184 rquadto
} def
/P$a {
0 -140 rlineto
121 0 rlineto
0 140 rlineto
-121 0 rlineto
closepath
} def
/P$26 {
0 -931 rlineto
348 0 rlineto
107 0 171 29 rquadto
64 28 100 87 rquadto
37 57 37 121 rquadto
0 59 -32 112 rquadto
-32 51 -96 84 rquadto
84 25 129 84 rquadto
45 59 45 140 rquadto
0 65 -28 121 rquadto
-28 56 -68 87 rquadto
-40 29 -101 45 rquadto
-60 15 -150 15 rquadto
-354 0 rlineto
closepath
} def
/P$e {
-67 57 -131 82 rquadto
-62 23 -135 23 rquadto
-118 0 -184 -57 rquadto
-64 -59 -64 -151 rquadto
0 -53 23 -96 rquadto
25 -43 64 -70 rquadto
40 -26 89 -40 rquadto
35 -9 109 -18 rquadto
150 -17 220 -42 rquadto
0 -25 0 -31 rquadto
0 -76 -34 -106 rquadto
-46 -42 -140 -42 rquadto
-85 0 -128 31 rquadto
-40 29 -60 106 rquadto
-120 -15 rlineto
15 -78 53 -125 rquadto
39 -46 109 -71 rquadto
71 -26 165 -26 rquadto
92 0 150 21 rquadto
57 21 84 54 rquadto
28 32 39 84 rquadto
6 31 6 112 rquadto
0 164 rlineto
0 171 7 217 rquadto
7 45 31 87 rquadto
-128 0 rlineto
-18 -39 -25 -89 rquadto
closepath
} def
/P$1p {
0 -673 rlineto
103 0 rlineto
0 101 rlineto
39 -71 71 -93 rquadto
34 -23 73 -23 rquadto
57 0 117 35 rquadto
-39 106 rlineto
-42 -25 -82 -25 rquadto
-37 0 -68 23 rquadto
-29 21 -42 62 rquadto
-18 60 -18 132 rquadto
0 353 rlineto
-114 0 rlineto
closepath
} def
/P$1t {
0 -329 rlineto
-26 37 -75 62 rquadto
-48 25 -101 25 rquadto
-120 0 -207 -95 rquadto
-85 -96 -85 -264 rquadto
0 -101 34 -181 rquadto
35 -81 103 -121 rquadto
67 -42 146 -42 rquadto
125 0 196 104 rquadto
0 -89 rlineto
103 0 rlineto
0 931 rlineto
-114 0 rlineto
closepath
} def
/P$1x {
0 129 53 193 rquadto
54 64 129 64 rquadto
75 0 126 -60 rquadto
53 -62 53 -187 rquadto
0 -139 -53 -203 rquadto
-53 -65 -131 -65 rquadto
-76 0 -128 62 rquadto
-50 62 -50 196 rquadto
} def
/P$2m {
112 -17 rlineto
9 67 53 104 rquadto
43 35 121 35 rquadto
78 0 115 -31 rquadto
39 -32 39 -76 rquadto
0 -39 -34 -60 rquadto
-23 -15 -117 -39 rquadto
-125 -31 -173 -54 rquadto
-48 -23 -73 -64 rquadto
-25 -40 -25 -90 rquadto
0 -45 20 -82 rquadto
20 -39 56 -64 rquadto
26 -20 71 -32 rquadto
46 -14 100 -14 rquadto
78 0 137 23 rquadto
60 21 89 60 rquadto
29 39 40 104 rquadto
-112 15 rlineto
-7 -53 -43 -81 rquadto
-35 -29 -103 -29 rquadto
-78 0 -112 26 rquadto
-34 25 -34 60 rquadto
0 21 14 39 rquadto
14 18 43 31 rquadto
17 6 101 28 rquadto
121 32 168 53 rquadto
48 20 75 60 rquadto
28 39 28 96 rquadto
0 57 -34 107 rquadto
-32 50 -95 78 rquadto
-62 28 -142 28 rquadto
-131 0 -200 -54 rquadto
-68 -54 -87 -162 rquadto
closepath
} def
/P$j {
120 -18 rlineto
10 73 57 112 rquadto
46 39 131 39 rquadto
84 0 125 -34 rquadto
42 -34 42 -81 rquadto
0 -42 -37 -65 rquadto
-25 -17 -125 -42 rquadto
-135 -34 -189 -59 rquadto
-51 -25 -78 -68 rquadto
-26 -43 -26 -96 rquadto
0 -48 21 -89 rquadto
21 -42 60 -70 rquadto
28 -20 76 -34 rquadto
50 -15 107 -15 rquadto
84 0 148 25 rquadto
65 23 96 65 rquadto
31 42 42 112 rquadto
-120 17 rlineto
-7 -56 -48 -87 rquadto
-39 -31 -110 -31 rquadto
-84 0 -120 28 rquadto
-35 26 -35 65 rquadto
0 23 14 42 rquadto
15 20 48 32 rquadto
17 6 107 31 rquadto
131 35 182 57 rquadto
51 21 79 64 rquadto
29 42 29 104 rquadto
0 62 -35 117 rquadto
-34 53 -103 84 rquadto
-67 29 -153 29 rquadto
-140 0 -215 -59 rquadto
-73 -59 -93 -175 rquadto
closepath
} def
/P$13 {
0 -1001 rlineto
378 0 rlineto
100 0 153 9 rquadto
73 12 123 46 rquadto
50 34 79 96 rquadto
31 60 31 135 rquadto
0 128 -81 217 rquadto
-81 87 -293 87 rquadto
-257 0 rlineto
0 407 rlineto
-132 0 rlineto
closepath
} def
/P$1q {
-62 26 -185 43 rquadto
-70 10 -100 23 rquadto
-29 12 -45 37 rquadto
-15 23 -15 53 rquadto
0 45 34 76 rquadto
34 29 101 29 rquadto
65 0 117 -28 rquadto
51 -29 76 -79 rquadto
17 -37 17 -114 rquadto
0 -42 rlineto
closepath
} def
/P$2o {
-28 -173 rlineto
0 -156 rlineto
129 0 rlineto
0 156 rlineto
-31 173 rlineto
-70 0 rlineto
closepath
} def
/P$t {
0 -140 rlineto
140 0 rlineto
0 140 rlineto
-140 0 rlineto
closepath
} def
/P$w {
0 -1001 rlineto
123 0 rlineto
0 1001 rlineto
-123 0 rlineto
} def
/P$1v {
0 -98 rlineto
-79 114 -214 114 rquadto
-59 0 -112 -23 rquadto
-51 -23 -76 -57 rquadto
-25 -34 -34 -84 rquadto
-7 -32 -7 -106 rquadto
0 -417 rlineto
114 0 rlineto
0 373 rlineto
0 89 7 120 rquadto
10 45 45 71 rquadto
34 25 85 25 rquadto
51 0 96 -26 rquadto
45 -26 64 -71 rquadto
18 -45 18 -131 rquadto
0 -360 rlineto
114 0 rlineto
0 673 rlineto
-101 0 rlineto
} def
/P$2d {
0 -931 rlineto
114 0 rlineto
0 531 rlineto
270 -273 rlineto
148 0 rlineto
-257 250 rlineto
284 423 rlineto
-140 0 rlineto
-223 -345 rlineto
-81 78 rlineto
0 267 rlineto
-114 0 rlineto
} def
/P$2a {
0 -129 rlineto
129 0 rlineto
0 129 rlineto
0 71 -25 115 rquadto
-25 43 -81 68 rquadto
-31 -48 rlineto
35 -17 53 -48 rquadto
17 -29 18 -87 rquadto
-64 0 rlineto
closepath
} def
/P$22 {
0 -132 rlineto
114 0 rlineto
0 132 rlineto
-114 0 rlineto
closepath
} def
/P$h {
214 0 rlineto
98 0 154 -17 rquadto
57 -18 90 -53 rquadto
46 -46 73 -126 rquadto
26 -79 26 -193 rquadto
0 -156 -51 -240 rquadto
-51 -84 -125 -114 rquadto
-54 -20 -171 -20 rquadto
-210 0 rlineto
0 765 rlineto
} def
/P$q {
0 -1001 rlineto
121 0 rlineto
0 570 rlineto
292 -295 rlineto
159 0 rlineto
-278 270 rlineto
306 456 rlineto
-153 0 rlineto
-239 -371 rlineto
-87 84 rlineto
0 287 rlineto
-121 0 rlineto
} def
/P$2b {
112 15 rlineto
6 51 37 75 rquadto
43 32 117 32 rquadto
78 0 121 -32 rquadto
43 -31 57 -89 rquadto
9 -34 9 -145 rquadto
-75 87 -187 87 rquadto
-139 0 -215 -100 rquadto
-75 -100 -75 -240 rquadto
0 -96 34 -178 rquadto
35 -81 101 -125 rquadto
65 -45 156 -45 rquadto
118 0 196 96 rquadto
0 -81 rlineto
104 0 rlineto
0 581 rlineto
0 157 -32 223 rquadto
-31 65 -101 103 rquadto
-68 39 -170 39 rquadto
-120 0 -195 -54 rquadto
-73 -53 -71 -162 rquadto
closepath
} def
/P$2g {
357 -931 rlineto
131 0 rlineto
381 931 rlineto
-140 0 rlineto
-107 -281 rlineto
-389 0 rlineto
-103 281 rlineto
-129 0 rlineto
closepath
} def
/P$8 {
118 17 rlineto
7 54 42 81 rquadto
45 32 125 32 rquadto
85 0 131 -34 rquadto
46 -32 64 -95 rquadto
9 -37 7 -157 rquadto
-79 95 -200 95 rquadto
-150 0 -232 -107 rquadto
-81 -107 -81 -259 rquadto
0 -103 37 -190 rquadto
37 -89 107 -135 rquadto
71 -48 168 -48 rquadto
128 0 212 103 rquadto
0 -87 rlineto
112 0 rlineto
0 628 rlineto
0 170 -34 240 rquadto
-34 70 -109 110 rquadto
-75 42 -184 42 rquadto
-129 0 -209 -59 rquadto
-79 -57 -76 -175 rquadto
closepath
} def
/P$v {
17 107 rlineto
-51 10 -92 10 rquadto
-67 0 -104 -20 rquadto
-35 -21 -51 -56 rquadto
-14 -34 -14 -145 rquadto
0 -417 rlineto
-90 0 rlineto
0 -96 rlineto
90 0 rlineto
0 -179 rlineto
121 -73 rlineto
0 253 rlineto
123 0 rlineto
0 96 rlineto
-123 0 rlineto
0 423 rlineto
0 53 6 68 rquadto
6 14 20 23 rquadto
15 9 42 9 rquadto
21 0 54 -4 rquadto
closepath
} def
/P$1z {
376 0 rlineto
-7 -85 -43 -128 rquadto
-54 -65 -140 -65 rquadto
-79 0 -132 53 rquadto
-53 51 -59 140 rquadto
closepath
} def
/P$1m {
0 129 53 192 rquadto
53 62 126 62 rquadto
76 0 131 -64 rquadto
54 -65 54 -200 rquadto
0 -129 -53 -193 rquadto
-53 -64 -126 -64 rquadto
-73 0 -129 68 rquadto
-56 67 -56 198 rquadto
} def
/P$24 {
0 -92 rlineto
429 -493 rlineto
-73 4 -129 4 rquadto
-273 0 rlineto
0 -92 rlineto
550 0 rlineto
0 75 rlineto
-364 428 rlineto
-71 78 rlineto
78 -6 145 -6 rquadto
310 0 rlineto
0 98 rlineto
-596 0 rlineto
} def
/P$1d {
376 0 rlineto
-7 -85 -43 -128 rquadto
-54 -65 -140 -65 rquadto
-79 0 -132 53 rquadto
-53 51 -59 140 rquadto
} def
/P$1r {
0 -931 rlineto
114 0 rlineto
0 931 rlineto
-114 0 rlineto
} def
/P$1k {
0 -673 rlineto
103 0 rlineto
0 95 rlineto
73 -110 214 -110 rquadto
60 0 110 21 rquadto
51 21 76 57 rquadto
26 34 35 84 rquadto
6 31 6 110 rquadto
0 414 rlineto
-114 0 rlineto
0 -409 rlineto
0 -70 -14 -104 rquadto
-12 -34 -46 -54 rquadto
-32 -21 -78 -21 rquadto
-73 0 -126 46 rquadto
-53 45 -53 175 rquadto
0 368 rlineto
-114 0 rlineto
} def
/P$2i {
-28 -173 rlineto
0 -156 rlineto
129 0 rlineto
0 156 rlineto
-31 173 rlineto
-70 0 rlineto
} def
/P$14 {
259 0 rlineto
128 0 181 -48 rquadto
54 -48 54 -134 rquadto
0 -64 -31 -107 rquadto
-31 -45 -84 -59 rquadto
-32 -9 -123 -9 rquadto
-256 0 rlineto
0 359 rlineto
} def
/P$f {
-67 26 -201 46 rquadto
-75 10 -107 25 rquadto
-31 12 -48 39 rquadto
-17 26 -17 57 rquadto
0 50 37 82 rquadto
37 32 109 32 rquadto
71 0 126 -31 rquadto
54 -31 81 -85 rquadto
20 -40 20 -121 rquadto
0 -45 rlineto
} def
/P$z {
248 0 rlineto
64 0 90 -4 rquadto
45 -7 76 -26 rquadto
31 -20 50 -56 rquadto
20 -35 20 -84 rquadto
0 -56 -29 -96 rquadto
-28 -42 -79 -57 rquadto
-50 -17 -145 -17 rquadto
-231 0 rlineto
0 343 rlineto
} def
/P$1w {
0 -84 rlineto
-64 100 -189 100 rquadto
-79 0 -148 -43 rquadto
-67 -45 -104 -125 rquadto
-37 -79 -37 -182 rquadto
0 -101 34 -182 rquadto
34 -82 101 -126 rquadto
67 -43 150 -43 rquadto
60 0 107 26 rquadto
48 25 78 65 rquadto
0 -334 rlineto
114 0 rlineto
0 931 rlineto
-106 0 rlineto
closepath
} def
/P$x {
0 -1001 rlineto
375 0 rlineto
115 0 184 31 rquadto
70 29 109 92 rquadto
39 62 39 132 rquadto
0 64 -35 120 rquadto
-34 56 -104 92 rquadto
90 26 139 90 rquadto
50 64 50 151 rquadto
0 70 -29 131 rquadto
-29 60 -73 93 rquadto
-43 32 -110 50 rquadto
-65 15 -160 15 rquadto
-381 0 rlineto
closepath
} def
/P$1l {
0 -931 rlineto
103 0 rlineto
0 87 rlineto
37 -51 82 -76 rquadto
46 -26 114 -26 rquadto
85 0 151 45 rquadto
65 43 98 125 rquadto
34 79 34 176 rquadto
0 103 -37 185 rquadto
-35 82 -107 128 rquadto
-70 43 -148 43 rquadto
-56 0 -101 -23 rquadto
-45 -25 -75 -62 rquadto
0 328 rlineto
-114 0 rlineto
closepath
} def
/P$d {
0 139 57 209 rquadto
59 68 139 68 rquadto
81 0 137 -65 rquadto
56 -67 56 -201 rquadto
0 -150 -57 -218 rquadto
-57 -70 -140 -70 rquadto
-82 0 -137 67 rquadto
-54 67 -54 210 rquadto
} def
/P$2j {
0 -931 rlineto
114 0 rlineto
0 334 rlineto
79 -92 201 -92 rquadto
75 0 129 29 rquadto
56 29 79 81 rquadto
23 51 23 151 rquadto
0 426 rlineto
-114 0 rlineto
0 -426 rlineto
0 -85 -37 -125 rquadto
-35 -39 -104 -39 rquadto
-50 0 -95 26 rquadto
-45 25 -64 70 rquadto
-18 45 -18 125 rquadto
0 368 rlineto
-114 0 rlineto
} def
/P$m {
0 -629 rlineto
-109 0 rlineto
0 -96 rlineto
109 0 rlineto
0 -76 rlineto
0 -73 12 -109 rquadto
18 -46 62 -76 rquadto
45 -29 126 -29 rquadto
51 0 114 12 rquadto
-18 106 rlineto
-37 -6 -71 -6 rquadto
-56 0 -79 23 rquadto
-23 23 -23 89 rquadto
0 67 rlineto
142 0 rlineto
0 96 rlineto
-142 0 rlineto
0 629 rlineto
-121 0 rlineto
} def
/P$1n {
-62 53 -121 76 rquadto
-57 21 -125 21 rquadto
-112 0 -171 -54 rquadto
-59 -54 -59 -139 rquadto
0 -48 21 -89 rquadto
23 -42 59 -67 rquadto
37 -25 82 -37 rquadto
32 -7 101 -17 rquadto
137 -15 203 -39 rquadto
1 -23 1 -29 rquadto
0 -70 -32 -98 rquadto
-43 -39 -129 -39 rquadto
-81 0 -120 28 rquadto
-37 28 -56 100 rquadto
-110 -14 rlineto
14 -71 48 -115 rquadto
35 -45 101 -68 rquadto
67 -23 153 -23 rquadto
87 0 140 20 rquadto
54 20 79 51 rquadto
25 29 35 76 rquadto
4 29 4 106 rquadto
0 151 rlineto
0 159 7 201 rquadto
7 42 28 81 rquadto
-118 0 rlineto
-17 -35 -23 -82 rquadto
closepath
} def
/P$5 {
121 15 rlineto
-20 125 -103 196 rquadto
-81 70 -200 70 rquadto
-148 0 -239 -96 rquadto
-90 -98 -90 -281 rquadto
0 -117 39 -204 rquadto
39 -89 118 -132 rquadto
79 -43 173 -43 rquadto
117 0 192 59 rquadto
76 59 96 170 rquadto
-118 18 rlineto
-17 -73 -60 -109 rquadto
-43 -37 -104 -37 rquadto
-93 0 -151 67 rquadto
-57 65 -57 209 rquadto
0 146 56 214 rquadto
56 65 145 65 rquadto
73 0 121 -43 rquadto
48 -45 60 -137 rquadto
} def
/P$1o {
-62 26 -185 43 rquadto
-70 10 -100 23 rquadto
-29 12 -45 37 rquadto
-15 23 -15 53 rquadto
0 45 34 76 rquadto
34 29 101 29 rquadto
65 0 117 -28 rquadto
51 -29 76 -79 rquadto
17 -37 17 -114 rquadto
0 -42 rlineto
} def
/P$g {
0 -1001 rlineto
345 0 rlineto
117 0 178 14 rquadto
85 18 146 71 rquadto
79 67 118 171 rquadto
39 103 39 237 rquadto
0 114 -26 203 rquadto
-26 87 -68 145 rquadto
-40 57 -90 90 rquadto
-50 32 -120 50 rquadto
-68 17 -159 17 rquadto
-362 0 rlineto
closepath
} def
/P$1s {
0 -98 rlineto
-79 114 -214 114 rquadto
-59 0 -112 -23 rquadto
-51 -23 -76 -57 rquadto
-25 -34 -34 -84 rquadto
-7 -32 -7 -106 rquadto
0 -417 rlineto
114 0 rlineto
0 373 rlineto
0 89 7 120 rquadto
10 45 45 71 rquadto
34 25 85 25 rquadto
51 0 96 -26 rquadto
45 -26 64 -71 rquadto
18 -45 18 -131 rquadto
0 -360 rlineto
114 0 rlineto
0 673 rlineto
-101 0 rlineto
closepath
} def
/P$1 {
0 -1001 rlineto
445 0 rlineto
134 0 203 26 rquadto
70 26 110 95 rquadto
42 68 42 151 rquadto
0 106 -68 179 rquadto
-68 71 -212 92 rquadto
51 25 79 50 rquadto
57 53 109 132 rquadto
175 273 rlineto
-167 0 rlineto
-132 -207 rlineto
-57 -90 -95 -137 rquadto
-37 -48 -67 -67 rquadto
-29 -20 -60 -28 rquadto
-21 -4 -73 -4 rquadto
-154 0 rlineto
0 445 rlineto
-132 0 rlineto
closepath
} def
/P$1c {
118 14 rlineto
-28 104 -104 162 rquadto
-75 56 -192 56 rquadto
-148 0 -235 -90 rquadto
-85 -92 -85 -256 rquadto
0 -170 87 -264 rquadto
89 -93 228 -93 rquadto
135 0 220 92 rquadto
85 92 85 257 rquadto
0 10 0 31 rquadto
-503 0 rlineto
6 110 62 170 rquadto
56 59 140 59 rquadto
64 0 107 -32 rquadto
45 -34 70 -106 rquadto
closepath
} def
/P$1b {
15 100 rlineto
-48 10 -85 10 rquadto
-62 0 -96 -20 rquadto
-34 -20 -48 -51 rquadto
-14 -32 -14 -134 rquadto
0 -389 rlineto
-82 0 rlineto
0 -87 rlineto
82 0 rlineto
0 -167 rlineto
114 -68 rlineto
0 235 rlineto
115 0 rlineto
0 87 rlineto
-115 0 rlineto
0 395 rlineto
0 48 6 62 rquadto
6 14 18 21 rquadto
14 7 39 7 rquadto
20 0 51 -3 rquadto
} def
/P$11 {
0 -726 rlineto
110 0 rlineto
0 103 rlineto
79 -118 231 -118 rquadto
65 0 120 23 rquadto
54 23 81 62 rquadto
28 37 39 90 rquadto
7 34 7 118 rquadto
0 446 rlineto
-123 0 rlineto
0 -442 rlineto
0 -75 -14 -110 rquadto
-14 -37 -51 -59 rquadto
-35 -23 -85 -23 rquadto
-78 0 -135 50 rquadto
-56 50 -56 189 rquadto
0 396 rlineto
-123 0 rlineto
closepath
} def
/P$12 {
0 -1001 rlineto
123 0 rlineto
0 359 rlineto
85 -100 217 -100 rquadto
81 0 140 32 rquadto
59 31 84 87 rquadto
26 54 26 162 rquadto
0 459 rlineto
-123 0 rlineto
0 -459 rlineto
0 -93 -40 -134 rquadto
-39 -42 -112 -42 rquadto
-54 0 -103 28 rquadto
-48 28 -68 76 rquadto
-20 48 -20 134 rquadto
0 396 rlineto
-123 0 rlineto
} def
/P$2l {
0 -673 rlineto
101 0 rlineto
0 93 rlineto
32 -50 84 -79 rquadto
53 -29 120 -29 rquadto
75 0 121 31 rquadto
48 31 68 85 rquadto
79 -117 207 -117 rquadto
100 0 153 56 rquadto
54 54 54 170 rquadto
0 462 rlineto
-112 0 rlineto
0 -425 rlineto
0 -68 -10 -98 rquadto
-10 -29 -40 -48 rquadto
-29 -18 -68 -18 rquadto
-71 0 -118 48 rquadto
-46 46 -46 150 rquadto
0 392 rlineto
-114 0 rlineto
0 -437 rlineto
0 -76 -28 -114 rquadto
-28 -39 -90 -39 rquadto
-48 0 -89 26 rquadto
-40 25 -59 73 rquadto
-18 48 -18 140 rquadto
0 350 rlineto
-114 0 rlineto
} def
/P$16 {
0 -140 rlineto
139 0 rlineto
0 140 rlineto
0 76 -28 123 rquadto
-26 48 -85 75 rquadto
-34 -53 rlineto
39 -17 57 -50 rquadto
18 -32 20 -95 rquadto
-68 0 rlineto
} def
/P$15 {
-103 -129 -173 -301 rquadto
-70 -171 -70 -356 rquadto
0 -162 53 -312 rquadto
60 -173 190 -343 rquadto
87 0 rlineto
-82 142 -109 203 rquadto
-42 93 -65 196 rquadto
-29 126 -29 256 rquadto
0 329 204 657 rquadto
-87 0 rlineto
} def
/P$18 {
125 -10 rlineto
9 75 42 123 rquadto
32 48 100 78 rquadto
68 29 154 29 rquadto
75 0 132 -21 rquadto
59 -23 87 -62 rquadto
28 -39 28 -85 rquadto
0 -46 -28 -81 rquadto
-26 -35 -89 -60 rquadto
-40 -15 -179 -48 rquadto
-137 -32 -192 -62 rquadto
-71 -37 -107 -92 rquadto
-34 -56 -34 -126 rquadto
0 -75 42 -140 rquadto
43 -67 126 -100 rquadto
82 -34 184 -34 rquadto
110 0 195 35 rquadto
85 35 131 106 rquadto
45 68 50 156 rquadto
-128 9 rlineto
-9 -93 -68 -142 rquadto
-59 -50 -175 -50 rquadto
-120 0 -175 45 rquadto
-54 43 -54 106 rquadto
0 53 39 89 rquadto
37 34 198 71 rquadto
162 35 221 62 rquadto
87 40 129 103 rquadto
42 60 42 142 rquadto
0 79 -46 151 rquadto
-45 70 -131 109 rquadto
-85 39 -192 39 rquadto
-135 0 -228 -39 rquadto
-92 -40 -145 -120 rquadto
-51 -79 -54 -179 rquadto
} def
/P$28 {
231 0 rlineto
59 0 84 -4 rquadto
42 -7 70 -25 rquadto
28 -18 46 -51 rquadto
18 -34 18 -79 rquadto
0 -51 -26 -89 rquadto
-26 -39 -75 -54 rquadto
-46 -15 -135 -15 rquadto
-214 0 rlineto
0 320 rlineto
} def
/P$7 {
0 139 60 209 rquadto
60 68 153 68 rquadto
90 0 151 -70 rquadto
60 -70 60 -212 rquadto
0 -134 -60 -203 rquadto
-60 -70 -151 -70 rquadto
-92 0 -153 68 rquadto
-60 68 -60 209 rquadto
} def
/P$2 {
285 0 rlineto
90 0 142 -18 rquadto
51 -18 78 -59 rquadto
26 -42 26 -90 rquadto
0 -71 -51 -117 rquadto
-51 -46 -164 -46 rquadto
-317 0 rlineto
0 332 rlineto
} def
/P$3 {
128 15 rlineto
-31 112 -112 175 rquadto
-81 60 -207 60 rquadto
-159 0 -253 -98 rquadto
-92 -98 -92 -275 rquadto
0 -184 93 -284 rquadto
95 -101 245 -101 rquadto
145 0 237 100 rquadto
92 98 92 278 rquadto
0 10 0 32 rquadto
-542 0 rlineto
7 118 67 182 rquadto
60 64 153 64 rquadto
67 0 114 -35 rquadto
48 -35 76 -114 rquadto
closepath
} def
/P$23 {
0 -673 rlineto
114 0 rlineto
0 673 rlineto
-114 0 rlineto
} def
/P$2h {
315 0 rlineto
-98 -257 rlineto
-43 -117 -65 -192 rquadto
-17 89 -50 178 rquadto
-101 271 rlineto
} def
0.95 0.95 0.95 setrgbcolor
26100 20648 34800 9200 250 roundrect
closepath eofill
50 setlinewidth
0.09 0.09 0.09 setrgbcolor
26100 20648 34800 9200 250 roundrect
closepath stroke
0.68 0.82 0.7 setrgbcolor
newpath
42575 10800 1100 0 360 arc
closepath eofill
100 setlinewidth
0.09 0.09 0.09 setrgbcolor
newpath
42575 10800 1100 0 360 arc
closepath stroke
0 setlinewidth
[] 0 setdash
0 0 0 setrgbcolor
newpath
42851 10387 moveto
P$0
fill
0 setlinewidth
[] 0 setdash
0 0 0 setrgbcolor
newpath
44734 11372 moveto
P$1
44867 10813 moveto
P$2
fill
0 setlinewidth
[] 0 setdash
0 0 0 setrgbcolor
newpath
46214 11138 moveto
P$3
45810 10940 moveto
P$4
fill
0 setlinewidth
[] 0 setdash
0 0 0 setrgbcolor
newpath
46990 11107 moveto
P$5
fill
0 setlinewidth
[] 0 setdash
0 0 0 setrgbcolor
newpath
47171 11010 moveto
P$6
47298 11010 moveto
P$7
fill
0 setlinewidth
[] 0 setdash
0 0 0 setrgbcolor
newpath
47995 11433 moveto
P$8
48096 10996 moveto
P$9
fill
0 setlinewidth
[] 0 setdash
0 0 0 setrgbcolor
newpath
48818 10511 moveto
P$a
48818 11372 moveto
P$b
fill
0 setlinewidth
[] 0 setdash
0 0 0 setrgbcolor
newpath
49589 11372 moveto
P$c
49200 11010 moveto
P$d
fill
0 setlinewidth
[] 0 setdash
0 0 0 setrgbcolor
newpath
50390 11283 moveto
P$e
50381 11008 moveto
P$f
fill
0 setlinewidth
[] 0 setdash
0 0 0 setrgbcolor
newpath
50732 11372 moveto
P$g
50865 11254 moveto
P$h
fill
0 setlinewidth
[] 0 setdash
0 0 0 setrgbcolor
newpath
52190 11283 moveto
P$e
52181 11008 moveto
P$f
fill
0 setlinewidth
[] 0 setdash
0 0 0 setrgbcolor
newpath
52785 11263 moveto
P$i
fill
0 setlinewidth
[] 0 setdash
0 0 0 setrgbcolor
newpath
52871 11010 moveto
P$6
52998 11010 moveto
P$7
fill
0 setlinewidth
[] 0 setdash
0 0 0 setrgbcolor
newpath
53668 11155 moveto
P$j
fill
50 setlinewidth
0.09 0.09 0.09 setrgbcolor
newpath
34900 12400 moveto
25900 0 rlineto
stroke
100 setlinewidth
0.78 0.16 0.19 setrgbcolor
600 600 35600 13200 simplerect
closepath stroke
0 setlinewidth
[] 0 setdash
0 0 0 setrgbcolor
newpath
36893 13392 moveto
P$a
36893 14253 moveto
P$b
fill
0 setlinewidth
[] 0 setdash
0 0 0 setrgbcolor
newpath
37192 14253 moveto
P$k
fill
0 setlinewidth
[] 0 setdash
0 0 0 setrgbcolor
newpath
38260 14143 moveto
P$i
fill
0 setlinewidth
[] 0 setdash
0 0 0 setrgbcolor
newpath
38889 14018 moveto
P$3
38485 13820 moveto
P$4
fill
0 setlinewidth
[] 0 setdash
0 0 0 setrgbcolor
newpath
39190 14253 moveto
P$l
fill
0 setlinewidth
[] 0 setdash
0 0 0 setrgbcolor
newpath
39721 14253 moveto
P$m
fill
0 setlinewidth
[] 0 setdash
0 0 0 setrgbcolor
newpath
40565 14164 moveto
P$e
40556 13889 moveto
P$f
fill
0 setlinewidth
[] 0 setdash
0 0 0 setrgbcolor
newpath
41365 13987 moveto
P$5
fill
0 setlinewidth
[] 0 setdash
0 0 0 setrgbcolor
newpath
42089 14018 moveto
P$3
41685 13820 moveto
P$n
fill
100 setlinewidth
0.78 0.16 0.19 setrgbcolor
600 600 35600 14960 simplerect
closepath stroke
0 setlinewidth
[] 0 setdash
0 0 0 setrgbcolor
newpath
36892 16292 moveto
P$o
37003 15654 moveto
P$p
fill
0 setlinewidth
[] 0 setdash
0 0 0 setrgbcolor
newpath
38165 15925 moveto
P$e
38156 15650 moveto
P$f
fill
0 setlinewidth
[] 0 setdash
0 0 0 setrgbcolor
newpath
38965 15748 moveto
P$5
fill
0 setlinewidth
[] 0 setdash
0 0 0 setrgbcolor
newpath
39193 16014 moveto
P$q
fill
0 setlinewidth
[] 0 setdash
0 0 0 setrgbcolor
newpath
40365 15925 moveto
P$e
40356 15650 moveto
P$f
fill
0 setlinewidth
[] 0 setdash
0 0 0 setrgbcolor
newpath
40670 16075 moveto
P$8
40771 15637 moveto
P$9
fill
0 setlinewidth
[] 0 setdash
0 0 0 setrgbcolor
newpath
41989 15779 moveto
P$3
41585 15581 moveto
P$4
fill
0 setlinewidth
[] 0 setdash
0 0 0 setrgbcolor
newpath
42303 16014 moveto
P$r
fill
0 setlinewidth
[] 0 setdash
0 0 0 setrgbcolor
newpath
43093 15153 moveto
P$a
43093 16014 moveto
P$b
fill
0 setlinewidth
[] 0 setdash
0 0 0 setrgbcolor
newpath
43343 15797 moveto
P$s
fill
0 setlinewidth
[] 0 setdash
0 0 0 setrgbcolor
newpath
44360 15904 moveto
P$i
fill
0 setlinewidth
[] 0 setdash
0 0 0 setrgbcolor
newpath
44926 15428 moveto
P$t
44926 16014 moveto
P$u
fill
0 setlinewidth
[] 0 setdash
0 0 0 setrgbcolor
newpath
45703 16014 moveto
P$r
fill
0 setlinewidth
[] 0 setdash
0 0 0 setrgbcolor
newpath
46493 15153 moveto
P$a
46493 16014 moveto
P$b
fill
0 setlinewidth
[] 0 setdash
0 0 0 setrgbcolor
newpath
46743 15797 moveto
P$s
fill
0 setlinewidth
[] 0 setdash
0 0 0 setrgbcolor
newpath
47760 15904 moveto
P$v
fill
100 setlinewidth
0.78 0.16 0.19 setrgbcolor
600 600 35600 16721 simplerect
closepath stroke
0 setlinewidth
[] 0 setdash
0 0 0 setrgbcolor
newpath
36843 17558 moveto
P$s
fill
0 setlinewidth
[] 0 setdash
0 0 0 setrgbcolor
newpath
38089 17540 moveto
P$3
37685 17342 moveto
P$4
fill
0 setlinewidth
[] 0 setdash
0 0 0 setrgbcolor
newpath
38389 17775 moveto
P$w
fill
0 setlinewidth
[] 0 setdash
0 0 0 setrgbcolor
newpath
39189 17540 moveto
P$3
38785 17342 moveto
P$4
fill
0 setlinewidth
[] 0 setdash
0 0 0 setrgbcolor
newpath
39965 17509 moveto
P$5
fill
0 setlinewidth
[] 0 setdash
0 0 0 setrgbcolor
newpath
40460 17665 moveto
P$i
fill
0 setlinewidth
[] 0 setdash
0 0 0 setrgbcolor
newpath
40603 17775 moveto
P$x
40735 17193 moveto
P$y
40735 17656 moveto
P$z
fill
0 setlinewidth
[] 0 setdash
0 0 0 setrgbcolor
newpath
41968 17775 moveto
P$10
fill
0 setlinewidth
[] 0 setdash
0 0 0 setrgbcolor
newpath
42560 17665 moveto
P$i
fill
0 setlinewidth
[] 0 setdash
0 0 0 setrgbcolor
newpath
42960 17665 moveto
P$i
fill
0 setlinewidth
[] 0 setdash
0 0 0 setrgbcolor
newpath
43046 17412 moveto
P$6
43173 17412 moveto
P$7
fill
0 setlinewidth
[] 0 setdash
0 0 0 setrgbcolor
newpath
43892 17775 moveto
P$11
fill
100 setlinewidth
0.78 0.16 0.19 setrgbcolor
600 600 35600 18482 simplerect
closepath stroke
0 setlinewidth
[] 0 setdash
0 0 0 setrgbcolor
newpath
36843 19318 moveto
P$s
fill
0 setlinewidth
[] 0 setdash
0 0 0 setrgbcolor
newpath
38089 19301 moveto
P$3
37685 19103 moveto
P$4
fill
0 setlinewidth
[] 0 setdash
0 0 0 setrgbcolor
newpath
38865 19447 moveto
P$e
38856 19172 moveto
P$f
fill
0 setlinewidth
[] 0 setdash
0 0 0 setrgbcolor
newpath
39190 19536 moveto
P$l
fill
0 setlinewidth
[] 0 setdash
0 0 0 setrgbcolor
newpath
40165 19270 moveto
P$5
fill
0 setlinewidth
[] 0 setdash
0 0 0 setrgbcolor
newpath
40392 19536 moveto
P$12
fill
0 setlinewidth
[] 0 setdash
0 0 0 setrgbcolor
newpath
41203 19536 moveto
P$x
41335 18954 moveto
P$y
41335 19417 moveto
P$z
fill
0 setlinewidth
[] 0 setdash
0 0 0 setrgbcolor
newpath
42568 19536 moveto
P$10
fill
0 setlinewidth
[] 0 setdash
0 0 0 setrgbcolor
newpath
43160 19426 moveto
P$i
fill
0 setlinewidth
[] 0 setdash
0 0 0 setrgbcolor
newpath
43560 19426 moveto
P$i
fill
0 setlinewidth
[] 0 setdash
0 0 0 setrgbcolor
newpath
43646 19173 moveto
P$6
43773 19173 moveto
P$7
fill
0 setlinewidth
[] 0 setdash
0 0 0 setrgbcolor
newpath
44492 19536 moveto
P$11
fill
100 setlinewidth
0.78 0.16 0.19 setrgbcolor
600 600 35600 20243 simplerect
closepath stroke
0 setlinewidth
[] 0 setdash
0 0 0 setrgbcolor
newpath
37365 21031 moveto
P$5
fill
0 setlinewidth
[] 0 setdash
0 0 0 setrgbcolor
newpath
37589 21297 moveto
P$w
fill
0 setlinewidth
[] 0 setdash
0 0 0 setrgbcolor
newpath
38389 21062 moveto
P$3
37985 20864 moveto
P$4
fill
0 setlinewidth
[] 0 setdash
0 0 0 setrgbcolor
newpath
39165 21208 moveto
P$e
39156 20933 moveto
P$f
fill
0 setlinewidth
[] 0 setdash
0 0 0 setrgbcolor
newpath
39492 21297 moveto
P$k
fill
0 setlinewidth
[] 0 setdash
0 0 0 setrgbcolor
newpath
40303 21297 moveto
P$x
40435 20715 moveto
P$y
40435 21178 moveto
P$z
fill
0 setlinewidth
[] 0 setdash
0 0 0 setrgbcolor
newpath
41668 21297 moveto
P$10
fill
0 setlinewidth
[] 0 setdash
0 0 0 setrgbcolor
newpath
42260 21187 moveto
P$i
fill
0 setlinewidth
[] 0 setdash
0 0 0 setrgbcolor
newpath
42660 21187 moveto
P$i
fill
0 setlinewidth
[] 0 setdash
0 0 0 setrgbcolor
newpath
42746 20934 moveto
P$6
42873 20934 moveto
P$7
fill
0 setlinewidth
[] 0 setdash
0 0 0 setrgbcolor
newpath
43592 21297 moveto
P$11
fill
50 setlinewidth
0.09 0.09 0.09 setrgbcolor
newpath
34900 22004 moveto
25900 0 rlineto
stroke
0.52 0.75 0.52 setrgbcolor
newpath
35900 23104 300 0 360 arc
closepath eofill
100 setlinewidth
0.01 0.5 0.28 setrgbcolor
newpath
35900 23104 300 0 360 arc
closepath stroke
0 setlinewidth
[] 0 setdash
0 0 0 setrgbcolor
newpath
36843 23640 moveto
P$s
fill
0 setlinewidth
[] 0 setdash
0 0 0 setrgbcolor
newpath
38089 23623 moveto
P$3
37685 23425 moveto
P$4
fill
0 setlinewidth
[] 0 setdash
0 0 0 setrgbcolor
newpath
38865 23768 moveto
P$e
38856 23493 moveto
P$f
fill
0 setlinewidth
[] 0 setdash
0 0 0 setrgbcolor
newpath
39190 23858 moveto
P$l
fill
0 setlinewidth
[] 0 setdash
0 0 0 setrgbcolor
newpath
40165 23592 moveto
P$5
fill
0 setlinewidth
[] 0 setdash
0 0 0 setrgbcolor
newpath
40392 23858 moveto
P$12
fill
0 setlinewidth
[] 0 setdash
0 0 0 setrgbcolor
newpath
41207 23858 moveto
P$13
41340 23333 moveto
P$14
fill
0 setlinewidth
[] 0 setdash
0 0 0 setrgbcolor
newpath
42565 23768 moveto
P$e
42556 23493 moveto
P$f
fill
0 setlinewidth
[] 0 setdash
0 0 0 setrgbcolor
newpath
43365 23592 moveto
P$5
fill
0 setlinewidth
[] 0 setdash
0 0 0 setrgbcolor
newpath
43593 23858 moveto
P$q
fill
0 setlinewidth
[] 0 setdash
0 0 0 setrgbcolor
newpath
44765 23768 moveto
P$e
44756 23493 moveto
P$f
fill
0 setlinewidth
[] 0 setdash
0 0 0 setrgbcolor
newpath
45070 23918 moveto
P$8
45171 23481 moveto
P$9
fill
0 setlinewidth
[] 0 setdash
0 0 0 setrgbcolor
newpath
46389 23623 moveto
P$3
45985 23425 moveto
P$4
fill
0 setlinewidth
[] 0 setdash
0 0 0 setrgbcolor
newpath
46928 24153 moveto
P$15
fill
0 setlinewidth
[] 0 setdash
0 0 0 setrgbcolor
newpath
47193 22997 moveto
P$a
47193 23858 moveto
P$b
fill
0 setlinewidth
[] 0 setdash
0 0 0 setrgbcolor
newpath
47492 23858 moveto
P$k
fill
0 setlinewidth
[] 0 setdash
0 0 0 setrgbcolor
newpath
48560 23748 moveto
P$i
fill
0 setlinewidth
[] 0 setdash
0 0 0 setrgbcolor
newpath
49189 23623 moveto
P$3
48785 23425 moveto
P$4
fill
0 setlinewidth
[] 0 setdash
0 0 0 setrgbcolor
newpath
49490 23858 moveto
P$l
fill
0 setlinewidth
[] 0 setdash
0 0 0 setrgbcolor
newpath
50021 23858 moveto
P$m
fill
0 setlinewidth
[] 0 setdash
0 0 0 setrgbcolor
newpath
50865 23768 moveto
P$e
50856 23493 moveto
P$f
fill
0 setlinewidth
[] 0 setdash
0 0 0 setrgbcolor
newpath
51665 23592 moveto
P$5
fill
0 setlinewidth
[] 0 setdash
0 0 0 setrgbcolor
newpath
52389 23623 moveto
P$3
51985 23425 moveto
P$4
fill
0 setlinewidth
[] 0 setdash
0 0 0 setrgbcolor
newpath
52725 23858 moveto
P$16
fill
0 setlinewidth
[] 0 setdash
0 0 0 setrgbcolor
newpath
53492 24136 moveto
P$o
53603 23498 moveto
P$p
fill
0 setlinewidth
[] 0 setdash
0 0 0 setrgbcolor
newpath
54765 23768 moveto
P$e
54756 23493 moveto
P$f
fill
0 setlinewidth
[] 0 setdash
0 0 0 setrgbcolor
newpath
55565 23592 moveto
P$5
fill
0 setlinewidth
[] 0 setdash
0 0 0 setrgbcolor
newpath
55793 23858 moveto
P$q
fill
0 setlinewidth
[] 0 setdash
0 0 0 setrgbcolor
newpath
56989 23623 moveto
P$3
56585 23425 moveto
P$4
fill
0 setlinewidth
[] 0 setdash
0 0 0 setrgbcolor
newpath
57560 23748 moveto
P$i
fill
0 setlinewidth
[] 0 setdash
0 0 0 setrgbcolor
newpath
57703 23858 moveto
P$r
fill
0 setlinewidth
[] 0 setdash
0 0 0 setrgbcolor
newpath
58493 22997 moveto
P$a
58493 23858 moveto
P$b
fill
0 setlinewidth
[] 0 setdash
0 0 0 setrgbcolor
newpath
58743 23640 moveto
P$s
fill
0 setlinewidth
[] 0 setdash
0 0 0 setrgbcolor
newpath
59760 23748 moveto
P$i
fill
0 setlinewidth
[] 0 setdash
0 0 0 setrgbcolor
newpath
59973 24153 moveto
P$17
fill
0.52 0.75 0.52 setrgbcolor
newpath
35900 24865 300 0 360 arc
closepath eofill
100 setlinewidth
0.01 0.5 0.28 setrgbcolor
newpath
35900 24865 300 0 360 arc
closepath stroke
0 setlinewidth
[] 0 setdash
0 0 0 setrgbcolor
newpath
36843 25401 moveto
P$s
fill
0 setlinewidth
[] 0 setdash
0 0 0 setrgbcolor
newpath
37860 25509 moveto
P$i
fill
0 setlinewidth
[] 0 setdash
0 0 0 setrgbcolor
newpath
37946 25256 moveto
P$6
38073 25256 moveto
P$7
fill
0 setlinewidth
[] 0 setdash
0 0 0 setrgbcolor
newpath
38792 25897 moveto
P$o
38903 25259 moveto
P$p
fill
0 setlinewidth
[] 0 setdash
0 0 0 setrgbcolor
newpath
39562 25297 moveto
P$18
fill
0 setlinewidth
[] 0 setdash
0 0 0 setrgbcolor
newpath
40989 25384 moveto
P$3
40585 25186 moveto
P$4
fill
0 setlinewidth
[] 0 setdash
0 0 0 setrgbcolor
newpath
41765 25529 moveto
P$e
41756 25254 moveto
P$f
fill
0 setlinewidth
[] 0 setdash
0 0 0 setrgbcolor
newpath
42090 25618 moveto
P$l
fill
0 setlinewidth
[] 0 setdash
0 0 0 setrgbcolor
newpath
43065 25353 moveto
P$5
fill
0 setlinewidth
[] 0 setdash
0 0 0 setrgbcolor
newpath
43292 25618 moveto
P$12
fill
0 setlinewidth
[] 0 setdash
0 0 0 setrgbcolor
newpath
44328 25914 moveto
P$15
fill
0 setlinewidth
[] 0 setdash
0 0 0 setrgbcolor
newpath
44593 24758 moveto
P$a
44593 25618 moveto
P$b
fill
0 setlinewidth
[] 0 setdash
0 0 0 setrgbcolor
newpath
44892 25618 moveto
P$k
fill
0 setlinewidth
[] 0 setdash
0 0 0 setrgbcolor
newpath
45960 25509 moveto
P$i
fill
0 setlinewidth
[] 0 setdash
0 0 0 setrgbcolor
newpath
46589 25384 moveto
P$3
46185 25186 moveto
P$4
fill
0 setlinewidth
[] 0 setdash
0 0 0 setrgbcolor
newpath
46890 25618 moveto
P$l
fill
0 setlinewidth
[] 0 setdash
0 0 0 setrgbcolor
newpath
47421 25618 moveto
P$m
fill
0 setlinewidth
[] 0 setdash
0 0 0 setrgbcolor
newpath
48265 25529 moveto
P$e
48256 25254 moveto
P$f
fill
0 setlinewidth
[] 0 setdash
0 0 0 setrgbcolor
newpath
49065 25353 moveto
P$5
fill
0 setlinewidth
[] 0 setdash
0 0 0 setrgbcolor
newpath
49789 25384 moveto
P$3
49385 25186 moveto
P$4
fill
0 setlinewidth
[] 0 setdash
0 0 0 setrgbcolor
newpath
50125 25618 moveto
P$16
fill
0 setlinewidth
[] 0 setdash
0 0 0 setrgbcolor
newpath
50892 25897 moveto
P$o
51003 25259 moveto
P$p
fill
0 setlinewidth
[] 0 setdash
0 0 0 setrgbcolor
newpath
52165 25529 moveto
P$e
52156 25254 moveto
P$f
fill
0 setlinewidth
[] 0 setdash
0 0 0 setrgbcolor
newpath
52965 25353 moveto
P$5
fill
0 setlinewidth
[] 0 setdash
0 0 0 setrgbcolor
newpath
53193 25618 moveto
P$q
fill
0 setlinewidth
[] 0 setdash
0 0 0 setrgbcolor
newpath
54389 25384 moveto
P$3
53985 25186 moveto
P$4
fill
0 setlinewidth
[] 0 setdash
0 0 0 setrgbcolor
newpath
54960 25509 moveto
P$i
fill
0 setlinewidth
[] 0 setdash
0 0 0 setrgbcolor
newpath
55103 25618 moveto
P$r
fill
0 setlinewidth
[] 0 setdash
0 0 0 setrgbcolor
newpath
55893 24758 moveto
P$a
55893 25618 moveto
P$b
fill
0 setlinewidth
[] 0 setdash
0 0 0 setrgbcolor
newpath
56143 25401 moveto
P$s
fill
0 setlinewidth
[] 0 setdash
0 0 0 setrgbcolor
newpath
57160 25509 moveto
P$i
fill
0 setlinewidth
[] 0 setdash
0 0 0 setrgbcolor
newpath
57373 25914 moveto
P$17
fill
0.52 0.75 0.52 setrgbcolor
newpath
35900 26626 300 0 360 arc
closepath eofill
100 setlinewidth
0.01 0.5 0.28 setrgbcolor
newpath
35900 26626 300 0 360 arc
closepath stroke
0 setlinewidth
[] 0 setdash
0 0 0 setrgbcolor
newpath
36846 27017 moveto
P$6
36973 27017 moveto
P$7
fill
0 setlinewidth
[] 0 setdash
0 0 0 setrgbcolor
newpath
37692 27658 moveto
P$o
37803 27020 moveto
P$p
fill
0 setlinewidth
[] 0 setdash
0 0 0 setrgbcolor
newpath
38989 27145 moveto
P$3
38585 26947 moveto
P$4
fill
0 setlinewidth
[] 0 setdash
0 0 0 setrgbcolor
newpath
39292 27379 moveto
P$k
fill
0 setlinewidth
[] 0 setdash
0 0 0 setrgbcolor
newpath
40107 27379 moveto
P$13
40240 26854 moveto
P$14
fill
0 setlinewidth
[] 0 setdash
0 0 0 setrgbcolor
newpath
41465 27290 moveto
P$e
41456 27015 moveto
P$f
fill
0 setlinewidth
[] 0 setdash
0 0 0 setrgbcolor
newpath
42265 27114 moveto
P$5
fill
0 setlinewidth
[] 0 setdash
0 0 0 setrgbcolor
newpath
42493 27379 moveto
P$q
fill
0 setlinewidth
[] 0 setdash
0 0 0 setrgbcolor
newpath
43665 27290 moveto
P$e
43656 27015 moveto
P$f
fill
0 setlinewidth
[] 0 setdash
0 0 0 setrgbcolor
newpath
43970 27440 moveto
P$8
44071 27003 moveto
P$9
fill
0 setlinewidth
[] 0 setdash
0 0 0 setrgbcolor
newpath
45289 27145 moveto
P$3
44885 26947 moveto
P$4
fill
0 setlinewidth
[] 0 setdash
0 0 0 setrgbcolor
newpath
45828 27675 moveto
P$15
fill
0 setlinewidth
[] 0 setdash
0 0 0 setrgbcolor
newpath
46092 27658 moveto
P$o
46203 27020 moveto
P$p
fill
0 setlinewidth
[] 0 setdash
0 0 0 setrgbcolor
newpath
47365 27290 moveto
P$e
47356 27015 moveto
P$f
fill
0 setlinewidth
[] 0 setdash
0 0 0 setrgbcolor
newpath
48165 27114 moveto
P$5
fill
0 setlinewidth
[] 0 setdash
0 0 0 setrgbcolor
newpath
48393 27379 moveto
P$q
fill
0 setlinewidth
[] 0 setdash
0 0 0 setrgbcolor
newpath
49589 27145 moveto
P$3
49185 26947 moveto
P$4
fill
0 setlinewidth
[] 0 setdash
0 0 0 setrgbcolor
newpath
50160 27270 moveto
P$i
fill
0 setlinewidth
[] 0 setdash
0 0 0 setrgbcolor
newpath
50303 27379 moveto
P$r
fill
0 setlinewidth
[] 0 setdash
0 0 0 setrgbcolor
newpath
51093 26518 moveto
P$a
51093 27379 moveto
P$b
fill
0 setlinewidth
[] 0 setdash
0 0 0 setrgbcolor
newpath
51343 27162 moveto
P$s
fill
0 setlinewidth
[] 0 setdash
0 0 0 setrgbcolor
newpath
52360 27270 moveto
P$i
fill
0 setlinewidth
[] 0 setdash
0 0 0 setrgbcolor
newpath
52525 27379 moveto
P$16
fill
0 setlinewidth
[] 0 setdash
0 0 0 setrgbcolor
newpath
53293 26518 moveto
P$a
53293 27379 moveto
P$b
fill
0 setlinewidth
[] 0 setdash
0 0 0 setrgbcolor
newpath
54064 27379 moveto
P$c
53675 27017 moveto
P$d
fill
0 setlinewidth
[] 0 setdash
0 0 0 setrgbcolor
newpath
54473 27675 moveto
P$17
fill
0.52 0.75 0.52 setrgbcolor
newpath
35900 28387 300 0 360 arc
closepath eofill
100 setlinewidth
0.01 0.5 0.28 setrgbcolor
newpath
35900 28387 300 0 360 arc
closepath stroke
0 setlinewidth
[] 0 setdash
0 0 0 setrgbcolor
newpath
37365 28875 moveto
P$5
fill
0 setlinewidth
[] 0 setdash
0 0 0 setrgbcolor
newpath
37589 29140 moveto
P$w
fill
0 setlinewidth
[] 0 setdash
0 0 0 setrgbcolor
newpath
38389 28906 moveto
P$3
37985 28708 moveto
P$4
fill
0 setlinewidth
[] 0 setdash
0 0 0 setrgbcolor
newpath
39165 29051 moveto
P$e
39156 28776 moveto
P$f
fill
0 setlinewidth
[] 0 setdash
0 0 0 setrgbcolor
newpath
39492 29140 moveto
P$k
fill
0 setlinewidth
[] 0 setdash
0 0 0 setrgbcolor
newpath
40307 29140 moveto
P$13
40440 28615 moveto
P$14
fill
0 setlinewidth
[] 0 setdash
0 0 0 setrgbcolor
newpath
41665 29051 moveto
P$e
41656 28776 moveto
P$f
fill
0 setlinewidth
[] 0 setdash
0 0 0 setrgbcolor
newpath
42465 28875 moveto
P$5
fill
0 setlinewidth
[] 0 setdash
0 0 0 setrgbcolor
newpath
42693 29140 moveto
P$q
fill
0 setlinewidth
[] 0 setdash
0 0 0 setrgbcolor
newpath
43865 29051 moveto
P$e
43856 28776 moveto
P$f
fill
0 setlinewidth
[] 0 setdash
0 0 0 setrgbcolor
newpath
44170 29201 moveto
P$8
44271 28764 moveto
P$9
fill
0 setlinewidth
[] 0 setdash
0 0 0 setrgbcolor
newpath
45489 28906 moveto
P$3
45085 28708 moveto
P$4
fill
0 setlinewidth
[] 0 setdash
0 0 0 setrgbcolor
newpath
45803 29140 moveto
P$r
fill
0 setlinewidth
[] 0 setdash
0 0 0 setrgbcolor
newpath
46593 28279 moveto
P$a
46593 29140 moveto
P$b
fill
0 setlinewidth
[] 0 setdash
0 0 0 setrgbcolor
newpath
46843 28923 moveto
P$s
fill
0 setlinewidth
[] 0 setdash
0 0 0 setrgbcolor
newpath
47860 29031 moveto
P$i
fill
0 setlinewidth
[] 0 setdash
0 0 0 setrgbcolor
newpath
48228 29436 moveto
P$15
fill
0 setlinewidth
[] 0 setdash
0 0 0 setrgbcolor
newpath
48492 29418 moveto
P$o
48603 28781 moveto
P$p
fill
0 setlinewidth
[] 0 setdash
0 0 0 setrgbcolor
newpath
49765 29051 moveto
P$e
49756 28776 moveto
P$f
fill
0 setlinewidth
[] 0 setdash
0 0 0 setrgbcolor
newpath
50565 28875 moveto
P$5
fill
0 setlinewidth
[] 0 setdash
0 0 0 setrgbcolor
newpath
50793 29140 moveto
P$q
fill
0 setlinewidth
[] 0 setdash
0 0 0 setrgbcolor
newpath
51989 28906 moveto
P$3
51585 28708 moveto
P$4
fill
0 setlinewidth
[] 0 setdash
0 0 0 setrgbcolor
newpath
52560 29031 moveto
P$i
fill
0 setlinewidth
[] 0 setdash
0 0 0 setrgbcolor
newpath
52703 29140 moveto
P$r
fill
0 setlinewidth
[] 0 setdash
0 0 0 setrgbcolor
newpath
53493 28279 moveto
P$a
53493 29140 moveto
P$b
fill
0 setlinewidth
[] 0 setdash
0 0 0 setrgbcolor
newpath
53743 28923 moveto
P$s
fill
0 setlinewidth
[] 0 setdash
0 0 0 setrgbcolor
newpath
54760 29031 moveto
P$i
fill
0 setlinewidth
[] 0 setdash
0 0 0 setrgbcolor
newpath
54973 29436 moveto
P$17
fill
1 1 0.87 setrgbcolor
newpath
600 600 moveto
600 6505 lineto
26500 6505 lineto
26500 3952 lineto
35200 18963 lineto
26500 3152 lineto
26500 1600 lineto
25500 600 lineto
600 600 lineto
closepath eofill
50 setlinewidth
0.09 0.09 0.09 setrgbcolor
newpath
600 600 moveto
600 6505 lineto
26500 6505 lineto
26500 3952 lineto
35200 18963 lineto
26500 3152 lineto
26500 1600 lineto
25500 600 lineto
600 600 lineto
stroke
1 1 0.87 setrgbcolor
newpath
25500 600 moveto
25500 1600 lineto
26500 1600 lineto
25500 600 lineto
closepath eofill
50 setlinewidth
0.09 0.09 0.09 setrgbcolor
newpath
25500 600 moveto
25500 1600 lineto
26500 1600 lineto
25500 600 lineto
stroke
0 setlinewidth
[] 0 setdash
0 0 0 setrgbcolor
newpath
1303 2449 moveto
P$19
fill
0 setlinewidth
[] 0 setdash
0 0 0 setrgbcolor
newpath
2140 2247 moveto
P$1a
fill
0 setlinewidth
[] 0 setdash
0 0 0 setrgbcolor
newpath
3135 2347 moveto
P$1b
fill
0 setlinewidth
[] 0 setdash
0 0 0 setrgbcolor
newpath
3746 2232 moveto
P$1c
3371 2047 moveto
P$1d
fill
0 setlinewidth
[] 0 setdash
0 0 0 setrgbcolor
newpath
4490 2449 moveto
P$1e
4489 2107 moveto
P$1f
fill
0 setlinewidth
[] 0 setdash
0 0 0 setrgbcolor
newpath
5043 2112 moveto
P$1g
5160 2112 moveto
P$1h
fill
0 setlinewidth
[] 0 setdash
0 0 0 setrgbcolor
newpath
6035 2347 moveto
P$1b
fill
0 setlinewidth
[] 0 setdash
0 0 0 setrgbcolor
newpath
6143 2112 moveto
P$1g
6260 2112 moveto
P$1i
6395 1691 moveto
P$1j
fill
0 setlinewidth
[] 0 setdash
0 0 0 setrgbcolor
newpath
6885 2449 moveto
P$1k
fill
0 setlinewidth
[] 0 setdash
0 0 0 setrgbcolor
newpath
7985 2707 moveto
P$1l
8089 2116 moveto
P$1m
fill
0 setlinewidth
[] 0 setdash
0 0 0 setrgbcolor
newpath
9125 2366 moveto
P$1n
9115 2110 moveto
P$1o
fill
0 setlinewidth
[] 0 setdash
0 0 0 setrgbcolor
newpath
9384 2449 moveto
P$1p
10225 2366 moveto
P$1n
10215 2110 moveto
P$1o
fill
0 setlinewidth
[] 0 setdash
0 0 0 setrgbcolor
newpath
10484 2449 moveto
P$1p
11325 2366 moveto
P$1n
11315 2110 moveto
P$1q
11093 1691 moveto
P$1j
fill
0 setlinewidth
[] 0 setdash
0 0 0 setrgbcolor
newpath
11982 2449 moveto
P$1r
fill
0 setlinewidth
[] 0 setdash
0 0 0 setrgbcolor
newpath
12725 2366 moveto
P$1n
12715 2110 moveto
P$1o
fill
0 setlinewidth
[] 0 setdash
0 0 0 setrgbcolor
newpath
13490 2449 moveto
P$1e
13489 2107 moveto
P$1f
fill
0 setlinewidth
[] 0 setdash
0 0 0 setrgbcolor
newpath
14528 2449 moveto
P$1s
14287 1691 moveto
P$1j
fill
0 setlinewidth
[] 0 setdash
0 0 0 setrgbcolor
newpath
14740 2247 moveto
P$1a
fill
0 setlinewidth
[] 0 setdash
0 0 0 setrgbcolor
newpath
15915 2707 moveto
P$1t
15562 2110 moveto
P$1u
fill
0 setlinewidth
[] 0 setdash
0 0 0 setrgbcolor
newpath
16628 2449 moveto
P$1v
fill
0 setlinewidth
[] 0 setdash
0 0 0 setrgbcolor
newpath
17346 2232 moveto
P$1c
16971 2047 moveto
P$1d
fill
0 setlinewidth
[] 0 setdash
0 0 0 setrgbcolor
newpath
18023 2449 moveto
P$1w
17662 2113 moveto
P$1x
fill
0 setlinewidth
[] 0 setdash
0 0 0 setrgbcolor
newpath
18725 2366 moveto
P$1n
18715 2110 moveto
P$1o
fill
0 setlinewidth
[] 0 setdash
0 0 0 setrgbcolor
newpath
19825 2202 moveto
P$1y
fill
0 setlinewidth
[] 0 setdash
0 0 0 setrgbcolor
newpath
20043 2112 moveto
P$1g
20160 2112 moveto
P$1h
fill
0 setlinewidth
[] 0 setdash
0 0 0 setrgbcolor
newpath
20785 2449 moveto
P$1k
fill
0 setlinewidth
[] 0 setdash
0 0 0 setrgbcolor
newpath
21440 2247 moveto
P$1a
fill
0 setlinewidth
[] 0 setdash
0 0 0 setrgbcolor
newpath
22435 2347 moveto
P$1b
fill
0 setlinewidth
[] 0 setdash
0 0 0 setrgbcolor
newpath
23025 2366 moveto
P$1n
23015 2110 moveto
P$1o
fill
0 setlinewidth
[] 0 setdash
0 0 0 setrgbcolor
newpath
23285 2449 moveto
P$1k
fill
0 setlinewidth
[] 0 setdash
0 0 0 setrgbcolor
newpath
24235 2347 moveto
P$1b
fill
0 setlinewidth
[] 0 setdash
0 0 0 setrgbcolor
newpath
24846 2232 moveto
P$1c
24471 2047 moveto
P$1z
fill
0 setlinewidth
[] 0 setdash
0 0 0 setrgbcolor
newpath
2123 4084 moveto
P$1w
1762 3748 moveto
P$1x
fill
0 setlinewidth
[] 0 setdash
0 0 0 setrgbcolor
newpath
2846 3867 moveto
P$1c
2471 3683 moveto
P$1d
fill
0 setlinewidth
[] 0 setdash
0 0 0 setrgbcolor
newpath
3485 4342 moveto
P$1l
3589 3751 moveto
P$1m
fill
0 setlinewidth
[] 0 setdash
0 0 0 setrgbcolor
newpath
4625 4001 moveto
P$1n
4615 3745 moveto
P$1o
fill
0 setlinewidth
[] 0 setdash
0 0 0 setrgbcolor
newpath
5315 4342 moveto
P$1t
4962 3745 moveto
P$1u
fill
0 setlinewidth
[] 0 setdash
0 0 0 setrgbcolor
newpath
6028 4084 moveto
P$1v
fill
0 setlinewidth
[] 0 setdash
0 0 0 setrgbcolor
newpath
6746 3867 moveto
P$1c
6371 3683 moveto
P$1d
fill
0 setlinewidth
[] 0 setdash
0 0 0 setrgbcolor
newpath
7235 3983 moveto
P$1b
fill
0 setlinewidth
[] 0 setdash
0 0 0 setrgbcolor
newpath
7846 3867 moveto
P$1c
7471 3683 moveto
P$1d
fill
0 setlinewidth
[] 0 setdash
0 0 0 setrgbcolor
newpath
8040 3883 moveto
P$1a
fill
0 setlinewidth
[] 0 setdash
0 0 0 setrgbcolor
newpath
9181 4344 moveto
P$20
fill
0 setlinewidth
[] 0 setdash
0 0 0 setrgbcolor
newpath
10282 4084 moveto
P$1r
fill
0 setlinewidth
[] 0 setdash
0 0 0 setrgbcolor
newpath
11025 4001 moveto
P$1n
11015 3745 moveto
P$1o
fill
0 setlinewidth
[] 0 setdash
0 0 0 setrgbcolor
newpath
11873 4084 moveto
P$21
12143 3747 moveto
P$1g
12260 3747 moveto
P$1h
fill
0 setlinewidth
[] 0 setdash
0 0 0 setrgbcolor
newpath
12882 4084 moveto
P$1r
fill
0 setlinewidth
[] 0 setdash
0 0 0 setrgbcolor
newpath
13373 4084 moveto
P$21
14146 3867 moveto
P$1c
13771 3683 moveto
P$1d
fill
0 setlinewidth
[] 0 setdash
0 0 0 setrgbcolor
newpath
14384 4084 moveto
P$1p
15225 4001 moveto
P$1n
15215 3745 moveto
P$1q
14993 3326 moveto
P$1j
fill
0 setlinewidth
[] 0 setdash
0 0 0 setrgbcolor
newpath
16325 4001 moveto
P$1n
16315 3745 moveto
P$1o
fill
0 setlinewidth
[] 0 setdash
0 0 0 setrgbcolor
newpath
16985 3286 moveto
P$22
16985 4084 moveto
P$23
fill
0 setlinewidth
[] 0 setdash
0 0 0 setrgbcolor
newpath
17285 4084 moveto
P$1k
fill
0 setlinewidth
[] 0 setdash
0 0 0 setrgbcolor
newpath
17985 3286 moveto
P$22
17985 4084 moveto
P$23
fill
0 setlinewidth
[] 0 setdash
0 0 0 setrgbcolor
newpath
18725 3837 moveto
P$1y
fill
0 setlinewidth
[] 0 setdash
0 0 0 setrgbcolor
newpath
18985 3286 moveto
P$22
18985 4084 moveto
P$23
fill
0 setlinewidth
[] 0 setdash
0 0 0 setrgbcolor
newpath
19725 4001 moveto
P$1n
19715 3745 moveto
P$1o
fill
0 setlinewidth
[] 0 setdash
0 0 0 setrgbcolor
newpath
19984 4084 moveto
P$1p
fill
0 setlinewidth
[] 0 setdash
0 0 0 setrgbcolor
newpath
2128 5719 moveto
P$1v
fill
0 setlinewidth
[] 0 setdash
0 0 0 setrgbcolor
newpath
2385 5719 moveto
P$1k
fill
0 setlinewidth
[] 0 setdash
0 0 0 setrgbcolor
newpath
3525 5637 moveto
P$1n
3515 5380 moveto
P$1o
fill
0 setlinewidth
[] 0 setdash
0 0 0 setrgbcolor
newpath
4373 5719 moveto
P$21
5146 5502 moveto
P$1c
4771 5318 moveto
P$1d
fill
0 setlinewidth
[] 0 setdash
0 0 0 setrgbcolor
newpath
5325 5719 moveto
P$24
fill
0 setlinewidth
[] 0 setdash
0 0 0 setrgbcolor
newpath
6673 5719 moveto
P$21
7428 5719 moveto
P$1v
fill
0 setlinewidth
[] 0 setdash
0 0 0 setrgbcolor
newpath
8146 5502 moveto
P$1c
7771 5318 moveto
P$1d
fill
0 setlinewidth
[] 0 setdash
0 0 0 setrgbcolor
newpath
8382 5719 moveto
P$1r
fill
0 setlinewidth
[] 0 setdash
0 0 0 setrgbcolor
newpath
8873 5719 moveto
P$21
9625 5637 moveto
P$1n
9615 5380 moveto
P$1o
fill
0 setlinewidth
[] 0 setdash
0 0 0 setrgbcolor
newpath
10725 5637 moveto
P$1n
10715 5380 moveto
P$1o
fill
0 setlinewidth
[] 0 setdash
0 0 0 setrgbcolor
newpath
11340 5518 moveto
P$1a
fill
0 setlinewidth
[] 0 setdash
0 0 0 setrgbcolor
newpath
12546 5502 moveto
P$1c
12171 5318 moveto
P$1d
fill
0 setlinewidth
[] 0 setdash
0 0 0 setrgbcolor
newpath
12784 5719 moveto
P$25
fill
0 setlinewidth
[] 0 setdash
0 0 0 setrgbcolor
newpath
13585 5977 moveto
P$1l
13689 5387 moveto
P$1m
fill
0 setlinewidth
[] 0 setdash
0 0 0 setrgbcolor
newpath
14728 5719 moveto
P$1v
fill
0 setlinewidth
[] 0 setdash
0 0 0 setrgbcolor
newpath
14982 5719 moveto
P$1r
fill
0 setlinewidth
[] 0 setdash
0 0 0 setrgbcolor
newpath
15240 5518 moveto
P$1a
fill
0 setlinewidth
[] 0 setdash
0 0 0 setrgbcolor
newpath
16425 5637 moveto
P$1n
16415 5380 moveto
P$1o
fill
0 setlinewidth
[] 0 setdash
0 0 0 setrgbcolor
newpath
17123 5719 moveto
P$1w
16762 5383 moveto
P$1x
fill
0 setlinewidth
[] 0 setdash
0 0 0 setrgbcolor
newpath
17343 5382 moveto
P$1g
17460 5382 moveto
P$1i
fill
1 1 0.87 setrgbcolor
newpath
600 7505 moveto
600 13410 lineto
25600 13410 lineto
25600 10858 lineto
35200 23285 lineto
25600 10058 lineto
25600 8505 lineto
24600 7505 lineto
600 7505 lineto
closepath eofill
50 setlinewidth
0.09 0.09 0.09 setrgbcolor
newpath
600 7505 moveto
600 13410 lineto
25600 13410 lineto
25600 10858 lineto
35200 23285 lineto
25600 10058 lineto
25600 8505 lineto
24600 7505 lineto
600 7505 lineto
stroke
1 1 0.87 setrgbcolor
newpath
24600 7505 moveto
24600 8505 lineto
25600 8505 lineto
24600 7505 lineto
closepath eofill
50 setlinewidth
0.09 0.09 0.09 setrgbcolor
newpath
24600 7505 moveto
24600 8505 lineto
25600 8505 lineto
24600 7505 lineto
stroke
0 setlinewidth
[] 0 setdash
0 0 0 setrgbcolor
newpath
1295 9354 moveto
P$26
1418 8815 moveto
P$27
1418 9245 moveto
P$28
fill
0 setlinewidth
[] 0 setdash
0 0 0 setrgbcolor
newpath
2628 9354 moveto
P$1v
fill
0 setlinewidth
[] 0 setdash
0 0 0 setrgbcolor
newpath
2840 9153 moveto
P$1a
fill
0 setlinewidth
[] 0 setdash
0 0 0 setrgbcolor
newpath
4025 9108 moveto
P$1y
fill
0 setlinewidth
[] 0 setdash
0 0 0 setrgbcolor
newpath
4725 9272 moveto
P$1n
4715 9015 moveto
P$1o
fill
0 setlinewidth
[] 0 setdash
0 0 0 setrgbcolor
newpath
4984 9354 moveto
P$1p
5825 9272 moveto
P$1n
5815 9015 moveto
P$1q
5593 8597 moveto
P$1j
fill
0 setlinewidth
[] 0 setdash
0 0 0 setrgbcolor
newpath
6485 9612 moveto
P$1l
6589 9022 moveto
P$1m
fill
0 setlinewidth
[] 0 setdash
0 0 0 setrgbcolor
newpath
7625 9272 moveto
P$1n
7615 9015 moveto
P$1o
fill
0 setlinewidth
[] 0 setdash
0 0 0 setrgbcolor
newpath
7884 9354 moveto
P$1p
8725 9272 moveto
P$1n
8715 9015 moveto
P$1o
fill
0 setlinewidth
[] 0 setdash
0 0 0 setrgbcolor
newpath
9382 9354 moveto
P$1r
fill
0 setlinewidth
[] 0 setdash
0 0 0 setrgbcolor
newpath
10125 9272 moveto
P$1n
10115 9015 moveto
P$1o
fill
0 setlinewidth
[] 0 setdash
0 0 0 setrgbcolor
newpath
10785 8556 moveto
P$22
10785 9354 moveto
P$23
fill
0 setlinewidth
[] 0 setdash
0 0 0 setrgbcolor
newpath
11085 9354 moveto
P$1k
fill
0 setlinewidth
[] 0 setdash
0 0 0 setrgbcolor
newpath
12035 9253 moveto
P$1b
fill
0 setlinewidth
[] 0 setdash
0 0 0 setrgbcolor
newpath
12646 9137 moveto
P$1c
12271 8953 moveto
P$1d
fill
0 setlinewidth
[] 0 setdash
0 0 0 setrgbcolor
newpath
12884 9354 moveto
P$1p
13312 9354 moveto
P$29
14025 9272 moveto
P$1n
14015 9015 moveto
P$1o
fill
0 setlinewidth
[] 0 setdash
0 0 0 setrgbcolor
newpath
14225 9354 moveto
P$24
fill
0 setlinewidth
[] 0 setdash
0 0 0 setrgbcolor
newpath
15823 9354 moveto
P$1w
15462 9019 moveto
P$1x
fill
0 setlinewidth
[] 0 setdash
0 0 0 setrgbcolor
newpath
16546 9137 moveto
P$1c
16171 8953 moveto
P$1d
fill
0 setlinewidth
[] 0 setdash
0 0 0 setrgbcolor
newpath
17184 9354 moveto
P$1p
18046 9137 moveto
P$1c
17671 8953 moveto
P$1d
fill
0 setlinewidth
[] 0 setdash
0 0 0 setrgbcolor
newpath
18723 9354 moveto
P$1w
18362 9019 moveto
P$1x
fill
0 setlinewidth
[] 0 setdash
0 0 0 setrgbcolor
newpath
19385 8556 moveto
P$22
19385 9354 moveto
P$23
fill
0 setlinewidth
[] 0 setdash
0 0 0 setrgbcolor
newpath
19685 9354 moveto
P$1k
fill
0 setlinewidth
[] 0 setdash
0 0 0 setrgbcolor
newpath
20823 9354 moveto
P$1w
20462 9019 moveto
P$1x
fill
0 setlinewidth
[] 0 setdash
0 0 0 setrgbcolor
newpath
21085 8556 moveto
P$22
21085 9354 moveto
P$23
fill
0 setlinewidth
[] 0 setdash
0 0 0 setrgbcolor
newpath
21825 9108 moveto
P$1y
fill
0 setlinewidth
[] 0 setdash
0 0 0 setrgbcolor
newpath
22525 9272 moveto
P$1n
22515 9015 moveto
P$1o
fill
0 setlinewidth
[] 0 setdash
0 0 0 setrgbcolor
newpath
23223 9354 moveto
P$1w
22862 9019 moveto
P$1x
fill
0 setlinewidth
[] 0 setdash
0 0 0 setrgbcolor
newpath
23925 9272 moveto
P$1n
23915 9015 moveto
P$1q
fill
0 setlinewidth
[] 0 setdash
0 0 0 setrgbcolor
newpath
1282 10990 moveto
P$1r
fill
0 setlinewidth
[] 0 setdash
0 0 0 setrgbcolor
newpath
1543 10652 moveto
P$1g
1660 10652 moveto
P$1h
fill
0 setlinewidth
[] 0 setdash
0 0 0 setrgbcolor
newpath
2240 10788 moveto
P$1a
fill
0 setlinewidth
[] 0 setdash
0 0 0 setrgbcolor
newpath
3385 11247 moveto
P$1l
3489 10657 moveto
P$1m
fill
0 setlinewidth
[] 0 setdash
0 0 0 setrgbcolor
newpath
4525 10907 moveto
P$1n
4515 10651 moveto
P$1o
fill
0 setlinewidth
[] 0 setdash
0 0 0 setrgbcolor
newpath
5215 11247 moveto
P$1t
4862 10651 moveto
P$1u
fill
0 setlinewidth
[] 0 setdash
0 0 0 setrgbcolor
newpath
5928 10990 moveto
P$1v
fill
0 setlinewidth
[] 0 setdash
0 0 0 setrgbcolor
newpath
6646 10772 moveto
P$1c
6271 10588 moveto
P$1d
fill
0 setlinewidth
[] 0 setdash
0 0 0 setrgbcolor
newpath
7135 10888 moveto
P$1b
fill
0 setlinewidth
[] 0 setdash
0 0 0 setrgbcolor
newpath
7746 10772 moveto
P$1c
7371 10588 moveto
P$1d
fill
0 setlinewidth
[] 0 setdash
0 0 0 setrgbcolor
newpath
7940 10788 moveto
P$1a
fill
0 setlinewidth
[] 0 setdash
0 0 0 setrgbcolor
newpath
9523 10990 moveto
P$1w
9162 10654 moveto
P$1x
fill
0 setlinewidth
[] 0 setdash
0 0 0 setrgbcolor
newpath
10246 10772 moveto
P$1c
9871 10588 moveto
P$1d
fill
0 setlinewidth
[] 0 setdash
0 0 0 setrgbcolor
newpath
10884 10990 moveto
P$1p
11746 10772 moveto
P$1c
11371 10588 moveto
P$1d
fill
0 setlinewidth
[] 0 setdash
0 0 0 setrgbcolor
newpath
12423 10990 moveto
P$1w
12062 10654 moveto
P$1x
fill
0 setlinewidth
[] 0 setdash
0 0 0 setrgbcolor
newpath
13546 10772 moveto
P$1c
13171 10588 moveto
P$1d
fill
0 setlinewidth
[] 0 setdash
0 0 0 setrgbcolor
newpath
13785 10990 moveto
P$1k
fill
0 setlinewidth
[] 0 setdash
0 0 0 setrgbcolor
newpath
14673 10990 moveto
P$21
14985 10191 moveto
P$22
14985 10990 moveto
P$23
fill
0 setlinewidth
[] 0 setdash
0 0 0 setrgbcolor
newpath
15725 10907 moveto
P$1n
15715 10651 moveto
P$1o
fill
0 setlinewidth
[] 0 setdash
0 0 0 setrgbcolor
newpath
16423 10990 moveto
P$1w
16062 10654 moveto
P$1x
fill
0 setlinewidth
[] 0 setdash
0 0 0 setrgbcolor
newpath
16643 10652 moveto
P$1g
16760 10652 moveto
P$1h
fill
0 setlinewidth
[] 0 setdash
0 0 0 setrgbcolor
newpath
17340 10788 moveto
P$1a
fill
0 setlinewidth
[] 0 setdash
0 0 0 setrgbcolor
newpath
18115 10990 moveto
P$2a
fill
0 setlinewidth
[] 0 setdash
0 0 0 setrgbcolor
newpath
1264 12681 moveto
P$2b
1359 12276 moveto
P$2c
fill
0 setlinewidth
[] 0 setdash
0 0 0 setrgbcolor
newpath
2428 12625 moveto
P$1v
fill
0 setlinewidth
[] 0 setdash
0 0 0 setrgbcolor
newpath
3125 12542 moveto
P$1n
3115 12286 moveto
P$1o
fill
0 setlinewidth
[] 0 setdash
0 0 0 setrgbcolor
newpath
3384 12625 moveto
P$1p
4223 12625 moveto
P$1w
3862 12289 moveto
P$1x
fill
0 setlinewidth
[] 0 setdash
0 0 0 setrgbcolor
newpath
4925 12542 moveto
P$1n
4915 12286 moveto
P$1o
fill
0 setlinewidth
[] 0 setdash
0 0 0 setrgbcolor
newpath
5185 12625 moveto
P$1k
fill
0 setlinewidth
[] 0 setdash
0 0 0 setrgbcolor
newpath
6323 12625 moveto
P$1w
5962 12289 moveto
P$1x
fill
0 setlinewidth
[] 0 setdash
0 0 0 setrgbcolor
newpath
6543 12287 moveto
P$1g
6660 12287 moveto
P$1h
fill
0 setlinewidth
[] 0 setdash
0 0 0 setrgbcolor
newpath
7282 12625 moveto
P$1r
fill
0 setlinewidth
[] 0 setdash
0 0 0 setrgbcolor
newpath
7543 12287 moveto
P$1g
7660 12287 moveto
P$1h
fill
0 setlinewidth
[] 0 setdash
0 0 0 setrgbcolor
newpath
8240 12423 moveto
P$1a
fill
0 setlinewidth
[] 0 setdash
0 0 0 setrgbcolor
newpath
9846 12408 moveto
P$1c
9471 12223 moveto
P$1d
fill
0 setlinewidth
[] 0 setdash
0 0 0 setrgbcolor
newpath
10085 12625 moveto
P$1k
fill
0 setlinewidth
[] 0 setdash
0 0 0 setrgbcolor
newpath
11182 12625 moveto
P$1r
fill
0 setlinewidth
[] 0 setdash
0 0 0 setrgbcolor
newpath
11925 12542 moveto
P$1n
11915 12286 moveto
P$1o
fill
0 setlinewidth
[] 0 setdash
0 0 0 setrgbcolor
newpath
12582 12625 moveto
P$1r
fill
0 setlinewidth
[] 0 setdash
0 0 0 setrgbcolor
newpath
12885 11826 moveto
P$22
12885 12625 moveto
P$23
fill
0 setlinewidth
[] 0 setdash
0 0 0 setrgbcolor
newpath
13140 12423 moveto
P$1a
fill
0 setlinewidth
[] 0 setdash
0 0 0 setrgbcolor
newpath
14135 12523 moveto
P$1b
fill
0 setlinewidth
[] 0 setdash
0 0 0 setrgbcolor
newpath
14725 12542 moveto
P$1n
14715 12286 moveto
P$1o
fill
0 setlinewidth
[] 0 setdash
0 0 0 setrgbcolor
newpath
15385 12883 moveto
P$1l
15489 12292 moveto
P$1m
fill
0 setlinewidth
[] 0 setdash
0 0 0 setrgbcolor
newpath
16525 12542 moveto
P$1n
16515 12286 moveto
P$1o
fill
0 setlinewidth
[] 0 setdash
0 0 0 setrgbcolor
newpath
17225 12378 moveto
P$1y
fill
0 setlinewidth
[] 0 setdash
0 0 0 setrgbcolor
newpath
17485 12625 moveto
P$2d
fill
0 setlinewidth
[] 0 setdash
0 0 0 setrgbcolor
newpath
18625 12542 moveto
P$1n
18615 12286 moveto
P$1o
fill
0 setlinewidth
[] 0 setdash
0 0 0 setrgbcolor
newpath
18864 12681 moveto
P$2b
18959 12276 moveto
P$2c
fill
0 setlinewidth
[] 0 setdash
0 0 0 setrgbcolor
newpath
20046 12408 moveto
P$1c
19671 12223 moveto
P$1d
fill
0 setlinewidth
[] 0 setdash
0 0 0 setrgbcolor
newpath
20295 12625 moveto
P$2e
fill
0 setlinewidth
[] 0 setdash
0 0 0 setrgbcolor
newpath
20985 11826 moveto
P$22
20985 12625 moveto
P$23
fill
0 setlinewidth
[] 0 setdash
0 0 0 setrgbcolor
newpath
21240 12423 moveto
P$1a
fill
0 setlinewidth
[] 0 setdash
0 0 0 setrgbcolor
newpath
22235 12523 moveto
P$2f
fill
1 1 0.87 setrgbcolor
newpath
600 14410 moveto
600 20316 lineto
28300 20316 lineto
28300 17763 lineto
35200 25046 lineto
28300 16963 lineto
28300 15410 lineto
27300 14410 lineto
600 14410 lineto
closepath eofill
50 setlinewidth
0.09 0.09 0.09 setrgbcolor
newpath
600 14410 moveto
600 20316 lineto
28300 20316 lineto
28300 17763 lineto
35200 25046 lineto
28300 16963 lineto
28300 15410 lineto
27300 14410 lineto
600 14410 lineto
stroke
1 1 0.87 setrgbcolor
newpath
27300 14410 moveto
27300 15410 lineto
28300 15410 lineto
27300 14410 lineto
closepath eofill
50 setlinewidth
0.09 0.09 0.09 setrgbcolor
newpath
27300 14410 moveto
27300 15410 lineto
28300 15410 lineto
27300 14410 lineto
stroke
0 setlinewidth
[] 0 setdash
0 0 0 setrgbcolor
newpath
1198 16260 moveto
P$2g
1467 15877 moveto
P$2h
fill
0 setlinewidth
[] 0 setdash
0 0 0 setrgbcolor
newpath
2185 16260 moveto
P$1k
fill
0 setlinewidth
[] 0 setdash
0 0 0 setrgbcolor
newpath
3135 16158 moveto
P$1b
fill
0 setlinewidth
[] 0 setdash
0 0 0 setrgbcolor
newpath
3746 16043 moveto
P$1c
3371 15858 moveto
P$1d
fill
0 setlinewidth
[] 0 setdash
0 0 0 setrgbcolor
newpath
4382 16260 moveto
P$1r
fill
0 setlinewidth
[] 0 setdash
0 0 0 setrgbcolor
newpath
5125 16177 moveto
P$1n
5115 15921 moveto
P$1o
fill
0 setlinewidth
[] 0 setdash
0 0 0 setrgbcolor
newpath
5785 16518 moveto
P$1l
5889 15927 moveto
P$1m
fill
0 setlinewidth
[] 0 setdash
0 0 0 setrgbcolor
newpath
6928 16260 moveto
P$1v
fill
0 setlinewidth
[] 0 setdash
0 0 0 setrgbcolor
newpath
7182 16260 moveto
P$1r
fill
0 setlinewidth
[] 0 setdash
0 0 0 setrgbcolor
newpath
7440 16058 moveto
P$1a
fill
0 setlinewidth
[] 0 setdash
0 0 0 setrgbcolor
newpath
8625 16177 moveto
P$1n
8615 15921 moveto
P$1o
fill
0 setlinewidth
[] 0 setdash
0 0 0 setrgbcolor
newpath
9325 16013 moveto
P$1y
fill
0 setlinewidth
[] 0 setdash
0 0 0 setrgbcolor
newpath
9585 15462 moveto
P$22
9585 16260 moveto
P$23
fill
0 setlinewidth
[] 0 setdash
0 0 0 setrgbcolor
newpath
9843 15922 moveto
P$1g
9960 15922 moveto
P$1i
10095 15502 moveto
P$1j
fill
0 setlinewidth
[] 0 setdash
0 0 0 setrgbcolor
newpath
10585 16260 moveto
P$1k
fill
0 setlinewidth
[] 0 setdash
0 0 0 setrgbcolor
newpath
12123 16260 moveto
P$1w
11762 15924 moveto
P$1x
fill
0 setlinewidth
[] 0 setdash
0 0 0 setrgbcolor
newpath
12846 16043 moveto
P$1c
12471 15858 moveto
P$1d
fill
0 setlinewidth
[] 0 setdash
0 0 0 setrgbcolor
newpath
13082 16260 moveto
P$1r
fill
0 setlinewidth
[] 0 setdash
0 0 0 setrgbcolor
newpath
13890 16260 moveto
P$1e
13889 15918 moveto
P$1f
fill
0 setlinewidth
[] 0 setdash
0 0 0 setrgbcolor
newpath
14443 15922 moveto
P$1g
14560 15922 moveto
P$1h
fill
0 setlinewidth
[] 0 setdash
0 0 0 setrgbcolor
newpath
15435 16158 moveto
P$1b
fill
0 setlinewidth
[] 0 setdash
0 0 0 setrgbcolor
newpath
15543 15922 moveto
P$1g
15660 15922 moveto
P$1i
15795 15502 moveto
P$1j
fill
0 setlinewidth
[] 0 setdash
0 0 0 setrgbcolor
newpath
16285 16260 moveto
P$1k
fill
0 setlinewidth
[] 0 setdash
0 0 0 setrgbcolor
newpath
17385 15658 moveto
P$2i
fill
0 setlinewidth
[] 0 setdash
0 0 0 setrgbcolor
newpath
17585 15658 moveto
P$2i
fill
0 setlinewidth
[] 0 setdash
0 0 0 setrgbcolor
newpath
17740 16058 moveto
P$1a
fill
0 setlinewidth
[] 0 setdash
0 0 0 setrgbcolor
newpath
18946 16043 moveto
P$1c
18571 15858 moveto
P$1d
fill
0 setlinewidth
[] 0 setdash
0 0 0 setrgbcolor
newpath
19625 16177 moveto
P$1n
19615 15921 moveto
P$1o
fill
0 setlinewidth
[] 0 setdash
0 0 0 setrgbcolor
newpath
19884 16260 moveto
P$25
fill
0 setlinewidth
[] 0 setdash
0 0 0 setrgbcolor
newpath
20725 16013 moveto
P$1y
fill
0 setlinewidth
[] 0 setdash
0 0 0 setrgbcolor
newpath
20985 16260 moveto
P$2j
fill
0 setlinewidth
[] 0 setdash
0 0 0 setrgbcolor
newpath
21695 16260 moveto
P$26
21818 15721 moveto
P$27
21818 16151 moveto
P$28
fill
0 setlinewidth
[] 0 setdash
0 0 0 setrgbcolor
newpath
23028 16260 moveto
P$1v
fill
0 setlinewidth
[] 0 setdash
0 0 0 setrgbcolor
newpath
23535 16158 moveto
P$1b
fill
0 setlinewidth
[] 0 setdash
0 0 0 setrgbcolor
newpath
23935 16158 moveto
P$1b
fill
0 setlinewidth
[] 0 setdash
0 0 0 setrgbcolor
newpath
24043 15922 moveto
P$1g
24160 15922 moveto
P$1h
fill
0 setlinewidth
[] 0 setdash
0 0 0 setrgbcolor
newpath
24785 16260 moveto
P$1k
fill
0 setlinewidth
[] 0 setdash
0 0 0 setrgbcolor
newpath
25485 15658 moveto
P$2i
fill
0 setlinewidth
[] 0 setdash
0 0 0 setrgbcolor
newpath
25685 15658 moveto
P$2i
fill
0 setlinewidth
[] 0 setdash
0 0 0 setrgbcolor
newpath
25915 16260 moveto
P$2a
fill
0 setlinewidth
[] 0 setdash
0 0 0 setrgbcolor
newpath
1240 17694 moveto
P$1a
fill
0 setlinewidth
[] 0 setdash
0 0 0 setrgbcolor
newpath
2446 17678 moveto
P$1c
2071 17494 moveto
P$1d
fill
0 setlinewidth
[] 0 setdash
0 0 0 setrgbcolor
newpath
3085 18153 moveto
P$1l
3189 17562 moveto
P$1m
fill
0 setlinewidth
[] 0 setdash
0 0 0 setrgbcolor
newpath
4225 17812 moveto
P$1n
4215 17556 moveto
P$1o
fill
0 setlinewidth
[] 0 setdash
0 0 0 setrgbcolor
newpath
4484 17895 moveto
P$1p
5325 17812 moveto
P$1n
5315 17556 moveto
P$1o
fill
0 setlinewidth
[] 0 setdash
0 0 0 setrgbcolor
newpath
5584 17895 moveto
P$1p
6425 17812 moveto
P$1n
6415 17556 moveto
P$1q
6193 17137 moveto
P$1j
fill
0 setlinewidth
[] 0 setdash
0 0 0 setrgbcolor
newpath
7082 17895 moveto
P$1r
fill
0 setlinewidth
[] 0 setdash
0 0 0 setrgbcolor
newpath
7825 17812 moveto
P$1n
7815 17556 moveto
P$1o
fill
0 setlinewidth
[] 0 setdash
0 0 0 setrgbcolor
newpath
8590 17895 moveto
P$1e
8589 17553 moveto
P$1f
fill
0 setlinewidth
[] 0 setdash
0 0 0 setrgbcolor
newpath
9628 17895 moveto
P$1s
9387 17137 moveto
P$1j
fill
0 setlinewidth
[] 0 setdash
0 0 0 setrgbcolor
newpath
9840 17694 moveto
P$1a
fill
0 setlinewidth
[] 0 setdash
0 0 0 setrgbcolor
newpath
11015 18153 moveto
P$1t
10662 17556 moveto
P$1u
fill
0 setlinewidth
[] 0 setdash
0 0 0 setrgbcolor
newpath
11728 17895 moveto
P$1v
fill
0 setlinewidth
[] 0 setdash
0 0 0 setrgbcolor
newpath
12446 17678 moveto
P$1c
12071 17494 moveto
P$1d
fill
0 setlinewidth
[] 0 setdash
0 0 0 setrgbcolor
newpath
13123 17895 moveto
P$1w
12762 17559 moveto
P$1x
fill
0 setlinewidth
[] 0 setdash
0 0 0 setrgbcolor
newpath
13825 17812 moveto
P$1n
13815 17556 moveto
P$1o
fill
0 setlinewidth
[] 0 setdash
0 0 0 setrgbcolor
newpath
14485 17895 moveto
P$2j
fill
0 setlinewidth
[] 0 setdash
0 0 0 setrgbcolor
newpath
15625 17812 moveto
P$1n
15615 17556 moveto
P$1o
fill
0 setlinewidth
[] 0 setdash
0 0 0 setrgbcolor
newpath
15840 17694 moveto
P$1a
fill
0 setlinewidth
[] 0 setdash
0 0 0 setrgbcolor
newpath
16835 17794 moveto
P$1b
fill
0 setlinewidth
[] 0 setdash
0 0 0 setrgbcolor
newpath
17425 17812 moveto
P$1n
17415 17556 moveto
P$1o
fill
0 setlinewidth
[] 0 setdash
0 0 0 setrgbcolor
newpath
18515 18153 moveto
P$1t
18162 17556 moveto
P$1u
fill
0 setlinewidth
[] 0 setdash
0 0 0 setrgbcolor
newpath
19228 17895 moveto
P$1v
fill
0 setlinewidth
[] 0 setdash
0 0 0 setrgbcolor
newpath
19946 17678 moveto
P$1c
19571 17494 moveto
P$1d
fill
0 setlinewidth
[] 0 setdash
0 0 0 setrgbcolor
newpath
21046 17678 moveto
P$1c
20671 17494 moveto
P$1d
fill
0 setlinewidth
[] 0 setdash
0 0 0 setrgbcolor
newpath
21240 17694 moveto
P$1a
fill
0 setlinewidth
[] 0 setdash
0 0 0 setrgbcolor
newpath
22235 17794 moveto
P$1b
fill
0 setlinewidth
[] 0 setdash
0 0 0 setrgbcolor
newpath
22846 17678 moveto
P$1c
22471 17494 moveto
P$1d
fill
0 setlinewidth
[] 0 setdash
0 0 0 setrgbcolor
newpath
23673 17895 moveto
P$21
24428 17895 moveto
P$1v
fill
0 setlinewidth
[] 0 setdash
0 0 0 setrgbcolor
newpath
25146 17678 moveto
P$1c
24771 17494 moveto
P$1d
fill
0 setlinewidth
[] 0 setdash
0 0 0 setrgbcolor
newpath
25382 17895 moveto
P$1r
fill
0 setlinewidth
[] 0 setdash
0 0 0 setrgbcolor
newpath
25873 17895 moveto
P$21
26625 17812 moveto
P$1n
26615 17556 moveto
P$1q
fill
0 setlinewidth
[] 0 setdash
0 0 0 setrgbcolor
newpath
1725 19447 moveto
P$1n
1715 19191 moveto
P$1o
fill
0 setlinewidth
[] 0 setdash
0 0 0 setrgbcolor
newpath
2385 19788 moveto
P$1l
2489 19197 moveto
P$1m
fill
0 setlinewidth
[] 0 setdash
0 0 0 setrgbcolor
newpath
3528 19530 moveto
P$1v
fill
0 setlinewidth
[] 0 setdash
0 0 0 setrgbcolor
newpath
3782 19530 moveto
P$1r
fill
0 setlinewidth
[] 0 setdash
0 0 0 setrgbcolor
newpath
4040 19329 moveto
P$1a
fill
0 setlinewidth
[] 0 setdash
0 0 0 setrgbcolor
newpath
5225 19447 moveto
P$1n
5215 19191 moveto
P$1o
fill
0 setlinewidth
[] 0 setdash
0 0 0 setrgbcolor
newpath
5484 19530 moveto
P$1p
5840 19329 moveto
P$1a
fill
0 setlinewidth
[] 0 setdash
0 0 0 setrgbcolor
newpath
7046 19313 moveto
P$1c
6671 19129 moveto
P$1z
fill
1 1 0.87 setrgbcolor
newpath
600 21316 moveto
600 30492 lineto
31300 30492 lineto
31300 26304 lineto
35200 26807 lineto
31300 25504 lineto
31300 22316 lineto
30300 21316 lineto
600 21316 lineto
closepath eofill
50 setlinewidth
0.09 0.09 0.09 setrgbcolor
newpath
600 21316 moveto
600 30492 lineto
31300 30492 lineto
31300 26304 lineto
35200 26807 lineto
31300 25504 lineto
31300 22316 lineto
30300 21316 lineto
600 21316 lineto
stroke
1 1 0.87 setrgbcolor
newpath
30300 21316 moveto
30300 22316 lineto
31300 22316 lineto
30300 21316 lineto
closepath eofill
50 setlinewidth
0.09 0.09 0.09 setrgbcolor
newpath
30300 21316 moveto
30300 22316 lineto
31300 22316 lineto
30300 21316 lineto
stroke
0 setlinewidth
[] 0 setdash
0 0 0 setrgbcolor
newpath
1257 22867 moveto
P$2k
fill
0 setlinewidth
[] 0 setdash
0 0 0 setrgbcolor
newpath
2185 22367 moveto
P$22
2185 23165 moveto
P$23
fill
0 setlinewidth
[] 0 setdash
0 0 0 setrgbcolor
newpath
2946 22948 moveto
P$1c
2571 22764 moveto
P$1d
fill
0 setlinewidth
[] 0 setdash
0 0 0 setrgbcolor
newpath
3185 23165 moveto
P$2l
fill
0 setlinewidth
[] 0 setdash
0 0 0 setrgbcolor
newpath
4285 23423 moveto
P$1l
4389 22833 moveto
P$1m
fill
0 setlinewidth
[] 0 setdash
0 0 0 setrgbcolor
newpath
4984 23165 moveto
P$1p
5846 22948 moveto
P$1c
5471 22764 moveto
P$1d
fill
0 setlinewidth
[] 0 setdash
0 0 0 setrgbcolor
newpath
6915 23423 moveto
P$1t
6562 22826 moveto
P$1u
fill
0 setlinewidth
[] 0 setdash
0 0 0 setrgbcolor
newpath
7628 23165 moveto
P$1v
fill
0 setlinewidth
[] 0 setdash
0 0 0 setrgbcolor
newpath
8346 22948 moveto
P$1c
7971 22764 moveto
P$1d
fill
0 setlinewidth
[] 0 setdash
0 0 0 setrgbcolor
newpath
8985 23165 moveto
P$2j
fill
0 setlinewidth
[] 0 setdash
0 0 0 setrgbcolor
newpath
10125 23083 moveto
P$1n
10115 22826 moveto
P$1o
fill
0 setlinewidth
[] 0 setdash
0 0 0 setrgbcolor
newpath
10381 23425 moveto
P$20
fill
0 setlinewidth
[] 0 setdash
0 0 0 setrgbcolor
newpath
11525 23083 moveto
P$1n
11515 22826 moveto
P$1o
fill
0 setlinewidth
[] 0 setdash
0 0 0 setrgbcolor
newpath
12185 23423 moveto
P$1l
12289 22833 moveto
P$1m
fill
0 setlinewidth
[] 0 setdash
0 0 0 setrgbcolor
newpath
13325 23083 moveto
P$1n
13315 22826 moveto
P$1o
fill
0 setlinewidth
[] 0 setdash
0 0 0 setrgbcolor
newpath
14015 23423 moveto
P$1t
13662 22826 moveto
P$1u
fill
0 setlinewidth
[] 0 setdash
0 0 0 setrgbcolor
newpath
14728 23165 moveto
P$1v
fill
0 setlinewidth
[] 0 setdash
0 0 0 setrgbcolor
newpath
15446 22948 moveto
P$1c
15071 22764 moveto
P$1d
fill
0 setlinewidth
[] 0 setdash
0 0 0 setrgbcolor
newpath
15935 23064 moveto
P$1b
fill
0 setlinewidth
[] 0 setdash
0 0 0 setrgbcolor
newpath
16546 22948 moveto
P$1c
16171 22764 moveto
P$1d
fill
0 setlinewidth
[] 0 setdash
0 0 0 setrgbcolor
newpath
16740 22964 moveto
P$1a
fill
0 setlinewidth
[] 0 setdash
0 0 0 setrgbcolor
newpath
18346 22948 moveto
P$1c
17971 22764 moveto
P$1d
fill
0 setlinewidth
[] 0 setdash
0 0 0 setrgbcolor
newpath
18585 23165 moveto
P$1k
fill
0 setlinewidth
[] 0 setdash
0 0 0 setrgbcolor
newpath
19682 23165 moveto
P$1r
fill
0 setlinewidth
[] 0 setdash
0 0 0 setrgbcolor
newpath
20425 23083 moveto
P$1n
20415 22826 moveto
P$1o
fill
0 setlinewidth
[] 0 setdash
0 0 0 setrgbcolor
newpath
21082 23165 moveto
P$1r
fill
0 setlinewidth
[] 0 setdash
0 0 0 setrgbcolor
newpath
21385 22367 moveto
P$22
21385 23165 moveto
P$23
fill
0 setlinewidth
[] 0 setdash
0 0 0 setrgbcolor
newpath
21640 22964 moveto
P$1a
fill
0 setlinewidth
[] 0 setdash
0 0 0 setrgbcolor
newpath
22635 23064 moveto
P$1b
fill
0 setlinewidth
[] 0 setdash
0 0 0 setrgbcolor
newpath
23225 23083 moveto
P$1n
23215 22826 moveto
P$1o
fill
0 setlinewidth
[] 0 setdash
0 0 0 setrgbcolor
newpath
23515 23165 moveto
P$2a
fill
0 setlinewidth
[] 0 setdash
0 0 0 setrgbcolor
newpath
1240 24599 moveto
P$1a
fill
0 setlinewidth
[] 0 setdash
0 0 0 setrgbcolor
newpath
2446 24583 moveto
P$1c
2071 24399 moveto
P$1d
fill
0 setlinewidth
[] 0 setdash
0 0 0 setrgbcolor
newpath
3525 24718 moveto
P$1n
3515 24462 moveto
P$1o
fill
0 setlinewidth
[] 0 setdash
0 0 0 setrgbcolor
newpath
3890 24801 moveto
P$1e
3889 24458 moveto
P$1f
fill
0 setlinewidth
[] 0 setdash
0 0 0 setrgbcolor
newpath
4484 24801 moveto
P$25
fill
0 setlinewidth
[] 0 setdash
0 0 0 setrgbcolor
newpath
4885 24002 moveto
P$22
4885 24801 moveto
P$23
fill
0 setlinewidth
[] 0 setdash
0 0 0 setrgbcolor
newpath
5184 24801 moveto
P$1p
6025 24718 moveto
P$1n
6015 24462 moveto
P$1q
5793 24043 moveto
P$1j
fill
0 setlinewidth
[] 0 setdash
0 0 0 setrgbcolor
newpath
7128 24801 moveto
P$1v
fill
0 setlinewidth
[] 0 setdash
0 0 0 setrgbcolor
newpath
7385 24801 moveto
P$1k
fill
0 setlinewidth
[] 0 setdash
0 0 0 setrgbcolor
newpath
8525 24718 moveto
P$1n
8515 24462 moveto
P$1o
fill
0 setlinewidth
[] 0 setdash
0 0 0 setrgbcolor
newpath
9185 24002 moveto
P$22
9185 24801 moveto
P$23
fill
0 setlinewidth
[] 0 setdash
0 0 0 setrgbcolor
newpath
9485 24801 moveto
P$1k
fill
0 setlinewidth
[] 0 setdash
0 0 0 setrgbcolor
newpath
10435 24699 moveto
P$1b
fill
0 setlinewidth
[] 0 setdash
0 0 0 setrgbcolor
newpath
11046 24583 moveto
P$1c
10671 24399 moveto
P$1d
fill
0 setlinewidth
[] 0 setdash
0 0 0 setrgbcolor
newpath
11284 24801 moveto
P$1p
11712 24801 moveto
P$29
12425 24718 moveto
P$1n
12415 24462 moveto
P$1o
fill
0 setlinewidth
[] 0 setdash
0 0 0 setrgbcolor
newpath
12625 24801 moveto
P$24
fill
0 setlinewidth
[] 0 setdash
0 0 0 setrgbcolor
newpath
14223 24801 moveto
P$1w
13862 24465 moveto
P$1x
fill
0 setlinewidth
[] 0 setdash
0 0 0 setrgbcolor
newpath
14946 24583 moveto
P$1c
14571 24399 moveto
P$1d
fill
0 setlinewidth
[] 0 setdash
0 0 0 setrgbcolor
newpath
15585 25058 moveto
P$1l
15689 24468 moveto
P$1m
fill
0 setlinewidth
[] 0 setdash
0 0 0 setrgbcolor
newpath
16284 24801 moveto
P$1p
16643 24463 moveto
P$1g
16760 24463 moveto
P$1h
fill
0 setlinewidth
[] 0 setdash
0 0 0 setrgbcolor
newpath
17635 24699 moveto
P$1b
fill
0 setlinewidth
[] 0 setdash
0 0 0 setrgbcolor
newpath
17743 24463 moveto
P$1g
17860 24463 moveto
P$1h
fill
0 setlinewidth
[] 0 setdash
0 0 0 setrgbcolor
newpath
18925 24554 moveto
P$1y
fill
0 setlinewidth
[] 0 setdash
0 0 0 setrgbcolor
newpath
19143 24463 moveto
P$1g
19260 24463 moveto
P$1h
fill
0 setlinewidth
[] 0 setdash
0 0 0 setrgbcolor
newpath
19882 24801 moveto
P$1r
fill
0 setlinewidth
[] 0 setdash
0 0 0 setrgbcolor
newpath
20143 24463 moveto
P$1g
20260 24463 moveto
P$1h
fill
0 setlinewidth
[] 0 setdash
0 0 0 setrgbcolor
newpath
20840 24599 moveto
P$2m
fill
0 setlinewidth
[] 0 setdash
0 0 0 setrgbcolor
newpath
1725 26189 moveto
P$1y
fill
0 setlinewidth
[] 0 setdash
0 0 0 setrgbcolor
newpath
1943 26098 moveto
P$1g
2060 26098 moveto
P$1h
fill
0 setlinewidth
[] 0 setdash
0 0 0 setrgbcolor
newpath
2685 26436 moveto
P$2l
fill
0 setlinewidth
[] 0 setdash
0 0 0 setrgbcolor
newpath
3743 26098 moveto
P$1g
3860 26098 moveto
P$1h
fill
0 setlinewidth
[] 0 setdash
0 0 0 setrgbcolor
newpath
4882 26436 moveto
P$1r
fill
0 setlinewidth
[] 0 setdash
0 0 0 setrgbcolor
newpath
5625 26353 moveto
P$1n
5615 26097 moveto
P$1o
fill
0 setlinewidth
[] 0 setdash
0 0 0 setrgbcolor
newpath
6725 26353 moveto
P$1n
6715 26097 moveto
P$1o
fill
0 setlinewidth
[] 0 setdash
0 0 0 setrgbcolor
newpath
6985 26436 moveto
P$1k
fill
0 setlinewidth
[] 0 setdash
0 0 0 setrgbcolor
newpath
7935 26334 moveto
P$1b
fill
0 setlinewidth
[] 0 setdash
0 0 0 setrgbcolor
newpath
8546 26219 moveto
P$1c
8171 26034 moveto
P$1d
fill
0 setlinewidth
[] 0 setdash
0 0 0 setrgbcolor
newpath
8784 26436 moveto
P$25
fill
0 setlinewidth
[] 0 setdash
0 0 0 setrgbcolor
newpath
9185 25637 moveto
P$22
9185 26436 moveto
P$23
fill
0 setlinewidth
[] 0 setdash
0 0 0 setrgbcolor
newpath
9443 26098 moveto
P$1g
9560 26098 moveto
P$1h
fill
0 setlinewidth
[] 0 setdash
0 0 0 setrgbcolor
newpath
10184 26436 moveto
P$25
fill
0 setlinewidth
[] 0 setdash
0 0 0 setrgbcolor
newpath
10585 26436 moveto
P$2l
fill
0 setlinewidth
[] 0 setdash
0 0 0 setrgbcolor
newpath
12146 26219 moveto
P$1c
11771 26034 moveto
P$1d
fill
0 setlinewidth
[] 0 setdash
0 0 0 setrgbcolor
newpath
12385 26436 moveto
P$1k
fill
0 setlinewidth
[] 0 setdash
0 0 0 setrgbcolor
newpath
13335 26334 moveto
P$1b
fill
0 setlinewidth
[] 0 setdash
0 0 0 setrgbcolor
newpath
13946 26219 moveto
P$1c
13571 26034 moveto
P$1d
fill
0 setlinewidth
[] 0 setdash
0 0 0 setrgbcolor
newpath
14585 26436 moveto
P$2l
fill
0 setlinewidth
[] 0 setdash
0 0 0 setrgbcolor
newpath
16146 26219 moveto
P$1c
15771 26034 moveto
P$1d
fill
0 setlinewidth
[] 0 setdash
0 0 0 setrgbcolor
newpath
16385 26436 moveto
P$1k
fill
0 setlinewidth
[] 0 setdash
0 0 0 setrgbcolor
newpath
17525 26189 moveto
P$1y
fill
0 setlinewidth
[] 0 setdash
0 0 0 setrgbcolor
newpath
17785 25637 moveto
P$22
17785 26436 moveto
P$23
fill
0 setlinewidth
[] 0 setdash
0 0 0 setrgbcolor
newpath
18043 26098 moveto
P$1g
18160 26098 moveto
P$1h
fill
0 setlinewidth
[] 0 setdash
0 0 0 setrgbcolor
newpath
18785 26436 moveto
P$1k
fill
0 setlinewidth
[] 0 setdash
0 0 0 setrgbcolor
newpath
19925 26353 moveto
P$1n
19915 26097 moveto
P$1o
fill
0 setlinewidth
[] 0 setdash
0 0 0 setrgbcolor
newpath
20623 26436 moveto
P$1w
20262 26100 moveto
P$1x
fill
0 setlinewidth
[] 0 setdash
0 0 0 setrgbcolor
newpath
21325 26353 moveto
P$1n
21315 26097 moveto
P$1q
fill
0 setlinewidth
[] 0 setdash
0 0 0 setrgbcolor
newpath
1746 27854 moveto
P$1c
1371 27669 moveto
P$1d
fill
0 setlinewidth
[] 0 setdash
0 0 0 setrgbcolor
newpath
1985 28071 moveto
P$1k
fill
0 setlinewidth
[] 0 setdash
0 0 0 setrgbcolor
newpath
3085 28071 moveto
P$2l
fill
0 setlinewidth
[] 0 setdash
0 0 0 setrgbcolor
newpath
4143 27733 moveto
P$1g
4260 27733 moveto
P$1h
fill
0 setlinewidth
[] 0 setdash
0 0 0 setrgbcolor
newpath
5323 28071 moveto
P$1w
4962 27735 moveto
P$1x
fill
0 setlinewidth
[] 0 setdash
0 0 0 setrgbcolor
newpath
5543 27733 moveto
P$1g
5660 27733 moveto
P$1h
fill
0 setlinewidth
[] 0 setdash
0 0 0 setrgbcolor
newpath
6640 27869 moveto
P$1a
fill
0 setlinewidth
[] 0 setdash
0 0 0 setrgbcolor
newpath
7343 27733 moveto
P$1g
7460 27733 moveto
P$1h
fill
0 setlinewidth
[] 0 setdash
0 0 0 setrgbcolor
newpath
8082 28071 moveto
P$1r
fill
0 setlinewidth
[] 0 setdash
0 0 0 setrgbcolor
newpath
8343 27733 moveto
P$1g
8460 27733 moveto
P$1h
fill
0 setlinewidth
[] 0 setdash
0 0 0 setrgbcolor
newpath
9482 28071 moveto
P$1r
fill
0 setlinewidth
[] 0 setdash
0 0 0 setrgbcolor
newpath
10246 27854 moveto
P$1c
9871 27669 moveto
P$1d
fill
0 setlinewidth
[] 0 setdash
0 0 0 setrgbcolor
newpath
10925 27824 moveto
P$1y
fill
0 setlinewidth
[] 0 setdash
0 0 0 setrgbcolor
newpath
11435 27969 moveto
P$1b
fill
0 setlinewidth
[] 0 setdash
0 0 0 setrgbcolor
newpath
12028 28071 moveto
P$1v
fill
0 setlinewidth
[] 0 setdash
0 0 0 setrgbcolor
newpath
12284 28071 moveto
P$1p
13125 27988 moveto
P$1n
13115 27732 moveto
P$1o
fill
0 setlinewidth
[] 0 setdash
0 0 0 setrgbcolor
newpath
14215 28329 moveto
P$1t
13862 27732 moveto
P$1u
fill
0 setlinewidth
[] 0 setdash
0 0 0 setrgbcolor
newpath
14928 28071 moveto
P$1v
fill
0 setlinewidth
[] 0 setdash
0 0 0 setrgbcolor
newpath
15646 27854 moveto
P$1c
15271 27669 moveto
P$1d
fill
0 setlinewidth
[] 0 setdash
0 0 0 setrgbcolor
newpath
16285 28329 moveto
P$1l
16389 27738 moveto
P$1m
fill
0 setlinewidth
[] 0 setdash
0 0 0 setrgbcolor
newpath
17446 27854 moveto
P$1c
17071 27669 moveto
P$1d
fill
0 setlinewidth
[] 0 setdash
0 0 0 setrgbcolor
newpath
17684 28071 moveto
P$25
fill
0 setlinewidth
[] 0 setdash
0 0 0 setrgbcolor
newpath
18085 28071 moveto
P$2l
fill
0 setlinewidth
[] 0 setdash
0 0 0 setrgbcolor
newpath
19185 27272 moveto
P$22
19185 28071 moveto
P$23
fill
0 setlinewidth
[] 0 setdash
0 0 0 setrgbcolor
newpath
19735 27969 moveto
P$1b
fill
0 setlinewidth
[] 0 setdash
0 0 0 setrgbcolor
newpath
19885 27272 moveto
P$22
19885 28071 moveto
P$23
fill
0 setlinewidth
[] 0 setdash
0 0 0 setrgbcolor
newpath
20184 28071 moveto
P$1p
21025 27988 moveto
P$1n
21015 27732 moveto
P$1q
20793 27313 moveto
P$2n
fill
0 setlinewidth
[] 0 setdash
0 0 0 setrgbcolor
newpath
1282 29706 moveto
P$1r
fill
0 setlinewidth
[] 0 setdash
0 0 0 setrgbcolor
newpath
2046 29489 moveto
P$1c
1671 29304 moveto
P$1d
fill
0 setlinewidth
[] 0 setdash
0 0 0 setrgbcolor
newpath
2746 29489 moveto
P$1c
2371 29304 moveto
P$1d
fill
0 setlinewidth
[] 0 setdash
0 0 0 setrgbcolor
newpath
2984 29706 moveto
P$25
fill
0 setlinewidth
[] 0 setdash
0 0 0 setrgbcolor
newpath
4035 29604 moveto
P$1b
fill
0 setlinewidth
[] 0 setdash
0 0 0 setrgbcolor
newpath
4143 29369 moveto
P$1g
4260 29369 moveto
P$1h
fill
0 setlinewidth
[] 0 setdash
0 0 0 setrgbcolor
newpath
5323 29706 moveto
P$1w
4962 29370 moveto
P$1x
fill
0 setlinewidth
[] 0 setdash
0 0 0 setrgbcolor
newpath
5543 29369 moveto
P$1g
5660 29369 moveto
P$1h
fill
0 setlinewidth
[] 0 setdash
0 0 0 setrgbcolor
newpath
6240 29504 moveto
P$1a
fill
0 setlinewidth
[] 0 setdash
0 0 0 setrgbcolor
newpath
7382 29706 moveto
P$1r
fill
0 setlinewidth
[] 0 setdash
0 0 0 setrgbcolor
newpath
7643 29369 moveto
P$1g
7760 29369 moveto
P$1h
fill
0 setlinewidth
[] 0 setdash
0 0 0 setrgbcolor
newpath
8340 29504 moveto
P$1a
fill
0 setlinewidth
[] 0 setdash
0 0 0 setrgbcolor
newpath
9925 29459 moveto
P$1y
fill
0 setlinewidth
[] 0 setdash
0 0 0 setrgbcolor
newpath
10625 29623 moveto
P$1n
10615 29367 moveto
P$1o
fill
0 setlinewidth
[] 0 setdash
0 0 0 setrgbcolor
newpath
10885 29706 moveto
P$2l
fill
0 setlinewidth
[] 0 setdash
0 0 0 setrgbcolor
newpath
11985 29964 moveto
P$1l
12089 29373 moveto
P$1m
fill
0 setlinewidth
[] 0 setdash
0 0 0 setrgbcolor
newpath
12643 29369 moveto
P$1g
12760 29369 moveto
P$1h
fill
0 setlinewidth
[] 0 setdash
0 0 0 setrgbcolor
newpath
13340 29504 moveto
P$1a
fill
0 setlinewidth
[] 0 setdash
0 0 0 setrgbcolor
newpath
14946 29489 moveto
P$1c
14571 29304 moveto
P$1d
fill
0 setlinewidth
[] 0 setdash
0 0 0 setrgbcolor
newpath
15185 29706 moveto
P$1k
fill
0 setlinewidth
[] 0 setdash
0 0 0 setrgbcolor
newpath
16073 29706 moveto
P$21
16385 28908 moveto
P$22
16385 29706 moveto
P$23
fill
0 setlinewidth
[] 0 setdash
0 0 0 setrgbcolor
newpath
17125 29623 moveto
P$1n
17115 29367 moveto
P$1o
fill
0 setlinewidth
[] 0 setdash
0 0 0 setrgbcolor
newpath
17823 29706 moveto
P$1w
17462 29370 moveto
P$1x
fill
0 setlinewidth
[] 0 setdash
0 0 0 setrgbcolor
newpath
18043 29369 moveto
P$1g
18160 29369 moveto
P$1h
fill
0 setlinewidth
[] 0 setdash
0 0 0 setrgbcolor
newpath
18740 29504 moveto
P$1a
fill
0 setlinewidth
[] 0 setdash
0 0 0 setrgbcolor
newpath
19885 29964 moveto
P$1l
19989 29373 moveto
P$1m
fill
0 setlinewidth
[] 0 setdash
0 0 0 setrgbcolor
newpath
21025 29623 moveto
P$1n
21015 29367 moveto
P$1o
fill
0 setlinewidth
[] 0 setdash
0 0 0 setrgbcolor
newpath
21284 29706 moveto
P$1p
22125 29623 moveto
P$1n
22115 29367 moveto
P$1o
fill
0 setlinewidth
[] 0 setdash
0 0 0 setrgbcolor
newpath
23246 29489 moveto
P$1c
22871 29304 moveto
P$1d
fill
0 setlinewidth
[] 0 setdash
0 0 0 setrgbcolor
newpath
23440 29504 moveto
P$1a
fill
0 setlinewidth
[] 0 setdash
0 0 0 setrgbcolor
newpath
24646 29489 moveto
P$1c
24271 29304 moveto
P$1d
fill
0 setlinewidth
[] 0 setdash
0 0 0 setrgbcolor
newpath
25285 29964 moveto
P$1l
25389 29373 moveto
P$1m
fill
0 setlinewidth
[] 0 setdash
0 0 0 setrgbcolor
newpath
26425 29623 moveto
P$1n
26415 29367 moveto
P$1o
fill
0 setlinewidth
[] 0 setdash
0 0 0 setrgbcolor
newpath
27115 29964 moveto
P$1t
26762 29367 moveto
P$1u
fill
0 setlinewidth
[] 0 setdash
0 0 0 setrgbcolor
newpath
27828 29706 moveto
P$1v
fill
0 setlinewidth
[] 0 setdash
0 0 0 setrgbcolor
newpath
28546 29489 moveto
P$1c
28171 29304 moveto
P$1d
fill
0 setlinewidth
[] 0 setdash
0 0 0 setrgbcolor
newpath
29035 29604 moveto
P$1b
fill
0 setlinewidth
[] 0 setdash
0 0 0 setrgbcolor
newpath
29646 29489 moveto
P$1c
29271 29304 moveto
P$1z
fill
1 1 0.87 setrgbcolor
newpath
600 31492 moveto
600 37397 lineto
26900 37397 lineto
26900 34844 lineto
35200 28567 lineto
26900 34044 lineto
26900 32492 lineto
25900 31492 lineto
600 31492 lineto
closepath eofill
50 setlinewidth
0.09 0.09 0.09 setrgbcolor
newpath
600 31492 moveto
600 37397 lineto
26900 37397 lineto
26900 34844 lineto
35200 28567 lineto
26900 34044 lineto
26900 32492 lineto
25900 31492 lineto
600 31492 lineto
stroke
1 1 0.87 setrgbcolor
newpath
25900 31492 moveto
25900 32492 lineto
26900 32492 lineto
25900 31492 lineto
closepath eofill
50 setlinewidth
0.09 0.09 0.09 setrgbcolor
newpath
25900 31492 moveto
25900 32492 lineto
26900 32492 lineto
25900 31492 lineto
stroke
0 setlinewidth
[] 0 setdash
0 0 0 setrgbcolor
newpath
1198 33341 moveto
P$2g
1467 32958 moveto
P$2h
fill
0 setlinewidth
[] 0 setdash
0 0 0 setrgbcolor
newpath
2185 33341 moveto
P$1k
fill
0 setlinewidth
[] 0 setdash
0 0 0 setrgbcolor
newpath
3135 33240 moveto
P$1b
fill
0 setlinewidth
[] 0 setdash
0 0 0 setrgbcolor
newpath
3746 33124 moveto
P$1c
3371 32940 moveto
P$1d
fill
0 setlinewidth
[] 0 setdash
0 0 0 setrgbcolor
newpath
4382 33341 moveto
P$1r
fill
0 setlinewidth
[] 0 setdash
0 0 0 setrgbcolor
newpath
5125 33258 moveto
P$1n
5115 33002 moveto
P$1o
fill
0 setlinewidth
[] 0 setdash
0 0 0 setrgbcolor
newpath
5785 33599 moveto
P$1l
5889 33008 moveto
P$1m
fill
0 setlinewidth
[] 0 setdash
0 0 0 setrgbcolor
newpath
6928 33341 moveto
P$1v
fill
0 setlinewidth
[] 0 setdash
0 0 0 setrgbcolor
newpath
7182 33341 moveto
P$1r
fill
0 setlinewidth
[] 0 setdash
0 0 0 setrgbcolor
newpath
7440 33140 moveto
P$1a
fill
0 setlinewidth
[] 0 setdash
0 0 0 setrgbcolor
newpath
8625 33258 moveto
P$1n
8615 33002 moveto
P$1o
fill
0 setlinewidth
[] 0 setdash
0 0 0 setrgbcolor
newpath
9325 33094 moveto
P$1y
fill
0 setlinewidth
[] 0 setdash
0 0 0 setrgbcolor
newpath
9585 32543 moveto
P$22
9585 33341 moveto
P$23
fill
0 setlinewidth
[] 0 setdash
0 0 0 setrgbcolor
newpath
9843 33004 moveto
P$1g
9960 33004 moveto
P$1i
10095 32583 moveto
P$1j
fill
0 setlinewidth
[] 0 setdash
0 0 0 setrgbcolor
newpath
10585 33341 moveto
P$1k
fill
0 setlinewidth
[] 0 setdash
0 0 0 setrgbcolor
newpath
12123 33341 moveto
P$1w
11762 33005 moveto
P$1x
fill
0 setlinewidth
[] 0 setdash
0 0 0 setrgbcolor
newpath
12846 33124 moveto
P$1c
12471 32940 moveto
P$1d
fill
0 setlinewidth
[] 0 setdash
0 0 0 setrgbcolor
newpath
13082 33341 moveto
P$1r
fill
0 setlinewidth
[] 0 setdash
0 0 0 setrgbcolor
newpath
13890 33341 moveto
P$1e
13889 32999 moveto
P$1f
fill
0 setlinewidth
[] 0 setdash
0 0 0 setrgbcolor
newpath
14443 33004 moveto
P$1g
14560 33004 moveto
P$1h
fill
0 setlinewidth
[] 0 setdash
0 0 0 setrgbcolor
newpath
15435 33240 moveto
P$1b
fill
0 setlinewidth
[] 0 setdash
0 0 0 setrgbcolor
newpath
15543 33004 moveto
P$1g
15660 33004 moveto
P$1i
15795 32583 moveto
P$1j
fill
0 setlinewidth
[] 0 setdash
0 0 0 setrgbcolor
newpath
16285 33341 moveto
P$1k
fill
0 setlinewidth
[] 0 setdash
0 0 0 setrgbcolor
newpath
17385 32740 moveto
P$2i
fill
0 setlinewidth
[] 0 setdash
0 0 0 setrgbcolor
newpath
17585 32740 moveto
P$2i
fill
0 setlinewidth
[] 0 setdash
0 0 0 setrgbcolor
newpath
18225 33094 moveto
P$1y
fill
0 setlinewidth
[] 0 setdash
0 0 0 setrgbcolor
newpath
18482 33341 moveto
P$1r
fill
0 setlinewidth
[] 0 setdash
0 0 0 setrgbcolor
newpath
19246 33124 moveto
P$1c
18871 32940 moveto
P$1d
fill
0 setlinewidth
[] 0 setdash
0 0 0 setrgbcolor
newpath
19925 33258 moveto
P$1n
19915 33002 moveto
P$1o
fill
0 setlinewidth
[] 0 setdash
0 0 0 setrgbcolor
newpath
20185 33341 moveto
P$1k
fill
0 setlinewidth
[] 0 setdash
0 0 0 setrgbcolor
newpath
20895 33341 moveto
P$26
21018 32802 moveto
P$27
21018 33232 moveto
P$28
fill
0 setlinewidth
[] 0 setdash
0 0 0 setrgbcolor
newpath
22228 33341 moveto
P$1v
fill
0 setlinewidth
[] 0 setdash
0 0 0 setrgbcolor
newpath
22735 33240 moveto
P$1b
fill
0 setlinewidth
[] 0 setdash
0 0 0 setrgbcolor
newpath
23135 33240 moveto
P$1b
fill
0 setlinewidth
[] 0 setdash
0 0 0 setrgbcolor
newpath
23243 33004 moveto
P$1g
23360 33004 moveto
P$1h
fill
0 setlinewidth
[] 0 setdash
0 0 0 setrgbcolor
newpath
23985 33341 moveto
P$1k
fill
0 setlinewidth
[] 0 setdash
0 0 0 setrgbcolor
newpath
24685 32740 moveto
P$2i
fill
0 setlinewidth
[] 0 setdash
0 0 0 setrgbcolor
newpath
24885 32740 moveto
P$2i
fill
0 setlinewidth
[] 0 setdash
0 0 0 setrgbcolor
newpath
25115 33341 moveto
P$2a
fill
0 setlinewidth
[] 0 setdash
0 0 0 setrgbcolor
newpath
1282 34976 moveto
P$1r
fill
0 setlinewidth
[] 0 setdash
0 0 0 setrgbcolor
newpath
2025 34894 moveto
P$1n
2015 34637 moveto
P$1o
fill
0 setlinewidth
[] 0 setdash
0 0 0 setrgbcolor
newpath
2685 34178 moveto
P$22
2685 34976 moveto
P$23
fill
0 setlinewidth
[] 0 setdash
0 0 0 setrgbcolor
newpath
2985 34976 moveto
P$1k
fill
0 setlinewidth
[] 0 setdash
0 0 0 setrgbcolor
newpath
3935 34875 moveto
P$1b
fill
0 setlinewidth
[] 0 setdash
0 0 0 setrgbcolor
newpath
4546 34759 moveto
P$1c
4171 34575 moveto
P$1d
fill
0 setlinewidth
[] 0 setdash
0 0 0 setrgbcolor
newpath
4784 34976 moveto
P$1p
5212 34976 moveto
P$29
5925 34894 moveto
P$1n
5915 34637 moveto
P$1o
fill
0 setlinewidth
[] 0 setdash
0 0 0 setrgbcolor
newpath
6125 34976 moveto
P$24
fill
0 setlinewidth
[] 0 setdash
0 0 0 setrgbcolor
newpath
7390 34976 moveto
P$1e
7389 34634 moveto
P$1f
fill
0 setlinewidth
[] 0 setdash
0 0 0 setrgbcolor
newpath
7943 34639 moveto
P$1g
8060 34639 moveto
P$1h
fill
0 setlinewidth
[] 0 setdash
0 0 0 setrgbcolor
newpath
8684 34976 moveto
P$25
fill
0 setlinewidth
[] 0 setdash
0 0 0 setrgbcolor
newpath
9084 34976 moveto
P$1p
9925 34894 moveto
P$1n
9915 34637 moveto
P$1o
fill
0 setlinewidth
[] 0 setdash
0 0 0 setrgbcolor
newpath
10184 34976 moveto
P$1p
11025 34894 moveto
P$1n
11015 34637 moveto
P$1q
10793 34219 moveto
P$1j
fill
0 setlinewidth
[] 0 setdash
0 0 0 setrgbcolor
newpath
12123 34976 moveto
P$1w
11762 34640 moveto
P$1x
fill
0 setlinewidth
[] 0 setdash
0 0 0 setrgbcolor
newpath
12846 34759 moveto
P$1c
12471 34575 moveto
P$1d
fill
0 setlinewidth
[] 0 setdash
0 0 0 setrgbcolor
newpath
13482 34976 moveto
P$1r
fill
0 setlinewidth
[] 0 setdash
0 0 0 setrgbcolor
newpath
14225 34894 moveto
P$1n
14215 34637 moveto
P$1o
fill
0 setlinewidth
[] 0 setdash
0 0 0 setrgbcolor
newpath
14882 34976 moveto
P$1r
fill
0 setlinewidth
[] 0 setdash
0 0 0 setrgbcolor
newpath
15185 34178 moveto
P$22
15185 34976 moveto
P$23
fill
0 setlinewidth
[] 0 setdash
0 0 0 setrgbcolor
newpath
15440 34775 moveto
P$1a
fill
0 setlinewidth
[] 0 setdash
0 0 0 setrgbcolor
newpath
16435 34875 moveto
P$1b
fill
0 setlinewidth
[] 0 setdash
0 0 0 setrgbcolor
newpath
17025 34894 moveto
P$1n
17015 34637 moveto
P$1o
fill
0 setlinewidth
[] 0 setdash
0 0 0 setrgbcolor
newpath
17685 34375 moveto
P$2i
fill
0 setlinewidth
[] 0 setdash
0 0 0 setrgbcolor
newpath
17885 34375 moveto
P$2i
fill
0 setlinewidth
[] 0 setdash
0 0 0 setrgbcolor
newpath
18085 35234 moveto
P$1l
18189 34644 moveto
P$1m
fill
0 setlinewidth
[] 0 setdash
0 0 0 setrgbcolor
newpath
19225 34894 moveto
P$1n
19215 34637 moveto
P$1o
fill
0 setlinewidth
[] 0 setdash
0 0 0 setrgbcolor
newpath
19925 34729 moveto
P$1y
fill
0 setlinewidth
[] 0 setdash
0 0 0 setrgbcolor
newpath
20185 34976 moveto
P$2d
fill
0 setlinewidth
[] 0 setdash
0 0 0 setrgbcolor
newpath
21325 34894 moveto
P$1n
21315 34637 moveto
P$1o
fill
0 setlinewidth
[] 0 setdash
0 0 0 setrgbcolor
newpath
21564 35033 moveto
P$2b
21659 34628 moveto
P$2c
fill
0 setlinewidth
[] 0 setdash
0 0 0 setrgbcolor
newpath
22746 34759 moveto
P$1c
22371 34575 moveto
P$1d
fill
0 setlinewidth
[] 0 setdash
0 0 0 setrgbcolor
newpath
22995 34976 moveto
P$2e
fill
0 setlinewidth
[] 0 setdash
0 0 0 setrgbcolor
newpath
23685 34178 moveto
P$22
23685 34976 moveto
P$23
fill
0 setlinewidth
[] 0 setdash
0 0 0 setrgbcolor
newpath
23940 34775 moveto
P$1a
fill
0 setlinewidth
[] 0 setdash
0 0 0 setrgbcolor
newpath
24935 34875 moveto
P$1b
fill
0 setlinewidth
[] 0 setdash
0 0 0 setrgbcolor
newpath
25085 34375 moveto
P$2i
fill
0 setlinewidth
[] 0 setdash
0 0 0 setrgbcolor
newpath
25285 34375 moveto
P$2o
fill
0 setlinewidth
[] 0 setdash
0 0 0 setrgbcolor
newpath
1282 36612 moveto
P$1r
fill
0 setlinewidth
[] 0 setdash
0 0 0 setrgbcolor
newpath
1543 36274 moveto
P$1g
1660 36274 moveto
P$1h
fill
0 setlinewidth
[] 0 setdash
0 0 0 setrgbcolor
newpath
2240 36410 moveto
P$1a
fill
0 setlinewidth
[] 0 setdash
0 0 0 setrgbcolor
newpath
3825 36529 moveto
P$1n
3815 36272 moveto
P$1o
fill
0 setlinewidth
[] 0 setdash
0 0 0 setrgbcolor
newpath
4084 36612 moveto
P$25
fill
0 setlinewidth
[] 0 setdash
0 0 0 setrgbcolor
newpath
4925 36365 moveto
P$1y
fill
0 setlinewidth
[] 0 setdash
0 0 0 setrgbcolor
newpath
5185 36612 moveto
P$2j
fill
0 setlinewidth
[] 0 setdash
0 0 0 setrgbcolor
newpath
5885 35813 moveto
P$22
5885 36612 moveto
P$23
fill
0 setlinewidth
[] 0 setdash
0 0 0 setrgbcolor
newpath
6373 36612 moveto
P$21
6643 36274 moveto
P$1g
6760 36274 moveto
P$1h
fill
0 setlinewidth
[] 0 setdash
0 0 0 setrgbcolor
newpath
7340 36410 moveto
P$2m
fill
grestore
showpage
%plantuml done
%%EOF
