%!PS-Adobe-3.0 EPSF-3.0
%%Creator: PlantUML v1.2022.5       
%%Title: noTitle
%%BoundingBox: 0 0 687 411
%%ColorUsage: Color
%%Origin: 0 0
%%EndComments

gsave
0 411 translate
.01 -.01 scale
/simplerect {
newpath moveto 1 index 0 rlineto
0 exch rlineto
neg 0 rlineto
} def
/roundrect {
newpath
dup 3 index add 2 index 2 index add 2 index 180 270 arc
2 index 5 index add 1 index sub 2 index 2 index add 2 index 270 0 arc
2 index 5 index add 1 index sub 2 index 5 index add 2 index sub 2 index 0 90 arc
dup 3 index add 2 index 5 index add 2 index sub 2 index 90 180 arc
pop pop pop pop pop 
} def
/rquadto {
3 index 3 index 4 2 roll rcurveto
} def
/P$30 {
84 -178 rlineto
150 0 rlineto
-139 178 rlineto
-95 0 rlineto
closepath
} def
/P$8 {
0 140 56 207 rquadto
57 67 139 67 rquadto
81 0 139 -68 rquadto
59 -70 59 -215 rquadto
0 -139 -57 -207 rquadto
-56 -68 -135 -68 rquadto
-78 0 -139 73 rquadto
-60 73 -60 212 rquadto
} def
/P$a {
0 -201 112 -300 rquadto
92 -79 228 -79 rquadto
148 0 243 98 rquadto
95 96 95 270 rquadto
0 140 -42 221 rquadto
-42 79 -123 125 rquadto
-79 43 -173 43 rquadto
-153 0 -246 -98 rquadto
-93 -98 -93 -281 rquadto
closepath
} def
/P$1e {
112 -17 rlineto
9 67 53 104 rquadto
43 35 121 35 rquadto
78 0 115 -31 rquadto
39 -32 39 -76 rquadto
0 -39 -34 -60 rquadto
-23 -15 -117 -39 rquadto
-125 -31 -173 -54 rquadto
-48 -23 -73 -64 rquadto
-25 -40 -25 -90 rquadto
0 -45 20 -82 rquadto
20 -39 56 -64 rquadto
26 -20 71 -32 rquadto
46 -14 100 -14 rquadto
78 0 137 23 rquadto
60 21 89 60 rquadto
29 39 40 104 rquadto
-112 15 rlineto
-7 -53 -43 -81 rquadto
-35 -29 -103 -29 rquadto
-78 0 -112 26 rquadto
-34 25 -34 60 rquadto
0 21 14 39 rquadto
14 18 43 31 rquadto
17 6 101 28 rquadto
121 32 168 53 rquadto
48 20 75 60 rquadto
28 39 28 96 rquadto
0 57 -34 107 rquadto
-32 50 -95 78 rquadto
-62 28 -142 28 rquadto
-131 0 -200 -54 rquadto
-68 -54 -87 -162 rquadto
} def
/P$2q {
-82 0 rlineto
190 -304 190 -609 rquadto
0 -120 -28 -237 rquadto
-20 -95 -59 -182 rquadto
-25 -56 -103 -190 rquadto
82 0 rlineto
118 159 176 320 rquadto
48 139 48 289 rquadto
0 171 -65 332 rquadto
-65 159 -159 278 rquadto
closepath
} def
/P$1z {
0 -931 rlineto
351 0 rlineto
92 0 140 9 rquadto
68 10 115 43 rquadto
46 31 75 89 rquadto
28 57 28 128 rquadto
0 118 -76 201 rquadto
-75 81 -271 81 rquadto
-239 0 rlineto
0 378 rlineto
-123 0 rlineto
closepath
} def
/P$2c {
123 31 rlineto
-39 151 -140 231 rquadto
-100 79 -245 79 rquadto
-150 0 -245 -60 rquadto
-93 -60 -143 -176 rquadto
-48 -117 -48 -250 rquadto
0 -145 56 -253 rquadto
56 -109 157 -165 rquadto
103 -56 226 -56 rquadto
139 0 234 71 rquadto
95 70 132 200 rquadto
-121 28 rlineto
-32 -101 -93 -146 rquadto
-60 -46 -154 -46 rquadto
-107 0 -179 51 rquadto
-71 51 -101 137 rquadto
-28 85 -28 178 rquadto
0 118 34 207 rquadto
34 89 106 132 rquadto
73 43 159 43 rquadto
103 0 175 -59 rquadto
71 -60 96 -178 rquadto
} def
/P$29 {
240 0 rlineto
118 0 168 -43 rquadto
51 -45 51 -126 rquadto
0 -57 -29 -98 rquadto
-29 -42 -78 -56 rquadto
-31 -7 -115 -7 rquadto
-237 0 rlineto
0 332 rlineto
closepath
} def
/P$1c {
0 -89 rlineto
815 0 rlineto
0 89 rlineto
-815 0 rlineto
} def
/P$1s {
84 -178 rlineto
150 0 rlineto
-139 178 rlineto
-95 0 rlineto
} def
/P$2e {
0 -129 rlineto
129 0 rlineto
0 129 rlineto
0 71 -25 115 rquadto
-25 43 -81 68 rquadto
-31 -48 rlineto
35 -17 53 -48 rquadto
17 -29 18 -87 rquadto
-64 0 rlineto
} def
/P$r {
0 -726 rlineto
121 0 rlineto
0 726 rlineto
-121 0 rlineto
} def
/P$2k {
-106 0 rlineto
0 -931 rlineto
115 0 rlineto
0 332 rlineto
71 -90 184 -90 rquadto
62 0 117 25 rquadto
56 25 92 70 rquadto
35 45 56 109 rquadto
20 64 20 137 rquadto
0 173 -85 268 rquadto
-85 93 -206 93 rquadto
-118 0 -187 -100 rquadto
0 84 rlineto
closepath
} def
/P$5 {
0 -629 rlineto
-109 0 rlineto
0 -96 rlineto
109 0 rlineto
0 -76 rlineto
0 -73 12 -109 rquadto
18 -46 62 -76 rquadto
45 -29 126 -29 rquadto
51 0 114 12 rquadto
-18 106 rlineto
-37 -6 -71 -6 rquadto
-56 0 -79 23 rquadto
-23 23 -23 89 rquadto
0 67 rlineto
142 0 rlineto
0 96 rlineto
-142 0 rlineto
0 629 rlineto
-121 0 rlineto
closepath
} def
/P$1p {
0 129 56 195 rquadto
56 64 142 64 rquadto
84 0 140 -64 rquadto
57 -65 57 -198 rquadto
0 -125 -57 -189 rquadto
-56 -65 -140 -65 rquadto
-85 0 -142 64 rquadto
-56 64 -56 193 rquadto
} def
/P$2d {
0 -585 rlineto
-100 0 rlineto
0 -87 rlineto
100 0 rlineto
0 -71 rlineto
0 -68 12 -101 rquadto
17 -43 57 -71 rquadto
42 -28 117 -28 rquadto
48 0 106 12 rquadto
-17 98 rlineto
-35 -6 -67 -6 rquadto
-51 0 -73 23 rquadto
-21 21 -21 82 rquadto
0 62 rlineto
131 0 rlineto
0 87 rlineto
-131 0 rlineto
0 585 rlineto
-114 0 rlineto
closepath
} def
/P$7 {
0 -1004 rlineto
112 0 rlineto
0 95 rlineto
39 -56 89 -82 rquadto
50 -28 121 -28 rquadto
92 0 162 48 rquadto
71 46 107 134 rquadto
35 87 35 190 rquadto
0 110 -40 201 rquadto
-39 89 -115 137 rquadto
-75 46 -159 46 rquadto
-60 0 -110 -26 rquadto
-48 -26 -79 -65 rquadto
0 353 rlineto
-123 0 rlineto
closepath
} def
/P$19 {
0 143 56 209 rquadto
56 65 142 65 rquadto
84 0 142 -65 rquadto
57 -65 57 -204 rquadto
0 -132 -59 -200 rquadto
-59 -68 -142 -68 rquadto
-82 0 -140 67 rquadto
-56 65 -56 196 rquadto
closepath
} def
/P$2g {
0 129 56 195 rquadto
56 64 142 64 rquadto
84 0 140 -64 rquadto
57 -65 57 -198 rquadto
0 -125 -57 -189 rquadto
-56 -65 -140 -65 rquadto
-85 0 -142 64 rquadto
-56 64 -56 193 rquadto
closepath
} def
/P$2h {
-14 -106 rlineto
37 9 65 9 rquadto
39 0 60 -12 rquadto
23 -12 37 -35 rquadto
10 -17 35 -84 rquadto
3 -9 9 -28 rquadto
-256 -675 rlineto
123 0 rlineto
140 389 rlineto
26 75 48 156 rquadto
20 -78 46 -153 rquadto
145 -392 rlineto
114 0 rlineto
-256 684 rlineto
-42 110 -64 153 rquadto
-31 56 -70 82 rquadto
-39 26 -93 26 rquadto
-32 0 -73 -14 rquadto
} def
/P$6 {
17 107 rlineto
-51 10 -92 10 rquadto
-67 0 -104 -20 rquadto
-35 -21 -51 -56 rquadto
-14 -34 -14 -145 rquadto
0 -417 rlineto
-90 0 rlineto
0 -96 rlineto
90 0 rlineto
0 -179 rlineto
121 -73 rlineto
0 253 rlineto
123 0 rlineto
0 96 rlineto
-123 0 rlineto
0 423 rlineto
0 53 6 68 rquadto
6 14 20 23 rquadto
15 9 42 9 rquadto
21 0 54 -4 rquadto
} def
/P$u {
0 -140 rlineto
140 0 rlineto
0 140 rlineto
-140 0 rlineto
} def
/P$22 {
0 129 54 195 rquadto
54 65 131 65 rquadto
73 0 125 -62 rquadto
53 -62 53 -187 rquadto
0 -135 -56 -203 rquadto
-54 -68 -129 -68 rquadto
-73 0 -126 64 rquadto
-51 62 -51 196 rquadto
} def
/P$1d {
0 -931 rlineto
671 0 rlineto
0 110 rlineto
-548 0 rlineto
0 284 rlineto
514 0 rlineto
0 109 rlineto
-514 0 rlineto
0 317 rlineto
570 0 rlineto
0 109 rlineto
-693 0 rlineto
} def
/P$p {
-89 0 rlineto
204 -328 204 -657 rquadto
0 -128 -29 -254 rquadto
-23 -103 -64 -196 rquadto
-26 -60 -110 -204 rquadto
89 0 rlineto
128 170 189 343 rquadto
53 150 53 312 rquadto
0 184 -71 356 rquadto
-70 171 -170 301 rquadto
closepath
} def
/P$y {
0 143 56 209 rquadto
56 65 142 65 rquadto
84 0 142 -65 rquadto
57 -65 57 -204 rquadto
0 -132 -59 -200 rquadto
-59 -68 -142 -68 rquadto
-82 0 -140 67 rquadto
-56 65 -56 196 rquadto
} def
/P$1a {
120 -18 rlineto
10 73 57 112 rquadto
46 39 131 39 rquadto
84 0 125 -34 rquadto
42 -34 42 -81 rquadto
0 -42 -37 -65 rquadto
-25 -17 -125 -42 rquadto
-135 -34 -189 -59 rquadto
-51 -25 -78 -68 rquadto
-26 -43 -26 -96 rquadto
0 -48 21 -89 rquadto
21 -42 60 -70 rquadto
28 -20 76 -34 rquadto
50 -15 107 -15 rquadto
84 0 148 25 rquadto
65 23 96 65 rquadto
31 42 42 112 rquadto
-120 17 rlineto
-7 -56 -48 -87 rquadto
-39 -31 -110 -31 rquadto
-84 0 -120 28 rquadto
-35 26 -35 65 rquadto
0 23 14 42 rquadto
15 20 48 32 rquadto
17 6 107 31 rquadto
131 35 182 57 rquadto
51 21 79 64 rquadto
29 42 29 104 rquadto
0 62 -35 117 rquadto
-34 53 -103 84 rquadto
-67 29 -153 29 rquadto
-140 0 -215 -59 rquadto
-73 -59 -93 -175 rquadto
} def
/P$1o {
0 -187 103 -276 rquadto
87 -75 212 -75 rquadto
139 0 226 90 rquadto
89 90 89 251 rquadto
0 129 -39 204 rquadto
-39 75 -114 117 rquadto
-75 40 -162 40 rquadto
-142 0 -229 -90 rquadto
-85 -90 -85 -262 rquadto
closepath
} def
/P$m {
404 0 rlineto
-7 -92 -46 -137 rquadto
-57 -70 -151 -70 rquadto
-85 0 -143 56 rquadto
-56 56 -62 151 rquadto
} def
/P$28 {
0 -673 rlineto
103 0 rlineto
0 101 rlineto
39 -71 71 -93 rquadto
34 -23 73 -23 rquadto
57 0 117 35 rquadto
-39 106 rlineto
-42 -25 -82 -25 rquadto
-37 0 -68 23 rquadto
-29 21 -42 62 rquadto
-18 60 -18 132 rquadto
0 353 rlineto
-114 0 rlineto
} def
/P$w {
0 -726 rlineto
110 0 rlineto
0 110 rlineto
42 -78 78 -101 rquadto
35 -25 79 -25 rquadto
62 0 126 39 rquadto
-42 114 rlineto
-45 -26 -90 -26 rquadto
-40 0 -73 25 rquadto
-31 23 -45 67 rquadto
-20 65 -20 143 rquadto
0 379 rlineto
-123 0 rlineto
} def
/P$g {
0 -92 rlineto
-70 109 -203 109 rquadto
-87 0 -160 -48 rquadto
-71 -48 -112 -134 rquadto
-39 -85 -39 -196 rquadto
0 -107 35 -196 rquadto
35 -89 107 -135 rquadto
73 -46 162 -46 rquadto
65 0 117 28 rquadto
51 26 82 71 rquadto
0 -359 rlineto
123 0 rlineto
0 1001 rlineto
-114 0 rlineto
closepath
} def
/P$2i {
117 -10 rlineto
7 70 37 115 rquadto
31 43 93 71 rquadto
64 26 143 26 rquadto
70 0 123 -20 rquadto
54 -20 81 -56 rquadto
26 -37 26 -81 rquadto
0 -43 -26 -76 rquadto
-25 -32 -82 -54 rquadto
-37 -14 -165 -45 rquadto
-128 -31 -179 -57 rquadto
-67 -34 -100 -85 rquadto
-32 -53 -32 -117 rquadto
0 -70 39 -131 rquadto
40 -60 117 -92 rquadto
78 -32 171 -32 rquadto
103 0 181 34 rquadto
79 32 121 98 rquadto
43 64 46 145 rquadto
-118 9 rlineto
-9 -89 -64 -132 rquadto
-54 -45 -162 -45 rquadto
-110 0 -162 40 rquadto
-51 40 -51 98 rquadto
0 50 35 82 rquadto
35 32 185 67 rquadto
150 32 206 57 rquadto
81 37 118 95 rquadto
39 57 39 132 rquadto
0 73 -42 139 rquadto
-42 65 -121 103 rquadto
-79 35 -179 35 rquadto
-126 0 -212 -35 rquadto
-84 -37 -132 -110 rquadto
-48 -75 -51 -167 rquadto
} def
/P$2r {
0 -931 rlineto
123 0 rlineto
0 821 rlineto
457 0 rlineto
0 109 rlineto
-581 0 rlineto
} def
/P$24 {
-256 -673 rlineto
120 0 rlineto
143 403 rlineto
23 65 43 135 rquadto
15 -53 42 -128 rquadto
150 -410 rlineto
117 0 rlineto
-254 673 rlineto
-106 0 rlineto
closepath
} def
/P$1i {
112 14 rlineto
-17 117 -93 182 rquadto
-76 65 -185 65 rquadto
-139 0 -223 -90 rquadto
-82 -90 -82 -259 rquadto
0 -109 35 -190 rquadto
35 -82 109 -123 rquadto
73 -40 160 -40 rquadto
109 0 179 56 rquadto
70 54 89 156 rquadto
-110 17 rlineto
-15 -67 -56 -101 rquadto
-39 -34 -96 -34 rquadto
-85 0 -140 62 rquadto
-53 60 -53 195 rquadto
0 135 51 198 rquadto
51 60 135 60 rquadto
67 0 112 -40 rquadto
45 -42 56 -128 rquadto
} def
/P$0 {
15 -21 34 -32 rquadto
18 -10 40 -10 rquadto
37 0 60 26 rquadto
23 25 23 85 rquadto
0 145 rlineto
0 60 -23 87 rquadto
-23 26 -60 26 rquadto
-34 0 -54 -20 rquadto
-20 -18 -31 -70 rquadto
-4 -35 -23 -54 rquadto
-32 -37 -93 -59 rquadto
-60 -21 -123 -21 rquadto
-76 0 -140 32 rquadto
-62 32 -112 107 rquadto
-48 75 -48 178 rquadto
0 109 rlineto
0 123 89 206 rquadto
89 81 248 81 rquadto
93 0 159 -25 rquadto
39 -15 81 -59 rquadto
26 -26 40 -34 rquadto
15 -7 35 -7 rquadto
32 0 57 26 rquadto
26 25 26 59 rquadto
0 34 -34 75 rquadto
-50 57 -129 90 rquadto
-107 45 -237 45 rquadto
-151 0 -271 -62 rquadto
-98 -50 -167 -156 rquadto
-68 -107 -68 -235 rquadto
0 -115 rlineto
0 -132 60 -246 rquadto
62 -115 171 -176 rquadto
109 -62 232 -62 rquadto
73 0 137 17 rquadto
65 15 120 51 rquadto
closepath
} def
/P$f {
0 -726 rlineto
110 0 rlineto
0 103 rlineto
79 -118 231 -118 rquadto
65 0 120 23 rquadto
54 23 81 62 rquadto
28 37 39 90 rquadto
7 34 7 118 rquadto
0 446 rlineto
-123 0 rlineto
0 -442 rlineto
0 -75 -14 -110 rquadto
-14 -37 -51 -59 rquadto
-35 -23 -85 -23 rquadto
-78 0 -135 50 rquadto
-56 50 -56 189 rquadto
0 396 rlineto
-123 0 rlineto
} def
/P$2l {
0 121 34 175 rquadto
53 89 145 89 rquadto
75 0 129 -65 rquadto
54 -65 54 -193 rquadto
0 -132 -53 -195 rquadto
-51 -62 -126 -62 rquadto
-75 0 -129 65 rquadto
-54 64 -54 187 rquadto
} def
/P$1y {
0 -820 rlineto
-306 0 rlineto
0 -110 rlineto
737 0 rlineto
0 110 rlineto
-307 0 rlineto
0 820 rlineto
-123 0 rlineto
} def
/P$2y {
-1 -65 35 -106 rquadto
35 -39 92 -39 rquadto
40 0 107 34 rquadto
37 18 59 18 rquadto
20 0 31 -10 rquadto
10 -10 15 -43 rquadto
82 0 rlineto
-3 71 -37 109 rquadto
-34 35 -87 35 rquadto
-40 0 -104 -35 rquadto
-43 -23 -62 -23 rquadto
-21 0 -35 15 rquadto
-14 15 -12 45 rquadto
-84 0 rlineto
} def
/P$2u {
0 131 51 192 rquadto
53 60 132 60 rquadto
79 0 132 -59 rquadto
53 -60 53 -190 rquadto
0 -123 -54 -185 rquadto
-54 -64 -132 -64 rquadto
-76 0 -129 62 rquadto
-53 62 -53 184 rquadto
} def
/P$9 {
132 34 rlineto
-42 162 -151 248 rquadto
-107 85 -264 85 rquadto
-162 0 -264 -65 rquadto
-101 -67 -154 -192 rquadto
-51 -125 -51 -268 rquadto
0 -156 59 -271 rquadto
59 -117 170 -176 rquadto
110 -60 242 -60 rquadto
151 0 253 76 rquadto
103 76 143 214 rquadto
-131 31 rlineto
-34 -109 -101 -159 rquadto
-65 -50 -165 -50 rquadto
-115 0 -193 56 rquadto
-78 54 -109 148 rquadto
-31 93 -31 192 rquadto
0 128 37 223 rquadto
37 95 115 142 rquadto
78 46 170 46 rquadto
110 0 187 -64 rquadto
78 -64 106 -190 rquadto
} def
/P$q {
0 -140 rlineto
121 0 rlineto
0 140 rlineto
-121 0 rlineto
closepath
} def
/P$d {
-67 57 -131 82 rquadto
-62 23 -135 23 rquadto
-118 0 -184 -57 rquadto
-64 -59 -64 -151 rquadto
0 -53 23 -96 rquadto
25 -43 64 -70 rquadto
40 -26 89 -40 rquadto
35 -9 109 -18 rquadto
150 -17 220 -42 rquadto
0 -25 0 -31 rquadto
0 -76 -34 -106 rquadto
-46 -42 -140 -42 rquadto
-85 0 -128 31 rquadto
-40 29 -60 106 rquadto
-120 -15 rlineto
15 -78 53 -125 rquadto
39 -46 109 -71 rquadto
71 -26 165 -26 rquadto
92 0 150 21 rquadto
57 21 84 54 rquadto
28 32 39 84 rquadto
6 31 6 112 rquadto
0 164 rlineto
0 171 7 217 rquadto
7 45 31 87 rquadto
-128 0 rlineto
-18 -39 -25 -89 rquadto
closepath
} def
/P$1b {
-664 282 rlineto
0 -121 rlineto
525 -218 rlineto
-525 -215 rlineto
0 -121 rlineto
664 279 rlineto
0 115 rlineto
closepath
} def
/P$1q {
0 -673 rlineto
103 0 rlineto
0 101 rlineto
39 -71 71 -93 rquadto
34 -23 73 -23 rquadto
57 0 117 35 rquadto
-39 106 rlineto
-42 -25 -82 -25 rquadto
-37 0 -68 23 rquadto
-29 21 -42 62 rquadto
-18 60 -18 132 rquadto
0 353 rlineto
-114 0 rlineto
closepath
} def
/P$1w {
0 129 53 193 rquadto
54 64 129 64 rquadto
75 0 126 -60 rquadto
53 -62 53 -187 rquadto
0 -139 -53 -203 rquadto
-53 -65 -131 -65 rquadto
-76 0 -128 62 rquadto
-50 62 -50 196 rquadto
} def
/P$21 {
0 -329 rlineto
-26 37 -75 62 rquadto
-48 25 -101 25 rquadto
-120 0 -207 -95 rquadto
-85 -96 -85 -264 rquadto
0 -101 34 -181 rquadto
35 -81 103 -121 rquadto
67 -42 146 -42 rquadto
125 0 196 104 rquadto
0 -89 rlineto
103 0 rlineto
0 931 rlineto
-114 0 rlineto
closepath
} def
/P$3 {
0 -1001 rlineto
378 0 rlineto
100 0 153 9 rquadto
73 12 123 46 rquadto
50 34 79 96 rquadto
31 60 31 135 rquadto
0 128 -81 217 rquadto
-81 87 -293 87 rquadto
-257 0 rlineto
0 407 rlineto
-132 0 rlineto
closepath
} def
/P$1r {
-62 26 -185 43 rquadto
-70 10 -100 23 rquadto
-29 12 -45 37 rquadto
-15 23 -15 53 rquadto
0 45 34 76 rquadto
34 29 101 29 rquadto
65 0 117 -28 rquadto
51 -29 76 -79 rquadto
17 -37 17 -114 rquadto
0 -42 rlineto
closepath
} def
/P$2w {
123 0 rlineto
0 539 rlineto
0 139 -32 221 rquadto
-31 82 -114 134 rquadto
-82 51 -217 51 rquadto
-131 0 -214 -45 rquadto
-82 -45 -118 -129 rquadto
-35 -85 -35 -232 rquadto
0 -539 rlineto
123 0 rlineto
0 537 rlineto
0 121 21 179 rquadto
23 56 78 87 rquadto
54 31 134 31 rquadto
135 0 193 -60 rquadto
57 -62 57 -237 rquadto
0 -537 rlineto
} def
/P$t {
0 -140 rlineto
140 0 rlineto
0 140 rlineto
-140 0 rlineto
closepath
} def
/P$11 {
0 -1001 rlineto
123 0 rlineto
0 1001 rlineto
-123 0 rlineto
} def
/P$23 {
0 -98 rlineto
-79 114 -214 114 rquadto
-59 0 -112 -23 rquadto
-51 -23 -76 -57 rquadto
-25 -34 -34 -84 rquadto
-7 -32 -7 -106 rquadto
0 -417 rlineto
114 0 rlineto
0 373 rlineto
0 89 7 120 rquadto
10 45 45 71 rquadto
34 25 85 25 rquadto
51 0 96 -26 rquadto
45 -26 64 -71 rquadto
18 -45 18 -131 rquadto
0 -360 rlineto
114 0 rlineto
0 673 rlineto
-101 0 rlineto
} def
/P$2n {
0 -820 rlineto
-306 0 rlineto
0 -110 rlineto
737 0 rlineto
0 110 rlineto
-307 0 rlineto
0 820 rlineto
-123 0 rlineto
closepath
} def
/P$20 {
240 0 rlineto
118 0 168 -43 rquadto
51 -45 51 -126 rquadto
0 -57 -29 -98 rquadto
-29 -42 -78 -56 rquadto
-31 -7 -115 -7 rquadto
-237 0 rlineto
0 332 rlineto
} def
/P$2s {
0 -931 rlineto
114 0 rlineto
0 531 rlineto
270 -273 rlineto
148 0 rlineto
-257 250 rlineto
284 423 rlineto
-140 0 rlineto
-223 -345 rlineto
-81 78 rlineto
0 267 rlineto
-114 0 rlineto
} def
/P$c {
0 -726 rlineto
110 0 rlineto
0 103 rlineto
32 -54 89 -85 rquadto
57 -32 129 -32 rquadto
81 0 132 34 rquadto
51 32 73 92 rquadto
85 -126 223 -126 rquadto
107 0 165 59 rquadto
59 59 59 184 rquadto
0 498 rlineto
-123 0 rlineto
0 -457 rlineto
0 -73 -12 -106 rquadto
-10 -32 -42 -51 rquadto
-31 -20 -73 -20 rquadto
-76 0 -128 51 rquadto
-50 50 -50 162 rquadto
0 421 rlineto
-123 0 rlineto
0 -471 rlineto
0 -81 -29 -121 rquadto
-29 -42 -98 -42 rquadto
-51 0 -96 28 rquadto
-43 26 -64 79 rquadto
-18 51 -18 151 rquadto
0 376 rlineto
-123 0 rlineto
} def
/P$2v {
0 -129 rlineto
129 0 rlineto
0 129 rlineto
0 71 -25 115 rquadto
-25 43 -81 68 rquadto
-31 -48 rlineto
35 -17 53 -48 rquadto
17 -29 18 -87 rquadto
-64 0 rlineto
closepath
} def
/P$2a {
-114 0 rlineto
0 -728 rlineto
-42 39 -109 79 rquadto
-65 39 -118 57 rquadto
0 -110 rlineto
95 -43 167 -107 rquadto
71 -64 101 -125 rquadto
73 0 rlineto
0 934 rlineto
} def
/P$25 {
0 -132 rlineto
114 0 rlineto
0 132 rlineto
-114 0 rlineto
closepath
} def
/P$k {
0 -1001 rlineto
121 0 rlineto
0 570 rlineto
292 -295 rlineto
159 0 rlineto
-278 270 rlineto
306 456 rlineto
-153 0 rlineto
-239 -371 rlineto
-87 84 rlineto
0 287 rlineto
-121 0 rlineto
} def
/P$2t {
112 15 rlineto
6 51 37 75 rquadto
43 32 117 32 rquadto
78 0 121 -32 rquadto
43 -31 57 -89 rquadto
9 -34 9 -145 rquadto
-75 87 -187 87 rquadto
-139 0 -215 -100 rquadto
-75 -100 -75 -240 rquadto
0 -96 34 -178 rquadto
35 -81 101 -125 rquadto
65 -45 156 -45 rquadto
118 0 196 96 rquadto
0 -81 rlineto
104 0 rlineto
0 581 rlineto
0 157 -32 223 rquadto
-31 65 -101 103 rquadto
-68 39 -170 39 rquadto
-120 0 -195 -54 rquadto
-73 -53 -71 -162 rquadto
closepath
} def
/P$x {
118 17 rlineto
7 54 42 81 rquadto
45 32 125 32 rquadto
85 0 131 -34 rquadto
46 -32 64 -95 rquadto
9 -37 7 -157 rquadto
-79 95 -200 95 rquadto
-150 0 -232 -107 rquadto
-81 -107 -81 -259 rquadto
0 -103 37 -190 rquadto
37 -89 107 -135 rquadto
71 -48 168 -48 rquadto
128 0 212 103 rquadto
0 -87 rlineto
112 0 rlineto
0 628 rlineto
0 170 -34 240 rquadto
-34 70 -109 110 rquadto
-75 42 -184 42 rquadto
-129 0 -209 -59 rquadto
-79 -57 -76 -175 rquadto
closepath
} def
/P$n {
17 107 rlineto
-51 10 -92 10 rquadto
-67 0 -104 -20 rquadto
-35 -21 -51 -56 rquadto
-14 -34 -14 -145 rquadto
0 -417 rlineto
-90 0 rlineto
0 -96 rlineto
90 0 rlineto
0 -179 rlineto
121 -73 rlineto
0 253 rlineto
123 0 rlineto
0 96 rlineto
-123 0 rlineto
0 423 rlineto
0 53 6 68 rquadto
6 14 20 23 rquadto
15 9 42 9 rquadto
21 0 54 -4 rquadto
closepath
} def
/P$10 {
-14 -115 rlineto
40 10 70 10 rquadto
40 0 65 -14 rquadto
25 -12 40 -37 rquadto
10 -18 37 -92 rquadto
3 -9 10 -29 rquadto
-276 -728 rlineto
132 0 rlineto
151 420 rlineto
29 81 53 168 rquadto
20 -84 50 -165 rquadto
154 -423 rlineto
123 0 rlineto
-276 739 rlineto
-43 118 -68 164 rquadto
-32 60 -75 89 rquadto
-42 29 -101 29 rquadto
-34 0 -78 -15 rquadto
} def
/P$2p {
-359 -931 rlineto
132 0 rlineto
242 676 rlineto
28 81 48 153 rquadto
21 -76 50 -153 rquadto
251 -676 rlineto
125 0 rlineto
-364 931 rlineto
-126 0 rlineto
} def
/P$1 {
0 -1001 rlineto
675 0 rlineto
0 117 rlineto
-543 0 rlineto
0 310 rlineto
470 0 rlineto
0 118 rlineto
-470 0 rlineto
0 454 rlineto
-131 0 rlineto
} def
/P$h {
0 139 57 209 rquadto
59 68 139 68 rquadto
81 0 137 -65 rquadto
56 -67 56 -201 rquadto
0 -150 -57 -218 rquadto
-57 -70 -140 -70 rquadto
-82 0 -137 67 rquadto
-54 67 -54 210 rquadto
closepath
} def
/P$27 {
376 0 rlineto
-7 -85 -43 -128 rquadto
-54 -65 -140 -65 rquadto
-79 0 -132 53 rquadto
-53 51 -59 140 rquadto
closepath
} def
/P$2x {
-14 -106 rlineto
37 9 65 9 rquadto
39 0 60 -12 rquadto
23 -12 37 -35 rquadto
10 -17 35 -84 rquadto
3 -9 9 -28 rquadto
-256 -675 rlineto
123 0 rlineto
140 389 rlineto
26 75 48 156 rquadto
20 -78 46 -153 rquadto
145 -392 rlineto
114 0 rlineto
-256 684 rlineto
-42 110 -64 153 rquadto
-31 56 -70 82 rquadto
-39 26 -93 26 rquadto
-32 0 -73 -14 rquadto
closepath
} def
/P$1n {
0 129 53 192 rquadto
53 62 126 62 rquadto
76 0 131 -64 rquadto
54 -65 54 -200 rquadto
0 -129 -53 -193 rquadto
-53 -64 -126 -64 rquadto
-73 0 -129 68 rquadto
-56 67 -56 198 rquadto
} def
/P$2f {
0 -92 rlineto
429 -493 rlineto
-73 4 -129 4 rquadto
-273 0 rlineto
0 -92 rlineto
550 0 rlineto
0 75 rlineto
-364 428 rlineto
-71 78 rlineto
78 -6 145 -6 rquadto
310 0 rlineto
0 98 rlineto
-596 0 rlineto
} def
/P$1h {
376 0 rlineto
-7 -85 -43 -128 rquadto
-54 -65 -140 -65 rquadto
-79 0 -132 53 rquadto
-53 51 -59 140 rquadto
} def
/P$1t {
0 -931 rlineto
114 0 rlineto
0 931 rlineto
-114 0 rlineto
} def
/P$1u {
0 -673 rlineto
103 0 rlineto
0 95 rlineto
73 -110 214 -110 rquadto
60 0 110 21 rquadto
51 21 76 57 rquadto
26 34 35 84 rquadto
6 31 6 110 rquadto
0 414 rlineto
-114 0 rlineto
0 -409 rlineto
0 -70 -14 -104 rquadto
-12 -34 -46 -54 rquadto
-32 -21 -78 -21 rquadto
-73 0 -126 46 rquadto
-53 45 -53 175 rquadto
0 368 rlineto
-114 0 rlineto
} def
/P$4 {
259 0 rlineto
128 0 181 -48 rquadto
54 -48 54 -134 rquadto
0 -64 -31 -107 rquadto
-31 -45 -84 -59 rquadto
-32 -9 -123 -9 rquadto
-256 0 rlineto
0 359 rlineto
closepath
} def
/P$j {
259 0 rlineto
128 0 181 -48 rquadto
54 -48 54 -134 rquadto
0 -64 -31 -107 rquadto
-31 -45 -84 -59 rquadto
-32 -9 -123 -9 rquadto
-256 0 rlineto
0 359 rlineto
} def
/P$e {
-67 26 -201 46 rquadto
-75 10 -107 25 rquadto
-31 12 -48 39 rquadto
-17 26 -17 57 rquadto
0 50 37 82 rquadto
37 32 109 32 rquadto
71 0 126 -31 rquadto
54 -31 81 -85 rquadto
20 -40 20 -121 rquadto
0 -45 rlineto
} def
/P$1v {
0 -84 rlineto
-64 100 -189 100 rquadto
-79 0 -148 -43 rquadto
-67 -45 -104 -125 rquadto
-37 -79 -37 -182 rquadto
0 -101 34 -182 rquadto
34 -82 101 -126 rquadto
67 -43 150 -43 rquadto
60 0 107 26 rquadto
48 25 78 65 rquadto
0 -334 rlineto
114 0 rlineto
0 931 rlineto
-106 0 rlineto
closepath
} def
/P$1m {
0 -931 rlineto
103 0 rlineto
0 87 rlineto
37 -51 82 -76 rquadto
46 -26 114 -26 rquadto
85 0 151 45 rquadto
65 43 98 125 rquadto
34 79 34 176 rquadto
0 103 -37 185 rquadto
-35 82 -107 128 rquadto
-70 43 -148 43 rquadto
-56 0 -101 -23 rquadto
-45 -25 -75 -62 rquadto
0 328 rlineto
-114 0 rlineto
closepath
} def
/P$12 {
0 139 57 209 rquadto
59 68 139 68 rquadto
81 0 137 -65 rquadto
56 -67 56 -201 rquadto
0 -150 -57 -218 rquadto
-57 -70 -140 -70 rquadto
-82 0 -137 67 rquadto
-54 67 -54 210 rquadto
} def
/P$1x {
0 -931 rlineto
628 0 rlineto
0 110 rlineto
-504 0 rlineto
0 287 rlineto
437 0 rlineto
0 109 rlineto
-437 0 rlineto
0 423 rlineto
-123 0 rlineto
} def
/P$16 {
0 -629 rlineto
-109 0 rlineto
0 -96 rlineto
109 0 rlineto
0 -76 rlineto
0 -73 12 -109 rquadto
18 -46 62 -76 rquadto
45 -29 126 -29 rquadto
51 0 114 12 rquadto
-18 106 rlineto
-37 -6 -71 -6 rquadto
-56 0 -79 23 rquadto
-23 23 -23 89 rquadto
0 67 rlineto
142 0 rlineto
0 96 rlineto
-142 0 rlineto
0 629 rlineto
-121 0 rlineto
} def
/P$2j {
0 -673 rlineto
103 0 rlineto
0 95 rlineto
73 -110 214 -110 rquadto
60 0 110 21 rquadto
51 21 76 57 rquadto
26 34 35 84 rquadto
6 31 6 110 rquadto
0 414 rlineto
-114 0 rlineto
0 -409 rlineto
0 -70 -14 -104 rquadto
-12 -34 -46 -54 rquadto
-32 -21 -78 -21 rquadto
-73 0 -126 46 rquadto
-53 45 -53 175 rquadto
0 368 rlineto
-114 0 rlineto
closepath
} def
/P$1j {
-62 53 -121 76 rquadto
-57 21 -125 21 rquadto
-112 0 -171 -54 rquadto
-59 -54 -59 -139 rquadto
0 -48 21 -89 rquadto
23 -42 59 -67 rquadto
37 -25 82 -37 rquadto
32 -7 101 -17 rquadto
137 -15 203 -39 rquadto
1 -23 1 -29 rquadto
0 -70 -32 -98 rquadto
-43 -39 -129 -39 rquadto
-81 0 -120 28 rquadto
-37 28 -56 100 rquadto
-110 -14 rlineto
14 -71 48 -115 rquadto
35 -45 101 -68 rquadto
67 -23 153 -23 rquadto
87 0 140 20 rquadto
54 20 79 51 rquadto
25 29 35 76 rquadto
4 29 4 106 rquadto
0 151 rlineto
0 159 7 201 rquadto
7 42 28 81 rquadto
-118 0 rlineto
-17 -35 -23 -82 rquadto
closepath
} def
/P$i {
121 15 rlineto
-20 125 -103 196 rquadto
-81 70 -200 70 rquadto
-148 0 -239 -96 rquadto
-90 -98 -90 -281 rquadto
0 -117 39 -204 rquadto
39 -89 118 -132 rquadto
79 -43 173 -43 rquadto
117 0 192 59 rquadto
76 59 96 170 rquadto
-118 18 rlineto
-17 -73 -60 -109 rquadto
-43 -37 -104 -37 rquadto
-93 0 -151 67 rquadto
-57 65 -57 209 rquadto
0 146 56 214 rquadto
56 65 145 65 rquadto
73 0 121 -43 rquadto
48 -45 60 -137 rquadto
} def
/P$2b {
0 -129 rlineto
129 0 rlineto
0 129 rlineto
-129 0 rlineto
closepath
} def
/P$14 {
0 -115 rlineto
664 -279 rlineto
0 121 rlineto
-526 215 rlineto
526 218 rlineto
0 121 rlineto
-664 -282 rlineto
} def
/P$1k {
-62 26 -185 43 rquadto
-70 10 -100 23 rquadto
-29 12 -45 37 rquadto
-15 23 -15 53 rquadto
0 45 34 76 rquadto
34 29 101 29 rquadto
65 0 117 -28 rquadto
51 -29 76 -79 rquadto
17 -37 17 -114 rquadto
0 -42 rlineto
} def
/P$1g {
118 14 rlineto
-28 104 -104 162 rquadto
-75 56 -192 56 rquadto
-148 0 -235 -90 rquadto
-85 -92 -85 -256 rquadto
0 -170 87 -264 rquadto
89 -93 228 -93 rquadto
135 0 220 92 rquadto
85 92 85 257 rquadto
0 10 0 31 rquadto
-503 0 rlineto
6 110 62 170 rquadto
56 59 140 59 rquadto
64 0 107 -32 rquadto
45 -34 70 -106 rquadto
closepath
} def
/P$1f {
15 100 rlineto
-48 10 -85 10 rquadto
-62 0 -96 -20 rquadto
-34 -20 -48 -51 rquadto
-14 -32 -14 -134 rquadto
0 -389 rlineto
-82 0 rlineto
0 -87 rlineto
82 0 rlineto
0 -167 rlineto
114 -68 rlineto
0 235 rlineto
115 0 rlineto
0 87 rlineto
-115 0 rlineto
0 395 rlineto
0 48 6 62 rquadto
6 14 18 21 rquadto
14 7 39 7 rquadto
20 0 51 -3 rquadto
} def
/P$18 {
-89 0 rlineto
204 -328 204 -657 rquadto
0 -128 -29 -254 rquadto
-23 -103 -64 -196 rquadto
-26 -60 -110 -204 rquadto
89 0 rlineto
128 170 189 343 rquadto
53 150 53 312 rquadto
0 184 -71 356 rquadto
-70 171 -170 301 rquadto
} def
/P$2 {
0 -884 rlineto
-329 0 rlineto
0 -117 rlineto
793 0 rlineto
0 117 rlineto
-331 0 rlineto
0 884 rlineto
-132 0 rlineto
} def
/P$1l {
0 -673 rlineto
101 0 rlineto
0 93 rlineto
32 -50 84 -79 rquadto
53 -29 120 -29 rquadto
75 0 121 31 rquadto
48 31 68 85 rquadto
79 -117 207 -117 rquadto
100 0 153 56 rquadto
54 54 54 170 rquadto
0 462 rlineto
-112 0 rlineto
0 -425 rlineto
0 -68 -10 -98 rquadto
-10 -29 -40 -48 rquadto
-29 -18 -68 -18 rquadto
-71 0 -118 48 rquadto
-46 46 -46 150 rquadto
0 392 rlineto
-114 0 rlineto
0 -437 rlineto
0 -76 -28 -114 rquadto
-28 -39 -90 -39 rquadto
-48 0 -89 26 rquadto
-40 25 -59 73 rquadto
-18 48 -18 140 rquadto
0 350 rlineto
-114 0 rlineto
} def
/P$s {
264 -378 rlineto
-245 -348 rlineto
154 0 rlineto
110 170 rlineto
31 48 50 81 rquadto
31 -45 56 -79 rquadto
121 -171 rlineto
146 0 rlineto
-250 342 rlineto
268 384 rlineto
-150 0 rlineto
-150 -225 rlineto
-39 -60 rlineto
-190 285 rlineto
-148 0 rlineto
closepath
} def
/P$15 {
-664 282 rlineto
0 -121 rlineto
525 -218 rlineto
-525 -215 rlineto
0 -121 rlineto
664 279 rlineto
0 115 rlineto
} def
/P$17 {
0 -1001 rlineto
132 0 rlineto
0 410 rlineto
520 0 rlineto
0 -410 rlineto
132 0 rlineto
0 1001 rlineto
-132 0 rlineto
0 -471 rlineto
-520 0 rlineto
0 471 rlineto
-132 0 rlineto
} def
/P$2o {
-95 -118 -160 -278 rquadto
-65 -160 -65 -332 rquadto
0 -150 50 -289 rquadto
56 -160 176 -320 rquadto
81 0 rlineto
-76 132 -101 189 rquadto
-39 87 -60 182 rquadto
-26 118 -26 239 rquadto
0 304 189 609 rquadto
-81 0 rlineto
} def
/P$2m {
270 -962 rlineto
90 0 rlineto
-268 962 rlineto
-92 0 rlineto
} def
/P$z {
0 -140 rlineto
139 0 rlineto
0 140 rlineto
0 76 -28 123 rquadto
-26 48 -85 75 rquadto
-34 -53 rlineto
39 -17 57 -50 rquadto
18 -32 20 -95 rquadto
-68 0 rlineto
} def
/P$o {
-103 -129 -173 -301 rquadto
-70 -171 -70 -356 rquadto
0 -162 53 -312 rquadto
60 -173 190 -343 rquadto
87 0 rlineto
-82 142 -109 203 rquadto
-42 93 -65 196 rquadto
-29 126 -29 256 rquadto
0 329 204 657 rquadto
-87 0 rlineto
} def
/P$v {
125 -10 rlineto
9 75 42 123 rquadto
32 48 100 78 rquadto
68 29 154 29 rquadto
75 0 132 -21 rquadto
59 -23 87 -62 rquadto
28 -39 28 -85 rquadto
0 -46 -28 -81 rquadto
-26 -35 -89 -60 rquadto
-40 -15 -179 -48 rquadto
-137 -32 -192 -62 rquadto
-71 -37 -107 -92 rquadto
-34 -56 -34 -126 rquadto
0 -75 42 -140 rquadto
43 -67 126 -100 rquadto
82 -34 184 -34 rquadto
110 0 195 35 rquadto
85 35 131 106 rquadto
45 68 50 156 rquadto
-128 9 rlineto
-9 -93 -68 -142 rquadto
-59 -50 -175 -50 rquadto
-120 0 -175 45 rquadto
-54 43 -54 106 rquadto
0 53 39 89 rquadto
37 34 198 71 rquadto
162 35 221 62 rquadto
87 40 129 103 rquadto
42 60 42 142 rquadto
0 79 -46 151 rquadto
-45 70 -131 109 rquadto
-85 39 -192 39 rquadto
-135 0 -228 -39 rquadto
-92 -40 -145 -120 rquadto
-51 -79 -54 -179 rquadto
} def
/P$b {
0 139 60 209 rquadto
60 68 153 68 rquadto
90 0 151 -70 rquadto
60 -70 60 -212 rquadto
0 -134 -60 -203 rquadto
-60 -70 -151 -70 rquadto
-92 0 -153 68 rquadto
-60 68 -60 209 rquadto
} def
/P$2z {
0 -673 rlineto
115 0 rlineto
0 673 rlineto
-115 0 rlineto
closepath
} def
/P$l {
128 15 rlineto
-31 112 -112 175 rquadto
-81 60 -207 60 rquadto
-159 0 -253 -98 rquadto
-92 -98 -92 -275 rquadto
0 -184 93 -284 rquadto
95 -101 245 -101 rquadto
145 0 237 100 rquadto
92 98 92 278 rquadto
0 10 0 32 rquadto
-542 0 rlineto
7 118 67 182 rquadto
60 64 153 64 rquadto
67 0 114 -35 rquadto
48 -35 76 -114 rquadto
closepath
} def
/P$26 {
0 -673 rlineto
114 0 rlineto
0 673 rlineto
-114 0 rlineto
} def
/P$13 {
-387 -1001 rlineto
143 0 rlineto
260 728 rlineto
31 87 51 164 rquadto
23 -82 54 -164 rquadto
270 -728 rlineto
135 0 rlineto
-392 1001 rlineto
-137 0 rlineto
} def
0.95 0.95 0.95 setrgbcolor
33600 27692 35050 7450 250 roundrect
closepath eofill
50 setlinewidth
0.09 0.09 0.09 setrgbcolor
33600 27692 35050 7450 250 roundrect
closepath stroke
0.68 0.82 0.7 setrgbcolor
newpath
50075 9050 1100 0 360 arc
closepath eofill
100 setlinewidth
0.09 0.09 0.09 setrgbcolor
newpath
50075 9050 1100 0 360 arc
closepath stroke
0 setlinewidth
[] 0 setdash
0 0 0 setrgbcolor
newpath
50351 8637 moveto
P$0
fill
0 setlinewidth
[] 0 setdash
0 0 0 setrgbcolor
newpath
52240 9622 moveto
P$1
fill
0 setlinewidth
[] 0 setdash
0 0 0 setrgbcolor
newpath
53387 9622 moveto
P$2
fill
0 setlinewidth
[] 0 setdash
0 0 0 setrgbcolor
newpath
54032 9622 moveto
P$3
54165 9097 moveto
P$4
fill
50 setlinewidth
0.09 0.09 0.09 setrgbcolor
newpath
35150 10650 moveto
33400 0 rlineto
stroke
100 setlinewidth
0.78 0.16 0.19 setrgbcolor
600 600 35850 11450 simplerect
closepath stroke
0 setlinewidth
[] 0 setdash
0 0 0 setrgbcolor
newpath
37171 12503 moveto
P$5
37810 12393 moveto
P$6
fill
0 setlinewidth
[] 0 setdash
0 0 0 setrgbcolor
newpath
37942 12781 moveto
P$7
38053 12143 moveto
P$8
fill
0 setlinewidth
[] 0 setdash
0 0 0 setrgbcolor
newpath
39473 12151 moveto
P$9
fill
0 setlinewidth
[] 0 setdash
0 0 0 setrgbcolor
newpath
39696 12140 moveto
P$a
39823 12140 moveto
P$b
fill
0 setlinewidth
[] 0 setdash
0 0 0 setrgbcolor
newpath
40542 12503 moveto
P$c
fill
0 setlinewidth
[] 0 setdash
0 0 0 setrgbcolor
newpath
41642 12503 moveto
P$c
fill
0 setlinewidth
[] 0 setdash
0 0 0 setrgbcolor
newpath
43215 12414 moveto
P$d
43206 12139 moveto
P$e
fill
0 setlinewidth
[] 0 setdash
0 0 0 setrgbcolor
newpath
43542 12503 moveto
P$f
fill
0 setlinewidth
[] 0 setdash
0 0 0 setrgbcolor
newpath
44814 12503 moveto
P$g
44425 12140 moveto
P$h
fill
100 setlinewidth
0.78 0.16 0.19 setrgbcolor
600 600 35850 13210 simplerect
closepath stroke
0 setlinewidth
[] 0 setdash
0 0 0 setrgbcolor
newpath
37410 14154 moveto
P$6
fill
0 setlinewidth
[] 0 setdash
0 0 0 setrgbcolor
newpath
38015 13998 moveto
P$i
fill
0 setlinewidth
[] 0 setdash
0 0 0 setrgbcolor
newpath
38242 14542 moveto
P$7
38353 13904 moveto
P$8
fill
0 setlinewidth
[] 0 setdash
0 0 0 setrgbcolor
newpath
39057 14264 moveto
P$3
39190 13739 moveto
P$j
fill
0 setlinewidth
[] 0 setdash
0 0 0 setrgbcolor
newpath
40415 14175 moveto
P$d
40406 13900 moveto
P$e
fill
0 setlinewidth
[] 0 setdash
0 0 0 setrgbcolor
newpath
41215 13998 moveto
P$i
fill
0 setlinewidth
[] 0 setdash
0 0 0 setrgbcolor
newpath
41443 14264 moveto
P$k
fill
0 setlinewidth
[] 0 setdash
0 0 0 setrgbcolor
newpath
42639 14029 moveto
P$l
42235 13831 moveto
P$m
fill
0 setlinewidth
[] 0 setdash
0 0 0 setrgbcolor
newpath
43210 14154 moveto
P$n
fill
50 setlinewidth
0.09 0.09 0.09 setrgbcolor
newpath
35150 14971 moveto
33400 0 rlineto
stroke
0.52 0.75 0.52 setrgbcolor
newpath
36150 16071 300 0 360 arc
closepath eofill
100 setlinewidth
0.01 0.5 0.28 setrgbcolor
newpath
36150 16071 300 0 360 arc
closepath stroke
0 setlinewidth
[] 0 setdash
0 0 0 setrgbcolor
newpath
37165 16825 moveto
P$1
fill
0 setlinewidth
[] 0 setdash
0 0 0 setrgbcolor
newpath
38312 16825 moveto
P$2
fill
0 setlinewidth
[] 0 setdash
0 0 0 setrgbcolor
newpath
38957 16825 moveto
P$3
39090 16300 moveto
P$j
fill
0 setlinewidth
[] 0 setdash
0 0 0 setrgbcolor
newpath
40078 17120 moveto
P$o
fill
0 setlinewidth
[] 0 setdash
0 0 0 setrgbcolor
newpath
40423 17120 moveto
P$p
fill
0.52 0.75 0.52 setrgbcolor
newpath
36150 17832 300 0 360 arc
closepath eofill
100 setlinewidth
0.01 0.5 0.28 setrgbcolor
newpath
36150 17832 300 0 360 arc
closepath stroke
0 setlinewidth
[] 0 setdash
0 0 0 setrgbcolor
newpath
37165 18586 moveto
P$1
fill
0 setlinewidth
[] 0 setdash
0 0 0 setrgbcolor
newpath
38312 18586 moveto
P$2
fill
0 setlinewidth
[] 0 setdash
0 0 0 setrgbcolor
newpath
38957 18586 moveto
P$3
39090 18061 moveto
P$j
fill
0 setlinewidth
[] 0 setdash
0 0 0 setrgbcolor
newpath
40078 18881 moveto
P$o
fill
0 setlinewidth
[] 0 setdash
0 0 0 setrgbcolor
newpath
40343 17725 moveto
P$q
40343 18586 moveto
P$r
fill
0 setlinewidth
[] 0 setdash
0 0 0 setrgbcolor
newpath
41115 18320 moveto
P$i
fill
0 setlinewidth
[] 0 setdash
0 0 0 setrgbcolor
newpath
41342 18586 moveto
P$c
fill
0 setlinewidth
[] 0 setdash
0 0 0 setrgbcolor
newpath
42442 18864 moveto
P$7
42553 18226 moveto
P$8
fill
0 setlinewidth
[] 0 setdash
0 0 0 setrgbcolor
newpath
43512 18586 moveto
P$2
fill
0 setlinewidth
[] 0 setdash
0 0 0 setrgbcolor
newpath
44639 18351 moveto
P$l
44235 18153 moveto
P$m
fill
0 setlinewidth
[] 0 setdash
0 0 0 setrgbcolor
newpath
44860 18586 moveto
P$s
45810 18476 moveto
P$6
fill
0 setlinewidth
[] 0 setdash
0 0 0 setrgbcolor
newpath
46376 18000 moveto
P$t
46376 18586 moveto
P$u
fill
0 setlinewidth
[] 0 setdash
0 0 0 setrgbcolor
newpath
47112 18264 moveto
P$v
fill
0 setlinewidth
[] 0 setdash
0 0 0 setrgbcolor
newpath
48310 18476 moveto
P$6
fill
0 setlinewidth
[] 0 setdash
0 0 0 setrgbcolor
newpath
48440 18586 moveto
P$w
fill
0 setlinewidth
[] 0 setdash
0 0 0 setrgbcolor
newpath
48943 17725 moveto
P$q
48943 18586 moveto
P$r
fill
0 setlinewidth
[] 0 setdash
0 0 0 setrgbcolor
newpath
49242 18586 moveto
P$f
fill
0 setlinewidth
[] 0 setdash
0 0 0 setrgbcolor
newpath
50020 18647 moveto
P$x
50121 18209 moveto
P$y
fill
0 setlinewidth
[] 0 setdash
0 0 0 setrgbcolor
newpath
50923 18881 moveto
P$p
fill
0.52 0.75 0.52 setrgbcolor
newpath
36150 19593 300 0 360 arc
closepath eofill
100 setlinewidth
0.01 0.5 0.28 setrgbcolor
newpath
36150 19593 300 0 360 arc
closepath stroke
0 setlinewidth
[] 0 setdash
0 0 0 setrgbcolor
newpath
37165 20347 moveto
P$1
fill
0 setlinewidth
[] 0 setdash
0 0 0 setrgbcolor
newpath
38312 20347 moveto
P$2
fill
0 setlinewidth
[] 0 setdash
0 0 0 setrgbcolor
newpath
38957 20347 moveto
P$3
39090 19822 moveto
P$j
fill
0 setlinewidth
[] 0 setdash
0 0 0 setrgbcolor
newpath
40078 20642 moveto
P$o
fill
0 setlinewidth
[] 0 setdash
0 0 0 setrgbcolor
newpath
40343 19486 moveto
P$q
40343 20347 moveto
P$r
fill
0 setlinewidth
[] 0 setdash
0 0 0 setrgbcolor
newpath
41115 20081 moveto
P$i
fill
0 setlinewidth
[] 0 setdash
0 0 0 setrgbcolor
newpath
41342 20347 moveto
P$c
fill
0 setlinewidth
[] 0 setdash
0 0 0 setrgbcolor
newpath
42442 20625 moveto
P$7
42553 19987 moveto
P$8
fill
0 setlinewidth
[] 0 setdash
0 0 0 setrgbcolor
newpath
43512 20347 moveto
P$2
fill
0 setlinewidth
[] 0 setdash
0 0 0 setrgbcolor
newpath
44639 20112 moveto
P$l
44235 19914 moveto
P$m
fill
0 setlinewidth
[] 0 setdash
0 0 0 setrgbcolor
newpath
44860 20347 moveto
P$s
45810 20237 moveto
P$6
fill
0 setlinewidth
[] 0 setdash
0 0 0 setrgbcolor
newpath
46376 19761 moveto
P$t
46376 20347 moveto
P$u
fill
0 setlinewidth
[] 0 setdash
0 0 0 setrgbcolor
newpath
47112 20025 moveto
P$v
fill
0 setlinewidth
[] 0 setdash
0 0 0 setrgbcolor
newpath
48310 20237 moveto
P$6
fill
0 setlinewidth
[] 0 setdash
0 0 0 setrgbcolor
newpath
48440 20347 moveto
P$w
fill
0 setlinewidth
[] 0 setdash
0 0 0 setrgbcolor
newpath
48943 19486 moveto
P$q
48943 20347 moveto
P$r
fill
0 setlinewidth
[] 0 setdash
0 0 0 setrgbcolor
newpath
49242 20347 moveto
P$f
fill
0 setlinewidth
[] 0 setdash
0 0 0 setrgbcolor
newpath
50020 20408 moveto
P$x
50121 19970 moveto
P$y
fill
0 setlinewidth
[] 0 setdash
0 0 0 setrgbcolor
newpath
50875 20347 moveto
P$z
fill
0 setlinewidth
[] 0 setdash
0 0 0 setrgbcolor
newpath
51642 20625 moveto
P$7
51753 19987 moveto
P$8
fill
0 setlinewidth
[] 0 setdash
0 0 0 setrgbcolor
newpath
52915 20258 moveto
P$d
52906 19983 moveto
P$e
fill
0 setlinewidth
[] 0 setdash
0 0 0 setrgbcolor
newpath
53237 20626 moveto
P$10
fill
0 setlinewidth
[] 0 setdash
0 0 0 setrgbcolor
newpath
53939 20347 moveto
P$11
fill
0 setlinewidth
[] 0 setdash
0 0 0 setrgbcolor
newpath
54196 19984 moveto
P$a
54323 19984 moveto
P$b
fill
0 setlinewidth
[] 0 setdash
0 0 0 setrgbcolor
newpath
55515 20258 moveto
P$d
55506 19983 moveto
P$e
fill
0 setlinewidth
[] 0 setdash
0 0 0 setrgbcolor
newpath
56314 20347 moveto
P$g
55925 19984 moveto
P$12
fill
0 setlinewidth
[] 0 setdash
0 0 0 setrgbcolor
newpath
57076 19761 moveto
P$t
57076 20347 moveto
P$u
fill
0 setlinewidth
[] 0 setdash
0 0 0 setrgbcolor
newpath
58143 20347 moveto
P$13
fill
0 setlinewidth
[] 0 setdash
0 0 0 setrgbcolor
newpath
59239 20112 moveto
P$l
58835 19914 moveto
P$m
fill
0 setlinewidth
[] 0 setdash
0 0 0 setrgbcolor
newpath
60015 20081 moveto
P$i
fill
0 setlinewidth
[] 0 setdash
0 0 0 setrgbcolor
newpath
60226 19909 moveto
P$14
fill
0 setlinewidth
[] 0 setdash
0 0 0 setrgbcolor
newpath
61043 19486 moveto
P$q
61043 20347 moveto
P$r
fill
0 setlinewidth
[] 0 setdash
0 0 0 setrgbcolor
newpath
61342 20347 moveto
P$f
fill
0 setlinewidth
[] 0 setdash
0 0 0 setrgbcolor
newpath
62410 20237 moveto
P$6
fill
0 setlinewidth
[] 0 setdash
0 0 0 setrgbcolor
newpath
63190 19909 moveto
P$15
fill
0 setlinewidth
[] 0 setdash
0 0 0 setrgbcolor
newpath
63423 20642 moveto
P$p
fill
0.52 0.75 0.52 setrgbcolor
newpath
36150 21354 300 0 360 arc
closepath eofill
100 setlinewidth
0.01 0.5 0.28 setrgbcolor
newpath
36150 21354 300 0 360 arc
closepath stroke
0 setlinewidth
[] 0 setdash
0 0 0 setrgbcolor
newpath
37171 22108 moveto
P$16
fill
0 setlinewidth
[] 0 setdash
0 0 0 setrgbcolor
newpath
37543 21247 moveto
P$q
37543 22108 moveto
P$r
fill
0 setlinewidth
[] 0 setdash
0 0 0 setrgbcolor
newpath
38339 21873 moveto
P$l
37935 21675 moveto
P$m
fill
0 setlinewidth
[] 0 setdash
0 0 0 setrgbcolor
newpath
38639 22108 moveto
P$11
fill
0 setlinewidth
[] 0 setdash
0 0 0 setrgbcolor
newpath
39414 22108 moveto
P$g
39025 21745 moveto
P$12
fill
0 setlinewidth
[] 0 setdash
0 0 0 setrgbcolor
newpath
39762 22108 moveto
P$17
fill
0 setlinewidth
[] 0 setdash
0 0 0 setrgbcolor
newpath
41139 21873 moveto
P$l
40735 21675 moveto
P$m
fill
0 setlinewidth
[] 0 setdash
0 0 0 setrgbcolor
newpath
41439 22108 moveto
P$11
fill
0 setlinewidth
[] 0 setdash
0 0 0 setrgbcolor
newpath
41742 22386 moveto
P$7
41853 21748 moveto
P$8
fill
0 setlinewidth
[] 0 setdash
0 0 0 setrgbcolor
newpath
42778 22403 moveto
P$o
fill
0 setlinewidth
[] 0 setdash
0 0 0 setrgbcolor
newpath
43915 21842 moveto
P$i
fill
0 setlinewidth
[] 0 setdash
0 0 0 setrgbcolor
newpath
44615 22018 moveto
P$d
44606 21743 moveto
P$e
fill
0 setlinewidth
[] 0 setdash
0 0 0 setrgbcolor
newpath
44942 22108 moveto
P$c
fill
0 setlinewidth
[] 0 setdash
0 0 0 setrgbcolor
newpath
46042 22386 moveto
P$7
46153 21748 moveto
P$8
fill
0 setlinewidth
[] 0 setdash
0 0 0 setrgbcolor
newpath
46796 21745 moveto
P$a
46923 21745 moveto
P$b
fill
0 setlinewidth
[] 0 setdash
0 0 0 setrgbcolor
newpath
48076 21522 moveto
P$t
48076 22108 moveto
P$u
fill
0 setlinewidth
[] 0 setdash
0 0 0 setrgbcolor
newpath
48812 21786 moveto
P$v
fill
0 setlinewidth
[] 0 setdash
0 0 0 setrgbcolor
newpath
50010 21998 moveto
P$6
fill
0 setlinewidth
[] 0 setdash
0 0 0 setrgbcolor
newpath
50140 22108 moveto
P$w
fill
0 setlinewidth
[] 0 setdash
0 0 0 setrgbcolor
newpath
50643 21247 moveto
P$q
50643 22108 moveto
P$r
fill
0 setlinewidth
[] 0 setdash
0 0 0 setrgbcolor
newpath
50942 22108 moveto
P$f
fill
0 setlinewidth
[] 0 setdash
0 0 0 setrgbcolor
newpath
51720 22168 moveto
P$x
51821 21731 moveto
P$y
fill
0 setlinewidth
[] 0 setdash
0 0 0 setrgbcolor
newpath
52623 22403 moveto
P$18
fill
0 setlinewidth
[] 0 setdash
0 0 0 setrgbcolor
newpath
53476 21522 moveto
P$t
53476 22108 moveto
P$u
fill
0 setlinewidth
[] 0 setdash
0 0 0 setrgbcolor
newpath
54212 21786 moveto
P$v
fill
0 setlinewidth
[] 0 setdash
0 0 0 setrgbcolor
newpath
55410 21998 moveto
P$6
fill
0 setlinewidth
[] 0 setdash
0 0 0 setrgbcolor
newpath
55540 22108 moveto
P$w
fill
0 setlinewidth
[] 0 setdash
0 0 0 setrgbcolor
newpath
56043 21247 moveto
P$q
56043 22108 moveto
P$r
fill
0 setlinewidth
[] 0 setdash
0 0 0 setrgbcolor
newpath
56342 22108 moveto
P$f
fill
0 setlinewidth
[] 0 setdash
0 0 0 setrgbcolor
newpath
57120 22168 moveto
P$x
57221 21731 moveto
P$19
fill
0.52 0.75 0.52 setrgbcolor
newpath
36150 23115 300 0 360 arc
closepath eofill
100 setlinewidth
0.01 0.5 0.28 setrgbcolor
newpath
36150 23115 300 0 360 arc
closepath stroke
0 setlinewidth
[] 0 setdash
0 0 0 setrgbcolor
newpath
37120 23929 moveto
P$x
37221 23492 moveto
P$y
fill
0 setlinewidth
[] 0 setdash
0 0 0 setrgbcolor
newpath
38439 23634 moveto
P$l
38035 23436 moveto
P$m
fill
0 setlinewidth
[] 0 setdash
0 0 0 setrgbcolor
newpath
39010 23759 moveto
P$6
fill
0 setlinewidth
[] 0 setdash
0 0 0 setrgbcolor
newpath
39165 23868 moveto
P$1
fill
0 setlinewidth
[] 0 setdash
0 0 0 setrgbcolor
newpath
40312 23868 moveto
P$2
fill
0 setlinewidth
[] 0 setdash
0 0 0 setrgbcolor
newpath
40957 23868 moveto
P$3
41090 23343 moveto
P$j
fill
0 setlinewidth
[] 0 setdash
0 0 0 setrgbcolor
newpath
42573 23517 moveto
P$9
fill
0 setlinewidth
[] 0 setdash
0 0 0 setrgbcolor
newpath
42796 23506 moveto
P$a
42923 23506 moveto
P$b
fill
0 setlinewidth
[] 0 setdash
0 0 0 setrgbcolor
newpath
43642 23868 moveto
P$c
fill
0 setlinewidth
[] 0 setdash
0 0 0 setrgbcolor
newpath
44742 23868 moveto
P$c
fill
0 setlinewidth
[] 0 setdash
0 0 0 setrgbcolor
newpath
46315 23779 moveto
P$d
46306 23504 moveto
P$e
fill
0 setlinewidth
[] 0 setdash
0 0 0 setrgbcolor
newpath
46642 23868 moveto
P$f
fill
0 setlinewidth
[] 0 setdash
0 0 0 setrgbcolor
newpath
47914 23868 moveto
P$g
47525 23506 moveto
P$12
fill
0 setlinewidth
[] 0 setdash
0 0 0 setrgbcolor
newpath
48478 24164 moveto
P$o
fill
0 setlinewidth
[] 0 setdash
0 0 0 setrgbcolor
newpath
48823 24164 moveto
P$p
fill
0.52 0.75 0.52 setrgbcolor
newpath
36150 24876 300 0 360 arc
closepath eofill
100 setlinewidth
0.01 0.5 0.28 setrgbcolor
newpath
36150 24876 300 0 360 arc
closepath stroke
0 setlinewidth
[] 0 setdash
0 0 0 setrgbcolor
newpath
37093 25412 moveto
P$1a
fill
0 setlinewidth
[] 0 setdash
0 0 0 setrgbcolor
newpath
38339 25395 moveto
P$l
37935 25197 moveto
P$m
fill
0 setlinewidth
[] 0 setdash
0 0 0 setrgbcolor
newpath
38910 25520 moveto
P$6
fill
0 setlinewidth
[] 0 setdash
0 0 0 setrgbcolor
newpath
39065 25629 moveto
P$1
fill
0 setlinewidth
[] 0 setdash
0 0 0 setrgbcolor
newpath
40212 25629 moveto
P$2
fill
0 setlinewidth
[] 0 setdash
0 0 0 setrgbcolor
newpath
40857 25629 moveto
P$3
40990 25104 moveto
P$j
fill
0 setlinewidth
[] 0 setdash
0 0 0 setrgbcolor
newpath
42473 25278 moveto
P$9
fill
0 setlinewidth
[] 0 setdash
0 0 0 setrgbcolor
newpath
42696 25267 moveto
P$a
42823 25267 moveto
P$b
fill
0 setlinewidth
[] 0 setdash
0 0 0 setrgbcolor
newpath
43542 25629 moveto
P$c
fill
0 setlinewidth
[] 0 setdash
0 0 0 setrgbcolor
newpath
44642 25629 moveto
P$c
fill
0 setlinewidth
[] 0 setdash
0 0 0 setrgbcolor
newpath
46215 25540 moveto
P$d
46206 25265 moveto
P$e
fill
0 setlinewidth
[] 0 setdash
0 0 0 setrgbcolor
newpath
46542 25629 moveto
P$f
fill
0 setlinewidth
[] 0 setdash
0 0 0 setrgbcolor
newpath
47814 25629 moveto
P$g
47425 25267 moveto
P$12
fill
0 setlinewidth
[] 0 setdash
0 0 0 setrgbcolor
newpath
48378 25925 moveto
P$o
fill
0 setlinewidth
[] 0 setdash
0 0 0 setrgbcolor
newpath
49115 25364 moveto
P$i
fill
0 setlinewidth
[] 0 setdash
0 0 0 setrgbcolor
newpath
49296 25267 moveto
P$a
49423 25267 moveto
P$b
fill
0 setlinewidth
[] 0 setdash
0 0 0 setrgbcolor
newpath
50223 25925 moveto
P$p
fill
0.52 0.75 0.52 setrgbcolor
newpath
36150 26637 300 0 360 arc
closepath eofill
100 setlinewidth
0.01 0.5 0.28 setrgbcolor
newpath
36150 26637 300 0 360 arc
closepath stroke
0 setlinewidth
[] 0 setdash
0 0 0 setrgbcolor
newpath
37120 27451 moveto
P$x
37221 27014 moveto
P$y
fill
0 setlinewidth
[] 0 setdash
0 0 0 setrgbcolor
newpath
38439 27156 moveto
P$l
38035 26958 moveto
P$m
fill
0 setlinewidth
[] 0 setdash
0 0 0 setrgbcolor
newpath
39010 27281 moveto
P$6
fill
0 setlinewidth
[] 0 setdash
0 0 0 setrgbcolor
newpath
39412 27390 moveto
P$2
fill
0 setlinewidth
[] 0 setdash
0 0 0 setrgbcolor
newpath
40773 27039 moveto
P$9
fill
0 setlinewidth
[] 0 setdash
0 0 0 setrgbcolor
newpath
41057 27390 moveto
P$3
41190 26865 moveto
P$j
fill
0 setlinewidth
[] 0 setdash
0 0 0 setrgbcolor
newpath
41957 27390 moveto
P$3
42090 26865 moveto
P$j
fill
0 setlinewidth
[] 0 setdash
0 0 0 setrgbcolor
newpath
43315 27301 moveto
P$d
43306 27026 moveto
P$e
fill
0 setlinewidth
[] 0 setdash
0 0 0 setrgbcolor
newpath
44115 27125 moveto
P$i
fill
0 setlinewidth
[] 0 setdash
0 0 0 setrgbcolor
newpath
44343 27390 moveto
P$k
fill
0 setlinewidth
[] 0 setdash
0 0 0 setrgbcolor
newpath
45539 27156 moveto
P$l
45135 26958 moveto
P$m
fill
0 setlinewidth
[] 0 setdash
0 0 0 setrgbcolor
newpath
46110 27281 moveto
P$6
fill
0 setlinewidth
[] 0 setdash
0 0 0 setrgbcolor
newpath
46478 27686 moveto
P$o
fill
0 setlinewidth
[] 0 setdash
0 0 0 setrgbcolor
newpath
46823 27686 moveto
P$p
fill
0.52 0.75 0.52 setrgbcolor
newpath
36150 28398 300 0 360 arc
closepath eofill
100 setlinewidth
0.01 0.5 0.28 setrgbcolor
newpath
36150 28398 300 0 360 arc
closepath stroke
0 setlinewidth
[] 0 setdash
0 0 0 setrgbcolor
newpath
37093 28934 moveto
P$1a
fill
0 setlinewidth
[] 0 setdash
0 0 0 setrgbcolor
newpath
38339 28917 moveto
P$l
37935 28718 moveto
P$m
fill
0 setlinewidth
[] 0 setdash
0 0 0 setrgbcolor
newpath
38910 29042 moveto
P$6
fill
0 setlinewidth
[] 0 setdash
0 0 0 setrgbcolor
newpath
39312 29151 moveto
P$2
fill
0 setlinewidth
[] 0 setdash
0 0 0 setrgbcolor
newpath
40673 28800 moveto
P$9
fill
0 setlinewidth
[] 0 setdash
0 0 0 setrgbcolor
newpath
40957 29151 moveto
P$3
41090 28626 moveto
P$j
fill
0 setlinewidth
[] 0 setdash
0 0 0 setrgbcolor
newpath
41857 29151 moveto
P$3
41990 28626 moveto
P$j
fill
0 setlinewidth
[] 0 setdash
0 0 0 setrgbcolor
newpath
43215 29062 moveto
P$d
43206 28787 moveto
P$e
fill
0 setlinewidth
[] 0 setdash
0 0 0 setrgbcolor
newpath
44015 28886 moveto
P$i
fill
0 setlinewidth
[] 0 setdash
0 0 0 setrgbcolor
newpath
44243 29151 moveto
P$k
fill
0 setlinewidth
[] 0 setdash
0 0 0 setrgbcolor
newpath
45439 28917 moveto
P$l
45035 28718 moveto
P$m
fill
0 setlinewidth
[] 0 setdash
0 0 0 setrgbcolor
newpath
46010 29042 moveto
P$6
fill
0 setlinewidth
[] 0 setdash
0 0 0 setrgbcolor
newpath
46378 29447 moveto
P$o
fill
0 setlinewidth
[] 0 setdash
0 0 0 setrgbcolor
newpath
46910 29042 moveto
P$6
fill
0 setlinewidth
[] 0 setdash
0 0 0 setrgbcolor
newpath
47515 28886 moveto
P$i
fill
0 setlinewidth
[] 0 setdash
0 0 0 setrgbcolor
newpath
47742 29429 moveto
P$7
47853 28792 moveto
P$8
fill
0 setlinewidth
[] 0 setdash
0 0 0 setrgbcolor
newpath
48623 29447 moveto
P$p
fill
0.52 0.75 0.52 setrgbcolor
newpath
36150 30159 300 0 360 arc
closepath eofill
100 setlinewidth
0.01 0.5 0.28 setrgbcolor
newpath
36150 30159 300 0 360 arc
closepath stroke
0 setlinewidth
[] 0 setdash
0 0 0 setrgbcolor
newpath
37171 30912 moveto
P$5
37810 30803 moveto
P$6
fill
0 setlinewidth
[] 0 setdash
0 0 0 setrgbcolor
newpath
37942 31190 moveto
P$7
38053 30553 moveto
P$8
fill
0 setlinewidth
[] 0 setdash
0 0 0 setrgbcolor
newpath
39012 30912 moveto
P$2
fill
0 setlinewidth
[] 0 setdash
0 0 0 setrgbcolor
newpath
39596 30550 moveto
P$a
39723 30550 moveto
P$b
fill
0 setlinewidth
[] 0 setdash
0 0 0 setrgbcolor
newpath
40457 30912 moveto
P$3
40590 30387 moveto
P$j
fill
0 setlinewidth
[] 0 setdash
0 0 0 setrgbcolor
newpath
41815 30823 moveto
P$d
41806 30548 moveto
P$e
fill
0 setlinewidth
[] 0 setdash
0 0 0 setrgbcolor
newpath
42137 31192 moveto
P$10
fill
0 setlinewidth
[] 0 setdash
0 0 0 setrgbcolor
newpath
42839 30912 moveto
P$11
fill
0 setlinewidth
[] 0 setdash
0 0 0 setrgbcolor
newpath
43096 30550 moveto
P$a
43223 30550 moveto
P$b
fill
0 setlinewidth
[] 0 setdash
0 0 0 setrgbcolor
newpath
44415 30823 moveto
P$d
44406 30548 moveto
P$e
fill
0 setlinewidth
[] 0 setdash
0 0 0 setrgbcolor
newpath
45214 30912 moveto
P$g
44825 30550 moveto
P$12
fill
0 setlinewidth
[] 0 setdash
0 0 0 setrgbcolor
newpath
45778 31208 moveto
P$o
fill
0 setlinewidth
[] 0 setdash
0 0 0 setrgbcolor
newpath
46123 31208 moveto
P$18
fill
0 setlinewidth
[] 0 setdash
0 0 0 setrgbcolor
newpath
46976 30326 moveto
P$t
46976 30912 moveto
P$u
fill
0 setlinewidth
[] 0 setdash
0 0 0 setrgbcolor
newpath
48043 30912 moveto
P$13
fill
0 setlinewidth
[] 0 setdash
0 0 0 setrgbcolor
newpath
49139 30678 moveto
P$l
48735 30479 moveto
P$m
fill
0 setlinewidth
[] 0 setdash
0 0 0 setrgbcolor
newpath
49915 30647 moveto
P$i
fill
0 setlinewidth
[] 0 setdash
0 0 0 setrgbcolor
newpath
50126 30475 moveto
P$14
fill
0 setlinewidth
[] 0 setdash
0 0 0 setrgbcolor
newpath
50943 30051 moveto
P$q
50943 30912 moveto
P$r
fill
0 setlinewidth
[] 0 setdash
0 0 0 setrgbcolor
newpath
51242 30912 moveto
P$f
fill
0 setlinewidth
[] 0 setdash
0 0 0 setrgbcolor
newpath
52310 30803 moveto
P$6
fill
0 setlinewidth
[] 0 setdash
0 0 0 setrgbcolor
newpath
53090 30475 moveto
P$1b
fill
0.52 0.75 0.52 setrgbcolor
newpath
36150 31920 300 0 360 arc
closepath eofill
100 setlinewidth
0.01 0.5 0.28 setrgbcolor
newpath
36150 31920 300 0 360 arc
closepath stroke
0 setlinewidth
[] 0 setdash
0 0 0 setrgbcolor
newpath
37093 32456 moveto
P$1a
fill
0 setlinewidth
[] 0 setdash
0 0 0 setrgbcolor
newpath
38339 32439 moveto
P$l
37935 32240 moveto
P$m
fill
0 setlinewidth
[] 0 setdash
0 0 0 setrgbcolor
newpath
38642 32673 moveto
P$f
fill
0 setlinewidth
[] 0 setdash
0 0 0 setrgbcolor
newpath
39914 32673 moveto
P$g
39525 32311 moveto
P$12
fill
0 setlinewidth
[] 0 setdash
0 0 0 setrgbcolor
newpath
40257 32673 moveto
P$3
40390 32148 moveto
P$j
fill
0 setlinewidth
[] 0 setdash
0 0 0 setrgbcolor
newpath
41615 32584 moveto
P$d
41606 32309 moveto
P$e
fill
0 setlinewidth
[] 0 setdash
0 0 0 setrgbcolor
newpath
42415 32408 moveto
P$i
fill
0 setlinewidth
[] 0 setdash
0 0 0 setrgbcolor
newpath
42643 32673 moveto
P$k
fill
0 setlinewidth
[] 0 setdash
0 0 0 setrgbcolor
newpath
43815 32584 moveto
P$d
43806 32309 moveto
P$e
fill
0 setlinewidth
[] 0 setdash
0 0 0 setrgbcolor
newpath
44120 32734 moveto
P$x
44221 32297 moveto
P$y
fill
0 setlinewidth
[] 0 setdash
0 0 0 setrgbcolor
newpath
45439 32439 moveto
P$l
45035 32240 moveto
P$m
fill
0 setlinewidth
[] 0 setdash
0 0 0 setrgbcolor
newpath
45978 32968 moveto
P$o
fill
0 setlinewidth
[] 0 setdash
0 0 0 setrgbcolor
newpath
46323 32968 moveto
P$p
fill
0.52 0.75 0.52 setrgbcolor
newpath
36150 33681 300 0 360 arc
closepath eofill
100 setlinewidth
0.01 0.5 0.28 setrgbcolor
newpath
36150 33681 300 0 360 arc
closepath stroke
0 setlinewidth
[] 0 setdash
0 0 0 setrgbcolor
newpath
37093 34217 moveto
P$1a
fill
0 setlinewidth
[] 0 setdash
0 0 0 setrgbcolor
newpath
38339 34200 moveto
P$l
37935 34001 moveto
P$m
fill
0 setlinewidth
[] 0 setdash
0 0 0 setrgbcolor
newpath
38642 34434 moveto
P$f
fill
0 setlinewidth
[] 0 setdash
0 0 0 setrgbcolor
newpath
39914 34434 moveto
P$g
39525 34072 moveto
P$12
fill
0 setlinewidth
[] 0 setdash
0 0 0 setrgbcolor
newpath
40128 34712 moveto
P$1c
fill
0 setlinewidth
[] 0 setdash
0 0 0 setrgbcolor
newpath
41065 34434 moveto
P$1
fill
0 setlinewidth
[] 0 setdash
0 0 0 setrgbcolor
newpath
42212 34434 moveto
P$2
fill
0 setlinewidth
[] 0 setdash
0 0 0 setrgbcolor
newpath
42857 34434 moveto
P$3
42990 33909 moveto
P$j
fill
0 setlinewidth
[] 0 setdash
0 0 0 setrgbcolor
newpath
43757 34434 moveto
P$3
43890 33909 moveto
P$j
fill
0 setlinewidth
[] 0 setdash
0 0 0 setrgbcolor
newpath
45115 34345 moveto
P$d
45106 34070 moveto
P$e
fill
0 setlinewidth
[] 0 setdash
0 0 0 setrgbcolor
newpath
45915 34168 moveto
P$i
fill
0 setlinewidth
[] 0 setdash
0 0 0 setrgbcolor
newpath
46143 34434 moveto
P$k
fill
0 setlinewidth
[] 0 setdash
0 0 0 setrgbcolor
newpath
47315 34345 moveto
P$d
47306 34070 moveto
P$e
fill
0 setlinewidth
[] 0 setdash
0 0 0 setrgbcolor
newpath
47620 34495 moveto
P$x
47721 34058 moveto
P$y
fill
0 setlinewidth
[] 0 setdash
0 0 0 setrgbcolor
newpath
48939 34200 moveto
P$l
48535 34001 moveto
P$m
fill
0 setlinewidth
[] 0 setdash
0 0 0 setrgbcolor
newpath
49478 34729 moveto
P$o
fill
0 setlinewidth
[] 0 setdash
0 0 0 setrgbcolor
newpath
49742 34712 moveto
P$7
49853 34075 moveto
P$8
fill
0 setlinewidth
[] 0 setdash
0 0 0 setrgbcolor
newpath
51015 34345 moveto
P$d
51006 34070 moveto
P$e
fill
0 setlinewidth
[] 0 setdash
0 0 0 setrgbcolor
newpath
51337 34714 moveto
P$10
fill
0 setlinewidth
[] 0 setdash
0 0 0 setrgbcolor
newpath
52039 34434 moveto
P$11
fill
0 setlinewidth
[] 0 setdash
0 0 0 setrgbcolor
newpath
52296 34072 moveto
P$a
52423 34072 moveto
P$b
fill
0 setlinewidth
[] 0 setdash
0 0 0 setrgbcolor
newpath
53615 34345 moveto
P$d
53606 34070 moveto
P$e
fill
0 setlinewidth
[] 0 setdash
0 0 0 setrgbcolor
newpath
54414 34434 moveto
P$g
54025 34072 moveto
P$12
fill
0 setlinewidth
[] 0 setdash
0 0 0 setrgbcolor
newpath
55176 33848 moveto
P$t
55176 34434 moveto
P$u
fill
0 setlinewidth
[] 0 setdash
0 0 0 setrgbcolor
newpath
56243 34434 moveto
P$13
fill
0 setlinewidth
[] 0 setdash
0 0 0 setrgbcolor
newpath
57339 34200 moveto
P$l
56935 34001 moveto
P$m
fill
0 setlinewidth
[] 0 setdash
0 0 0 setrgbcolor
newpath
58115 34168 moveto
P$i
fill
0 setlinewidth
[] 0 setdash
0 0 0 setrgbcolor
newpath
58326 33997 moveto
P$14
fill
0 setlinewidth
[] 0 setdash
0 0 0 setrgbcolor
newpath
59143 33573 moveto
P$q
59143 34434 moveto
P$r
fill
0 setlinewidth
[] 0 setdash
0 0 0 setrgbcolor
newpath
59442 34434 moveto
P$f
fill
0 setlinewidth
[] 0 setdash
0 0 0 setrgbcolor
newpath
60510 34325 moveto
P$6
fill
0 setlinewidth
[] 0 setdash
0 0 0 setrgbcolor
newpath
61290 33997 moveto
P$15
fill
0 setlinewidth
[] 0 setdash
0 0 0 setrgbcolor
newpath
61475 34434 moveto
P$z
fill
0 setlinewidth
[] 0 setdash
0 0 0 setrgbcolor
newpath
62510 34325 moveto
P$6
fill
0 setlinewidth
[] 0 setdash
0 0 0 setrgbcolor
newpath
63115 34345 moveto
P$d
63106 34070 moveto
P$e
fill
0 setlinewidth
[] 0 setdash
0 0 0 setrgbcolor
newpath
63442 34434 moveto
P$c
fill
0 setlinewidth
[] 0 setdash
0 0 0 setrgbcolor
newpath
64976 33848 moveto
P$t
64976 34434 moveto
P$u
fill
0 setlinewidth
[] 0 setdash
0 0 0 setrgbcolor
newpath
65743 33573 moveto
P$q
65743 34434 moveto
P$r
fill
0 setlinewidth
[] 0 setdash
0 0 0 setrgbcolor
newpath
66042 34434 moveto
P$f
fill
0 setlinewidth
[] 0 setdash
0 0 0 setrgbcolor
newpath
67110 34325 moveto
P$6
fill
0 setlinewidth
[] 0 setdash
0 0 0 setrgbcolor
newpath
67723 34729 moveto
P$p
fill
1 1 0.87 setrgbcolor
newpath
600 600 moveto
600 4870 lineto
31500 4870 lineto
31500 3135 lineto
35450 11930 lineto
31500 2335 lineto
31500 1600 lineto
30500 600 lineto
600 600 lineto
closepath eofill
50 setlinewidth
0.09 0.09 0.09 setrgbcolor
newpath
600 600 moveto
600 4870 lineto
31500 4870 lineto
31500 3135 lineto
35450 11930 lineto
31500 2335 lineto
31500 1600 lineto
30500 600 lineto
600 600 lineto
stroke
1 1 0.87 setrgbcolor
newpath
30500 600 moveto
30500 1600 lineto
31500 1600 lineto
30500 600 lineto
closepath eofill
50 setlinewidth
0.09 0.09 0.09 setrgbcolor
newpath
30500 600 moveto
30500 1600 lineto
31500 1600 lineto
30500 600 lineto
stroke
0 setlinewidth
[] 0 setdash
0 0 0 setrgbcolor
newpath
1303 2449 moveto
P$1d
fill
0 setlinewidth
[] 0 setdash
0 0 0 setrgbcolor
newpath
2140 2247 moveto
P$1e
fill
0 setlinewidth
[] 0 setdash
0 0 0 setrgbcolor
newpath
3135 2347 moveto
P$1f
fill
0 setlinewidth
[] 0 setdash
0 0 0 setrgbcolor
newpath
3746 2232 moveto
P$1g
3371 2047 moveto
P$1h
fill
0 setlinewidth
[] 0 setdash
0 0 0 setrgbcolor
newpath
4825 2202 moveto
P$1i
fill
0 setlinewidth
[] 0 setdash
0 0 0 setrgbcolor
newpath
5525 2366 moveto
P$1j
5515 2110 moveto
P$1k
fill
0 setlinewidth
[] 0 setdash
0 0 0 setrgbcolor
newpath
5785 2449 moveto
P$1l
fill
0 setlinewidth
[] 0 setdash
0 0 0 setrgbcolor
newpath
6885 2707 moveto
P$1m
6989 2116 moveto
P$1n
fill
0 setlinewidth
[] 0 setdash
0 0 0 setrgbcolor
newpath
7543 2112 moveto
P$1o
7660 2112 moveto
P$1p
fill
0 setlinewidth
[] 0 setdash
0 0 0 setrgbcolor
newpath
8640 2247 moveto
P$1e
fill
0 setlinewidth
[] 0 setdash
0 0 0 setrgbcolor
newpath
9846 2232 moveto
P$1g
9471 2047 moveto
P$1h
fill
0 setlinewidth
[] 0 setdash
0 0 0 setrgbcolor
newpath
10084 2449 moveto
P$1q
10925 2366 moveto
P$1j
10915 2110 moveto
P$1r
10693 1691 moveto
P$1s
fill
0 setlinewidth
[] 0 setdash
0 0 0 setrgbcolor
newpath
12046 2232 moveto
P$1g
11671 2047 moveto
P$1h
fill
0 setlinewidth
[] 0 setdash
0 0 0 setrgbcolor
newpath
12282 2449 moveto
P$1t
fill
0 setlinewidth
[] 0 setdash
0 0 0 setrgbcolor
newpath
13425 2202 moveto
P$1i
fill
0 setlinewidth
[] 0 setdash
0 0 0 setrgbcolor
newpath
13643 2112 moveto
P$1o
13760 2112 moveto
P$1p
fill
0 setlinewidth
[] 0 setdash
0 0 0 setrgbcolor
newpath
14385 2449 moveto
P$1l
fill
0 setlinewidth
[] 0 setdash
0 0 0 setrgbcolor
newpath
15925 2366 moveto
P$1j
15915 2110 moveto
P$1k
fill
0 setlinewidth
[] 0 setdash
0 0 0 setrgbcolor
newpath
16185 2449 moveto
P$1u
fill
0 setlinewidth
[] 0 setdash
0 0 0 setrgbcolor
newpath
17323 2449 moveto
P$1v
16962 2113 moveto
P$1w
fill
0 setlinewidth
[] 0 setdash
0 0 0 setrgbcolor
newpath
17543 2112 moveto
P$1o
17660 2112 moveto
P$1p
fill
0 setlinewidth
[] 0 setdash
0 0 0 setrgbcolor
newpath
18706 2449 moveto
P$1x
fill
0 setlinewidth
[] 0 setdash
0 0 0 setrgbcolor
newpath
19737 2449 moveto
P$1y
fill
0 setlinewidth
[] 0 setdash
0 0 0 setrgbcolor
newpath
20200 2449 moveto
P$1z
20323 1962 moveto
P$20
fill
0 setlinewidth
[] 0 setdash
0 0 0 setrgbcolor
newpath
21915 2707 moveto
P$21
21562 2110 moveto
P$22
fill
0 setlinewidth
[] 0 setdash
0 0 0 setrgbcolor
newpath
22628 2449 moveto
P$23
fill
0 setlinewidth
[] 0 setdash
0 0 0 setrgbcolor
newpath
23346 2232 moveto
P$1g
22971 2047 moveto
P$1h
fill
0 setlinewidth
[] 0 setdash
0 0 0 setrgbcolor
newpath
23940 2247 moveto
P$1e
fill
0 setlinewidth
[] 0 setdash
0 0 0 setrgbcolor
newpath
25146 2232 moveto
P$1g
24771 2047 moveto
P$1h
fill
0 setlinewidth
[] 0 setdash
0 0 0 setrgbcolor
newpath
25782 2449 moveto
P$1t
fill
0 setlinewidth
[] 0 setdash
0 0 0 setrgbcolor
newpath
26546 2232 moveto
P$1g
26171 2047 moveto
P$1h
fill
0 setlinewidth
[] 0 setdash
0 0 0 setrgbcolor
newpath
27646 2232 moveto
P$1g
27271 2047 moveto
P$1h
fill
0 setlinewidth
[] 0 setdash
0 0 0 setrgbcolor
newpath
27885 2449 moveto
P$1u
fill
0 setlinewidth
[] 0 setdash
0 0 0 setrgbcolor
newpath
28773 2449 moveto
P$24
29085 1651 moveto
P$25
29085 2449 moveto
P$26
fill
0 setlinewidth
[] 0 setdash
0 0 0 setrgbcolor
newpath
29846 2232 moveto
P$1g
29471 2047 moveto
P$27
fill
0 setlinewidth
[] 0 setdash
0 0 0 setrgbcolor
newpath
1725 4001 moveto
P$1j
1715 3745 moveto
P$1k
fill
0 setlinewidth
[] 0 setdash
0 0 0 setrgbcolor
newpath
1982 4084 moveto
P$1t
fill
0 setlinewidth
[] 0 setdash
0 0 0 setrgbcolor
newpath
2640 3883 moveto
P$1e
fill
0 setlinewidth
[] 0 setdash
0 0 0 setrgbcolor
newpath
3846 3867 moveto
P$1g
3471 3683 moveto
P$1h
fill
0 setlinewidth
[] 0 setdash
0 0 0 setrgbcolor
newpath
4084 4084 moveto
P$1q
4673 4084 moveto
P$24
4985 3286 moveto
P$25
4985 4084 moveto
P$26
fill
0 setlinewidth
[] 0 setdash
0 0 0 setrgbcolor
newpath
5723 4084 moveto
P$1v
5362 3748 moveto
P$1w
fill
0 setlinewidth
[] 0 setdash
0 0 0 setrgbcolor
newpath
5943 3747 moveto
P$1o
6060 3747 moveto
P$1p
fill
0 setlinewidth
[] 0 setdash
0 0 0 setrgbcolor
newpath
6684 4084 moveto
P$28
fill
0 setlinewidth
[] 0 setdash
0 0 0 setrgbcolor
newpath
7506 4084 moveto
P$1x
fill
0 setlinewidth
[] 0 setdash
0 0 0 setrgbcolor
newpath
8537 4084 moveto
P$1y
fill
0 setlinewidth
[] 0 setdash
0 0 0 setrgbcolor
newpath
9000 4084 moveto
P$1z
9123 3597 moveto
P$29
fill
1 1 0.87 setrgbcolor
newpath
600 5870 moveto
600 10140 lineto
28100 10140 lineto
28100 8405 lineto
35450 16252 lineto
28100 7605 lineto
28100 6870 lineto
27100 5870 lineto
600 5870 lineto
closepath eofill
50 setlinewidth
0.09 0.09 0.09 setrgbcolor
newpath
600 5870 moveto
600 10140 lineto
28100 10140 lineto
28100 8405 lineto
35450 16252 lineto
28100 7605 lineto
28100 6870 lineto
27100 5870 lineto
600 5870 lineto
stroke
1 1 0.87 setrgbcolor
newpath
27100 5870 moveto
27100 6870 lineto
28100 6870 lineto
27100 5870 lineto
closepath eofill
50 setlinewidth
0.09 0.09 0.09 setrgbcolor
newpath
27100 5870 moveto
27100 6870 lineto
28100 6870 lineto
27100 5870 lineto
stroke
0 setlinewidth
[] 0 setdash
0 0 0 setrgbcolor
newpath
1684 7719 moveto
P$2a
fill
0 setlinewidth
[] 0 setdash
0 0 0 setrgbcolor
newpath
2018 7719 moveto
P$2b
fill
0 setlinewidth
[] 0 setdash
0 0 0 setrgbcolor
newpath
3464 7393 moveto
P$2c
fill
0 setlinewidth
[] 0 setdash
0 0 0 setrgbcolor
newpath
3643 7382 moveto
P$1o
3760 7382 moveto
P$1p
fill
0 setlinewidth
[] 0 setdash
0 0 0 setrgbcolor
newpath
4385 7719 moveto
P$1u
fill
0 setlinewidth
[] 0 setdash
0 0 0 setrgbcolor
newpath
5040 7518 moveto
P$1e
fill
0 setlinewidth
[] 0 setdash
0 0 0 setrgbcolor
newpath
6035 7618 moveto
P$1f
fill
0 setlinewidth
[] 0 setdash
0 0 0 setrgbcolor
newpath
6184 7719 moveto
P$28
fill
0 setlinewidth
[] 0 setdash
0 0 0 setrgbcolor
newpath
7028 7719 moveto
P$23
fill
0 setlinewidth
[] 0 setdash
0 0 0 setrgbcolor
newpath
7725 7472 moveto
P$1i
fill
0 setlinewidth
[] 0 setdash
0 0 0 setrgbcolor
newpath
8235 7618 moveto
P$1f
fill
0 setlinewidth
[] 0 setdash
0 0 0 setrgbcolor
newpath
8343 7382 moveto
P$1o
8460 7382 moveto
P$1p
fill
0 setlinewidth
[] 0 setdash
0 0 0 setrgbcolor
newpath
9084 7719 moveto
P$1q
9946 7502 moveto
P$1g
9571 7318 moveto
P$1h
fill
0 setlinewidth
[] 0 setdash
0 0 0 setrgbcolor
newpath
10140 7518 moveto
P$1e
fill
0 setlinewidth
[] 0 setdash
0 0 0 setrgbcolor
newpath
11285 7977 moveto
P$1m
11389 7387 moveto
P$1n
fill
0 setlinewidth
[] 0 setdash
0 0 0 setrgbcolor
newpath
11943 7382 moveto
P$1o
12060 7382 moveto
P$1p
fill
0 setlinewidth
[] 0 setdash
0 0 0 setrgbcolor
newpath
12684 7719 moveto
P$28
fill
0 setlinewidth
[] 0 setdash
0 0 0 setrgbcolor
newpath
13923 7719 moveto
P$1v
13562 7383 moveto
P$1w
fill
0 setlinewidth
[] 0 setdash
0 0 0 setrgbcolor
newpath
14646 7502 moveto
P$1g
14271 7318 moveto
P$1h
fill
0 setlinewidth
[] 0 setdash
0 0 0 setrgbcolor
newpath
14912 7719 moveto
P$2d
15646 7502 moveto
P$1g
15271 7318 moveto
P$1h
fill
0 setlinewidth
[] 0 setdash
0 0 0 setrgbcolor
newpath
16325 7472 moveto
P$1i
fill
0 setlinewidth
[] 0 setdash
0 0 0 setrgbcolor
newpath
16835 7618 moveto
P$1f
fill
0 setlinewidth
[] 0 setdash
0 0 0 setrgbcolor
newpath
16943 7382 moveto
P$1o
17060 7382 moveto
P$1p
fill
0 setlinewidth
[] 0 setdash
0 0 0 setrgbcolor
newpath
17715 7719 moveto
P$2e
fill
0 setlinewidth
[] 0 setdash
0 0 0 setrgbcolor
newpath
18485 7977 moveto
P$1m
18589 7387 moveto
P$1n
fill
0 setlinewidth
[] 0 setdash
0 0 0 setrgbcolor
newpath
19625 7637 moveto
P$1j
19615 7380 moveto
P$1k
fill
0 setlinewidth
[] 0 setdash
0 0 0 setrgbcolor
newpath
19884 7719 moveto
P$1q
20725 7637 moveto
P$1j
20715 7380 moveto
P$1k
fill
0 setlinewidth
[] 0 setdash
0 0 0 setrgbcolor
newpath
20985 7719 moveto
P$1l
fill
0 setlinewidth
[] 0 setdash
0 0 0 setrgbcolor
newpath
22546 7502 moveto
P$1g
22171 7318 moveto
P$1h
fill
0 setlinewidth
[] 0 setdash
0 0 0 setrgbcolor
newpath
23035 7618 moveto
P$1f
fill
0 setlinewidth
[] 0 setdash
0 0 0 setrgbcolor
newpath
23184 7719 moveto
P$28
fill
0 setlinewidth
[] 0 setdash
0 0 0 setrgbcolor
newpath
23585 6921 moveto
P$25
23585 7719 moveto
P$26
fill
0 setlinewidth
[] 0 setdash
0 0 0 setrgbcolor
newpath
23825 7719 moveto
P$2f
fill
0 setlinewidth
[] 0 setdash
0 0 0 setrgbcolor
newpath
25025 7637 moveto
P$1j
25015 7380 moveto
P$1k
fill
0 setlinewidth
[] 0 setdash
0 0 0 setrgbcolor
newpath
25723 7719 moveto
P$1v
25362 7383 moveto
P$1w
fill
0 setlinewidth
[] 0 setdash
0 0 0 setrgbcolor
newpath
25943 7382 moveto
P$1o
26060 7382 moveto
P$2g
fill
0 setlinewidth
[] 0 setdash
0 0 0 setrgbcolor
newpath
1281 9614 moveto
P$2h
fill
0 setlinewidth
[] 0 setdash
0 0 0 setrgbcolor
newpath
2385 9612 moveto
P$1m
2489 9022 moveto
P$1n
fill
0 setlinewidth
[] 0 setdash
0 0 0 setrgbcolor
newpath
3525 9272 moveto
P$1j
3515 9015 moveto
P$1k
fill
0 setlinewidth
[] 0 setdash
0 0 0 setrgbcolor
newpath
3784 9354 moveto
P$1q
4625 9272 moveto
P$1j
4615 9015 moveto
P$1k
fill
0 setlinewidth
[] 0 setdash
0 0 0 setrgbcolor
newpath
4885 9354 moveto
P$1l
fill
0 setlinewidth
[] 0 setdash
0 0 0 setrgbcolor
newpath
6446 9137 moveto
P$1g
6071 8953 moveto
P$1h
fill
0 setlinewidth
[] 0 setdash
0 0 0 setrgbcolor
newpath
6935 9253 moveto
P$1f
fill
0 setlinewidth
[] 0 setdash
0 0 0 setrgbcolor
newpath
7084 9354 moveto
P$28
fill
0 setlinewidth
[] 0 setdash
0 0 0 setrgbcolor
newpath
7485 8556 moveto
P$25
7485 9354 moveto
P$26
fill
0 setlinewidth
[] 0 setdash
0 0 0 setrgbcolor
newpath
7725 9354 moveto
P$2f
fill
0 setlinewidth
[] 0 setdash
0 0 0 setrgbcolor
newpath
8925 9272 moveto
P$1j
8915 9015 moveto
P$1k
fill
0 setlinewidth
[] 0 setdash
0 0 0 setrgbcolor
newpath
9623 9354 moveto
P$1v
9262 9019 moveto
P$1w
fill
0 setlinewidth
[] 0 setdash
0 0 0 setrgbcolor
newpath
9843 9017 moveto
P$1o
9960 9017 moveto
P$2g
fill
1 1 0.87 setrgbcolor
newpath
600 11140 moveto
600 17046 lineto
22200 17046 lineto
22200 14493 lineto
35450 21535 lineto
22200 13693 lineto
22200 12140 lineto
21200 11140 lineto
600 11140 lineto
closepath eofill
50 setlinewidth
0.09 0.09 0.09 setrgbcolor
newpath
600 11140 moveto
600 17046 lineto
22200 17046 lineto
22200 14493 lineto
35450 21535 lineto
22200 13693 lineto
22200 12140 lineto
21200 11140 lineto
600 11140 lineto
stroke
1 1 0.87 setrgbcolor
newpath
21200 11140 moveto
21200 12140 lineto
22200 12140 lineto
21200 11140 lineto
closepath eofill
50 setlinewidth
0.09 0.09 0.09 setrgbcolor
newpath
21200 11140 moveto
21200 12140 lineto
22200 12140 lineto
21200 11140 lineto
stroke
0 setlinewidth
[] 0 setdash
0 0 0 setrgbcolor
newpath
1257 12691 moveto
P$2i
fill
0 setlinewidth
[] 0 setdash
0 0 0 setrgbcolor
newpath
2646 12772 moveto
P$1g
2271 12588 moveto
P$1h
fill
0 setlinewidth
[] 0 setdash
0 0 0 setrgbcolor
newpath
3723 12990 moveto
P$1v
3362 12654 moveto
P$1w
fill
0 setlinewidth
[] 0 setdash
0 0 0 setrgbcolor
newpath
4446 12772 moveto
P$1g
4071 12588 moveto
P$1h
fill
0 setlinewidth
[] 0 setdash
0 0 0 setrgbcolor
newpath
4873 12990 moveto
P$24
5143 12652 moveto
P$1o
5260 12652 moveto
P$1p
fill
0 setlinewidth
[] 0 setdash
0 0 0 setrgbcolor
newpath
5882 12990 moveto
P$1t
fill
0 setlinewidth
[] 0 setdash
0 0 0 setrgbcolor
newpath
6373 12990 moveto
P$24
7146 12772 moveto
P$1g
6771 12588 moveto
P$1h
fill
0 setlinewidth
[] 0 setdash
0 0 0 setrgbcolor
newpath
7384 12990 moveto
P$1q
8225 12907 moveto
P$1j
8215 12651 moveto
P$1r
7993 12232 moveto
P$1s
fill
0 setlinewidth
[] 0 setdash
0 0 0 setrgbcolor
newpath
8885 12191 moveto
P$25
8885 12990 moveto
P$26
fill
0 setlinewidth
[] 0 setdash
0 0 0 setrgbcolor
newpath
9185 12990 moveto
P$1u
fill
0 setlinewidth
[] 0 setdash
0 0 0 setrgbcolor
newpath
9912 12990 moveto
P$2d
10143 12652 moveto
P$1o
10260 12652 moveto
P$1p
fill
0 setlinewidth
[] 0 setdash
0 0 0 setrgbcolor
newpath
10884 12990 moveto
P$28
fill
0 setlinewidth
[] 0 setdash
0 0 0 setrgbcolor
newpath
11285 12990 moveto
P$1l
fill
0 setlinewidth
[] 0 setdash
0 0 0 setrgbcolor
newpath
12825 12907 moveto
P$1j
12815 12651 moveto
P$1k
fill
0 setlinewidth
[] 0 setdash
0 0 0 setrgbcolor
newpath
13525 12743 moveto
P$1i
fill
0 setlinewidth
[] 0 setdash
0 0 0 setrgbcolor
newpath
13785 12191 moveto
P$25
13785 12990 moveto
P$26
fill
0 setlinewidth
[] 0 setdash
0 0 0 setrgbcolor
newpath
14043 12652 moveto
P$1o
14160 12652 moveto
P$2g
14295 12232 moveto
P$1s
fill
0 setlinewidth
[] 0 setdash
0 0 0 setrgbcolor
newpath
14785 12990 moveto
P$2j
fill
0 setlinewidth
[] 0 setdash
0 0 0 setrgbcolor
newpath
1240 14423 moveto
P$1e
fill
0 setlinewidth
[] 0 setdash
0 0 0 setrgbcolor
newpath
1943 14287 moveto
P$1o
2060 14287 moveto
P$1p
fill
0 setlinewidth
[] 0 setdash
0 0 0 setrgbcolor
newpath
2790 14625 moveto
P$2k
2789 14283 moveto
P$2l
fill
0 setlinewidth
[] 0 setdash
0 0 0 setrgbcolor
newpath
3384 14625 moveto
P$1q
4246 14408 moveto
P$1g
3871 14223 moveto
P$1h
fill
0 setlinewidth
[] 0 setdash
0 0 0 setrgbcolor
newpath
5346 14408 moveto
P$1g
4971 14223 moveto
P$1h
fill
0 setlinewidth
[] 0 setdash
0 0 0 setrgbcolor
newpath
5582 14625 moveto
P$1t
fill
0 setlinewidth
[] 0 setdash
0 0 0 setrgbcolor
newpath
6725 14378 moveto
P$1i
fill
0 setlinewidth
[] 0 setdash
0 0 0 setrgbcolor
newpath
7425 14542 moveto
P$1j
7415 14286 moveto
P$1k
fill
0 setlinewidth
[] 0 setdash
0 0 0 setrgbcolor
newpath
7685 14625 moveto
P$1l
fill
0 setlinewidth
[] 0 setdash
0 0 0 setrgbcolor
newpath
8785 14883 moveto
P$1m
8889 14292 moveto
P$1n
fill
0 setlinewidth
[] 0 setdash
0 0 0 setrgbcolor
newpath
9443 14287 moveto
P$1o
9560 14287 moveto
P$1p
fill
0 setlinewidth
[] 0 setdash
0 0 0 setrgbcolor
newpath
11025 14378 moveto
P$1i
fill
0 setlinewidth
[] 0 setdash
0 0 0 setrgbcolor
newpath
11728 14625 moveto
P$23
fill
0 setlinewidth
[] 0 setdash
0 0 0 setrgbcolor
newpath
11981 14884 moveto
P$2h
fill
0 setlinewidth
[] 0 setdash
0 0 0 setrgbcolor
newpath
12643 14287 moveto
P$1o
12760 14287 moveto
P$2g
fill
0 setlinewidth
[] 0 setdash
0 0 0 setrgbcolor
newpath
1285 16260 moveto
P$1u
fill
0 setlinewidth
[] 0 setdash
0 0 0 setrgbcolor
newpath
1943 15922 moveto
P$1o
2060 15922 moveto
P$1p
fill
0 setlinewidth
[] 0 setdash
0 0 0 setrgbcolor
newpath
2685 16260 moveto
P$1l
fill
0 setlinewidth
[] 0 setdash
0 0 0 setrgbcolor
newpath
3890 16260 moveto
P$2k
3889 15918 moveto
P$2l
fill
0 setlinewidth
[] 0 setdash
0 0 0 setrgbcolor
newpath
4484 16260 moveto
P$1q
5346 16043 moveto
P$1g
4971 15858 moveto
P$1h
fill
0 setlinewidth
[] 0 setdash
0 0 0 setrgbcolor
newpath
5500 16276 moveto
P$2m
fill
0 setlinewidth
[] 0 setdash
0 0 0 setrgbcolor
newpath
5985 15462 moveto
P$25
5985 16260 moveto
P$26
fill
0 setlinewidth
[] 0 setdash
0 0 0 setrgbcolor
newpath
6723 16260 moveto
P$1v
6362 15924 moveto
P$1w
fill
0 setlinewidth
[] 0 setdash
0 0 0 setrgbcolor
newpath
7340 16058 moveto
P$1e
fill
0 setlinewidth
[] 0 setdash
0 0 0 setrgbcolor
newpath
8546 16043 moveto
P$1g
8171 15858 moveto
P$1h
fill
0 setlinewidth
[] 0 setdash
0 0 0 setrgbcolor
newpath
9185 16518 moveto
P$1m
9289 15927 moveto
P$1n
fill
0 setlinewidth
[] 0 setdash
0 0 0 setrgbcolor
newpath
10325 16177 moveto
P$1j
10315 15921 moveto
P$1k
fill
0 setlinewidth
[] 0 setdash
0 0 0 setrgbcolor
newpath
10540 16058 moveto
P$1e
fill
0 setlinewidth
[] 0 setdash
0 0 0 setrgbcolor
newpath
11746 16043 moveto
P$1g
11371 15858 moveto
P$1h
fill
0 setlinewidth
[] 0 setdash
0 0 0 setrgbcolor
newpath
12385 16518 moveto
P$1m
12489 15927 moveto
P$1n
fill
0 setlinewidth
[] 0 setdash
0 0 0 setrgbcolor
newpath
13043 15922 moveto
P$1o
13160 15922 moveto
P$1p
fill
0 setlinewidth
[] 0 setdash
0 0 0 setrgbcolor
newpath
13784 16260 moveto
P$28
fill
0 setlinewidth
[] 0 setdash
0 0 0 setrgbcolor
newpath
14585 16518 moveto
P$1m
14689 15927 moveto
P$1n
fill
0 setlinewidth
[] 0 setdash
0 0 0 setrgbcolor
newpath
15725 16177 moveto
P$1j
15715 15921 moveto
P$1k
fill
0 setlinewidth
[] 0 setdash
0 0 0 setrgbcolor
newpath
15984 16260 moveto
P$1q
16825 16177 moveto
P$1j
16815 15921 moveto
P$1r
16593 15502 moveto
P$1s
fill
0 setlinewidth
[] 0 setdash
0 0 0 setrgbcolor
newpath
17085 16260 moveto
P$1l
fill
0 setlinewidth
[] 0 setdash
0 0 0 setrgbcolor
newpath
18646 16043 moveto
P$1g
18271 15858 moveto
P$1h
fill
0 setlinewidth
[] 0 setdash
0 0 0 setrgbcolor
newpath
19135 16158 moveto
P$1f
fill
0 setlinewidth
[] 0 setdash
0 0 0 setrgbcolor
newpath
19284 16260 moveto
P$1q
19643 15922 moveto
P$1o
19760 15922 moveto
P$2g
fill
1 1 0.87 setrgbcolor
newpath
600 18046 moveto
600 22316 lineto
28300 22316 lineto
28300 20581 lineto
35450 30339 lineto
28300 19781 lineto
28300 19046 lineto
27300 18046 lineto
600 18046 lineto
closepath eofill
50 setlinewidth
0.09 0.09 0.09 setrgbcolor
newpath
600 18046 moveto
600 22316 lineto
28300 22316 lineto
28300 20581 lineto
35450 30339 lineto
28300 19781 lineto
28300 19046 lineto
27300 18046 lineto
600 18046 lineto
stroke
1 1 0.87 setrgbcolor
newpath
27300 18046 moveto
27300 19046 lineto
28300 19046 lineto
27300 18046 lineto
closepath eofill
50 setlinewidth
0.09 0.09 0.09 setrgbcolor
newpath
27300 18046 moveto
27300 19046 lineto
28300 19046 lineto
27300 18046 lineto
stroke
0 setlinewidth
[] 0 setdash
0 0 0 setrgbcolor
newpath
1257 19597 moveto
P$2i
fill
0 setlinewidth
[] 0 setdash
0 0 0 setrgbcolor
newpath
2646 19678 moveto
P$1g
2271 19494 moveto
P$1h
fill
0 setlinewidth
[] 0 setdash
0 0 0 setrgbcolor
newpath
3535 19794 moveto
P$1f
fill
0 setlinewidth
[] 0 setdash
0 0 0 setrgbcolor
newpath
3684 19895 moveto
P$1q
4525 19812 moveto
P$1j
4515 19556 moveto
P$1k
fill
0 setlinewidth
[] 0 setdash
0 0 0 setrgbcolor
newpath
4785 19895 moveto
P$1u
fill
0 setlinewidth
[] 0 setdash
0 0 0 setrgbcolor
newpath
5440 19694 moveto
P$1e
fill
0 setlinewidth
[] 0 setdash
0 0 0 setrgbcolor
newpath
6212 19895 moveto
P$2d
6443 19558 moveto
P$1o
6560 19558 moveto
P$1p
fill
0 setlinewidth
[] 0 setdash
0 0 0 setrgbcolor
newpath
7184 19895 moveto
P$28
fill
0 setlinewidth
[] 0 setdash
0 0 0 setrgbcolor
newpath
7585 19895 moveto
P$1l
fill
0 setlinewidth
[] 0 setdash
0 0 0 setrgbcolor
newpath
9125 19812 moveto
P$1j
9115 19556 moveto
P$1k
fill
0 setlinewidth
[] 0 setdash
0 0 0 setrgbcolor
newpath
9384 19895 moveto
P$1q
10225 19812 moveto
P$1j
10215 19556 moveto
P$1r
9993 19137 moveto
P$1s
fill
0 setlinewidth
[] 0 setdash
0 0 0 setrgbcolor
newpath
11346 19678 moveto
P$1g
10971 19494 moveto
P$1h
fill
0 setlinewidth
[] 0 setdash
0 0 0 setrgbcolor
newpath
11582 19895 moveto
P$1t
fill
0 setlinewidth
[] 0 setdash
0 0 0 setrgbcolor
newpath
12285 20153 moveto
P$1m
12389 19562 moveto
P$1n
fill
0 setlinewidth
[] 0 setdash
0 0 0 setrgbcolor
newpath
13425 19812 moveto
P$1j
13415 19556 moveto
P$1k
fill
0 setlinewidth
[] 0 setdash
0 0 0 setrgbcolor
newpath
14115 20153 moveto
P$21
13762 19556 moveto
P$22
fill
0 setlinewidth
[] 0 setdash
0 0 0 setrgbcolor
newpath
14828 19895 moveto
P$23
fill
0 setlinewidth
[] 0 setdash
0 0 0 setrgbcolor
newpath
15546 19678 moveto
P$1g
15171 19494 moveto
P$1h
fill
0 setlinewidth
[] 0 setdash
0 0 0 setrgbcolor
newpath
16035 19794 moveto
P$1f
fill
0 setlinewidth
[] 0 setdash
0 0 0 setrgbcolor
newpath
16646 19678 moveto
P$1g
16271 19494 moveto
P$27
fill
0 setlinewidth
[] 0 setdash
0 0 0 setrgbcolor
newpath
1306 21530 moveto
P$1x
fill
0 setlinewidth
[] 0 setdash
0 0 0 setrgbcolor
newpath
2337 21530 moveto
P$1y
fill
0 setlinewidth
[] 0 setdash
0 0 0 setrgbcolor
newpath
2800 21530 moveto
P$1z
2923 21043 moveto
P$20
fill
0 setlinewidth
[] 0 setdash
0 0 0 setrgbcolor
newpath
4546 21313 moveto
P$1g
4171 21129 moveto
P$1h
fill
0 setlinewidth
[] 0 setdash
0 0 0 setrgbcolor
newpath
4785 21530 moveto
P$1u
fill
0 setlinewidth
[] 0 setdash
0 0 0 setrgbcolor
newpath
6328 21530 moveto
P$23
fill
0 setlinewidth
[] 0 setdash
0 0 0 setrgbcolor
newpath
6585 21530 moveto
P$1u
fill
0 setlinewidth
[] 0 setdash
0 0 0 setrgbcolor
newpath
7685 21788 moveto
P$1m
7789 21197 moveto
P$1n
fill
0 setlinewidth
[] 0 setdash
0 0 0 setrgbcolor
newpath
8825 21447 moveto
P$1j
8815 21191 moveto
P$1k
fill
0 setlinewidth
[] 0 setdash
0 0 0 setrgbcolor
newpath
9081 21790 moveto
P$2h
fill
0 setlinewidth
[] 0 setdash
0 0 0 setrgbcolor
newpath
9782 21530 moveto
P$1t
fill
0 setlinewidth
[] 0 setdash
0 0 0 setrgbcolor
newpath
10043 21193 moveto
P$1o
10160 21193 moveto
P$1p
fill
0 setlinewidth
[] 0 setdash
0 0 0 setrgbcolor
newpath
11225 21447 moveto
P$1j
11215 21191 moveto
P$1k
fill
0 setlinewidth
[] 0 setdash
0 0 0 setrgbcolor
newpath
11923 21530 moveto
P$1v
11562 21194 moveto
P$1w
fill
0 setlinewidth
[] 0 setdash
0 0 0 setrgbcolor
newpath
13023 21530 moveto
P$1v
12662 21194 moveto
P$1w
fill
0 setlinewidth
[] 0 setdash
0 0 0 setrgbcolor
newpath
13746 21313 moveto
P$1g
13371 21129 moveto
P$1h
fill
0 setlinewidth
[] 0 setdash
0 0 0 setrgbcolor
newpath
14637 21530 moveto
P$2n
15764 21204 moveto
P$2c
fill
0 setlinewidth
[] 0 setdash
0 0 0 setrgbcolor
newpath
16000 21530 moveto
P$1z
16123 21043 moveto
P$20
fill
0 setlinewidth
[] 0 setdash
0 0 0 setrgbcolor
newpath
17104 21804 moveto
P$2o
fill
0 setlinewidth
[] 0 setdash
0 0 0 setrgbcolor
newpath
17565 21530 moveto
P$2p
fill
0 setlinewidth
[] 0 setdash
0 0 0 setrgbcolor
newpath
18646 21313 moveto
P$1g
18271 21129 moveto
P$1h
fill
0 setlinewidth
[] 0 setdash
0 0 0 setrgbcolor
newpath
19325 21283 moveto
P$1i
fill
0 setlinewidth
[] 0 setdash
0 0 0 setrgbcolor
newpath
19835 21429 moveto
P$1f
fill
0 setlinewidth
[] 0 setdash
0 0 0 setrgbcolor
newpath
19943 21193 moveto
P$1o
20060 21193 moveto
P$1p
fill
0 setlinewidth
[] 0 setdash
0 0 0 setrgbcolor
newpath
20684 21530 moveto
P$28
fill
0 setlinewidth
[] 0 setdash
0 0 0 setrgbcolor
newpath
21923 21530 moveto
P$1v
21562 21194 moveto
P$1w
fill
0 setlinewidth
[] 0 setdash
0 0 0 setrgbcolor
newpath
22646 21313 moveto
P$1g
22271 21129 moveto
P$1h
fill
0 setlinewidth
[] 0 setdash
0 0 0 setrgbcolor
newpath
23390 21530 moveto
P$2k
23389 21188 moveto
P$2l
fill
0 setlinewidth
[] 0 setdash
0 0 0 setrgbcolor
newpath
23981 21790 moveto
P$2h
fill
0 setlinewidth
[] 0 setdash
0 0 0 setrgbcolor
newpath
24935 21429 moveto
P$1f
fill
0 setlinewidth
[] 0 setdash
0 0 0 setrgbcolor
newpath
25546 21313 moveto
P$1g
25171 21129 moveto
P$1h
fill
0 setlinewidth
[] 0 setdash
0 0 0 setrgbcolor
newpath
25740 21329 moveto
P$1e
fill
0 setlinewidth
[] 0 setdash
0 0 0 setrgbcolor
newpath
26560 21804 moveto
P$2q
fill
1 1 0.87 setrgbcolor
newpath
600 23316 moveto
600 29221 lineto
26100 29221 lineto
26100 26669 lineto
35450 32100 lineto
26100 25869 lineto
26100 24316 lineto
25100 23316 lineto
600 23316 lineto
closepath eofill
50 setlinewidth
0.09 0.09 0.09 setrgbcolor
newpath
600 23316 moveto
600 29221 lineto
26100 29221 lineto
26100 26669 lineto
35450 32100 lineto
26100 25869 lineto
26100 24316 lineto
25100 23316 lineto
600 23316 lineto
stroke
1 1 0.87 setrgbcolor
newpath
25100 23316 moveto
25100 24316 lineto
26100 24316 lineto
25100 23316 lineto
closepath eofill
50 setlinewidth
0.09 0.09 0.09 setrgbcolor
newpath
25100 23316 moveto
25100 24316 lineto
26100 24316 lineto
25100 23316 lineto
stroke
0 setlinewidth
[] 0 setdash
0 0 0 setrgbcolor
newpath
1295 25165 moveto
P$2r
fill
0 setlinewidth
[] 0 setdash
0 0 0 setrgbcolor
newpath
2425 25083 moveto
P$1j
2415 24826 moveto
P$1k
fill
0 setlinewidth
[] 0 setdash
0 0 0 setrgbcolor
newpath
3112 25165 moveto
P$2d
3828 25165 moveto
P$23
fill
0 setlinewidth
[] 0 setdash
0 0 0 setrgbcolor
newpath
4085 25165 moveto
P$1u
fill
0 setlinewidth
[] 0 setdash
0 0 0 setrgbcolor
newpath
5225 24919 moveto
P$1i
fill
0 setlinewidth
[] 0 setdash
0 0 0 setrgbcolor
newpath
5485 24367 moveto
P$25
5485 25165 moveto
P$26
fill
0 setlinewidth
[] 0 setdash
0 0 0 setrgbcolor
newpath
5743 24828 moveto
P$1o
5860 24828 moveto
P$1p
fill
0 setlinewidth
[] 0 setdash
0 0 0 setrgbcolor
newpath
6485 25165 moveto
P$1u
fill
0 setlinewidth
[] 0 setdash
0 0 0 setrgbcolor
newpath
7540 24964 moveto
P$1e
fill
0 setlinewidth
[] 0 setdash
0 0 0 setrgbcolor
newpath
8746 24948 moveto
P$1g
8371 24764 moveto
P$1h
fill
0 setlinewidth
[] 0 setdash
0 0 0 setrgbcolor
newpath
8985 25165 moveto
P$1u
fill
0 setlinewidth
[] 0 setdash
0 0 0 setrgbcolor
newpath
10123 25165 moveto
P$1v
9762 24829 moveto
P$1w
fill
0 setlinewidth
[] 0 setdash
0 0 0 setrgbcolor
newpath
10400 25165 moveto
P$1z
10523 24678 moveto
P$20
fill
0 setlinewidth
[] 0 setdash
0 0 0 setrgbcolor
newpath
11725 25083 moveto
P$1j
11715 24826 moveto
P$1k
fill
0 setlinewidth
[] 0 setdash
0 0 0 setrgbcolor
newpath
12425 24919 moveto
P$1i
fill
0 setlinewidth
[] 0 setdash
0 0 0 setrgbcolor
newpath
12685 25165 moveto
P$2s
fill
0 setlinewidth
[] 0 setdash
0 0 0 setrgbcolor
newpath
13825 25083 moveto
P$1j
13815 24826 moveto
P$1k
fill
0 setlinewidth
[] 0 setdash
0 0 0 setrgbcolor
newpath
14064 25222 moveto
P$2t
14159 24817 moveto
P$2u
fill
0 setlinewidth
[] 0 setdash
0 0 0 setrgbcolor
newpath
15246 24948 moveto
P$1g
14871 24764 moveto
P$1h
fill
0 setlinewidth
[] 0 setdash
0 0 0 setrgbcolor
newpath
15840 24964 moveto
P$1e
fill
0 setlinewidth
[] 0 setdash
0 0 0 setrgbcolor
newpath
17046 24948 moveto
P$1g
16671 24764 moveto
P$1h
fill
0 setlinewidth
[] 0 setdash
0 0 0 setrgbcolor
newpath
17284 25165 moveto
P$1q
18125 25083 moveto
P$1j
18115 24826 moveto
P$1r
17893 24408 moveto
P$1s
fill
0 setlinewidth
[] 0 setdash
0 0 0 setrgbcolor
newpath
18782 25165 moveto
P$1t
fill
0 setlinewidth
[] 0 setdash
0 0 0 setrgbcolor
newpath
19525 25083 moveto
P$1j
19515 24826 moveto
P$1k
fill
0 setlinewidth
[] 0 setdash
0 0 0 setrgbcolor
newpath
20185 25423 moveto
P$1m
20289 24833 moveto
P$1n
fill
0 setlinewidth
[] 0 setdash
0 0 0 setrgbcolor
newpath
21328 25165 moveto
P$23
fill
0 setlinewidth
[] 0 setdash
0 0 0 setrgbcolor
newpath
21690 25165 moveto
P$2k
21689 24823 moveto
P$2l
fill
0 setlinewidth
[] 0 setdash
0 0 0 setrgbcolor
newpath
22282 25165 moveto
P$1t
fill
0 setlinewidth
[] 0 setdash
0 0 0 setrgbcolor
newpath
22585 24367 moveto
P$25
22585 25165 moveto
P$26
fill
0 setlinewidth
[] 0 setdash
0 0 0 setrgbcolor
newpath
23325 24919 moveto
P$1i
fill
0 setlinewidth
[] 0 setdash
0 0 0 setrgbcolor
newpath
24025 25083 moveto
P$1j
24015 24826 moveto
P$1k
fill
0 setlinewidth
[] 0 setdash
0 0 0 setrgbcolor
newpath
24315 25165 moveto
P$2v
fill
0 setlinewidth
[] 0 setdash
0 0 0 setrgbcolor
newpath
1728 26801 moveto
P$23
fill
0 setlinewidth
[] 0 setdash
0 0 0 setrgbcolor
newpath
1940 26599 moveto
P$1e
fill
0 setlinewidth
[] 0 setdash
0 0 0 setrgbcolor
newpath
3125 26718 moveto
P$1j
3115 26462 moveto
P$1k
fill
0 setlinewidth
[] 0 setdash
0 0 0 setrgbcolor
newpath
3384 26801 moveto
P$1q
4225 26718 moveto
P$1j
4215 26462 moveto
P$1r
3993 26043 moveto
P$1s
fill
0 setlinewidth
[] 0 setdash
0 0 0 setrgbcolor
newpath
4912 26801 moveto
P$2d
5435 26699 moveto
P$1f
fill
0 setlinewidth
[] 0 setdash
0 0 0 setrgbcolor
newpath
5585 27058 moveto
P$1m
5689 26468 moveto
P$1n
fill
0 setlinewidth
[] 0 setdash
0 0 0 setrgbcolor
newpath
6537 26801 moveto
P$2n
6943 26463 moveto
P$1o
7060 26463 moveto
P$1p
fill
0 setlinewidth
[] 0 setdash
0 0 0 setrgbcolor
newpath
7700 26801 moveto
P$1z
7823 26313 moveto
P$20
fill
0 setlinewidth
[] 0 setdash
0 0 0 setrgbcolor
newpath
9025 26718 moveto
P$1j
9015 26462 moveto
P$1k
fill
0 setlinewidth
[] 0 setdash
0 0 0 setrgbcolor
newpath
9281 27060 moveto
P$2h
fill
0 setlinewidth
[] 0 setdash
0 0 0 setrgbcolor
newpath
9982 26801 moveto
P$1t
fill
0 setlinewidth
[] 0 setdash
0 0 0 setrgbcolor
newpath
10243 26463 moveto
P$1o
10360 26463 moveto
P$1p
fill
0 setlinewidth
[] 0 setdash
0 0 0 setrgbcolor
newpath
11425 26718 moveto
P$1j
11415 26462 moveto
P$1k
fill
0 setlinewidth
[] 0 setdash
0 0 0 setrgbcolor
newpath
12123 26801 moveto
P$1v
11762 26465 moveto
P$1w
fill
0 setlinewidth
[] 0 setdash
0 0 0 setrgbcolor
newpath
12604 27074 moveto
P$2o
fill
0 setlinewidth
[] 0 setdash
0 0 0 setrgbcolor
newpath
12860 27074 moveto
P$2q
fill
0 setlinewidth
[] 0 setdash
0 0 0 setrgbcolor
newpath
1281 28695 moveto
P$2h
fill
0 setlinewidth
[] 0 setdash
0 0 0 setrgbcolor
newpath
2382 28436 moveto
P$1t
fill
0 setlinewidth
[] 0 setdash
0 0 0 setrgbcolor
newpath
2682 28436 moveto
P$1t
fill
0 setlinewidth
[] 0 setdash
0 0 0 setrgbcolor
newpath
3425 28353 moveto
P$1j
3415 28097 moveto
P$1k
fill
0 setlinewidth
[] 0 setdash
0 0 0 setrgbcolor
newpath
3685 28436 moveto
P$1l
fill
0 setlinewidth
[] 0 setdash
0 0 0 setrgbcolor
newpath
5225 28353 moveto
P$1j
5215 28097 moveto
P$1k
fill
0 setlinewidth
[] 0 setdash
0 0 0 setrgbcolor
newpath
5484 28436 moveto
P$1q
6325 28353 moveto
P$1j
6315 28097 moveto
P$1r
6093 27678 moveto
P$1s
fill
0 setlinewidth
[] 0 setdash
0 0 0 setrgbcolor
newpath
7425 28353 moveto
P$1j
7415 28097 moveto
P$1k
fill
0 setlinewidth
[] 0 setdash
0 0 0 setrgbcolor
newpath
8040 28234 moveto
P$1e
fill
0 setlinewidth
[] 0 setdash
0 0 0 setrgbcolor
newpath
9246 28219 moveto
P$1g
8871 28034 moveto
P$1h
fill
0 setlinewidth
[] 0 setdash
0 0 0 setrgbcolor
newpath
9485 28436 moveto
P$1u
fill
0 setlinewidth
[] 0 setdash
0 0 0 setrgbcolor
newpath
10623 28436 moveto
P$1v
10262 28100 moveto
P$1w
fill
0 setlinewidth
[] 0 setdash
0 0 0 setrgbcolor
newpath
10906 28436 moveto
P$1x
fill
0 setlinewidth
[] 0 setdash
0 0 0 setrgbcolor
newpath
11937 28436 moveto
P$1y
fill
0 setlinewidth
[] 0 setdash
0 0 0 setrgbcolor
newpath
12400 28436 moveto
P$1z
12523 27948 moveto
P$20
fill
0 setlinewidth
[] 0 setdash
0 0 0 setrgbcolor
newpath
13300 28436 moveto
P$1z
13423 27948 moveto
P$20
fill
0 setlinewidth
[] 0 setdash
0 0 0 setrgbcolor
newpath
14625 28353 moveto
P$1j
14615 28097 moveto
P$1k
fill
0 setlinewidth
[] 0 setdash
0 0 0 setrgbcolor
newpath
15325 28189 moveto
P$1i
fill
0 setlinewidth
[] 0 setdash
0 0 0 setrgbcolor
newpath
15585 28436 moveto
P$2s
fill
0 setlinewidth
[] 0 setdash
0 0 0 setrgbcolor
newpath
16725 28353 moveto
P$1j
16715 28097 moveto
P$1k
fill
0 setlinewidth
[] 0 setdash
0 0 0 setrgbcolor
newpath
16964 28492 moveto
P$2t
17059 28087 moveto
P$2u
fill
0 setlinewidth
[] 0 setdash
0 0 0 setrgbcolor
newpath
18146 28219 moveto
P$1g
17771 28034 moveto
P$27
fill
1 1 0.87 setrgbcolor
newpath
600 30221 moveto
600 41032 lineto
23800 41032 lineto
23800 36027 lineto
35450 33861 lineto
23800 35227 lineto
23800 31221 lineto
22800 30221 lineto
600 30221 lineto
closepath eofill
50 setlinewidth
0.09 0.09 0.09 setrgbcolor
newpath
600 30221 moveto
600 41032 lineto
23800 41032 lineto
23800 36027 lineto
35450 33861 lineto
23800 35227 lineto
23800 31221 lineto
22800 30221 lineto
600 30221 lineto
stroke
1 1 0.87 setrgbcolor
newpath
22800 30221 moveto
22800 31221 lineto
23800 31221 lineto
22800 30221 lineto
closepath eofill
50 setlinewidth
0.09 0.09 0.09 setrgbcolor
newpath
22800 30221 moveto
22800 31221 lineto
23800 31221 lineto
22800 30221 lineto
stroke
0 setlinewidth
[] 0 setdash
0 0 0 setrgbcolor
newpath
1910 31140 moveto
P$2w
fill
0 setlinewidth
[] 0 setdash
0 0 0 setrgbcolor
newpath
2185 32071 moveto
P$1u
fill
0 setlinewidth
[] 0 setdash
0 0 0 setrgbcolor
newpath
3325 31988 moveto
P$1j
3315 31732 moveto
P$1k
fill
0 setlinewidth
[] 0 setdash
0 0 0 setrgbcolor
newpath
4173 32071 moveto
P$24
4946 31854 moveto
P$1g
4571 31669 moveto
P$1h
fill
0 setlinewidth
[] 0 setdash
0 0 0 setrgbcolor
newpath
5125 32071 moveto
P$2f
fill
0 setlinewidth
[] 0 setdash
0 0 0 setrgbcolor
newpath
6240 31869 moveto
P$1e
fill
0 setlinewidth
[] 0 setdash
0 0 0 setrgbcolor
newpath
7446 31854 moveto
P$1g
7071 31669 moveto
P$1h
fill
0 setlinewidth
[] 0 setdash
0 0 0 setrgbcolor
newpath
8335 31969 moveto
P$1f
fill
0 setlinewidth
[] 0 setdash
0 0 0 setrgbcolor
newpath
8485 31272 moveto
P$25
8485 32071 moveto
P$26
fill
0 setlinewidth
[] 0 setdash
0 0 0 setrgbcolor
newpath
9246 31854 moveto
P$1g
8871 31669 moveto
P$1h
fill
0 setlinewidth
[] 0 setdash
0 0 0 setrgbcolor
newpath
9485 32071 moveto
P$1u
fill
0 setlinewidth
[] 0 setdash
0 0 0 setrgbcolor
newpath
10646 31854 moveto
P$1g
10271 31669 moveto
P$1h
fill
0 setlinewidth
[] 0 setdash
0 0 0 setrgbcolor
newpath
11746 31854 moveto
P$1g
11371 31669 moveto
P$1h
fill
0 setlinewidth
[] 0 setdash
0 0 0 setrgbcolor
newpath
11982 32071 moveto
P$1t
fill
0 setlinewidth
[] 0 setdash
0 0 0 setrgbcolor
newpath
12685 32329 moveto
P$1m
12789 31738 moveto
P$1n
fill
0 setlinewidth
[] 0 setdash
0 0 0 setrgbcolor
newpath
13825 31988 moveto
P$1j
13815 31732 moveto
P$1k
fill
0 setlinewidth
[] 0 setdash
0 0 0 setrgbcolor
newpath
14515 32329 moveto
P$21
14162 31732 moveto
P$22
fill
0 setlinewidth
[] 0 setdash
0 0 0 setrgbcolor
newpath
15228 32071 moveto
P$23
fill
0 setlinewidth
[] 0 setdash
0 0 0 setrgbcolor
newpath
15946 31854 moveto
P$1g
15571 31669 moveto
P$1h
fill
0 setlinewidth
[] 0 setdash
0 0 0 setrgbcolor
newpath
16435 31969 moveto
P$1f
fill
0 setlinewidth
[] 0 setdash
0 0 0 setrgbcolor
newpath
17046 31854 moveto
P$1g
16671 31669 moveto
P$27
fill
0 setlinewidth
[] 0 setdash
0 0 0 setrgbcolor
newpath
1746 33489 moveto
P$1g
1371 33304 moveto
P$1h
fill
0 setlinewidth
[] 0 setdash
0 0 0 setrgbcolor
newpath
1985 33706 moveto
P$1u
fill
0 setlinewidth
[] 0 setdash
0 0 0 setrgbcolor
newpath
3112 33706 moveto
P$2d
3343 33369 moveto
P$1o
3460 33369 moveto
P$1p
fill
0 setlinewidth
[] 0 setdash
0 0 0 setrgbcolor
newpath
4084 33706 moveto
P$28
fill
0 setlinewidth
[] 0 setdash
0 0 0 setrgbcolor
newpath
4485 33706 moveto
P$1l
fill
0 setlinewidth
[] 0 setdash
0 0 0 setrgbcolor
newpath
6025 33623 moveto
P$1j
6015 33367 moveto
P$1k
fill
0 setlinewidth
[] 0 setdash
0 0 0 setrgbcolor
newpath
6535 33604 moveto
P$1f
fill
0 setlinewidth
[] 0 setdash
0 0 0 setrgbcolor
newpath
6643 33369 moveto
P$1o
6760 33369 moveto
P$1p
fill
0 setlinewidth
[] 0 setdash
0 0 0 setrgbcolor
newpath
8223 33706 moveto
P$1v
7862 33370 moveto
P$1w
fill
0 setlinewidth
[] 0 setdash
0 0 0 setrgbcolor
newpath
8946 33489 moveto
P$1g
8571 33304 moveto
P$1h
fill
0 setlinewidth
[] 0 setdash
0 0 0 setrgbcolor
newpath
9690 33706 moveto
P$2k
9689 33364 moveto
P$2l
fill
0 setlinewidth
[] 0 setdash
0 0 0 setrgbcolor
newpath
10281 33965 moveto
P$2h
fill
0 setlinewidth
[] 0 setdash
0 0 0 setrgbcolor
newpath
11235 33604 moveto
P$1f
fill
0 setlinewidth
[] 0 setdash
0 0 0 setrgbcolor
newpath
11846 33489 moveto
P$1g
11471 33304 moveto
P$1h
fill
0 setlinewidth
[] 0 setdash
0 0 0 setrgbcolor
newpath
12040 33504 moveto
P$1e
fill
0 setlinewidth
[] 0 setdash
0 0 0 setrgbcolor
newpath
12815 33706 moveto
P$2e
fill
0 setlinewidth
[] 0 setdash
0 0 0 setrgbcolor
newpath
13540 33504 moveto
P$1e
fill
0 setlinewidth
[] 0 setdash
0 0 0 setrgbcolor
newpath
14746 33489 moveto
P$1g
14371 33304 moveto
P$1h
fill
0 setlinewidth
[] 0 setdash
0 0 0 setrgbcolor
newpath
15825 33623 moveto
P$1j
15815 33367 moveto
P$1k
fill
0 setlinewidth
[] 0 setdash
0 0 0 setrgbcolor
newpath
16525 33459 moveto
P$1i
fill
0 setlinewidth
[] 0 setdash
0 0 0 setrgbcolor
newpath
17035 33604 moveto
P$1f
fill
0 setlinewidth
[] 0 setdash
0 0 0 setrgbcolor
newpath
17628 33706 moveto
P$23
fill
0 setlinewidth
[] 0 setdash
0 0 0 setrgbcolor
newpath
18325 33623 moveto
P$1j
18315 33367 moveto
P$1k
fill
0 setlinewidth
[] 0 setdash
0 0 0 setrgbcolor
newpath
18582 33706 moveto
P$1t
fill
0 setlinewidth
[] 0 setdash
0 0 0 setrgbcolor
newpath
18885 32908 moveto
P$25
18885 33706 moveto
P$26
fill
0 setlinewidth
[] 0 setdash
0 0 0 setrgbcolor
newpath
19125 33706 moveto
P$2f
fill
0 setlinewidth
[] 0 setdash
0 0 0 setrgbcolor
newpath
20325 33623 moveto
P$1j
20315 33367 moveto
P$1k
fill
0 setlinewidth
[] 0 setdash
0 0 0 setrgbcolor
newpath
20584 33706 moveto
P$1q
21425 33623 moveto
P$1j
21415 33367 moveto
P$1r
21193 32948 moveto
P$1s
fill
0 setlinewidth
[] 0 setdash
0 0 0 setrgbcolor
newpath
21685 33706 moveto
P$2j
fill
0 setlinewidth
[] 0 setdash
0 0 0 setrgbcolor
newpath
1746 35124 moveto
P$1g
1371 34940 moveto
P$1h
fill
0 setlinewidth
[] 0 setdash
0 0 0 setrgbcolor
newpath
1982 35341 moveto
P$1t
fill
0 setlinewidth
[] 0 setdash
0 0 0 setrgbcolor
newpath
2685 35599 moveto
P$1m
2789 35008 moveto
P$1n
fill
0 setlinewidth
[] 0 setdash
0 0 0 setrgbcolor
newpath
3825 35258 moveto
P$1j
3815 35002 moveto
P$1k
fill
0 setlinewidth
[] 0 setdash
0 0 0 setrgbcolor
newpath
4515 35599 moveto
P$21
4162 35002 moveto
P$22
fill
0 setlinewidth
[] 0 setdash
0 0 0 setrgbcolor
newpath
5228 35341 moveto
P$23
fill
0 setlinewidth
[] 0 setdash
0 0 0 setrgbcolor
newpath
5946 35124 moveto
P$1g
5571 34940 moveto
P$1h
fill
0 setlinewidth
[] 0 setdash
0 0 0 setrgbcolor
newpath
6435 35240 moveto
P$1f
fill
0 setlinewidth
[] 0 setdash
0 0 0 setrgbcolor
newpath
7046 35124 moveto
P$1g
6671 34940 moveto
P$1h
fill
0 setlinewidth
[] 0 setdash
0 0 0 setrgbcolor
newpath
7937 35341 moveto
P$2n
9064 35015 moveto
P$2c
fill
0 setlinewidth
[] 0 setdash
0 0 0 setrgbcolor
newpath
9300 35341 moveto
P$1z
9423 34854 moveto
P$20
fill
0 setlinewidth
[] 0 setdash
0 0 0 setrgbcolor
newpath
11025 35094 moveto
P$1i
fill
0 setlinewidth
[] 0 setdash
0 0 0 setrgbcolor
newpath
11243 35004 moveto
P$1o
11360 35004 moveto
P$1p
fill
0 setlinewidth
[] 0 setdash
0 0 0 setrgbcolor
newpath
11985 35341 moveto
P$1u
fill
0 setlinewidth
[] 0 setdash
0 0 0 setrgbcolor
newpath
13546 35124 moveto
P$1g
13171 34940 moveto
P$1h
fill
0 setlinewidth
[] 0 setdash
0 0 0 setrgbcolor
newpath
13740 35140 moveto
P$1e
fill
0 setlinewidth
[] 0 setdash
0 0 0 setrgbcolor
newpath
14735 35240 moveto
P$1f
fill
0 setlinewidth
[] 0 setdash
0 0 0 setrgbcolor
newpath
15346 35124 moveto
P$1g
14971 34940 moveto
P$1h
fill
0 setlinewidth
[] 0 setdash
0 0 0 setrgbcolor
newpath
15985 35599 moveto
P$1m
16089 35008 moveto
P$1n
fill
0 setlinewidth
[] 0 setdash
0 0 0 setrgbcolor
newpath
17125 35258 moveto
P$1j
17115 35002 moveto
P$1k
fill
0 setlinewidth
[] 0 setdash
0 0 0 setrgbcolor
newpath
17381 35601 moveto
P$2h
fill
0 setlinewidth
[] 0 setdash
0 0 0 setrgbcolor
newpath
18082 35341 moveto
P$1t
fill
0 setlinewidth
[] 0 setdash
0 0 0 setrgbcolor
newpath
18343 35004 moveto
P$1o
18460 35004 moveto
P$1p
fill
0 setlinewidth
[] 0 setdash
0 0 0 setrgbcolor
newpath
19525 35258 moveto
P$1j
19515 35002 moveto
P$1k
fill
0 setlinewidth
[] 0 setdash
0 0 0 setrgbcolor
newpath
20223 35341 moveto
P$1v
19862 35005 moveto
P$1w
fill
0 setlinewidth
[] 0 setdash
0 0 0 setrgbcolor
newpath
20881 35601 moveto
P$2x
fill
0 setlinewidth
[] 0 setdash
0 0 0 setrgbcolor
newpath
1746 36759 moveto
P$1g
1371 36575 moveto
P$1h
fill
0 setlinewidth
[] 0 setdash
0 0 0 setrgbcolor
newpath
1982 36976 moveto
P$1t
fill
0 setlinewidth
[] 0 setdash
0 0 0 setrgbcolor
newpath
2935 36875 moveto
P$1f
fill
0 setlinewidth
[] 0 setdash
0 0 0 setrgbcolor
newpath
3525 36894 moveto
P$1j
3515 36637 moveto
P$1k
fill
0 setlinewidth
[] 0 setdash
0 0 0 setrgbcolor
newpath
3785 36976 moveto
P$1l
fill
0 setlinewidth
[] 0 setdash
0 0 0 setrgbcolor
newpath
5325 36894 moveto
P$1j
5315 36637 moveto
P$1k
fill
0 setlinewidth
[] 0 setdash
0 0 0 setrgbcolor
newpath
5585 36976 moveto
P$2j
5667 36203 moveto
P$2y
fill
0 setlinewidth
[] 0 setdash
0 0 0 setrgbcolor
newpath
6243 36639 moveto
P$1o
6360 36639 moveto
P$1p
fill
0 setlinewidth
[] 0 setdash
0 0 0 setrgbcolor
newpath
7635 36875 moveto
P$1f
fill
0 setlinewidth
[] 0 setdash
0 0 0 setrgbcolor
newpath
7743 36639 moveto
P$1o
7860 36639 moveto
P$1p
fill
0 setlinewidth
[] 0 setdash
0 0 0 setrgbcolor
newpath
8735 36875 moveto
P$1f
fill
0 setlinewidth
[] 0 setdash
0 0 0 setrgbcolor
newpath
9325 36894 moveto
P$1j
9315 36637 moveto
P$1k
fill
0 setlinewidth
[] 0 setdash
0 0 0 setrgbcolor
newpath
9582 36976 moveto
P$1t
fill
0 setlinewidth
[] 0 setdash
0 0 0 setrgbcolor
newpath
10240 36775 moveto
P$1e
fill
0 setlinewidth
[] 0 setdash
0 0 0 setrgbcolor
newpath
11428 36976 moveto
P$23
fill
0 setlinewidth
[] 0 setdash
0 0 0 setrgbcolor
newpath
11685 36976 moveto
P$1l
fill
0 setlinewidth
[] 0 setdash
0 0 0 setrgbcolor
newpath
13225 36894 moveto
P$1j
13215 36637 moveto
P$1k
fill
0 setlinewidth
[] 0 setdash
0 0 0 setrgbcolor
newpath
13485 36976 moveto
P$1u
fill
0 setlinewidth
[] 0 setdash
0 0 0 setrgbcolor
newpath
14623 36976 moveto
P$1v
14262 36640 moveto
P$1w
fill
0 setlinewidth
[] 0 setdash
0 0 0 setrgbcolor
newpath
14843 36639 moveto
P$1o
14960 36639 moveto
P$1p
fill
0 setlinewidth
[] 0 setdash
0 0 0 setrgbcolor
newpath
15582 36976 moveto
P$1t
fill
0 setlinewidth
[] 0 setdash
0 0 0 setrgbcolor
newpath
16346 36759 moveto
P$1g
15971 36575 moveto
P$1h
fill
0 setlinewidth
[] 0 setdash
0 0 0 setrgbcolor
newpath
17446 36759 moveto
P$1g
17071 36575 moveto
P$1h
fill
0 setlinewidth
[] 0 setdash
0 0 0 setrgbcolor
newpath
17682 36976 moveto
P$1t
fill
0 setlinewidth
[] 0 setdash
0 0 0 setrgbcolor
newpath
18823 36976 moveto
P$1v
18462 36640 moveto
P$1w
fill
0 setlinewidth
[] 0 setdash
0 0 0 setrgbcolor
newpath
19546 36759 moveto
P$1g
19171 36575 moveto
P$27
fill
0 setlinewidth
[] 0 setdash
0 0 0 setrgbcolor
newpath
1746 38394 moveto
P$1g
1371 38210 moveto
P$1h
fill
0 setlinewidth
[] 0 setdash
0 0 0 setrgbcolor
newpath
1940 38410 moveto
P$1e
fill
0 setlinewidth
[] 0 setdash
0 0 0 setrgbcolor
newpath
2935 38510 moveto
P$1f
fill
0 setlinewidth
[] 0 setdash
0 0 0 setrgbcolor
newpath
3546 38394 moveto
P$1g
3171 38210 moveto
P$1h
fill
0 setlinewidth
[] 0 setdash
0 0 0 setrgbcolor
newpath
4185 38869 moveto
P$1m
4289 38279 moveto
P$1n
fill
0 setlinewidth
[] 0 setdash
0 0 0 setrgbcolor
newpath
5325 38529 moveto
P$1j
5315 38272 moveto
P$1k
fill
0 setlinewidth
[] 0 setdash
0 0 0 setrgbcolor
newpath
6015 38869 moveto
P$21
5662 38272 moveto
P$22
fill
0 setlinewidth
[] 0 setdash
0 0 0 setrgbcolor
newpath
6728 38612 moveto
P$23
fill
0 setlinewidth
[] 0 setdash
0 0 0 setrgbcolor
newpath
7446 38394 moveto
P$1g
7071 38210 moveto
P$1h
fill
0 setlinewidth
[] 0 setdash
0 0 0 setrgbcolor
newpath
7935 38510 moveto
P$1f
fill
0 setlinewidth
[] 0 setdash
0 0 0 setrgbcolor
newpath
8546 38394 moveto
P$1g
8171 38210 moveto
P$1h
fill
0 setlinewidth
[] 0 setdash
0 0 0 setrgbcolor
newpath
9181 38871 moveto
P$2h
fill
0 setlinewidth
[] 0 setdash
0 0 0 setrgbcolor
newpath
10240 38410 moveto
P$1e
fill
0 setlinewidth
[] 0 setdash
0 0 0 setrgbcolor
newpath
11446 38394 moveto
P$1g
11071 38210 moveto
P$1h
fill
0 setlinewidth
[] 0 setdash
0 0 0 setrgbcolor
newpath
12082 38612 moveto
P$1t
fill
0 setlinewidth
[] 0 setdash
0 0 0 setrgbcolor
newpath
12382 38612 moveto
P$1t
fill
0 setlinewidth
[] 0 setdash
0 0 0 setrgbcolor
newpath
13125 38529 moveto
P$1j
13115 38272 moveto
P$1k
fill
0 setlinewidth
[] 0 setdash
0 0 0 setrgbcolor
newpath
13385 38612 moveto
P$1l
fill
0 setlinewidth
[] 0 setdash
0 0 0 setrgbcolor
newpath
14925 38529 moveto
P$1j
14915 38272 moveto
P$1k
fill
0 setlinewidth
[] 0 setdash
0 0 0 setrgbcolor
newpath
15184 38612 moveto
P$1q
16025 38529 moveto
P$1j
16015 38272 moveto
P$1r
15793 37854 moveto
P$1s
fill
0 setlinewidth
[] 0 setdash
0 0 0 setrgbcolor
newpath
17125 38529 moveto
P$1j
17115 38272 moveto
P$1k
fill
0 setlinewidth
[] 0 setdash
0 0 0 setrgbcolor
newpath
17382 38612 moveto
P$1t
fill
0 setlinewidth
[] 0 setdash
0 0 0 setrgbcolor
newpath
18546 38394 moveto
P$1g
18171 38210 moveto
P$1h
fill
0 setlinewidth
[] 0 setdash
0 0 0 setrgbcolor
newpath
18785 38612 moveto
P$1u
fill
0 setlinewidth
[] 0 setdash
0 0 0 setrgbcolor
newpath
19673 38612 moveto
P$24
20025 38612 moveto
P$2z
20020 37854 moveto
P$30
20243 38274 moveto
P$1o
20360 38274 moveto
P$2g
fill
0 setlinewidth
[] 0 setdash
0 0 0 setrgbcolor
newpath
1723 40247 moveto
P$1v
1362 39911 moveto
P$1w
fill
0 setlinewidth
[] 0 setdash
0 0 0 setrgbcolor
newpath
2446 40029 moveto
P$1g
2071 39845 moveto
P$1h
fill
0 setlinewidth
[] 0 setdash
0 0 0 setrgbcolor
newpath
2682 40247 moveto
P$1t
fill
0 setlinewidth
[] 0 setdash
0 0 0 setrgbcolor
newpath
3385 40504 moveto
P$1m
3489 39914 moveto
P$1n
fill
0 setlinewidth
[] 0 setdash
0 0 0 setrgbcolor
newpath
4525 40164 moveto
P$1j
4515 39908 moveto
P$1k
fill
0 setlinewidth
[] 0 setdash
0 0 0 setrgbcolor
newpath
5215 40504 moveto
P$21
4862 39908 moveto
P$22
fill
0 setlinewidth
[] 0 setdash
0 0 0 setrgbcolor
newpath
5928 40247 moveto
P$23
fill
0 setlinewidth
[] 0 setdash
0 0 0 setrgbcolor
newpath
6646 40029 moveto
P$1g
6271 39845 moveto
P$1h
fill
0 setlinewidth
[] 0 setdash
0 0 0 setrgbcolor
newpath
7135 40145 moveto
P$1f
fill
0 setlinewidth
[] 0 setdash
0 0 0 setrgbcolor
newpath
7746 40029 moveto
P$1g
7371 39845 moveto
P$1h
fill
0 setlinewidth
[] 0 setdash
0 0 0 setrgbcolor
newpath
8637 40247 moveto
P$2n
9764 39920 moveto
P$2c
fill
0 setlinewidth
[] 0 setdash
0 0 0 setrgbcolor
newpath
10000 40247 moveto
P$1z
10123 39759 moveto
P$29
fill
grestore
showpage
%plantuml done
%%EOF
