%!PS-Adobe-3.0 EPSF-3.0
%%Creator: PlantUML v1.2022.7       
%%Title: noTitle
%%BoundingBox: 0 0 506 147
%%ColorUsage: Color
%%Origin: 0 0
%%EndComments

gsave
0 147 translate
.01 -.01 scale
/simplerect {
newpath moveto 1 index 0 rlineto
0 exch rlineto
neg 0 rlineto
} def
/roundrect {
newpath
dup 3 index add 2 index 2 index add 2 index 180 270 arc
2 index 5 index add 1 index sub 2 index 2 index add 2 index 270 0 arc
2 index 5 index add 1 index sub 2 index 5 index add 2 index sub 2 index 0 90 arc
dup 3 index add 2 index 5 index add 2 index sub 2 index 90 180 arc
pop pop pop pop pop 
} def
/rquadto {
3 index 3 index 4 2 roll rcurveto
} def
/P$1c {
84 -178 rlineto
150 0 rlineto
-139 178 rlineto
-95 0 rlineto
closepath
} def
/P$6 {
0 -1001 rlineto
123 0 rlineto
0 1001 rlineto
-123 0 rlineto
} def
/P$10 {
0 -98 rlineto
-79 114 -214 114 rquadto
-59 0 -112 -23 rquadto
-51 -23 -76 -57 rquadto
-25 -34 -34 -84 rquadto
-7 -32 -7 -106 rquadto
0 -417 rlineto
114 0 rlineto
0 373 rlineto
0 89 7 120 rquadto
10 45 45 71 rquadto
34 25 85 25 rquadto
51 0 96 -26 rquadto
45 -26 64 -71 rquadto
18 -45 18 -131 rquadto
0 -360 rlineto
114 0 rlineto
0 673 rlineto
-101 0 rlineto
} def
/P$j {
0 -726 rlineto
110 0 rlineto
0 103 rlineto
32 -54 89 -85 rquadto
57 -32 129 -32 rquadto
81 0 132 34 rquadto
51 32 73 92 rquadto
85 -126 223 -126 rquadto
107 0 165 59 rquadto
59 59 59 184 rquadto
0 498 rlineto
-123 0 rlineto
0 -457 rlineto
0 -73 -12 -106 rquadto
-10 -32 -42 -51 rquadto
-31 -20 -73 -20 rquadto
-76 0 -128 51 rquadto
-50 50 -50 162 rquadto
0 421 rlineto
-123 0 rlineto
0 -471 rlineto
0 -81 -29 -121 rquadto
-29 -42 -98 -42 rquadto
-51 0 -96 28 rquadto
-43 26 -64 79 rquadto
-18 51 -18 151 rquadto
0 376 rlineto
-123 0 rlineto
} def
/P$1p {
0 -129 rlineto
129 0 rlineto
0 129 rlineto
0 71 -25 115 rquadto
-25 43 -81 68 rquadto
-31 -48 rlineto
35 -17 53 -48 rquadto
17 -29 18 -87 rquadto
-64 0 rlineto
closepath
} def
/P$7 {
0 -201 112 -300 rquadto
92 -79 228 -79 rquadto
148 0 243 98 rquadto
95 96 95 270 rquadto
0 140 -42 221 rquadto
-42 79 -123 125 rquadto
-79 43 -173 43 rquadto
-153 0 -246 -98 rquadto
-93 -98 -93 -281 rquadto
closepath
} def
/P$v {
112 -17 rlineto
9 67 53 104 rquadto
43 35 121 35 rquadto
78 0 115 -31 rquadto
39 -32 39 -76 rquadto
0 -39 -34 -60 rquadto
-23 -15 -117 -39 rquadto
-125 -31 -173 -54 rquadto
-48 -23 -73 -64 rquadto
-25 -40 -25 -90 rquadto
0 -45 20 -82 rquadto
20 -39 56 -64 rquadto
26 -20 71 -32 rquadto
46 -14 100 -14 rquadto
78 0 137 23 rquadto
60 21 89 60 rquadto
29 39 40 104 rquadto
-112 15 rlineto
-7 -53 -43 -81 rquadto
-35 -29 -103 -29 rquadto
-78 0 -112 26 rquadto
-34 25 -34 60 rquadto
0 21 14 39 rquadto
14 18 43 31 rquadto
17 6 101 28 rquadto
121 32 168 53 rquadto
48 20 75 60 rquadto
28 39 28 96 rquadto
0 57 -34 107 rquadto
-32 50 -95 78 rquadto
-62 28 -142 28 rquadto
-131 0 -200 -54 rquadto
-68 -54 -87 -162 rquadto
} def
/P$13 {
0 -132 rlineto
114 0 rlineto
0 132 rlineto
-114 0 rlineto
closepath
} def
/P$1t {
84 -178 rlineto
150 0 rlineto
-139 178 rlineto
-95 0 rlineto
} def
/P$q {
118 17 rlineto
7 54 42 81 rquadto
45 32 125 32 rquadto
85 0 131 -34 rquadto
46 -32 64 -95 rquadto
9 -37 7 -157 rquadto
-79 95 -200 95 rquadto
-150 0 -232 -107 rquadto
-81 -107 -81 -259 rquadto
0 -103 37 -190 rquadto
37 -89 107 -135 rquadto
71 -48 168 -48 rquadto
128 0 212 103 rquadto
0 -87 rlineto
112 0 rlineto
0 628 rlineto
0 170 -34 240 rquadto
-34 70 -109 110 rquadto
-75 42 -184 42 rquadto
-129 0 -209 -59 rquadto
-79 -57 -76 -175 rquadto
closepath
} def
/P$i {
0 -726 rlineto
121 0 rlineto
0 726 rlineto
-121 0 rlineto
} def
/P$l {
17 107 rlineto
-51 10 -92 10 rquadto
-67 0 -104 -20 rquadto
-35 -21 -51 -56 rquadto
-14 -34 -14 -145 rquadto
0 -417 rlineto
-90 0 rlineto
0 -96 rlineto
90 0 rlineto
0 -179 rlineto
121 -73 rlineto
0 253 rlineto
123 0 rlineto
0 96 rlineto
-123 0 rlineto
0 423 rlineto
0 53 6 68 rquadto
6 14 20 23 rquadto
15 9 42 9 rquadto
21 0 54 -4 rquadto
closepath
} def
/P$5 {
-14 -115 rlineto
40 10 70 10 rquadto
40 0 65 -14 rquadto
25 -12 40 -37 rquadto
10 -18 37 -92 rquadto
3 -9 10 -29 rquadto
-276 -728 rlineto
132 0 rlineto
151 420 rlineto
29 81 53 168 rquadto
20 -84 50 -165 rquadto
154 -423 rlineto
123 0 rlineto
-276 739 rlineto
-43 118 -68 164 rquadto
-32 60 -75 89 rquadto
-42 29 -101 29 rquadto
-34 0 -78 -15 rquadto
} def
/P$z {
0 -585 rlineto
-100 0 rlineto
0 -87 rlineto
100 0 rlineto
0 -71 rlineto
0 -68 12 -101 rquadto
17 -43 57 -71 rquadto
42 -28 117 -28 rquadto
48 0 106 12 rquadto
-17 98 rlineto
-35 -6 -67 -6 rquadto
-51 0 -73 23 rquadto
-21 21 -21 82 rquadto
0 62 rlineto
131 0 rlineto
0 87 rlineto
-131 0 rlineto
0 585 rlineto
-114 0 rlineto
closepath
} def
/P$16 {
0 129 56 195 rquadto
56 64 142 64 rquadto
84 0 140 -64 rquadto
57 -65 57 -198 rquadto
0 -125 -57 -189 rquadto
-56 -65 -140 -65 rquadto
-85 0 -142 64 rquadto
-56 64 -56 193 rquadto
} def
/P$a {
0 139 57 209 rquadto
59 68 139 68 rquadto
81 0 137 -65 rquadto
56 -67 56 -201 rquadto
0 -150 -57 -218 rquadto
-57 -70 -140 -70 rquadto
-82 0 -137 67 rquadto
-54 67 -54 210 rquadto
closepath
} def
/P$1v {
376 0 rlineto
-7 -85 -43 -128 rquadto
-54 -65 -140 -65 rquadto
-79 0 -132 53 rquadto
-53 51 -59 140 rquadto
closepath
} def
/P$1k {
0 129 53 192 rquadto
53 62 126 62 rquadto
76 0 131 -64 rquadto
54 -65 54 -200 rquadto
0 -129 -53 -193 rquadto
-53 -64 -126 -64 rquadto
-73 0 -129 68 rquadto
-56 67 -56 198 rquadto
} def
/P$19 {
376 0 rlineto
-7 -85 -43 -128 rquadto
-54 -65 -140 -65 rquadto
-79 0 -132 53 rquadto
-53 51 -59 140 rquadto
} def
/P$1d {
0 -931 rlineto
114 0 rlineto
0 931 rlineto
-114 0 rlineto
} def
/P$1r {
0 129 56 195 rquadto
56 64 142 64 rquadto
84 0 140 -64 rquadto
57 -65 57 -198 rquadto
0 -125 -57 -189 rquadto
-56 -65 -140 -65 rquadto
-85 0 -142 64 rquadto
-56 64 -56 193 rquadto
closepath
} def
/P$11 {
0 -673 rlineto
103 0 rlineto
0 95 rlineto
73 -110 214 -110 rquadto
60 0 110 21 rquadto
51 21 76 57 rquadto
26 34 35 84 rquadto
6 31 6 110 rquadto
0 414 rlineto
-114 0 rlineto
0 -409 rlineto
0 -70 -14 -104 rquadto
-12 -34 -46 -54 rquadto
-32 -21 -78 -21 rquadto
-73 0 -126 46 rquadto
-53 45 -53 175 rquadto
0 368 rlineto
-114 0 rlineto
} def
/P$1l {
-14 -106 rlineto
37 9 65 9 rquadto
39 0 60 -12 rquadto
23 -12 37 -35 rquadto
10 -17 35 -84 rquadto
3 -9 9 -28 rquadto
-256 -675 rlineto
123 0 rlineto
140 389 rlineto
26 75 48 156 rquadto
20 -78 46 -153 rquadto
145 -392 rlineto
114 0 rlineto
-256 684 rlineto
-42 110 -64 153 rquadto
-31 56 -70 82 rquadto
-39 26 -93 26 rquadto
-32 0 -73 -14 rquadto
} def
/P$n {
17 107 rlineto
-51 10 -92 10 rquadto
-67 0 -104 -20 rquadto
-35 -21 -51 -56 rquadto
-14 -34 -14 -145 rquadto
0 -417 rlineto
-90 0 rlineto
0 -96 rlineto
90 0 rlineto
0 -179 rlineto
121 -73 rlineto
0 253 rlineto
123 0 rlineto
0 96 rlineto
-123 0 rlineto
0 423 rlineto
0 53 6 68 rquadto
6 14 20 23 rquadto
15 9 42 9 rquadto
21 0 54 -4 rquadto
} def
/P$2 {
259 0 rlineto
128 0 181 -48 rquadto
54 -48 54 -134 rquadto
0 -64 -31 -107 rquadto
-31 -45 -84 -59 rquadto
-32 -9 -123 -9 rquadto
-256 0 rlineto
0 359 rlineto
} def
/P$4 {
-67 26 -201 46 rquadto
-75 10 -107 25 rquadto
-31 12 -48 39 rquadto
-17 26 -17 57 rquadto
0 50 37 82 rquadto
37 32 109 32 rquadto
71 0 126 -31 rquadto
54 -31 81 -85 rquadto
20 -40 20 -121 rquadto
0 -45 rlineto
} def
/P$1o {
0 129 54 195 rquadto
54 65 131 65 rquadto
73 0 125 -62 rquadto
53 -62 53 -187 rquadto
0 -135 -56 -203 rquadto
-54 -68 -129 -68 rquadto
-73 0 -126 64 rquadto
-51 62 -51 196 rquadto
} def
/P$u {
0 -931 rlineto
671 0 rlineto
0 110 rlineto
-548 0 rlineto
0 284 rlineto
514 0 rlineto
0 109 rlineto
-514 0 rlineto
0 317 rlineto
570 0 rlineto
0 109 rlineto
-693 0 rlineto
} def
/P$1g {
0 -84 rlineto
-64 100 -189 100 rquadto
-79 0 -148 -43 rquadto
-67 -45 -104 -125 rquadto
-37 -79 -37 -182 rquadto
0 -101 34 -182 rquadto
34 -82 101 -126 rquadto
67 -43 150 -43 rquadto
60 0 107 26 rquadto
48 25 78 65 rquadto
0 -334 rlineto
114 0 rlineto
0 931 rlineto
-106 0 rlineto
closepath
} def
/P$1m {
0 129 53 193 rquadto
54 64 129 64 rquadto
75 0 126 -60 rquadto
53 -62 53 -187 rquadto
0 -139 -53 -203 rquadto
-53 -65 -131 -65 rquadto
-76 0 -128 62 rquadto
-50 62 -50 196 rquadto
closepath
} def
/P$p {
-89 0 rlineto
204 -328 204 -657 rquadto
0 -128 -29 -254 rquadto
-23 -103 -64 -196 rquadto
-26 -60 -110 -204 rquadto
89 0 rlineto
128 170 189 343 rquadto
53 150 53 312 rquadto
0 184 -71 356 rquadto
-70 171 -170 301 rquadto
closepath
} def
/P$r {
0 143 56 209 rquadto
56 65 142 65 rquadto
84 0 142 -65 rquadto
57 -65 57 -204 rquadto
0 -132 -59 -200 rquadto
-59 -68 -142 -68 rquadto
-82 0 -140 67 rquadto
-56 65 -56 196 rquadto
} def
/P$1e {
246 -350 rlineto
-228 -323 rlineto
142 0 rlineto
104 157 rlineto
28 45 46 75 rquadto
26 -42 50 -73 rquadto
114 -159 rlineto
137 0 rlineto
-234 317 rlineto
251 356 rlineto
-140 0 rlineto
-137 -209 rlineto
-37 -56 rlineto
-176 265 rlineto
-139 0 rlineto
} def
/P$1j {
0 -931 rlineto
103 0 rlineto
0 87 rlineto
37 -51 82 -76 rquadto
46 -26 114 -26 rquadto
85 0 151 45 rquadto
65 43 98 125 rquadto
34 79 34 176 rquadto
0 103 -37 185 rquadto
-35 82 -107 128 rquadto
-70 43 -148 43 rquadto
-56 0 -101 -23 rquadto
-45 -25 -75 -62 rquadto
0 328 rlineto
-114 0 rlineto
closepath
} def
/P$f {
0 139 57 209 rquadto
59 68 139 68 rquadto
81 0 137 -65 rquadto
56 -67 56 -201 rquadto
0 -150 -57 -218 rquadto
-57 -70 -140 -70 rquadto
-82 0 -137 67 rquadto
-54 67 -54 210 rquadto
} def
/P$1f {
0 -931 rlineto
114 0 rlineto
0 334 rlineto
79 -92 201 -92 rquadto
75 0 129 29 rquadto
56 29 79 81 rquadto
23 51 23 151 rquadto
0 426 rlineto
-114 0 rlineto
0 -426 rlineto
0 -85 -37 -125 rquadto
-35 -39 -104 -39 rquadto
-50 0 -95 26 rquadto
-45 25 -64 70 rquadto
-18 45 -18 125 rquadto
0 368 rlineto
-114 0 rlineto
} def
/P$t {
120 -18 rlineto
10 73 57 112 rquadto
46 39 131 39 rquadto
84 0 125 -34 rquadto
42 -34 42 -81 rquadto
0 -42 -37 -65 rquadto
-25 -17 -125 -42 rquadto
-135 -34 -189 -59 rquadto
-51 -25 -78 -68 rquadto
-26 -43 -26 -96 rquadto
0 -48 21 -89 rquadto
21 -42 60 -70 rquadto
28 -20 76 -34 rquadto
50 -15 107 -15 rquadto
84 0 148 25 rquadto
65 23 96 65 rquadto
31 42 42 112 rquadto
-120 17 rlineto
-7 -56 -48 -87 rquadto
-39 -31 -110 -31 rquadto
-84 0 -120 28 rquadto
-35 26 -35 65 rquadto
0 23 14 42 rquadto
15 20 48 32 rquadto
17 6 107 31 rquadto
131 35 182 57 rquadto
51 21 79 64 rquadto
29 42 29 104 rquadto
0 62 -35 117 rquadto
-34 53 -103 84 rquadto
-67 29 -153 29 rquadto
-140 0 -215 -59 rquadto
-73 -59 -93 -175 rquadto
} def
/P$15 {
0 -187 103 -276 rquadto
87 -75 212 -75 rquadto
139 0 226 90 rquadto
89 90 89 251 rquadto
0 129 -39 204 rquadto
-39 75 -114 117 rquadto
-75 40 -162 40 rquadto
-142 0 -229 -90 rquadto
-85 -90 -85 -262 rquadto
closepath
} def
/P$d {
404 0 rlineto
-7 -92 -46 -137 rquadto
-57 -70 -151 -70 rquadto
-85 0 -143 56 rquadto
-56 56 -62 151 rquadto
} def
/P$1q {
0 -673 rlineto
103 0 rlineto
0 101 rlineto
39 -71 71 -93 rquadto
34 -23 73 -23 rquadto
57 0 117 35 rquadto
-39 106 rlineto
-42 -25 -82 -25 rquadto
-37 0 -68 23 rquadto
-29 21 -42 62 rquadto
-18 60 -18 132 rquadto
0 353 rlineto
-114 0 rlineto
} def
/P$m {
0 -726 rlineto
110 0 rlineto
0 110 rlineto
42 -78 78 -101 rquadto
35 -25 79 -25 rquadto
62 0 126 39 rquadto
-42 114 rlineto
-45 -26 -90 -26 rquadto
-40 0 -73 25 rquadto
-31 23 -45 67 rquadto
-20 65 -20 143 rquadto
0 379 rlineto
-123 0 rlineto
} def
/P$9 {
0 -92 rlineto
-70 109 -203 109 rquadto
-87 0 -160 -48 rquadto
-71 -48 -112 -134 rquadto
-39 -85 -39 -196 rquadto
0 -107 35 -196 rquadto
35 -89 107 -135 rquadto
73 -46 162 -46 rquadto
65 0 117 28 rquadto
51 26 82 71 rquadto
0 -359 rlineto
123 0 rlineto
0 1001 rlineto
-114 0 rlineto
closepath
} def
/P$x {
-62 53 -121 76 rquadto
-57 21 -125 21 rquadto
-112 0 -171 -54 rquadto
-59 -54 -59 -139 rquadto
0 -48 21 -89 rquadto
23 -42 59 -67 rquadto
37 -25 82 -37 rquadto
32 -7 101 -17 rquadto
137 -15 203 -39 rquadto
1 -23 1 -29 rquadto
0 -70 -32 -98 rquadto
-43 -39 -129 -39 rquadto
-81 0 -120 28 rquadto
-37 28 -56 100 rquadto
-110 -14 rlineto
14 -71 48 -115 rquadto
35 -45 101 -68 rquadto
67 -23 153 -23 rquadto
87 0 140 20 rquadto
54 20 79 51 rquadto
25 29 35 76 rquadto
4 29 4 106 rquadto
0 151 rlineto
0 159 7 201 rquadto
7 42 28 81 rquadto
-118 0 rlineto
-17 -35 -23 -82 rquadto
closepath
} def
/P$1s {
117 -10 rlineto
7 70 37 115 rquadto
31 43 93 71 rquadto
64 26 143 26 rquadto
70 0 123 -20 rquadto
54 -20 81 -56 rquadto
26 -37 26 -81 rquadto
0 -43 -26 -76 rquadto
-25 -32 -82 -54 rquadto
-37 -14 -165 -45 rquadto
-128 -31 -179 -57 rquadto
-67 -34 -100 -85 rquadto
-32 -53 -32 -117 rquadto
0 -70 39 -131 rquadto
40 -60 117 -92 rquadto
78 -32 171 -32 rquadto
103 0 181 34 rquadto
79 32 121 98 rquadto
43 64 46 145 rquadto
-118 9 rlineto
-9 -89 -64 -132 rquadto
-54 -45 -162 -45 rquadto
-110 0 -162 40 rquadto
-51 40 -51 98 rquadto
0 50 35 82 rquadto
35 32 185 67 rquadto
150 32 206 57 rquadto
81 37 118 95 rquadto
39 57 39 132 rquadto
0 73 -42 139 rquadto
-42 65 -121 103 rquadto
-79 35 -179 35 rquadto
-126 0 -212 -35 rquadto
-84 -37 -132 -110 rquadto
-48 -75 -51 -167 rquadto
} def
/P$g {
121 15 rlineto
-20 125 -103 196 rquadto
-81 70 -200 70 rquadto
-148 0 -239 -96 rquadto
-90 -98 -90 -281 rquadto
0 -117 39 -204 rquadto
39 -89 118 -132 rquadto
79 -43 173 -43 rquadto
117 0 192 59 rquadto
76 59 96 170 rquadto
-118 18 rlineto
-17 -73 -60 -109 rquadto
-43 -37 -104 -37 rquadto
-93 0 -151 67 rquadto
-57 65 -57 209 rquadto
0 146 56 214 rquadto
56 65 145 65 rquadto
73 0 121 -43 rquadto
48 -45 60 -137 rquadto
} def
/P$17 {
-256 -673 rlineto
120 0 rlineto
143 403 rlineto
23 65 43 135 rquadto
15 -53 42 -128 rquadto
150 -410 rlineto
117 0 rlineto
-254 673 rlineto
-106 0 rlineto
closepath
} def
/P$y {
-62 26 -185 43 rquadto
-70 10 -100 23 rquadto
-29 12 -45 37 rquadto
-15 23 -15 53 rquadto
0 45 34 76 rquadto
34 29 101 29 rquadto
65 0 117 -28 rquadto
51 -29 76 -79 rquadto
17 -37 17 -114 rquadto
0 -42 rlineto
} def
/P$12 {
112 14 rlineto
-17 117 -93 182 rquadto
-76 65 -185 65 rquadto
-139 0 -223 -90 rquadto
-82 -90 -82 -259 rquadto
0 -109 35 -190 rquadto
35 -82 109 -123 rquadto
73 -40 160 -40 rquadto
109 0 179 56 rquadto
70 54 89 156 rquadto
-110 17 rlineto
-15 -67 -56 -101 rquadto
-39 -34 -96 -34 rquadto
-85 0 -140 62 rquadto
-53 60 -53 195 rquadto
0 135 51 198 rquadto
51 60 135 60 rquadto
67 0 112 -40 rquadto
45 -42 56 -128 rquadto
} def
/P$0 {
15 -21 34 -32 rquadto
18 -10 40 -10 rquadto
37 0 60 26 rquadto
23 25 23 85 rquadto
0 145 rlineto
0 60 -23 87 rquadto
-23 26 -60 26 rquadto
-34 0 -54 -20 rquadto
-20 -18 -31 -70 rquadto
-4 -35 -23 -54 rquadto
-32 -37 -93 -59 rquadto
-60 -21 -123 -21 rquadto
-76 0 -140 32 rquadto
-62 32 -112 107 rquadto
-48 75 -48 178 rquadto
0 109 rlineto
0 123 89 206 rquadto
89 81 248 81 rquadto
93 0 159 -25 rquadto
39 -15 81 -59 rquadto
26 -26 40 -34 rquadto
15 -7 35 -7 rquadto
32 0 57 26 rquadto
26 25 26 59 rquadto
0 34 -34 75 rquadto
-50 57 -129 90 rquadto
-107 45 -237 45 rquadto
-151 0 -271 -62 rquadto
-98 -50 -167 -156 rquadto
-68 -107 -68 -235 rquadto
0 -115 rlineto
0 -132 60 -246 rquadto
62 -115 171 -176 rquadto
109 -62 232 -62 rquadto
73 0 137 17 rquadto
65 15 120 51 rquadto
closepath
} def
/P$18 {
118 14 rlineto
-28 104 -104 162 rquadto
-75 56 -192 56 rquadto
-148 0 -235 -90 rquadto
-85 -92 -85 -256 rquadto
0 -170 87 -264 rquadto
89 -93 228 -93 rquadto
135 0 220 92 rquadto
85 92 85 257 rquadto
0 10 0 31 rquadto
-503 0 rlineto
6 110 62 170 rquadto
56 59 140 59 rquadto
64 0 107 -32 rquadto
45 -34 70 -106 rquadto
closepath
} def
/P$w {
15 100 rlineto
-48 10 -85 10 rquadto
-62 0 -96 -20 rquadto
-34 -20 -48 -51 rquadto
-14 -32 -14 -134 rquadto
0 -389 rlineto
-82 0 rlineto
0 -87 rlineto
82 0 rlineto
0 -167 rlineto
114 -68 rlineto
0 235 rlineto
115 0 rlineto
0 87 rlineto
-115 0 rlineto
0 395 rlineto
0 48 6 62 rquadto
6 14 18 21 rquadto
14 7 39 7 rquadto
20 0 51 -3 rquadto
} def
/P$b {
0 -1001 rlineto
123 0 rlineto
0 359 rlineto
85 -100 217 -100 rquadto
81 0 140 32 rquadto
59 31 84 87 rquadto
26 54 26 162 rquadto
0 459 rlineto
-123 0 rlineto
0 -459 rlineto
0 -93 -40 -134 rquadto
-39 -42 -112 -42 rquadto
-54 0 -103 28 rquadto
-48 28 -68 76 rquadto
-20 48 -20 134 rquadto
0 396 rlineto
-123 0 rlineto
} def
/P$k {
0 -884 rlineto
-329 0 rlineto
0 -117 rlineto
793 0 rlineto
0 117 rlineto
-331 0 rlineto
0 884 rlineto
-132 0 rlineto
} def
/P$1i {
0 -673 rlineto
101 0 rlineto
0 93 rlineto
32 -50 84 -79 rquadto
53 -29 120 -29 rquadto
75 0 121 31 rquadto
48 31 68 85 rquadto
79 -117 207 -117 rquadto
100 0 153 56 rquadto
54 54 54 170 rquadto
0 462 rlineto
-112 0 rlineto
0 -425 rlineto
0 -68 -10 -98 rquadto
-10 -29 -40 -48 rquadto
-29 -18 -68 -18 rquadto
-71 0 -118 48 rquadto
-46 46 -46 150 rquadto
0 392 rlineto
-114 0 rlineto
0 -437 rlineto
0 -76 -28 -114 rquadto
-28 -39 -90 -39 rquadto
-48 0 -89 26 rquadto
-40 25 -59 73 rquadto
-18 48 -18 140 rquadto
0 350 rlineto
-114 0 rlineto
} def
/P$e {
264 -378 rlineto
-245 -348 rlineto
154 0 rlineto
110 170 rlineto
31 48 50 81 rquadto
31 -45 56 -79 rquadto
121 -171 rlineto
146 0 rlineto
-250 342 rlineto
268 384 rlineto
-150 0 rlineto
-150 -225 rlineto
-39 -60 rlineto
-190 285 rlineto
-148 0 rlineto
closepath
} def
/P$h {
0 -140 rlineto
121 0 rlineto
0 140 rlineto
-121 0 rlineto
closepath
} def
/P$3 {
-67 57 -131 82 rquadto
-62 23 -135 23 rquadto
-118 0 -184 -57 rquadto
-64 -59 -64 -151 rquadto
0 -53 23 -96 rquadto
25 -43 64 -70 rquadto
40 -26 89 -40 rquadto
35 -9 109 -18 rquadto
150 -17 220 -42 rquadto
0 -25 0 -31 rquadto
0 -76 -34 -106 rquadto
-46 -42 -140 -42 rquadto
-85 0 -128 31 rquadto
-40 29 -60 106 rquadto
-120 -15 rlineto
15 -78 53 -125 rquadto
39 -46 109 -71 rquadto
71 -26 165 -26 rquadto
92 0 150 21 rquadto
57 21 84 54 rquadto
28 32 39 84 rquadto
6 31 6 112 rquadto
0 164 rlineto
0 171 7 217 rquadto
7 45 31 87 rquadto
-128 0 rlineto
-18 -39 -25 -89 rquadto
closepath
} def
/P$s {
0 -1001 rlineto
132 0 rlineto
0 410 rlineto
520 0 rlineto
0 -410 rlineto
132 0 rlineto
0 1001 rlineto
-132 0 rlineto
0 -471 rlineto
-520 0 rlineto
0 471 rlineto
-132 0 rlineto
} def
/P$o {
-103 -129 -173 -301 rquadto
-70 -171 -70 -356 rquadto
0 -162 53 -312 rquadto
60 -173 190 -343 rquadto
87 0 rlineto
-82 142 -109 203 rquadto
-42 93 -65 196 rquadto
-29 126 -29 256 rquadto
0 329 204 657 rquadto
-87 0 rlineto
} def
/P$1a {
0 -673 rlineto
103 0 rlineto
0 101 rlineto
39 -71 71 -93 rquadto
34 -23 73 -23 rquadto
57 0 117 35 rquadto
-39 106 rlineto
-42 -25 -82 -25 rquadto
-37 0 -68 23 rquadto
-29 21 -42 62 rquadto
-18 60 -18 132 rquadto
0 353 rlineto
-114 0 rlineto
closepath
} def
/P$8 {
0 139 60 209 rquadto
60 68 153 68 rquadto
90 0 151 -70 rquadto
60 -70 60 -212 rquadto
0 -134 -60 -203 rquadto
-60 -70 -151 -70 rquadto
-92 0 -153 68 rquadto
-60 68 -60 209 rquadto
} def
/P$1h {
0 129 53 193 rquadto
54 64 129 64 rquadto
75 0 126 -60 rquadto
53 -62 53 -187 rquadto
0 -139 -53 -203 rquadto
-53 -65 -131 -65 rquadto
-76 0 -128 62 rquadto
-50 62 -50 196 rquadto
} def
/P$1n {
0 -329 rlineto
-26 37 -75 62 rquadto
-48 25 -101 25 rquadto
-120 0 -207 -95 rquadto
-85 -96 -85 -264 rquadto
0 -101 34 -181 rquadto
35 -81 103 -121 rquadto
67 -42 146 -42 rquadto
125 0 196 104 rquadto
0 -89 rlineto
103 0 rlineto
0 931 rlineto
-114 0 rlineto
closepath
} def
/P$1u {
112 -17 rlineto
9 67 53 104 rquadto
43 35 121 35 rquadto
78 0 115 -31 rquadto
39 -32 39 -76 rquadto
0 -39 -34 -60 rquadto
-23 -15 -117 -39 rquadto
-125 -31 -173 -54 rquadto
-48 -23 -73 -64 rquadto
-25 -40 -25 -90 rquadto
0 -45 20 -82 rquadto
20 -39 56 -64 rquadto
26 -20 71 -32 rquadto
46 -14 100 -14 rquadto
78 0 137 23 rquadto
60 21 89 60 rquadto
29 39 40 104 rquadto
-112 15 rlineto
-7 -53 -43 -81 rquadto
-35 -29 -103 -29 rquadto
-78 0 -112 26 rquadto
-34 25 -34 60 rquadto
0 21 14 39 rquadto
14 18 43 31 rquadto
17 6 101 28 rquadto
121 32 168 53 rquadto
48 20 75 60 rquadto
28 39 28 96 rquadto
0 57 -34 107 rquadto
-32 50 -95 78 rquadto
-62 28 -142 28 rquadto
-131 0 -200 -54 rquadto
-68 -54 -87 -162 rquadto
closepath
} def
/P$c {
128 15 rlineto
-31 112 -112 175 rquadto
-81 60 -207 60 rquadto
-159 0 -253 -98 rquadto
-92 -98 -92 -275 rquadto
0 -184 93 -284 rquadto
95 -101 245 -101 rquadto
145 0 237 100 rquadto
92 98 92 278 rquadto
0 10 0 32 rquadto
-542 0 rlineto
7 118 67 182 rquadto
60 64 153 64 rquadto
67 0 114 -35 rquadto
48 -35 76 -114 rquadto
closepath
} def
/P$1 {
0 -1001 rlineto
378 0 rlineto
100 0 153 9 rquadto
73 12 123 46 rquadto
50 34 79 96 rquadto
31 60 31 135 rquadto
0 128 -81 217 rquadto
-81 87 -293 87 rquadto
-257 0 rlineto
0 407 rlineto
-132 0 rlineto
closepath
} def
/P$1b {
-62 26 -185 43 rquadto
-70 10 -100 23 rquadto
-29 12 -45 37 rquadto
-15 23 -15 53 rquadto
0 45 34 76 rquadto
34 29 101 29 rquadto
65 0 117 -28 rquadto
51 -29 76 -79 rquadto
17 -37 17 -114 rquadto
0 -42 rlineto
closepath
} def
/P$14 {
0 -673 rlineto
114 0 rlineto
0 673 rlineto
-114 0 rlineto
} def
0.95 0.95 0.95 setrgbcolor
24000 11843 700 2250 250 roundrect
closepath eofill
50 setlinewidth
0.09 0.09 0.09 setrgbcolor
24000 11843 700 2250 250 roundrect
closepath stroke
0.68 0.82 0.7 setrgbcolor
newpath
9725 3850 1100 0 360 arc
closepath eofill
100 setlinewidth
0.09 0.09 0.09 setrgbcolor
newpath
9725 3850 1100 0 360 arc
closepath stroke
0 setlinewidth
[] 0 setdash
0 0 0 setrgbcolor
newpath
10001 3437 moveto
P$0
fill
0 setlinewidth
[] 0 setdash
0 0 0 setrgbcolor
newpath
11882 4422 moveto
P$1
12015 3897 moveto
P$2
fill
0 setlinewidth
[] 0 setdash
0 0 0 setrgbcolor
newpath
13240 4333 moveto
P$3
13231 4058 moveto
P$4
fill
0 setlinewidth
[] 0 setdash
0 0 0 setrgbcolor
newpath
13562 4702 moveto
P$5
fill
0 setlinewidth
[] 0 setdash
0 0 0 setrgbcolor
newpath
14264 4422 moveto
P$6
fill
0 setlinewidth
[] 0 setdash
0 0 0 setrgbcolor
newpath
14521 4060 moveto
P$7
14648 4060 moveto
P$8
fill
0 setlinewidth
[] 0 setdash
0 0 0 setrgbcolor
newpath
15840 4333 moveto
P$3
15831 4058 moveto
P$4
fill
0 setlinewidth
[] 0 setdash
0 0 0 setrgbcolor
newpath
16639 4422 moveto
P$9
16250 4060 moveto
P$a
fill
50 setlinewidth
0.09 0.09 0.09 setrgbcolor
newpath
800 5450 moveto
23800 0 rlineto
stroke
100 setlinewidth
0.78 0.16 0.19 setrgbcolor
600 600 1500 6580 simplerect
closepath stroke
0 setlinewidth
[] 0 setdash
0 0 0 setrgbcolor
newpath
2792 7303 moveto
P$b
fill
0 setlinewidth
[] 0 setdash
0 0 0 setrgbcolor
newpath
4089 7068 moveto
P$c
3685 6870 moveto
P$d
fill
0 setlinewidth
[] 0 setdash
0 0 0 setrgbcolor
newpath
4310 7303 moveto
P$e
5465 7214 moveto
P$3
5456 6939 moveto
P$4
fill
0 setlinewidth
[] 0 setdash
0 0 0 setrgbcolor
newpath
6264 7303 moveto
P$9
5875 6940 moveto
P$f
fill
0 setlinewidth
[] 0 setdash
0 0 0 setrgbcolor
newpath
7089 7068 moveto
P$c
6685 6870 moveto
P$d
fill
0 setlinewidth
[] 0 setdash
0 0 0 setrgbcolor
newpath
7865 7037 moveto
P$g
fill
0 setlinewidth
[] 0 setdash
0 0 0 setrgbcolor
newpath
8093 6442 moveto
P$h
8093 7303 moveto
P$i
fill
0 setlinewidth
[] 0 setdash
0 0 0 setrgbcolor
newpath
8392 7303 moveto
P$j
fill
0 setlinewidth
[] 0 setdash
0 0 0 setrgbcolor
newpath
9965 7214 moveto
P$3
9956 6939 moveto
P$4
fill
0 setlinewidth
[] 0 setdash
0 0 0 setrgbcolor
newpath
10289 7303 moveto
P$6
fill
0 setlinewidth
[] 0 setdash
0 0 0 setrgbcolor
newpath
10862 7303 moveto
P$k
fill
0 setlinewidth
[] 0 setdash
0 0 0 setrgbcolor
newpath
11989 7068 moveto
P$c
11585 6870 moveto
P$d
fill
0 setlinewidth
[] 0 setdash
0 0 0 setrgbcolor
newpath
12210 7303 moveto
P$e
13160 7193 moveto
P$l
fill
50 setlinewidth
0.09 0.09 0.09 setrgbcolor
newpath
800 8010 moveto
23800 0 rlineto
stroke
0.52 0.75 0.52 setrgbcolor
newpath
1800 9441 300 0 360 arc
closepath eofill
100 setlinewidth
0.01 0.5 0.28 setrgbcolor
newpath
1800 9441 300 0 360 arc
closepath stroke
0 setlinewidth
[] 0 setdash
0 0 0 setrgbcolor
newpath
3265 9598 moveto
P$g
fill
0 setlinewidth
[] 0 setdash
0 0 0 setrgbcolor
newpath
3490 9864 moveto
P$m
fill
0 setlinewidth
[] 0 setdash
0 0 0 setrgbcolor
newpath
4489 9629 moveto
P$c
4085 9431 moveto
P$d
fill
0 setlinewidth
[] 0 setdash
0 0 0 setrgbcolor
newpath
5265 9775 moveto
P$3
5256 9500 moveto
P$4
fill
0 setlinewidth
[] 0 setdash
0 0 0 setrgbcolor
newpath
5860 9754 moveto
P$n
fill
0 setlinewidth
[] 0 setdash
0 0 0 setrgbcolor
newpath
6489 9629 moveto
P$c
6085 9431 moveto
P$d
fill
0 setlinewidth
[] 0 setdash
0 0 0 setrgbcolor
newpath
6807 9864 moveto
P$1
6940 9339 moveto
P$2
fill
0 setlinewidth
[] 0 setdash
0 0 0 setrgbcolor
newpath
8165 9775 moveto
P$3
8156 9500 moveto
P$4
fill
0 setlinewidth
[] 0 setdash
0 0 0 setrgbcolor
newpath
8487 10143 moveto
P$5
fill
0 setlinewidth
[] 0 setdash
0 0 0 setrgbcolor
newpath
9189 9864 moveto
P$6
fill
0 setlinewidth
[] 0 setdash
0 0 0 setrgbcolor
newpath
9446 9501 moveto
P$7
9573 9501 moveto
P$8
fill
0 setlinewidth
[] 0 setdash
0 0 0 setrgbcolor
newpath
10765 9775 moveto
P$3
10756 9500 moveto
P$4
fill
0 setlinewidth
[] 0 setdash
0 0 0 setrgbcolor
newpath
11564 9864 moveto
P$9
11175 9501 moveto
P$f
fill
0 setlinewidth
[] 0 setdash
0 0 0 setrgbcolor
newpath
12128 10159 moveto
P$o
fill
0 setlinewidth
[] 0 setdash
0 0 0 setrgbcolor
newpath
12792 9864 moveto
P$b
fill
0 setlinewidth
[] 0 setdash
0 0 0 setrgbcolor
newpath
14089 9629 moveto
P$c
13685 9431 moveto
P$d
fill
0 setlinewidth
[] 0 setdash
0 0 0 setrgbcolor
newpath
14310 9864 moveto
P$e
15465 9775 moveto
P$3
15456 9500 moveto
P$4
fill
0 setlinewidth
[] 0 setdash
0 0 0 setrgbcolor
newpath
16264 9864 moveto
P$9
15875 9501 moveto
P$f
fill
0 setlinewidth
[] 0 setdash
0 0 0 setrgbcolor
newpath
17089 9629 moveto
P$c
16685 9431 moveto
P$d
fill
0 setlinewidth
[] 0 setdash
0 0 0 setrgbcolor
newpath
17865 9598 moveto
P$g
fill
0 setlinewidth
[] 0 setdash
0 0 0 setrgbcolor
newpath
18093 9003 moveto
P$h
18093 9864 moveto
P$i
fill
0 setlinewidth
[] 0 setdash
0 0 0 setrgbcolor
newpath
18392 9864 moveto
P$j
fill
0 setlinewidth
[] 0 setdash
0 0 0 setrgbcolor
newpath
19965 9775 moveto
P$3
19956 9500 moveto
P$4
fill
0 setlinewidth
[] 0 setdash
0 0 0 setrgbcolor
newpath
20289 9864 moveto
P$6
fill
0 setlinewidth
[] 0 setdash
0 0 0 setrgbcolor
newpath
20862 9864 moveto
P$k
fill
0 setlinewidth
[] 0 setdash
0 0 0 setrgbcolor
newpath
21989 9629 moveto
P$c
21585 9431 moveto
P$d
fill
0 setlinewidth
[] 0 setdash
0 0 0 setrgbcolor
newpath
22210 9864 moveto
P$e
23160 9754 moveto
P$n
fill
0 setlinewidth
[] 0 setdash
0 0 0 setrgbcolor
newpath
23773 10159 moveto
P$p
fill
0.52 0.75 0.52 setrgbcolor
newpath
1800 11202 300 0 360 arc
closepath eofill
100 setlinewidth
0.01 0.5 0.28 setrgbcolor
newpath
1800 11202 300 0 360 arc
closepath stroke
0 setlinewidth
[] 0 setdash
0 0 0 setrgbcolor
newpath
2770 11686 moveto
P$q
2871 11248 moveto
P$r
fill
0 setlinewidth
[] 0 setdash
0 0 0 setrgbcolor
newpath
4089 11390 moveto
P$c
3685 11192 moveto
P$d
fill
0 setlinewidth
[] 0 setdash
0 0 0 setrgbcolor
newpath
4660 11515 moveto
P$n
fill
0 setlinewidth
[] 0 setdash
0 0 0 setrgbcolor
newpath
4812 11625 moveto
P$s
fill
0 setlinewidth
[] 0 setdash
0 0 0 setrgbcolor
newpath
6189 11390 moveto
P$c
5785 11192 moveto
P$d
fill
0 setlinewidth
[] 0 setdash
0 0 0 setrgbcolor
newpath
6410 11625 moveto
P$e
7565 11536 moveto
P$3
7556 11261 moveto
P$4
fill
0 setlinewidth
[] 0 setdash
0 0 0 setrgbcolor
newpath
8364 11625 moveto
P$9
7975 11262 moveto
P$f
fill
0 setlinewidth
[] 0 setdash
0 0 0 setrgbcolor
newpath
9189 11390 moveto
P$c
8785 11192 moveto
P$d
fill
0 setlinewidth
[] 0 setdash
0 0 0 setrgbcolor
newpath
9965 11359 moveto
P$g
fill
0 setlinewidth
[] 0 setdash
0 0 0 setrgbcolor
newpath
10193 10764 moveto
P$h
10193 11625 moveto
P$i
fill
0 setlinewidth
[] 0 setdash
0 0 0 setrgbcolor
newpath
10492 11625 moveto
P$j
fill
0 setlinewidth
[] 0 setdash
0 0 0 setrgbcolor
newpath
12065 11536 moveto
P$3
12056 11261 moveto
P$4
fill
0 setlinewidth
[] 0 setdash
0 0 0 setrgbcolor
newpath
12389 11625 moveto
P$6
fill
0 setlinewidth
[] 0 setdash
0 0 0 setrgbcolor
newpath
12928 11920 moveto
P$o
fill
0 setlinewidth
[] 0 setdash
0 0 0 setrgbcolor
newpath
13273 11920 moveto
P$p
fill
0.52 0.75 0.52 setrgbcolor
newpath
1800 12963 300 0 360 arc
closepath eofill
100 setlinewidth
0.01 0.5 0.28 setrgbcolor
newpath
1800 12963 300 0 360 arc
closepath stroke
0 setlinewidth
[] 0 setdash
0 0 0 setrgbcolor
newpath
2743 13168 moveto
P$t
fill
0 setlinewidth
[] 0 setdash
0 0 0 setrgbcolor
newpath
3989 13151 moveto
P$c
3585 12953 moveto
P$d
fill
0 setlinewidth
[] 0 setdash
0 0 0 setrgbcolor
newpath
4560 13276 moveto
P$n
fill
0 setlinewidth
[] 0 setdash
0 0 0 setrgbcolor
newpath
4712 13386 moveto
P$s
fill
0 setlinewidth
[] 0 setdash
0 0 0 setrgbcolor
newpath
6089 13151 moveto
P$c
5685 12953 moveto
P$d
fill
0 setlinewidth
[] 0 setdash
0 0 0 setrgbcolor
newpath
6310 13386 moveto
P$e
7465 13297 moveto
P$3
7456 13022 moveto
P$4
fill
0 setlinewidth
[] 0 setdash
0 0 0 setrgbcolor
newpath
8264 13386 moveto
P$9
7875 13023 moveto
P$f
fill
0 setlinewidth
[] 0 setdash
0 0 0 setrgbcolor
newpath
9089 13151 moveto
P$c
8685 12953 moveto
P$d
fill
0 setlinewidth
[] 0 setdash
0 0 0 setrgbcolor
newpath
9865 13120 moveto
P$g
fill
0 setlinewidth
[] 0 setdash
0 0 0 setrgbcolor
newpath
10093 12525 moveto
P$h
10093 13386 moveto
P$i
fill
0 setlinewidth
[] 0 setdash
0 0 0 setrgbcolor
newpath
10392 13386 moveto
P$j
fill
0 setlinewidth
[] 0 setdash
0 0 0 setrgbcolor
newpath
11965 13297 moveto
P$3
11956 13022 moveto
P$4
fill
0 setlinewidth
[] 0 setdash
0 0 0 setrgbcolor
newpath
12289 13386 moveto
P$6
fill
0 setlinewidth
[] 0 setdash
0 0 0 setrgbcolor
newpath
12828 13681 moveto
P$o
fill
0 setlinewidth
[] 0 setdash
0 0 0 setrgbcolor
newpath
13360 13276 moveto
P$n
fill
0 setlinewidth
[] 0 setdash
0 0 0 setrgbcolor
newpath
13989 13151 moveto
P$c
13585 12953 moveto
P$d
fill
0 setlinewidth
[] 0 setdash
0 0 0 setrgbcolor
newpath
14210 13386 moveto
P$e
15160 13276 moveto
P$n
fill
0 setlinewidth
[] 0 setdash
0 0 0 setrgbcolor
newpath
15373 13681 moveto
P$p
fill
1 1 0.87 setrgbcolor
newpath
28250 600 moveto
28250 7240 lineto
24100 9291 lineto
28250 8040 lineto
28250 14681 lineto
50550 14681 lineto
50550 1600 lineto
49550 600 lineto
28250 600 lineto
closepath eofill
50 setlinewidth
0.09 0.09 0.09 setrgbcolor
newpath
28250 600 moveto
28250 7240 lineto
24100 9291 lineto
28250 8040 lineto
28250 14681 lineto
50550 14681 lineto
50550 1600 lineto
49550 600 lineto
28250 600 lineto
stroke
1 1 0.87 setrgbcolor
newpath
49550 600 moveto
49550 1600 lineto
50550 1600 lineto
49550 600 lineto
closepath eofill
50 setlinewidth
0.09 0.09 0.09 setrgbcolor
newpath
49550 600 moveto
49550 1600 lineto
50550 1600 lineto
49550 600 lineto
stroke
0 setlinewidth
[] 0 setdash
0 0 0 setrgbcolor
newpath
28953 2449 moveto
P$u
fill
0 setlinewidth
[] 0 setdash
0 0 0 setrgbcolor
newpath
29790 2247 moveto
P$v
fill
0 setlinewidth
[] 0 setdash
0 0 0 setrgbcolor
newpath
30785 2347 moveto
P$w
fill
0 setlinewidth
[] 0 setdash
0 0 0 setrgbcolor
newpath
31375 2366 moveto
P$x
31365 2110 moveto
P$y
fill
0 setlinewidth
[] 0 setdash
0 0 0 setrgbcolor
newpath
32062 2449 moveto
P$z
32778 2449 moveto
P$10
fill
0 setlinewidth
[] 0 setdash
0 0 0 setrgbcolor
newpath
33035 2449 moveto
P$11
fill
0 setlinewidth
[] 0 setdash
0 0 0 setrgbcolor
newpath
34175 2202 moveto
P$12
fill
0 setlinewidth
[] 0 setdash
0 0 0 setrgbcolor
newpath
34435 1651 moveto
P$13
34435 2449 moveto
P$14
fill
0 setlinewidth
[] 0 setdash
0 0 0 setrgbcolor
newpath
34693 2112 moveto
P$15
34810 2112 moveto
P$16
fill
0 setlinewidth
[] 0 setdash
0 0 0 setrgbcolor
newpath
35435 2449 moveto
P$11
fill
0 setlinewidth
[] 0 setdash
0 0 0 setrgbcolor
newpath
36975 2202 moveto
P$12
fill
0 setlinewidth
[] 0 setdash
0 0 0 setrgbcolor
newpath
37193 2112 moveto
P$15
37310 2112 moveto
P$16
fill
0 setlinewidth
[] 0 setdash
0 0 0 setrgbcolor
newpath
37935 2449 moveto
P$11
fill
0 setlinewidth
[] 0 setdash
0 0 0 setrgbcolor
newpath
38823 2449 moveto
P$17
39596 2232 moveto
P$18
39221 2047 moveto
P$19
fill
0 setlinewidth
[] 0 setdash
0 0 0 setrgbcolor
newpath
39834 2449 moveto
P$1a
40485 2347 moveto
P$w
fill
0 setlinewidth
[] 0 setdash
0 0 0 setrgbcolor
newpath
40635 1651 moveto
P$13
40635 2449 moveto
P$14
fill
0 setlinewidth
[] 0 setdash
0 0 0 setrgbcolor
newpath
40934 2449 moveto
P$1a
41775 2366 moveto
P$x
41765 2110 moveto
P$1b
41543 1691 moveto
P$1c
fill
0 setlinewidth
[] 0 setdash
0 0 0 setrgbcolor
newpath
29396 3867 moveto
P$18
29021 3683 moveto
P$19
fill
0 setlinewidth
[] 0 setdash
0 0 0 setrgbcolor
newpath
29632 4084 moveto
P$1d
fill
0 setlinewidth
[] 0 setdash
0 0 0 setrgbcolor
newpath
30585 3983 moveto
P$w
fill
0 setlinewidth
[] 0 setdash
0 0 0 setrgbcolor
newpath
31196 3867 moveto
P$18
30821 3683 moveto
P$19
fill
0 setlinewidth
[] 0 setdash
0 0 0 setrgbcolor
newpath
31359 4084 moveto
P$1e
fill
0 setlinewidth
[] 0 setdash
0 0 0 setrgbcolor
newpath
32385 3983 moveto
P$w
fill
0 setlinewidth
[] 0 setdash
0 0 0 setrgbcolor
newpath
32493 3747 moveto
P$15
32610 3747 moveto
P$16
fill
0 setlinewidth
[] 0 setdash
0 0 0 setrgbcolor
newpath
33635 4084 moveto
P$1f
fill
0 setlinewidth
[] 0 setdash
0 0 0 setrgbcolor
newpath
34796 3867 moveto
P$18
34421 3683 moveto
P$19
fill
0 setlinewidth
[] 0 setdash
0 0 0 setrgbcolor
newpath
34959 4084 moveto
P$1e
fill
0 setlinewidth
[] 0 setdash
0 0 0 setrgbcolor
newpath
36175 4001 moveto
P$x
36165 3745 moveto
P$y
fill
0 setlinewidth
[] 0 setdash
0 0 0 setrgbcolor
newpath
36873 4084 moveto
P$1g
36512 3748 moveto
P$1h
fill
0 setlinewidth
[] 0 setdash
0 0 0 setrgbcolor
newpath
37596 3867 moveto
P$18
37221 3683 moveto
P$19
fill
0 setlinewidth
[] 0 setdash
0 0 0 setrgbcolor
newpath
38275 3837 moveto
P$12
fill
0 setlinewidth
[] 0 setdash
0 0 0 setrgbcolor
newpath
38535 3286 moveto
P$13
38535 4084 moveto
P$14
fill
0 setlinewidth
[] 0 setdash
0 0 0 setrgbcolor
newpath
38835 4084 moveto
P$1i
fill
0 setlinewidth
[] 0 setdash
0 0 0 setrgbcolor
newpath
40375 4001 moveto
P$x
40365 3745 moveto
P$y
fill
0 setlinewidth
[] 0 setdash
0 0 0 setrgbcolor
newpath
40632 4084 moveto
P$1d
fill
0 setlinewidth
[] 0 setdash
0 0 0 setrgbcolor
newpath
41773 4084 moveto
P$1g
41412 3748 moveto
P$1h
fill
0 setlinewidth
[] 0 setdash
0 0 0 setrgbcolor
newpath
42496 3867 moveto
P$18
42121 3683 moveto
P$19
fill
0 setlinewidth
[] 0 setdash
0 0 0 setrgbcolor
newpath
42732 4084 moveto
P$1d
fill
0 setlinewidth
[] 0 setdash
0 0 0 setrgbcolor
newpath
43435 4342 moveto
P$1j
43539 3751 moveto
P$1k
fill
0 setlinewidth
[] 0 setdash
0 0 0 setrgbcolor
newpath
44575 4001 moveto
P$x
44565 3745 moveto
P$y
fill
0 setlinewidth
[] 0 setdash
0 0 0 setrgbcolor
newpath
44831 4344 moveto
P$1l
fill
0 setlinewidth
[] 0 setdash
0 0 0 setrgbcolor
newpath
45532 4084 moveto
P$1d
fill
0 setlinewidth
[] 0 setdash
0 0 0 setrgbcolor
newpath
45793 3747 moveto
P$15
45910 3747 moveto
P$16
fill
0 setlinewidth
[] 0 setdash
0 0 0 setrgbcolor
newpath
46975 4001 moveto
P$x
46965 3745 moveto
P$y
fill
0 setlinewidth
[] 0 setdash
0 0 0 setrgbcolor
newpath
47673 4084 moveto
P$1g
47312 3748 moveto
P$1m
fill
0 setlinewidth
[] 0 setdash
0 0 0 setrgbcolor
newpath
29396 5502 moveto
P$18
29021 5318 moveto
P$19
fill
0 setlinewidth
[] 0 setdash
0 0 0 setrgbcolor
newpath
29635 5719 moveto
P$11
fill
0 setlinewidth
[] 0 setdash
0 0 0 setrgbcolor
newpath
31178 5719 moveto
P$10
fill
0 setlinewidth
[] 0 setdash
0 0 0 setrgbcolor
newpath
31435 5719 moveto
P$11
fill
0 setlinewidth
[] 0 setdash
0 0 0 setrgbcolor
newpath
32535 5977 moveto
P$1j
32639 5387 moveto
P$1k
fill
0 setlinewidth
[] 0 setdash
0 0 0 setrgbcolor
newpath
33675 5637 moveto
P$x
33665 5380 moveto
P$y
fill
0 setlinewidth
[] 0 setdash
0 0 0 setrgbcolor
newpath
34365 5977 moveto
P$1n
34012 5380 moveto
P$1o
fill
0 setlinewidth
[] 0 setdash
0 0 0 setrgbcolor
newpath
35078 5719 moveto
P$10
fill
0 setlinewidth
[] 0 setdash
0 0 0 setrgbcolor
newpath
35796 5502 moveto
P$18
35421 5318 moveto
P$19
fill
0 setlinewidth
[] 0 setdash
0 0 0 setrgbcolor
newpath
36285 5618 moveto
P$w
fill
0 setlinewidth
[] 0 setdash
0 0 0 setrgbcolor
newpath
36896 5502 moveto
P$18
36521 5318 moveto
P$19
fill
0 setlinewidth
[] 0 setdash
0 0 0 setrgbcolor
newpath
37973 5719 moveto
P$1g
37612 5383 moveto
P$1h
fill
0 setlinewidth
[] 0 setdash
0 0 0 setrgbcolor
newpath
38696 5502 moveto
P$18
38321 5318 moveto
P$19
fill
0 setlinewidth
[] 0 setdash
0 0 0 setrgbcolor
newpath
39335 5977 moveto
P$1j
39439 5387 moveto
P$1k
fill
0 setlinewidth
[] 0 setdash
0 0 0 setrgbcolor
newpath
40034 5719 moveto
P$1a
40393 5382 moveto
P$15
40510 5382 moveto
P$16
fill
0 setlinewidth
[] 0 setdash
0 0 0 setrgbcolor
newpath
41385 5618 moveto
P$w
fill
0 setlinewidth
[] 0 setdash
0 0 0 setrgbcolor
newpath
41493 5382 moveto
P$15
41610 5382 moveto
P$16
fill
0 setlinewidth
[] 0 setdash
0 0 0 setrgbcolor
newpath
42675 5472 moveto
P$12
fill
0 setlinewidth
[] 0 setdash
0 0 0 setrgbcolor
newpath
42893 5382 moveto
P$15
43010 5382 moveto
P$16
fill
0 setlinewidth
[] 0 setdash
0 0 0 setrgbcolor
newpath
43632 5719 moveto
P$1d
fill
0 setlinewidth
[] 0 setdash
0 0 0 setrgbcolor
newpath
43893 5382 moveto
P$15
44010 5382 moveto
P$16
fill
0 setlinewidth
[] 0 setdash
0 0 0 setrgbcolor
newpath
45035 5719 moveto
P$11
fill
0 setlinewidth
[] 0 setdash
0 0 0 setrgbcolor
newpath
46178 5719 moveto
P$10
fill
0 setlinewidth
[] 0 setdash
0 0 0 setrgbcolor
newpath
46896 5502 moveto
P$18
46521 5318 moveto
P$19
fill
0 setlinewidth
[] 0 setdash
0 0 0 setrgbcolor
newpath
47323 5719 moveto
P$17
47593 5382 moveto
P$15
47710 5382 moveto
P$16
fill
0 setlinewidth
[] 0 setdash
0 0 0 setrgbcolor
newpath
48365 5719 moveto
P$1p
fill
0 setlinewidth
[] 0 setdash
0 0 0 setrgbcolor
newpath
29375 7272 moveto
P$x
29365 7015 moveto
P$y
fill
0 setlinewidth
[] 0 setdash
0 0 0 setrgbcolor
newpath
30035 7612 moveto
P$1j
30139 7022 moveto
P$1k
fill
0 setlinewidth
[] 0 setdash
0 0 0 setrgbcolor
newpath
31175 7272 moveto
P$x
31165 7015 moveto
P$y
fill
0 setlinewidth
[] 0 setdash
0 0 0 setrgbcolor
newpath
31434 7354 moveto
P$1a
32085 7253 moveto
P$w
fill
0 setlinewidth
[] 0 setdash
0 0 0 setrgbcolor
newpath
32235 6556 moveto
P$13
32235 7354 moveto
P$14
fill
0 setlinewidth
[] 0 setdash
0 0 0 setrgbcolor
newpath
32534 7354 moveto
P$1q
fill
0 setlinewidth
[] 0 setdash
0 0 0 setrgbcolor
newpath
33773 7354 moveto
P$1g
33412 7019 moveto
P$1h
fill
0 setlinewidth
[] 0 setdash
0 0 0 setrgbcolor
newpath
34496 7137 moveto
P$18
34121 6953 moveto
P$19
fill
0 setlinewidth
[] 0 setdash
0 0 0 setrgbcolor
newpath
35132 7354 moveto
P$1d
fill
0 setlinewidth
[] 0 setdash
0 0 0 setrgbcolor
newpath
35393 7017 moveto
P$15
35510 7017 moveto
P$16
fill
0 setlinewidth
[] 0 setdash
0 0 0 setrgbcolor
newpath
36090 7153 moveto
P$v
fill
0 setlinewidth
[] 0 setdash
0 0 0 setrgbcolor
newpath
37673 7354 moveto
P$1g
37312 7019 moveto
P$1h
fill
0 setlinewidth
[] 0 setdash
0 0 0 setrgbcolor
newpath
38375 7272 moveto
P$x
38365 7015 moveto
P$y
fill
0 setlinewidth
[] 0 setdash
0 0 0 setrgbcolor
newpath
38885 7253 moveto
P$w
fill
0 setlinewidth
[] 0 setdash
0 0 0 setrgbcolor
newpath
38993 7017 moveto
P$15
39110 7017 moveto
P$16
fill
0 setlinewidth
[] 0 setdash
0 0 0 setrgbcolor
newpath
39690 7153 moveto
P$v
fill
0 setlinewidth
[] 0 setdash
0 0 0 setrgbcolor
newpath
41273 7354 moveto
P$1g
40912 7019 moveto
P$1h
fill
0 setlinewidth
[] 0 setdash
0 0 0 setrgbcolor
newpath
41996 7137 moveto
P$18
41621 6953 moveto
P$19
fill
0 setlinewidth
[] 0 setdash
0 0 0 setrgbcolor
newpath
43073 7354 moveto
P$1g
42712 7019 moveto
P$1h
fill
0 setlinewidth
[] 0 setdash
0 0 0 setrgbcolor
newpath
43335 6556 moveto
P$13
43335 7354 moveto
P$14
fill
0 setlinewidth
[] 0 setdash
0 0 0 setrgbcolor
newpath
44075 7108 moveto
P$12
fill
0 setlinewidth
[] 0 setdash
0 0 0 setrgbcolor
newpath
44335 7354 moveto
P$1f
fill
0 setlinewidth
[] 0 setdash
0 0 0 setrgbcolor
newpath
44993 7017 moveto
P$15
45110 7017 moveto
P$16
fill
0 setlinewidth
[] 0 setdash
0 0 0 setrgbcolor
newpath
46385 7253 moveto
P$w
fill
0 setlinewidth
[] 0 setdash
0 0 0 setrgbcolor
newpath
46996 7137 moveto
P$18
46621 6953 moveto
P$19
fill
0 setlinewidth
[] 0 setdash
0 0 0 setrgbcolor
newpath
47159 7354 moveto
P$1e
fill
0 setlinewidth
[] 0 setdash
0 0 0 setrgbcolor
newpath
48185 7253 moveto
P$w
fill
0 setlinewidth
[] 0 setdash
0 0 0 setrgbcolor
newpath
48293 7017 moveto
P$15
48410 7017 moveto
P$1r
fill
0 setlinewidth
[] 0 setdash
0 0 0 setrgbcolor
newpath
fill
0 setlinewidth
[] 0 setdash
0 0 0 setrgbcolor
newpath
28907 10326 moveto
P$1s
fill
0 setlinewidth
[] 0 setdash
0 0 0 setrgbcolor
newpath
30296 10408 moveto
P$18
29921 10223 moveto
P$19
fill
0 setlinewidth
[] 0 setdash
0 0 0 setrgbcolor
newpath
30935 9826 moveto
P$13
30935 10625 moveto
P$14
fill
0 setlinewidth
[] 0 setdash
0 0 0 setrgbcolor
newpath
31673 10625 moveto
P$1g
31312 10289 moveto
P$1h
fill
0 setlinewidth
[] 0 setdash
0 0 0 setrgbcolor
newpath
32396 10408 moveto
P$18
32021 10223 moveto
P$19
fill
0 setlinewidth
[] 0 setdash
0 0 0 setrgbcolor
newpath
32635 10625 moveto
P$11
fill
0 setlinewidth
[] 0 setdash
0 0 0 setrgbcolor
newpath
33585 10523 moveto
P$w
fill
0 setlinewidth
[] 0 setdash
0 0 0 setrgbcolor
newpath
33735 9826 moveto
P$13
33735 10625 moveto
P$14
fill
0 setlinewidth
[] 0 setdash
0 0 0 setrgbcolor
newpath
34062 10625 moveto
P$z
34335 9826 moveto
P$13
34335 10625 moveto
P$14
fill
0 setlinewidth
[] 0 setdash
0 0 0 setrgbcolor
newpath
35075 10378 moveto
P$12
fill
0 setlinewidth
[] 0 setdash
0 0 0 setrgbcolor
newpath
35775 10542 moveto
P$x
35765 10286 moveto
P$y
fill
0 setlinewidth
[] 0 setdash
0 0 0 setrgbcolor
newpath
36034 10625 moveto
P$1a
36875 10542 moveto
P$x
36865 10286 moveto
P$1b
36643 9867 moveto
P$1t
fill
0 setlinewidth
[] 0 setdash
0 0 0 setrgbcolor
newpath
37135 10625 moveto
P$11
fill
0 setlinewidth
[] 0 setdash
0 0 0 setrgbcolor
newpath
38232 10625 moveto
P$1d
fill
0 setlinewidth
[] 0 setdash
0 0 0 setrgbcolor
newpath
38493 10287 moveto
P$15
38610 10287 moveto
P$16
fill
0 setlinewidth
[] 0 setdash
0 0 0 setrgbcolor
newpath
39190 10423 moveto
P$v
fill
0 setlinewidth
[] 0 setdash
0 0 0 setrgbcolor
newpath
40773 10625 moveto
P$1g
40412 10289 moveto
P$1h
fill
0 setlinewidth
[] 0 setdash
0 0 0 setrgbcolor
newpath
41475 10542 moveto
P$x
41465 10286 moveto
P$y
fill
0 setlinewidth
[] 0 setdash
0 0 0 setrgbcolor
newpath
41985 10523 moveto
P$w
fill
0 setlinewidth
[] 0 setdash
0 0 0 setrgbcolor
newpath
42093 10287 moveto
P$15
42210 10287 moveto
P$16
fill
0 setlinewidth
[] 0 setdash
0 0 0 setrgbcolor
newpath
42790 10423 moveto
P$1u
fill
0 setlinewidth
[] 0 setdash
0 0 0 setrgbcolor
newpath
28935 12518 moveto
P$1j
29039 11927 moveto
P$1k
fill
0 setlinewidth
[] 0 setdash
0 0 0 setrgbcolor
newpath
30075 12177 moveto
P$x
30065 11921 moveto
P$y
fill
0 setlinewidth
[] 0 setdash
0 0 0 setrgbcolor
newpath
30334 12260 moveto
P$1a
31175 12177 moveto
P$x
31165 11921 moveto
P$y
fill
0 setlinewidth
[] 0 setdash
0 0 0 setrgbcolor
newpath
32275 12013 moveto
P$12
fill
0 setlinewidth
[] 0 setdash
0 0 0 setrgbcolor
newpath
32534 12260 moveto
P$1a
33396 12043 moveto
P$18
33021 11858 moveto
P$19
fill
0 setlinewidth
[] 0 setdash
0 0 0 setrgbcolor
newpath
34075 12177 moveto
P$x
34065 11921 moveto
P$y
fill
0 setlinewidth
[] 0 setdash
0 0 0 setrgbcolor
newpath
34334 12260 moveto
P$1q
fill
0 setlinewidth
[] 0 setdash
0 0 0 setrgbcolor
newpath
35578 12260 moveto
P$10
fill
0 setlinewidth
[] 0 setdash
0 0 0 setrgbcolor
newpath
35835 12260 moveto
P$11
fill
0 setlinewidth
[] 0 setdash
0 0 0 setrgbcolor
newpath
36935 12518 moveto
P$1j
37039 11927 moveto
P$1k
fill
0 setlinewidth
[] 0 setdash
0 0 0 setrgbcolor
newpath
38075 12177 moveto
P$x
38065 11921 moveto
P$y
fill
0 setlinewidth
[] 0 setdash
0 0 0 setrgbcolor
newpath
38765 12518 moveto
P$1n
38412 11921 moveto
P$1o
fill
0 setlinewidth
[] 0 setdash
0 0 0 setrgbcolor
newpath
39478 12260 moveto
P$10
fill
0 setlinewidth
[] 0 setdash
0 0 0 setrgbcolor
newpath
40196 12043 moveto
P$18
39821 11858 moveto
P$19
fill
0 setlinewidth
[] 0 setdash
0 0 0 setrgbcolor
newpath
40685 12158 moveto
P$w
fill
0 setlinewidth
[] 0 setdash
0 0 0 setrgbcolor
newpath
41296 12043 moveto
P$18
40921 11858 moveto
P$1v
fill
0 setlinewidth
[] 0 setdash
0 0 0 setrgbcolor
newpath
29373 13895 moveto
P$1g
29012 13559 moveto
P$1h
fill
0 setlinewidth
[] 0 setdash
0 0 0 setrgbcolor
newpath
30096 13678 moveto
P$18
29721 13494 moveto
P$19
fill
0 setlinewidth
[] 0 setdash
0 0 0 setrgbcolor
newpath
30735 14153 moveto
P$1j
30839 13562 moveto
P$1k
fill
0 setlinewidth
[] 0 setdash
0 0 0 setrgbcolor
newpath
31434 13895 moveto
P$1a
31793 13558 moveto
P$15
31910 13558 moveto
P$16
fill
0 setlinewidth
[] 0 setdash
0 0 0 setrgbcolor
newpath
32785 13794 moveto
P$w
fill
0 setlinewidth
[] 0 setdash
0 0 0 setrgbcolor
newpath
32893 13558 moveto
P$15
33010 13558 moveto
P$16
fill
0 setlinewidth
[] 0 setdash
0 0 0 setrgbcolor
newpath
34075 13648 moveto
P$12
fill
0 setlinewidth
[] 0 setdash
0 0 0 setrgbcolor
newpath
34293 13558 moveto
P$15
34410 13558 moveto
P$16
fill
0 setlinewidth
[] 0 setdash
0 0 0 setrgbcolor
newpath
35032 13895 moveto
P$1d
fill
0 setlinewidth
[] 0 setdash
0 0 0 setrgbcolor
newpath
35293 13558 moveto
P$15
35410 13558 moveto
P$16
fill
0 setlinewidth
[] 0 setdash
0 0 0 setrgbcolor
newpath
36878 13895 moveto
P$10
fill
0 setlinewidth
[] 0 setdash
0 0 0 setrgbcolor
newpath
37493 13558 moveto
P$15
37610 13558 moveto
P$16
fill
0 setlinewidth
[] 0 setdash
0 0 0 setrgbcolor
newpath
38485 13794 moveto
P$w
fill
0 setlinewidth
[] 0 setdash
0 0 0 setrgbcolor
newpath
38634 13895 moveto
P$1a
38993 13558 moveto
P$15
39110 13558 moveto
P$1r
fill
grestore
showpage
%plantuml done
%%EOF
