%!PS-Adobe-3.0 EPSF-3.0
%%Creator: PlantUML v1.2022.7       
%%Title: noTitle
%%BoundingBox: 0 0 621 140
%%ColorUsage: Color
%%Origin: 0 0
%%EndComments

gsave
0 140 translate
.01 -.01 scale
/simplerect {
newpath moveto 1 index 0 rlineto
0 exch rlineto
neg 0 rlineto
} def
/rquadto {
3 index 3 index 4 2 roll rcurveto
} def
/P$t {
0 -110 rlineto
96 0 rlineto
0 110 rlineto
-96 0 rlineto
closepath
} def
/P$u {
0 -570 rlineto
96 0 rlineto
0 570 rlineto
-96 0 rlineto
} def
/P$x {
95 -15 rlineto
7 57 43 89 rquadto
37 29 103 29 rquadto
67 0 98 -26 rquadto
32 -26 32 -64 rquadto
0 -32 -28 -51 rquadto
-20 -12 -98 -32 rquadto
-106 -26 -148 -45 rquadto
-40 -20 -62 -54 rquadto
-20 -34 -20 -76 rquadto
0 -39 17 -70 rquadto
17 -32 48 -54 rquadto
21 -17 60 -28 rquadto
39 -10 82 -10 rquadto
67 0 117 18 rquadto
51 18 75 53 rquadto
25 32 34 87 rquadto
-93 12 rlineto
-7 -43 -39 -67 rquadto
-29 -25 -85 -25 rquadto
-67 0 -95 21 rquadto
-28 21 -28 51 rquadto
0 18 10 32 rquadto
12 15 37 26 rquadto
14 4 85 25 rquadto
101 26 142 43 rquadto
40 17 64 51 rquadto
23 32 23 82 rquadto
0 48 -28 90 rquadto
-28 42 -81 65 rquadto
-53 23 -120 23 rquadto
-110 0 -170 -45 rquadto
-57 -46 -73 -137 rquadto
} def
/P$1d {
0 -787 rlineto
296 0 rlineto
79 0 120 7 rquadto
57 9 96 37 rquadto
39 26 62 75 rquadto
25 48 25 107 rquadto
0 100 -64 170 rquadto
-64 68 -231 68 rquadto
-201 0 rlineto
0 320 rlineto
-104 0 rlineto
closepath
} def
/P$n {
0 -157 89 -234 rquadto
73 -62 179 -62 rquadto
117 0 190 76 rquadto
75 76 75 212 rquadto
0 110 -32 175 rquadto
-32 62 -96 96 rquadto
-62 34 -135 34 rquadto
-120 0 -195 -76 rquadto
-73 -76 -73 -221 rquadto
closepath
} def
/P$4 {
0 -329 rlineto
-231 329 rlineto
231 0 rlineto
closepath
} def
/P$g {
0 137 34 223 rquadto
28 73 82 73 rquadto
26 0 54 -23 rquadto
28 -25 43 -79 rquadto
21 -84 21 -237 rquadto
0 -112 -23 -189 rquadto
-17 -56 -45 -79 rquadto
-20 -15 -48 -15 rquadto
-32 0 -59 29 rquadto
-34 40 -48 128 rquadto
-12 85 -12 170 rquadto
closepath
} def
/P$y {
0 -789 rlineto
89 0 rlineto
0 73 rlineto
31 -42 70 -64 rquadto
39 -21 95 -21 rquadto
71 0 128 37 rquadto
56 37 84 106 rquadto
28 67 28 150 rquadto
0 87 -31 157 rquadto
-31 68 -92 106 rquadto
-59 37 -125 37 rquadto
-48 0 -87 -20 rquadto
-37 -20 -62 -51 rquadto
0 278 rlineto
-96 0 rlineto
closepath
} def
/P$0 {
160 -79 rlineto
15 0 rlineto
0 559 rlineto
0 56 4 70 rquadto
4 12 18 20 rquadto
15 7 60 7 rquadto
0 18 rlineto
-248 0 rlineto
0 -18 rlineto
46 0 59 -6 rquadto
14 -7 18 -20 rquadto
6 -12 6 -71 rquadto
0 -356 rlineto
0 -73 -4 -93 rquadto
-3 -15 -12 -21 rquadto
-9 -7 -21 -7 rquadto
-18 0 -50 14 rquadto
-7 -14 rlineto
closepath
} def
/P$13 {
-54 45 -104 64 rquadto
-48 18 -106 18 rquadto
-93 0 -145 -45 rquadto
-50 -46 -50 -117 rquadto
0 -42 18 -76 rquadto
20 -34 50 -54 rquadto
31 -21 70 -32 rquadto
28 -7 85 -14 rquadto
117 -14 171 -34 rquadto
1 -18 1 -25 rquadto
0 -59 -28 -82 rquadto
-35 -32 -109 -32 rquadto
-68 0 -101 23 rquadto
-31 23 -46 84 rquadto
-95 -12 rlineto
12 -60 42 -98 rquadto
29 -37 85 -56 rquadto
56 -20 129 -20 rquadto
73 0 118 17 rquadto
45 17 65 43 rquadto
21 25 31 64 rquadto
4 25 4 90 rquadto
0 128 rlineto
0 134 6 170 rquadto
6 35 25 68 rquadto
-101 0 rlineto
-15 -29 -18 -70 rquadto
closepath
} def
/P$s {
93 12 rlineto
-14 98 -79 154 rquadto
-64 54 -156 54 rquadto
-117 0 -189 -76 rquadto
-70 -76 -70 -218 rquadto
0 -92 29 -160 rquadto
31 -70 93 -104 rquadto
62 -34 135 -34 rquadto
92 0 151 46 rquadto
59 46 76 132 rquadto
-95 14 rlineto
-12 -56 -46 -84 rquadto
-34 -29 -82 -29 rquadto
-71 0 -118 53 rquadto
-45 51 -45 164 rquadto
0 115 43 167 rquadto
43 51 115 51 rquadto
56 0 93 -34 rquadto
39 -34 50 -107 rquadto
} def
/P$15 {
0 -787 rlineto
350 0 rlineto
104 0 159 21 rquadto
54 20 87 75 rquadto
32 53 32 118 rquadto
0 82 -54 140 rquadto
-53 57 -167 73 rquadto
42 18 62 39 rquadto
46 42 87 104 rquadto
135 214 rlineto
-129 0 rlineto
-104 -164 rlineto
-45 -70 -75 -107 rquadto
-29 -37 -53 -53 rquadto
-23 -15 -46 -20 rquadto
-18 -4 -59 -4 rquadto
-120 0 rlineto
0 350 rlineto
-104 0 rlineto
closepath
} def
/P$j {
0 -787 rlineto
103 0 rlineto
0 787 rlineto
-103 0 rlineto
} def
/P$1h {
0 -787 rlineto
157 0 rlineto
185 557 rlineto
25 78 37 115 rquadto
14 -42 42 -125 rquadto
187 -548 rlineto
140 0 rlineto
0 787 rlineto
-100 0 rlineto
0 -659 rlineto
-229 659 rlineto
-93 0 rlineto
-226 -670 rlineto
0 670 rlineto
-101 0 rlineto
} def
/P$a {
57 -53 73 -82 rquadto
15 -31 15 -68 rquadto
0 -51 -28 -79 rquadto
-28 -29 -78 -29 rquadto
-50 0 -81 28 rquadto
-31 28 -31 67 rquadto
0 25 12 51 rquadto
12 25 37 48 rquadto
79 65 rlineto
closepath
} def
/P$19 {
95 -15 rlineto
7 57 43 89 rquadto
37 29 103 29 rquadto
67 0 98 -26 rquadto
32 -26 32 -64 rquadto
0 -32 -28 -51 rquadto
-20 -12 -98 -32 rquadto
-106 -26 -148 -45 rquadto
-40 -20 -62 -54 rquadto
-20 -34 -20 -76 rquadto
0 -39 17 -70 rquadto
17 -32 48 -54 rquadto
21 -17 60 -28 rquadto
39 -10 82 -10 rquadto
67 0 117 18 rquadto
51 18 75 53 rquadto
25 32 34 87 rquadto
-93 12 rlineto
-7 -43 -39 -67 rquadto
-29 -25 -85 -25 rquadto
-67 0 -95 21 rquadto
-28 21 -28 51 rquadto
0 18 10 32 rquadto
12 15 37 26 rquadto
14 4 85 25 rquadto
101 26 142 43 rquadto
40 17 64 51 rquadto
23 32 23 82 rquadto
0 48 -28 90 rquadto
-28 42 -81 65 rquadto
-53 23 -120 23 rquadto
-110 0 -170 -45 rquadto
-57 -46 -73 -137 rquadto
closepath
} def
/P$3 {
0 68 rlineto
-89 0 rlineto
0 175 rlineto
-81 0 rlineto
0 -175 rlineto
-279 0 rlineto
0 -62 rlineto
307 -439 rlineto
53 0 rlineto
0 432 rlineto
89 0 rlineto
closepath
} def
/P$1e {
203 0 rlineto
101 0 143 -37 rquadto
42 -37 42 -106 rquadto
0 -50 -25 -84 rquadto
-25 -35 -65 -46 rquadto
-26 -6 -96 -6 rquadto
-201 0 rlineto
0 281 rlineto
closepath
} def
/P$p {
0 -71 rlineto
-53 84 -159 84 rquadto
-67 0 -125 -37 rquadto
-57 -37 -89 -104 rquadto
-31 -67 -31 -154 rquadto
0 -85 28 -154 rquadto
29 -70 85 -106 rquadto
56 -37 126 -37 rquadto
51 0 92 21 rquadto
40 21 65 56 rquadto
0 -282 rlineto
96 0 rlineto
0 787 rlineto
-90 0 rlineto
closepath
} def
/P$d {
7 -64 7 -101 rquadto
0 -46 -15 -101 rquadto
-15 -56 -45 -84 rquadto
-29 -29 -67 -29 rquadto
-43 0 -76 39 rquadto
-32 39 -32 115 rquadto
0 103 43 160 rquadto
31 42 78 42 rquadto
21 0 53 -10 rquadto
31 -10 54 -29 rquadto
closepath
} def
/P$k {
0 -570 rlineto
87 0 rlineto
0 81 rlineto
62 -93 181 -93 rquadto
51 0 95 18 rquadto
43 17 64 48 rquadto
21 29 31 70 rquadto
4 28 4 95 rquadto
0 350 rlineto
-96 0 rlineto
0 -346 rlineto
0 -59 -10 -87 rquadto
-10 -29 -40 -46 rquadto
-28 -18 -67 -18 rquadto
-60 0 -106 39 rquadto
-45 39 -45 150 rquadto
0 310 rlineto
-96 0 rlineto
} def
/P$6 {
0 18 rlineto
-64 6 -106 26 rquadto
-40 18 -79 57 rquadto
-39 39 -65 89 rquadto
-26 48 -43 114 rquadto
70 -48 140 -48 rquadto
68 0 117 54 rquadto
50 54 50 140 rquadto
0 84 -50 151 rquadto
-60 84 -159 84 rquadto
-68 0 -115 -45 rquadto
-92 -87 -92 -226 rquadto
0 -89 34 -168 rquadto
35 -81 101 -142 rquadto
67 -62 126 -84 rquadto
60 -21 114 -21 rquadto
28 0 rlineto
closepath
} def
/P$1c {
0 -56 31 -89 rquadto
31 -32 78 -32 rquadto
34 0 90 28 rquadto
32 15 51 15 rquadto
17 0 25 -9 rquadto
9 -9 14 -35 rquadto
68 0 rlineto
-1 60 -31 92 rquadto
-28 29 -73 29 rquadto
-34 0 -89 -29 rquadto
-35 -20 -53 -20 rquadto
-17 0 -29 14 rquadto
-10 12 -10 37 rquadto
-71 0 rlineto
} def
/P$7 {
-9 65 -9 106 rquadto
0 46 17 103 rquadto
17 54 51 85 rquadto
25 23 60 23 rquadto
42 0 75 -39 rquadto
34 -40 34 -115 rquadto
0 -82 -34 -143 rquadto
-32 -60 -93 -60 rquadto
-18 0 -40 7 rquadto
-20 7 -60 32 rquadto
closepath
} def
/P$1f {
0 -787 rlineto
96 0 rlineto
0 787 rlineto
-96 0 rlineto
} def
/P$z {
0 109 45 162 rquadto
45 51 107 51 rquadto
64 0 109 -53 rquadto
46 -54 46 -170 rquadto
0 -107 -45 -162 rquadto
-43 -54 -106 -54 rquadto
-62 0 -110 57 rquadto
-46 57 -46 168 rquadto
} def
/P$9 {
-78 -65 -101 -104 rquadto
-23 -39 -23 -81 rquadto
0 -64 50 -110 rquadto
50 -46 132 -46 rquadto
79 0 128 43 rquadto
50 43 50 100 rquadto
0 35 -26 75 rquadto
-26 39 -109 90 rquadto
85 67 112 104 rquadto
37 50 37 104 rquadto
0 70 -53 120 rquadto
-53 50 -139 50 rquadto
-95 0 -146 -59 rquadto
-42 -48 -42 -104 rquadto
0 -43 29 -85 rquadto
29 -43 101 -95 rquadto
closepath
} def
/P$14 {
-51 21 -157 35 rquadto
-59 9 -84 20 rquadto
-23 9 -37 31 rquadto
-14 20 -14 45 rquadto
0 39 29 65 rquadto
29 25 85 25 rquadto
56 0 98 -25 rquadto
43 -25 65 -67 rquadto
14 -32 14 -96 rquadto
0 -34 rlineto
} def
/P$1b {
168 0 rlineto
76 0 120 -14 rquadto
45 -15 71 -42 rquadto
37 -37 57 -100 rquadto
20 -62 20 -151 rquadto
0 -123 -40 -189 rquadto
-40 -67 -98 -89 rquadto
-42 -15 -134 -15 rquadto
-165 0 rlineto
0 601 rlineto
} def
/P$r {
0 -84 rlineto
-67 96 -181 96 rquadto
-50 0 -95 -18 rquadto
-43 -20 -65 -48 rquadto
-20 -29 -28 -71 rquadto
-6 -28 -6 -90 rquadto
0 -353 rlineto
96 0 rlineto
0 315 rlineto
0 76 6 103 rquadto
9 37 37 59 rquadto
29 21 73 21 rquadto
43 0 81 -21 rquadto
39 -23 54 -60 rquadto
15 -39 15 -110 rquadto
0 -306 rlineto
96 0 rlineto
0 570 rlineto
-85 0 rlineto
} def
/P$5 {
-39 82 rlineto
-198 0 rlineto
-43 89 rlineto
129 18 204 96 rquadto
65 65 65 156 rquadto
0 51 -21 96 rquadto
-20 43 -53 75 rquadto
-31 31 -71 50 rquadto
-56 28 -115 28 rquadto
-59 0 -85 -20 rquadto
-26 -20 -26 -45 rquadto
0 -14 10 -23 rquadto
10 -10 28 -10 rquadto
12 0 21 4 rquadto
9 3 32 18 rquadto
35 25 73 25 rquadto
57 0 100 -42 rquadto
43 -43 43 -106 rquadto
0 -59 -39 -110 rquadto
-37 -53 -104 -81 rquadto
-54 -21 -145 -25 rquadto
126 -257 rlineto
237 0 rlineto
closepath
} def
/P$m {
0 -570 rlineto
85 0 rlineto
0 85 rlineto
34 -60 62 -79 rquadto
28 -18 60 -18 rquadto
50 0 100 31 rquadto
-32 89 rlineto
-35 -20 -71 -20 rquadto
-31 0 -56 18 rquadto
-25 18 -35 53 rquadto
-15 51 -15 112 rquadto
0 298 rlineto
-96 0 rlineto
} def
/P$10 {
100 12 rlineto
-23 87 -87 135 rquadto
-64 48 -162 48 rquadto
-125 0 -198 -76 rquadto
-73 -76 -73 -215 rquadto
0 -145 73 -223 rquadto
75 -79 192 -79 rquadto
115 0 187 78 rquadto
71 76 71 218 rquadto
0 7 0 25 rquadto
-425 0 rlineto
4 93 51 143 rquadto
48 50 120 50 rquadto
53 0 90 -26 rquadto
37 -28 59 -90 rquadto
closepath
} def
/P$i {
28 -67 70 -103 rquadto
43 -37 107 -37 rquadto
79 0 121 53 rquadto
32 37 32 81 rquadto
0 73 -90 150 rquadto
60 23 92 68 rquadto
31 43 31 104 rquadto
0 85 -54 148 rquadto
-71 82 -206 82 rquadto
-67 0 -92 -17 rquadto
-23 -17 -23 -35 rquadto
0 -14 10 -25 rquadto
12 -10 28 -10 rquadto
12 0 25 4 rquadto
7 1 37 17 rquadto
29 15 40 18 rquadto
17 4 39 4 rquadto
48 0 85 -37 rquadto
37 -39 37 -92 rquadto
0 -39 -17 -75 rquadto
-12 -26 -28 -42 rquadto
-21 -18 -57 -34 rquadto
-35 -15 -75 -15 rquadto
-15 0 rlineto
0 -15 rlineto
39 -4 78 -26 rquadto
39 -23 56 -54 rquadto
17 -32 17 -71 rquadto
0 -50 -31 -81 rquadto
-31 -31 -78 -31 rquadto
-76 0 -126 81 rquadto
-15 -7 rlineto
} def
/P$2 {
28 -67 70 -103 rquadto
43 -37 107 -37 rquadto
79 0 121 53 rquadto
32 37 32 81 rquadto
0 73 -90 150 rquadto
60 23 92 68 rquadto
31 43 31 104 rquadto
0 85 -54 148 rquadto
-71 82 -206 82 rquadto
-67 0 -92 -17 rquadto
-23 -17 -23 -35 rquadto
0 -14 10 -25 rquadto
12 -10 28 -10 rquadto
12 0 25 4 rquadto
7 1 37 17 rquadto
29 15 40 18 rquadto
17 4 39 4 rquadto
48 0 85 -37 rquadto
37 -39 37 -92 rquadto
0 -39 -17 -75 rquadto
-12 -26 -28 -42 rquadto
-21 -18 -57 -34 rquadto
-35 -15 -75 -15 rquadto
-15 0 rlineto
0 -15 rlineto
39 -4 78 -26 rquadto
39 -23 56 -54 rquadto
17 -32 17 -71 rquadto
0 -50 -31 -81 rquadto
-31 -31 -78 -31 rquadto
-76 0 -126 81 rquadto
-15 -7 rlineto
closepath
} def
/P$f {
0 -114 34 -195 rquadto
34 -82 90 -121 rquadto
43 -32 90 -32 rquadto
76 0 137 78 rquadto
75 96 75 260 rquadto
0 115 -32 196 rquadto
-32 79 -84 117 rquadto
-51 35 -100 35 rquadto
-93 0 -157 -112 rquadto
-53 -93 -53 -226 rquadto
closepath
} def
/P$v {
0 -570 rlineto
87 0 rlineto
0 81 rlineto
62 -93 181 -93 rquadto
51 0 95 18 rquadto
43 17 64 48 rquadto
21 29 31 70 rquadto
4 28 4 95 rquadto
0 350 rlineto
-96 0 rlineto
0 -346 rlineto
0 -59 -10 -87 rquadto
-10 -29 -40 -46 rquadto
-28 -18 -67 -18 rquadto
-60 0 -106 39 rquadto
-45 39 -45 150 rquadto
0 310 rlineto
-96 0 rlineto
closepath
} def
/P$1a {
0 -787 rlineto
271 0 rlineto
92 0 140 10 rquadto
67 15 115 56 rquadto
60 53 92 135 rquadto
31 81 31 185 rquadto
0 90 -21 159 rquadto
-20 68 -53 114 rquadto
-32 45 -71 71 rquadto
-39 26 -93 40 rquadto
-54 12 -126 12 rquadto
-284 0 rlineto
closepath
} def
/P$1 {
-45 128 rlineto
-390 0 rlineto
0 -18 rlineto
171 -156 242 -256 rquadto
70 -100 70 -182 rquadto
0 -62 -39 -103 rquadto
-37 -40 -92 -40 rquadto
-48 0 -87 29 rquadto
-39 28 -56 82 rquadto
-18 0 rlineto
12 -90 62 -139 rquadto
50 -48 126 -48 rquadto
79 0 134 53 rquadto
54 51 54 121 rquadto
0 50 -23 100 rquadto
-37 79 -117 167 rquadto
-121 132 -153 160 rquadto
173 0 rlineto
53 0 73 -3 rquadto
21 -4 39 -17 rquadto
17 -12 29 -34 rquadto
17 0 rlineto
closepath
} def
/P$q {
0 109 45 164 rquadto
46 53 109 53 rquadto
64 0 107 -51 rquadto
43 -51 43 -157 rquadto
0 -117 -45 -171 rquadto
-43 -54 -110 -54 rquadto
-64 0 -107 53 rquadto
-42 51 -42 165 rquadto
} def
/P$8 {
356 0 rlineto
0 18 rlineto
-221 657 rlineto
-54 0 rlineto
198 -596 rlineto
-182 0 rlineto
-54 0 -78 14 rquadto
-40 21 -65 68 rquadto
-14 -4 rlineto
62 -157 rlineto
closepath
} def
/P$11 {
318 0 rlineto
-6 -71 -35 -107 rquadto
-46 -54 -120 -54 rquadto
-67 0 -112 45 rquadto
-45 43 -50 117 rquadto
} def
/P$18 {
0 110 45 165 rquadto
46 54 112 54 rquadto
60 0 104 -51 rquadto
45 -53 45 -159 rquadto
0 -114 -46 -171 rquadto
-46 -57 -109 -57 rquadto
-64 0 -107 54 rquadto
-43 53 -43 165 rquadto
} def
/P$w {
0 -787 rlineto
568 0 rlineto
0 93 rlineto
-465 0 rlineto
0 240 rlineto
435 0 rlineto
0 92 rlineto
-435 0 rlineto
0 268 rlineto
484 0 rlineto
0 92 rlineto
-587 0 rlineto
closepath
} def
/P$17 {
0 -279 rlineto
-21 31 -62 53 rquadto
-40 20 -85 20 rquadto
-101 0 -175 -81 rquadto
-73 -81 -73 -221 rquadto
0 -85 29 -153 rquadto
29 -68 85 -103 rquadto
56 -35 125 -35 rquadto
104 0 165 89 rquadto
0 -76 rlineto
87 0 rlineto
0 789 rlineto
-96 0 rlineto
closepath
} def
/P$h {
-45 128 rlineto
-390 0 rlineto
0 -18 rlineto
171 -156 242 -256 rquadto
70 -100 70 -182 rquadto
0 -62 -39 -103 rquadto
-37 -40 -92 -40 rquadto
-48 0 -87 29 rquadto
-39 28 -56 82 rquadto
-18 0 rlineto
12 -90 62 -139 rquadto
50 -48 126 -48 rquadto
79 0 134 53 rquadto
54 51 54 121 rquadto
0 50 -23 100 rquadto
-37 79 -117 167 rquadto
-121 132 -153 160 rquadto
173 0 rlineto
53 0 73 -3 rquadto
21 -4 39 -17 rquadto
17 -12 29 -34 rquadto
17 0 rlineto
} def
/P$1g {
104 26 rlineto
-32 128 -118 196 rquadto
-84 67 -207 67 rquadto
-128 0 -207 -51 rquadto
-79 -53 -121 -151 rquadto
-40 -98 -40 -210 rquadto
0 -121 46 -214 rquadto
46 -92 132 -139 rquadto
87 -48 192 -48 rquadto
118 0 198 60 rquadto
81 59 112 168 rquadto
-103 25 rlineto
-26 -85 -79 -125 rquadto
-51 -39 -129 -39 rquadto
-92 0 -153 43 rquadto
-60 42 -85 115 rquadto
-23 73 -23 151 rquadto
0 100 28 175 rquadto
29 75 90 112 rquadto
62 37 134 37 rquadto
87 0 148 -50 rquadto
60 -51 82 -151 rquadto
} def
/P$o {
0 110 46 165 rquadto
48 53 121 53 rquadto
71 0 118 -54 rquadto
48 -54 48 -167 rquadto
0 -104 -48 -159 rquadto
-48 -54 -118 -54 rquadto
-73 0 -121 54 rquadto
-46 53 -46 162 rquadto
} def
/P$c {
0 -18 rlineto
62 0 117 -28 rquadto
54 -29 106 -100 rquadto
51 -71 71 -157 rquadto
-78 50 -139 50 rquadto
-70 0 -120 -53 rquadto
-50 -54 -50 -145 rquadto
0 -85 50 -154 rquadto
60 -82 157 -82 rquadto
81 0 139 68 rquadto
71 82 71 204 rquadto
0 110 -54 206 rquadto
-54 95 -151 159 rquadto
-78 51 -170 51 rquadto
-28 0 rlineto
closepath
} def
/P$16 {
223 0 rlineto
71 0 112 -14 rquadto
40 -14 60 -46 rquadto
20 -32 20 -70 rquadto
0 -56 -40 -92 rquadto
-39 -35 -126 -35 rquadto
-250 0 rlineto
0 259 rlineto
closepath
} def
/P$12 {
0 -495 rlineto
-84 0 rlineto
0 -75 rlineto
84 0 rlineto
0 -60 rlineto
0 -57 10 -85 rquadto
14 -37 48 -60 rquadto
35 -23 98 -23 rquadto
40 0 90 10 rquadto
-14 84 rlineto
-31 -6 -57 -6 rquadto
-43 0 -62 18 rquadto
-17 18 -17 70 rquadto
0 53 rlineto
110 0 rlineto
0 75 rlineto
-110 0 rlineto
0 495 rlineto
-96 0 rlineto
} def
/P$b {
-40 34 -60 75 rquadto
-18 40 -18 87 rquadto
0 62 34 101 rquadto
34 37 87 37 rquadto
51 0 82 -29 rquadto
32 -31 32 -73 rquadto
0 -34 -18 -62 rquadto
-34 -51 -139 -135 rquadto
closepath
} def
/P$e {
160 -79 rlineto
15 0 rlineto
0 559 rlineto
0 56 4 70 rquadto
4 12 18 20 rquadto
15 7 60 7 rquadto
0 18 rlineto
-248 0 rlineto
0 -18 rlineto
46 0 59 -6 rquadto
14 -7 18 -20 rquadto
6 -12 6 -71 rquadto
0 -356 rlineto
0 -73 -4 -93 rquadto
-3 -15 -12 -21 rquadto
-9 -7 -21 -7 rquadto
-18 0 -50 14 rquadto
-7 -14 rlineto
} def
/P$l {
12 84 rlineto
-40 9 -71 9 rquadto
-53 0 -82 -17 rquadto
-28 -17 -40 -43 rquadto
-10 -26 -10 -114 rquadto
0 -328 rlineto
-71 0 rlineto
0 -75 rlineto
71 0 rlineto
0 -140 rlineto
95 -59 rlineto
0 200 rlineto
98 0 rlineto
0 75 rlineto
-98 0 rlineto
0 334 rlineto
0 40 4 53 rquadto
6 10 17 18 rquadto
12 6 32 6 rquadto
17 0 43 -3 rquadto
} def
100 setlinewidth
0.75 0.75 0.75 setrgbcolor
newpath
0 0 moveto
0 12501 rlineto
stroke
100 setlinewidth
0.75 0.75 0.75 setrgbcolor
newpath
1600 0 moveto
0 12501 rlineto
stroke
100 setlinewidth
0.75 0.75 0.75 setrgbcolor
newpath
3200 0 moveto
0 12501 rlineto
stroke
100 setlinewidth
0.75 0.75 0.75 setrgbcolor
newpath
4800 0 moveto
0 12501 rlineto
stroke
100 setlinewidth
0.75 0.75 0.75 setrgbcolor
newpath
6400 0 moveto
0 12501 rlineto
stroke
100 setlinewidth
0.75 0.75 0.75 setrgbcolor
newpath
8000 0 moveto
0 12501 rlineto
stroke
100 setlinewidth
0.75 0.75 0.75 setrgbcolor
newpath
9600 0 moveto
0 12501 rlineto
stroke
100 setlinewidth
0.75 0.75 0.75 setrgbcolor
newpath
11200 0 moveto
0 12501 rlineto
stroke
100 setlinewidth
0.75 0.75 0.75 setrgbcolor
newpath
12800 0 moveto
0 12501 rlineto
stroke
100 setlinewidth
0.75 0.75 0.75 setrgbcolor
newpath
14400 0 moveto
0 12501 rlineto
stroke
100 setlinewidth
0.75 0.75 0.75 setrgbcolor
newpath
16000 0 moveto
0 12501 rlineto
stroke
100 setlinewidth
0.75 0.75 0.75 setrgbcolor
newpath
17600 0 moveto
0 12501 rlineto
stroke
100 setlinewidth
0.75 0.75 0.75 setrgbcolor
newpath
19200 0 moveto
0 12501 rlineto
stroke
100 setlinewidth
0.75 0.75 0.75 setrgbcolor
newpath
20800 0 moveto
0 12501 rlineto
stroke
100 setlinewidth
0.75 0.75 0.75 setrgbcolor
newpath
22400 0 moveto
0 12501 rlineto
stroke
100 setlinewidth
0.75 0.75 0.75 setrgbcolor
newpath
24000 0 moveto
0 12501 rlineto
stroke
100 setlinewidth
0.75 0.75 0.75 setrgbcolor
newpath
25600 0 moveto
0 12501 rlineto
stroke
100 setlinewidth
0.75 0.75 0.75 setrgbcolor
newpath
27200 0 moveto
0 12501 rlineto
stroke
100 setlinewidth
0.75 0.75 0.75 setrgbcolor
newpath
28800 0 moveto
0 12501 rlineto
stroke
100 setlinewidth
0.75 0.75 0.75 setrgbcolor
newpath
30400 0 moveto
0 12501 rlineto
stroke
100 setlinewidth
0.75 0.75 0.75 setrgbcolor
newpath
32000 0 moveto
0 12501 rlineto
stroke
100 setlinewidth
0.75 0.75 0.75 setrgbcolor
newpath
33600 0 moveto
0 12501 rlineto
stroke
100 setlinewidth
0.75 0.75 0.75 setrgbcolor
newpath
35200 0 moveto
0 12501 rlineto
stroke
100 setlinewidth
0.75 0.75 0.75 setrgbcolor
newpath
36800 0 moveto
0 12501 rlineto
stroke
100 setlinewidth
0.75 0.75 0.75 setrgbcolor
newpath
38400 0 moveto
0 12501 rlineto
stroke
100 setlinewidth
0.75 0.75 0.75 setrgbcolor
newpath
40000 0 moveto
0 12501 rlineto
stroke
100 setlinewidth
0.75 0.75 0.75 setrgbcolor
newpath
41600 0 moveto
0 12501 rlineto
stroke
100 setlinewidth
0.75 0.75 0.75 setrgbcolor
newpath
43200 0 moveto
0 12501 rlineto
stroke
100 setlinewidth
0.75 0.75 0.75 setrgbcolor
newpath
44800 0 moveto
0 12501 rlineto
stroke
100 setlinewidth
0.75 0.75 0.75 setrgbcolor
newpath
46400 0 moveto
0 12501 rlineto
stroke
100 setlinewidth
0.75 0.75 0.75 setrgbcolor
newpath
48000 0 moveto
0 12501 rlineto
stroke
100 setlinewidth
0.75 0.75 0.75 setrgbcolor
newpath
49600 0 moveto
0 12501 rlineto
stroke
100 setlinewidth
0.75 0.75 0.75 setrgbcolor
newpath
51200 0 moveto
0 12501 rlineto
stroke
100 setlinewidth
0.75 0.75 0.75 setrgbcolor
newpath
52800 0 moveto
0 12501 rlineto
stroke
100 setlinewidth
0.75 0.75 0.75 setrgbcolor
newpath
54400 0 moveto
0 12501 rlineto
stroke
0 setlinewidth
[] 0 setdash
0 0 0 setrgbcolor
newpath
667 450 moveto
P$0
fill
0 setlinewidth
[] 0 setdash
0 0 0 setrgbcolor
newpath
2607 919 moveto
P$1
fill
0 setlinewidth
[] 0 setdash
0 0 0 setrgbcolor
newpath
3801 511 moveto
P$2
fill
0 setlinewidth
[] 0 setdash
0 0 0 setrgbcolor
newpath
5815 804 moveto
P$3
5645 804 moveto
P$4
fill
0 setlinewidth
[] 0 setdash
0 0 0 setrgbcolor
newpath
7384 385 moveto
P$5
fill
0 setlinewidth
[] 0 setdash
0 0 0 setrgbcolor
newpath
8998 371 moveto
P$6
8695 713 moveto
P$7
fill
0 setlinewidth
[] 0 setdash
0 0 0 setrgbcolor
newpath
10250 385 moveto
P$8
fill
0 setlinewidth
[] 0 setdash
0 0 0 setrgbcolor
newpath
11942 715 moveto
P$9
12018 661 moveto
P$a
11965 732 moveto
P$b
fill
0 setlinewidth
[] 0 setdash
0 0 0 setrgbcolor
newpath
13403 1061 moveto
P$c
13706 721 moveto
P$d
fill
0 setlinewidth
[] 0 setdash
0 0 0 setrgbcolor
newpath
14817 450 moveto
P$e
fill
0 setlinewidth
[] 0 setdash
0 0 0 setrgbcolor
newpath
15235 721 moveto
P$f
15331 732 moveto
P$g
fill
0 setlinewidth
[] 0 setdash
0 0 0 setrgbcolor
newpath
16417 450 moveto
P$e
fill
0 setlinewidth
[] 0 setdash
0 0 0 setrgbcolor
newpath
16917 450 moveto
P$0
fill
0 setlinewidth
[] 0 setdash
0 0 0 setrgbcolor
newpath
18017 450 moveto
P$e
fill
0 setlinewidth
[] 0 setdash
0 0 0 setrgbcolor
newpath
18857 919 moveto
P$1
fill
0 setlinewidth
[] 0 setdash
0 0 0 setrgbcolor
newpath
19617 450 moveto
P$e
fill
0 setlinewidth
[] 0 setdash
0 0 0 setrgbcolor
newpath
20051 511 moveto
P$2
fill
0 setlinewidth
[] 0 setdash
0 0 0 setrgbcolor
newpath
21217 450 moveto
P$e
fill
0 setlinewidth
[] 0 setdash
0 0 0 setrgbcolor
newpath
22065 804 moveto
P$3
21895 804 moveto
P$4
fill
0 setlinewidth
[] 0 setdash
0 0 0 setrgbcolor
newpath
22817 450 moveto
P$e
fill
0 setlinewidth
[] 0 setdash
0 0 0 setrgbcolor
newpath
23634 385 moveto
P$5
fill
0 setlinewidth
[] 0 setdash
0 0 0 setrgbcolor
newpath
24417 450 moveto
P$e
fill
0 setlinewidth
[] 0 setdash
0 0 0 setrgbcolor
newpath
25248 371 moveto
P$6
24945 713 moveto
P$7
fill
0 setlinewidth
[] 0 setdash
0 0 0 setrgbcolor
newpath
26017 450 moveto
P$e
fill
0 setlinewidth
[] 0 setdash
0 0 0 setrgbcolor
newpath
26500 385 moveto
P$8
fill
0 setlinewidth
[] 0 setdash
0 0 0 setrgbcolor
newpath
27617 450 moveto
P$e
fill
0 setlinewidth
[] 0 setdash
0 0 0 setrgbcolor
newpath
28192 715 moveto
P$9
28268 661 moveto
P$a
28215 732 moveto
P$b
fill
0 setlinewidth
[] 0 setdash
0 0 0 setrgbcolor
newpath
29217 450 moveto
P$e
fill
0 setlinewidth
[] 0 setdash
0 0 0 setrgbcolor
newpath
29653 1061 moveto
P$c
29956 721 moveto
P$d
fill
0 setlinewidth
[] 0 setdash
0 0 0 setrgbcolor
newpath
31157 919 moveto
P$h
fill
0 setlinewidth
[] 0 setdash
0 0 0 setrgbcolor
newpath
31235 721 moveto
P$f
31331 732 moveto
P$g
fill
0 setlinewidth
[] 0 setdash
0 0 0 setrgbcolor
newpath
32757 919 moveto
P$h
fill
0 setlinewidth
[] 0 setdash
0 0 0 setrgbcolor
newpath
32917 450 moveto
P$0
fill
0 setlinewidth
[] 0 setdash
0 0 0 setrgbcolor
newpath
34357 919 moveto
P$h
fill
0 setlinewidth
[] 0 setdash
0 0 0 setrgbcolor
newpath
34857 919 moveto
P$1
fill
0 setlinewidth
[] 0 setdash
0 0 0 setrgbcolor
newpath
35957 919 moveto
P$h
fill
0 setlinewidth
[] 0 setdash
0 0 0 setrgbcolor
newpath
36051 511 moveto
P$2
fill
0 setlinewidth
[] 0 setdash
0 0 0 setrgbcolor
newpath
37557 919 moveto
P$h
fill
0 setlinewidth
[] 0 setdash
0 0 0 setrgbcolor
newpath
38065 804 moveto
P$3
37895 804 moveto
P$4
fill
0 setlinewidth
[] 0 setdash
0 0 0 setrgbcolor
newpath
39157 919 moveto
P$h
fill
0 setlinewidth
[] 0 setdash
0 0 0 setrgbcolor
newpath
39634 385 moveto
P$5
fill
0 setlinewidth
[] 0 setdash
0 0 0 setrgbcolor
newpath
40757 919 moveto
P$h
fill
0 setlinewidth
[] 0 setdash
0 0 0 setrgbcolor
newpath
41248 371 moveto
P$6
40945 713 moveto
P$7
fill
0 setlinewidth
[] 0 setdash
0 0 0 setrgbcolor
newpath
42357 919 moveto
P$h
fill
0 setlinewidth
[] 0 setdash
0 0 0 setrgbcolor
newpath
42500 385 moveto
P$8
fill
0 setlinewidth
[] 0 setdash
0 0 0 setrgbcolor
newpath
43957 919 moveto
P$h
fill
0 setlinewidth
[] 0 setdash
0 0 0 setrgbcolor
newpath
44192 715 moveto
P$9
44268 661 moveto
P$a
44215 732 moveto
P$b
fill
0 setlinewidth
[] 0 setdash
0 0 0 setrgbcolor
newpath
45557 919 moveto
P$h
fill
0 setlinewidth
[] 0 setdash
0 0 0 setrgbcolor
newpath
45653 1061 moveto
P$c
45956 721 moveto
P$d
fill
0 setlinewidth
[] 0 setdash
0 0 0 setrgbcolor
newpath
46751 511 moveto
P$i
fill
0 setlinewidth
[] 0 setdash
0 0 0 setrgbcolor
newpath
47235 721 moveto
P$f
47331 732 moveto
P$g
fill
0 setlinewidth
[] 0 setdash
0 0 0 setrgbcolor
newpath
48351 511 moveto
P$i
fill
0 setlinewidth
[] 0 setdash
0 0 0 setrgbcolor
newpath
48917 450 moveto
P$0
fill
0 setlinewidth
[] 0 setdash
0 0 0 setrgbcolor
newpath
49951 511 moveto
P$i
fill
0 setlinewidth
[] 0 setdash
0 0 0 setrgbcolor
newpath
50857 919 moveto
P$1
fill
0 setlinewidth
[] 0 setdash
0 0 0 setrgbcolor
newpath
51551 511 moveto
P$i
fill
0 setlinewidth
[] 0 setdash
0 0 0 setrgbcolor
newpath
52051 511 moveto
P$2
fill
0 setlinewidth
[] 0 setdash
0 0 0 setrgbcolor
newpath
53151 511 moveto
P$i
fill
0 setlinewidth
[] 0 setdash
0 0 0 setrgbcolor
newpath
54065 804 moveto
P$3
53895 804 moveto
P$4
fill
100 setlinewidth
0.75 0.75 0.75 setrgbcolor
newpath
0 0 moveto
54400 0 rlineto
stroke
100 setlinewidth
0.75 0.75 0.75 setrgbcolor
newpath
0 1300 moveto
54400 0 rlineto
stroke
150 setlinewidth
0.09 0.09 0.09 setrgbcolor
newpath
3900 3183 moveto
0 1091 rlineto
stroke
150 setlinewidth
0.09 0.09 0.09 setrgbcolor
newpath
3900 4275 moveto
800 0 rlineto
stroke
0.09 0.09 0.09 setrgbcolor
newpath
4300 3875 moveto
0 400 rlineto
0 400 rlineto
400 -400 rlineto
4300 3875 lineto
closepath eofill
150 setlinewidth
0.09 0.09 0.09 setrgbcolor
newpath
4300 3875 moveto
0 400 rlineto
0 400 rlineto
400 -400 rlineto
4300 3875 lineto
closepath stroke
150 setlinewidth
0.09 0.09 0.09 setrgbcolor
newpath
8700 4967 moveto
0 1091 rlineto
stroke
150 setlinewidth
0.09 0.09 0.09 setrgbcolor
newpath
8700 6058 moveto
800 0 rlineto
stroke
0.09 0.09 0.09 setrgbcolor
newpath
9100 5658 moveto
0 400 rlineto
0 400 rlineto
400 -400 rlineto
9100 5658 lineto
closepath eofill
150 setlinewidth
0.09 0.09 0.09 setrgbcolor
newpath
9100 5658 moveto
0 400 rlineto
0 400 rlineto
400 -400 rlineto
9100 5658 lineto
closepath stroke
150 setlinewidth
0.09 0.09 0.09 setrgbcolor
newpath
13500 6750 moveto
0 1091 rlineto
stroke
150 setlinewidth
0.09 0.09 0.09 setrgbcolor
newpath
13500 7842 moveto
800 0 rlineto
stroke
0.09 0.09 0.09 setrgbcolor
newpath
13900 7442 moveto
0 400 rlineto
0 400 rlineto
400 -400 rlineto
13900 7442 lineto
closepath eofill
150 setlinewidth
0.09 0.09 0.09 setrgbcolor
newpath
13900 7442 moveto
0 400 rlineto
0 400 rlineto
400 -400 rlineto
13900 7442 lineto
closepath stroke
150 setlinewidth
0.09 0.09 0.09 setrgbcolor
newpath
21500 8534 moveto
0 1091 rlineto
stroke
150 setlinewidth
0.09 0.09 0.09 setrgbcolor
newpath
21500 9626 moveto
800 0 rlineto
stroke
0.09 0.09 0.09 setrgbcolor
newpath
21900 9226 moveto
0 400 rlineto
0 400 rlineto
400 -400 rlineto
21900 9226 lineto
closepath eofill
150 setlinewidth
0.09 0.09 0.09 setrgbcolor
newpath
21900 9226 moveto
0 400 rlineto
0 400 rlineto
400 -400 rlineto
21900 9226 lineto
closepath stroke
150 setlinewidth
0.09 0.09 0.09 setrgbcolor
newpath
53500 10317 moveto
0 1091 rlineto
stroke
150 setlinewidth
0.09 0.09 0.09 setrgbcolor
newpath
53500 11409 moveto
800 0 rlineto
stroke
0.09 0.09 0.09 setrgbcolor
newpath
53900 11009 moveto
0 400 rlineto
0 400 rlineto
400 -400 rlineto
53900 11009 lineto
closepath eofill
150 setlinewidth
0.09 0.09 0.09 setrgbcolor
newpath
53900 11009 moveto
0 400 rlineto
0 400 rlineto
400 -400 rlineto
53900 11009 lineto
closepath stroke
0.89 0.89 0.94 setrgbcolor
4400 1383 200 1800 simplerect
closepath eofill
100 setlinewidth
0.09 0.09 0.09 setrgbcolor
newpath
200 1800 moveto
4400 0 rlineto
stroke
100 setlinewidth
0.09 0.09 0.09 setrgbcolor
newpath
200 3183 moveto
4400 0 rlineto
stroke
100 setlinewidth
0.09 0.09 0.09 setrgbcolor
newpath
200 1800 moveto
0 1383 rlineto
stroke
100 setlinewidth
0.09 0.09 0.09 setrgbcolor
newpath
4600 1800 moveto
0 1383 rlineto
stroke
0.89 0.89 0.94 setrgbcolor
4400 1383 5000 3583 simplerect
closepath eofill
100 setlinewidth
0.09 0.09 0.09 setrgbcolor
newpath
5000 3583 moveto
4400 0 rlineto
stroke
100 setlinewidth
0.09 0.09 0.09 setrgbcolor
newpath
5000 4967 moveto
4400 0 rlineto
stroke
100 setlinewidth
0.09 0.09 0.09 setrgbcolor
newpath
5000 3583 moveto
0 1383 rlineto
stroke
100 setlinewidth
0.09 0.09 0.09 setrgbcolor
newpath
9400 3583 moveto
0 1383 rlineto
stroke
0.89 0.89 0.94 setrgbcolor
4400 1383 9800 5367 simplerect
closepath eofill
100 setlinewidth
0.09 0.09 0.09 setrgbcolor
newpath
9800 5367 moveto
4400 0 rlineto
stroke
100 setlinewidth
0.09 0.09 0.09 setrgbcolor
newpath
9800 6750 moveto
4400 0 rlineto
stroke
100 setlinewidth
0.09 0.09 0.09 setrgbcolor
newpath
9800 5367 moveto
0 1383 rlineto
stroke
100 setlinewidth
0.09 0.09 0.09 setrgbcolor
newpath
14200 5367 moveto
0 1383 rlineto
stroke
0.89 0.89 0.94 setrgbcolor
7600 1383 14600 7150 simplerect
closepath eofill
100 setlinewidth
0.09 0.09 0.09 setrgbcolor
newpath
14600 7150 moveto
7600 0 rlineto
stroke
100 setlinewidth
0.09 0.09 0.09 setrgbcolor
newpath
14600 8534 moveto
7600 0 rlineto
stroke
100 setlinewidth
0.09 0.09 0.09 setrgbcolor
newpath
14600 7150 moveto
0 1383 rlineto
stroke
100 setlinewidth
0.09 0.09 0.09 setrgbcolor
newpath
22200 7150 moveto
0 1383 rlineto
stroke
0.89 0.89 0.94 setrgbcolor
31600 1383 22600 8934 simplerect
closepath eofill
100 setlinewidth
0.09 0.09 0.09 setrgbcolor
newpath
22600 8934 moveto
31600 0 rlineto
stroke
100 setlinewidth
0.09 0.09 0.09 setrgbcolor
newpath
22600 10317 moveto
31600 0 rlineto
stroke
100 setlinewidth
0.09 0.09 0.09 setrgbcolor
newpath
22600 8934 moveto
0 1383 rlineto
stroke
100 setlinewidth
0.09 0.09 0.09 setrgbcolor
newpath
54200 8934 moveto
0 1383 rlineto
stroke
0.89 0.89 0.94 setrgbcolor
100 1383 54600 10717 simplerect
closepath eofill
100 setlinewidth
0.09 0.09 0.09 setrgbcolor
newpath
54600 10717 moveto
100 0 rlineto
stroke
100 setlinewidth
0.09 0.09 0.09 setrgbcolor
newpath
54600 12101 moveto
100 0 rlineto
stroke
100 setlinewidth
0.09 0.09 0.09 setrgbcolor
newpath
54600 10717 moveto
0 1383 rlineto
stroke
100 setlinewidth
0.09 0.09 0.09 setrgbcolor
newpath
54700 10717 moveto
0 1383 rlineto
stroke
0 setlinewidth
[] 0 setdash
0 0 0 setrgbcolor
newpath
5103 2941 moveto
P$j
fill
0 setlinewidth
[] 0 setdash
0 0 0 setrgbcolor
newpath
5271 2941 moveto
P$k
fill
0 setlinewidth
[] 0 setdash
0 0 0 setrgbcolor
newpath
6084 2855 moveto
P$l
fill
0 setlinewidth
[] 0 setdash
0 0 0 setrgbcolor
newpath
6171 2941 moveto
P$m
fill
0 setlinewidth
[] 0 setdash
0 0 0 setrgbcolor
newpath
6535 2655 moveto
P$n
6635 2655 moveto
P$o
fill
0 setlinewidth
[] 0 setdash
0 0 0 setrgbcolor
newpath
7542 2941 moveto
P$p
7237 2657 moveto
P$q
fill
0 setlinewidth
[] 0 setdash
0 0 0 setrgbcolor
newpath
8146 2941 moveto
P$r
fill
0 setlinewidth
[] 0 setdash
0 0 0 setrgbcolor
newpath
8745 2732 moveto
P$s
fill
0 setlinewidth
[] 0 setdash
0 0 0 setrgbcolor
newpath
9345 2732 moveto
P$s
fill
0 setlinewidth
[] 0 setdash
0 0 0 setrgbcolor
newpath
9573 2265 moveto
P$t
9573 2941 moveto
P$u
fill
0 setlinewidth
[] 0 setdash
0 0 0 setrgbcolor
newpath
9735 2655 moveto
P$n
9835 2655 moveto
P$o
fill
0 setlinewidth
[] 0 setdash
0 0 0 setrgbcolor
newpath
10371 2941 moveto
P$v
fill
0 setlinewidth
[] 0 setdash
0 0 0 setrgbcolor
newpath
9887 4725 moveto
P$w
10434 4555 moveto
P$x
fill
0 setlinewidth
[] 0 setdash
0 0 0 setrgbcolor
newpath
11071 4944 moveto
P$y
11159 4444 moveto
P$z
fill
0 setlinewidth
[] 0 setdash
0 0 0 setrgbcolor
newpath
12062 4541 moveto
P$10
11745 4384 moveto
P$11
fill
0 setlinewidth
[] 0 setdash
0 0 0 setrgbcolor
newpath
12645 4516 moveto
P$s
fill
0 setlinewidth
[] 0 setdash
0 0 0 setrgbcolor
newpath
12873 4048 moveto
P$t
12873 4725 moveto
P$u
fill
0 setlinewidth
[] 0 setdash
0 0 0 setrgbcolor
newpath
13095 4725 moveto
P$12
fill
0 setlinewidth
[] 0 setdash
0 0 0 setrgbcolor
newpath
13473 4048 moveto
P$t
13473 4725 moveto
P$u
fill
0 setlinewidth
[] 0 setdash
0 0 0 setrgbcolor
newpath
14045 4516 moveto
P$s
fill
0 setlinewidth
[] 0 setdash
0 0 0 setrgbcolor
newpath
14645 4655 moveto
P$13
14635 4439 moveto
P$14
fill
0 setlinewidth
[] 0 setdash
0 0 0 setrgbcolor
newpath
15245 4516 moveto
P$s
fill
0 setlinewidth
[] 0 setdash
0 0 0 setrgbcolor
newpath
15473 4048 moveto
P$t
15473 4725 moveto
P$u
fill
0 setlinewidth
[] 0 setdash
0 0 0 setrgbcolor
newpath
15635 4439 moveto
P$n
15735 4439 moveto
P$o
fill
0 setlinewidth
[] 0 setdash
0 0 0 setrgbcolor
newpath
16271 4725 moveto
P$v
fill
0 setlinewidth
[] 0 setdash
0 0 0 setrgbcolor
newpath
14685 6509 moveto
P$15
14790 6068 moveto
P$16
15762 6324 moveto
P$10
15445 6168 moveto
P$11
fill
0 setlinewidth
[] 0 setdash
0 0 0 setrgbcolor
newpath
16335 6727 moveto
P$17
16037 6221 moveto
P$18
fill
0 setlinewidth
[] 0 setdash
0 0 0 setrgbcolor
newpath
16946 6509 moveto
P$r
fill
0 setlinewidth
[] 0 setdash
0 0 0 setrgbcolor
newpath
17173 5832 moveto
P$t
17173 6509 moveto
P$u
fill
0 setlinewidth
[] 0 setdash
0 0 0 setrgbcolor
newpath
17334 6338 moveto
P$x
fill
0 setlinewidth
[] 0 setdash
0 0 0 setrgbcolor
newpath
17973 5832 moveto
P$t
17973 6509 moveto
P$u
fill
0 setlinewidth
[] 0 setdash
0 0 0 setrgbcolor
newpath
18384 6423 moveto
P$l
fill
0 setlinewidth
[] 0 setdash
0 0 0 setrgbcolor
newpath
18435 6223 moveto
P$n
18535 6223 moveto
P$o
fill
0 setlinewidth
[] 0 setdash
0 0 0 setrgbcolor
newpath
19034 6338 moveto
P$19
fill
0 setlinewidth
[] 0 setdash
0 0 0 setrgbcolor
newpath
15084 8292 moveto
P$1a
15189 8200 moveto
P$1b
fill
0 setlinewidth
[] 0 setdash
0 0 0 setrgbcolor
newpath
15773 7616 moveto
P$t
15773 8292 moveto
P$u
fill
0 setlinewidth
[] 0 setdash
0 0 0 setrgbcolor
newpath
15934 8122 moveto
P$x
fill
0 setlinewidth
[] 0 setdash
0 0 0 setrgbcolor
newpath
16962 8108 moveto
P$10
16645 7952 moveto
P$11
fill
0 setlinewidth
[] 0 setdash
0 0 0 setrgbcolor
newpath
17171 8292 moveto
P$v
17240 7637 moveto
P$1c
fill
0 setlinewidth
[] 0 setdash
0 0 0 setrgbcolor
newpath
17735 8006 moveto
P$n
17835 8006 moveto
P$o
fill
0 setlinewidth
[] 0 setdash
0 0 0 setrgbcolor
newpath
19042 8292 moveto
P$p
18737 8008 moveto
P$q
fill
0 setlinewidth
[] 0 setdash
0 0 0 setrgbcolor
newpath
19662 8108 moveto
P$10
19345 7952 moveto
P$11
fill
0 setlinewidth
[] 0 setdash
0 0 0 setrgbcolor
newpath
20203 8292 moveto
P$j
fill
0 setlinewidth
[] 0 setdash
0 0 0 setrgbcolor
newpath
20384 8292 moveto
P$1d
20489 7880 moveto
P$1e
fill
0 setlinewidth
[] 0 setdash
0 0 0 setrgbcolor
newpath
23084 10076 moveto
P$1a
23189 9984 moveto
P$1b
fill
0 setlinewidth
[] 0 setdash
0 0 0 setrgbcolor
newpath
24162 9891 moveto
P$10
23845 9735 moveto
P$11
fill
0 setlinewidth
[] 0 setdash
0 0 0 setrgbcolor
newpath
24334 9905 moveto
P$x
fill
0 setlinewidth
[] 0 setdash
0 0 0 setrgbcolor
newpath
25345 10005 moveto
P$13
25335 9790 moveto
P$14
fill
0 setlinewidth
[] 0 setdash
0 0 0 setrgbcolor
newpath
25571 10076 moveto
P$m
fill
0 setlinewidth
[] 0 setdash
0 0 0 setrgbcolor
newpath
25971 10076 moveto
P$m
fill
0 setlinewidth
[] 0 setdash
0 0 0 setrgbcolor
newpath
26335 9790 moveto
P$n
26435 9790 moveto
P$o
fill
0 setlinewidth
[] 0 setdash
0 0 0 setrgbcolor
newpath
26970 10076 moveto
P$1f
fill
0 setlinewidth
[] 0 setdash
0 0 0 setrgbcolor
newpath
27170 10076 moveto
P$1f
fill
0 setlinewidth
[] 0 setdash
0 0 0 setrgbcolor
newpath
27335 9790 moveto
P$n
27435 9790 moveto
P$o
fill
0 setlinewidth
[] 0 setdash
0 0 0 setrgbcolor
newpath
28642 10076 moveto
P$p
28337 9791 moveto
P$q
fill
0 setlinewidth
[] 0 setdash
0 0 0 setrgbcolor
newpath
29262 9891 moveto
P$10
28945 9735 moveto
P$11
fill
0 setlinewidth
[] 0 setdash
0 0 0 setrgbcolor
newpath
29803 10076 moveto
P$j
fill
0 setlinewidth
[] 0 setdash
0 0 0 setrgbcolor
newpath
29984 10076 moveto
P$1d
30089 9663 moveto
P$1e
fill
0 setlinewidth
[] 0 setdash
0 0 0 setrgbcolor
newpath
54684 11859 moveto
P$1a
54789 11767 moveto
P$1b
fill
0 setlinewidth
[] 0 setdash
0 0 0 setrgbcolor
newpath
55373 11183 moveto
P$t
55373 11859 moveto
P$u
fill
0 setlinewidth
[] 0 setdash
0 0 0 setrgbcolor
newpath
55534 11689 moveto
P$x
fill
0 setlinewidth
[] 0 setdash
0 0 0 setrgbcolor
newpath
56562 11675 moveto
P$10
56245 11519 moveto
P$11
fill
0 setlinewidth
[] 0 setdash
0 0 0 setrgbcolor
newpath
56771 11859 moveto
P$v
56840 11205 moveto
P$1c
fill
0 setlinewidth
[] 0 setdash
0 0 0 setrgbcolor
newpath
57335 11573 moveto
P$n
57435 11573 moveto
P$o
fill
0 setlinewidth
[] 0 setdash
0 0 0 setrgbcolor
newpath
58642 11859 moveto
P$p
58337 11575 moveto
P$q
fill
0 setlinewidth
[] 0 setdash
0 0 0 setrgbcolor
newpath
59262 11675 moveto
P$10
58945 11519 moveto
P$11
fill
0 setlinewidth
[] 0 setdash
0 0 0 setrgbcolor
newpath
59803 11859 moveto
P$j
fill
0 setlinewidth
[] 0 setdash
0 0 0 setrgbcolor
newpath
60546 11583 moveto
P$1g
fill
0 setlinewidth
[] 0 setdash
0 0 0 setrgbcolor
newpath
60681 11859 moveto
P$1h
fill
0 setlinewidth
[] 0 setdash
0 0 0 setrgbcolor
newpath
61484 11859 moveto
P$1d
61589 11447 moveto
P$1e
fill
100 setlinewidth
0.75 0.75 0.75 setrgbcolor
newpath
0 12601 moveto
0 1300 rlineto
stroke
100 setlinewidth
0.75 0.75 0.75 setrgbcolor
newpath
1600 12601 moveto
0 1300 rlineto
stroke
100 setlinewidth
0.75 0.75 0.75 setrgbcolor
newpath
3200 12601 moveto
0 1300 rlineto
stroke
100 setlinewidth
0.75 0.75 0.75 setrgbcolor
newpath
4800 12601 moveto
0 1300 rlineto
stroke
100 setlinewidth
0.75 0.75 0.75 setrgbcolor
newpath
6400 12601 moveto
0 1300 rlineto
stroke
100 setlinewidth
0.75 0.75 0.75 setrgbcolor
newpath
8000 12601 moveto
0 1300 rlineto
stroke
100 setlinewidth
0.75 0.75 0.75 setrgbcolor
newpath
9600 12601 moveto
0 1300 rlineto
stroke
100 setlinewidth
0.75 0.75 0.75 setrgbcolor
newpath
11200 12601 moveto
0 1300 rlineto
stroke
100 setlinewidth
0.75 0.75 0.75 setrgbcolor
newpath
12800 12601 moveto
0 1300 rlineto
stroke
100 setlinewidth
0.75 0.75 0.75 setrgbcolor
newpath
14400 12601 moveto
0 1300 rlineto
stroke
100 setlinewidth
0.75 0.75 0.75 setrgbcolor
newpath
16000 12601 moveto
0 1300 rlineto
stroke
100 setlinewidth
0.75 0.75 0.75 setrgbcolor
newpath
17600 12601 moveto
0 1300 rlineto
stroke
100 setlinewidth
0.75 0.75 0.75 setrgbcolor
newpath
19200 12601 moveto
0 1300 rlineto
stroke
100 setlinewidth
0.75 0.75 0.75 setrgbcolor
newpath
20800 12601 moveto
0 1300 rlineto
stroke
100 setlinewidth
0.75 0.75 0.75 setrgbcolor
newpath
22400 12601 moveto
0 1300 rlineto
stroke
100 setlinewidth
0.75 0.75 0.75 setrgbcolor
newpath
24000 12601 moveto
0 1300 rlineto
stroke
100 setlinewidth
0.75 0.75 0.75 setrgbcolor
newpath
25600 12601 moveto
0 1300 rlineto
stroke
100 setlinewidth
0.75 0.75 0.75 setrgbcolor
newpath
27200 12601 moveto
0 1300 rlineto
stroke
100 setlinewidth
0.75 0.75 0.75 setrgbcolor
newpath
28800 12601 moveto
0 1300 rlineto
stroke
100 setlinewidth
0.75 0.75 0.75 setrgbcolor
newpath
30400 12601 moveto
0 1300 rlineto
stroke
100 setlinewidth
0.75 0.75 0.75 setrgbcolor
newpath
32000 12601 moveto
0 1300 rlineto
stroke
100 setlinewidth
0.75 0.75 0.75 setrgbcolor
newpath
33600 12601 moveto
0 1300 rlineto
stroke
100 setlinewidth
0.75 0.75 0.75 setrgbcolor
newpath
35200 12601 moveto
0 1300 rlineto
stroke
100 setlinewidth
0.75 0.75 0.75 setrgbcolor
newpath
36800 12601 moveto
0 1300 rlineto
stroke
100 setlinewidth
0.75 0.75 0.75 setrgbcolor
newpath
38400 12601 moveto
0 1300 rlineto
stroke
100 setlinewidth
0.75 0.75 0.75 setrgbcolor
newpath
40000 12601 moveto
0 1300 rlineto
stroke
100 setlinewidth
0.75 0.75 0.75 setrgbcolor
newpath
41600 12601 moveto
0 1300 rlineto
stroke
100 setlinewidth
0.75 0.75 0.75 setrgbcolor
newpath
43200 12601 moveto
0 1300 rlineto
stroke
100 setlinewidth
0.75 0.75 0.75 setrgbcolor
newpath
44800 12601 moveto
0 1300 rlineto
stroke
100 setlinewidth
0.75 0.75 0.75 setrgbcolor
newpath
46400 12601 moveto
0 1300 rlineto
stroke
100 setlinewidth
0.75 0.75 0.75 setrgbcolor
newpath
48000 12601 moveto
0 1300 rlineto
stroke
100 setlinewidth
0.75 0.75 0.75 setrgbcolor
newpath
49600 12601 moveto
0 1300 rlineto
stroke
100 setlinewidth
0.75 0.75 0.75 setrgbcolor
newpath
51200 12601 moveto
0 1300 rlineto
stroke
100 setlinewidth
0.75 0.75 0.75 setrgbcolor
newpath
52800 12601 moveto
0 1300 rlineto
stroke
100 setlinewidth
0.75 0.75 0.75 setrgbcolor
newpath
54400 12601 moveto
0 1300 rlineto
stroke
0 setlinewidth
[] 0 setdash
0 0 0 setrgbcolor
newpath
667 13052 moveto
P$0
fill
0 setlinewidth
[] 0 setdash
0 0 0 setrgbcolor
newpath
2607 13521 moveto
P$1
fill
0 setlinewidth
[] 0 setdash
0 0 0 setrgbcolor
newpath
3801 13113 moveto
P$2
fill
0 setlinewidth
[] 0 setdash
0 0 0 setrgbcolor
newpath
5815 13405 moveto
P$3
5645 13405 moveto
P$4
fill
0 setlinewidth
[] 0 setdash
0 0 0 setrgbcolor
newpath
7384 12986 moveto
P$5
fill
0 setlinewidth
[] 0 setdash
0 0 0 setrgbcolor
newpath
8998 12972 moveto
P$6
8695 13315 moveto
P$7
fill
0 setlinewidth
[] 0 setdash
0 0 0 setrgbcolor
newpath
10250 12986 moveto
P$8
fill
0 setlinewidth
[] 0 setdash
0 0 0 setrgbcolor
newpath
11942 13316 moveto
P$9
12018 13263 moveto
P$a
11965 13333 moveto
P$b
fill
0 setlinewidth
[] 0 setdash
0 0 0 setrgbcolor
newpath
13403 13663 moveto
P$c
13706 13322 moveto
P$d
fill
0 setlinewidth
[] 0 setdash
0 0 0 setrgbcolor
newpath
14817 13052 moveto
P$e
fill
0 setlinewidth
[] 0 setdash
0 0 0 setrgbcolor
newpath
15235 13322 moveto
P$f
15331 13333 moveto
P$g
fill
0 setlinewidth
[] 0 setdash
0 0 0 setrgbcolor
newpath
16417 13052 moveto
P$e
fill
0 setlinewidth
[] 0 setdash
0 0 0 setrgbcolor
newpath
16917 13052 moveto
P$0
fill
0 setlinewidth
[] 0 setdash
0 0 0 setrgbcolor
newpath
18017 13052 moveto
P$e
fill
0 setlinewidth
[] 0 setdash
0 0 0 setrgbcolor
newpath
18857 13521 moveto
P$1
fill
0 setlinewidth
[] 0 setdash
0 0 0 setrgbcolor
newpath
19617 13052 moveto
P$e
fill
0 setlinewidth
[] 0 setdash
0 0 0 setrgbcolor
newpath
20051 13113 moveto
P$2
fill
0 setlinewidth
[] 0 setdash
0 0 0 setrgbcolor
newpath
21217 13052 moveto
P$e
fill
0 setlinewidth
[] 0 setdash
0 0 0 setrgbcolor
newpath
22065 13405 moveto
P$3
21895 13405 moveto
P$4
fill
0 setlinewidth
[] 0 setdash
0 0 0 setrgbcolor
newpath
22817 13052 moveto
P$e
fill
0 setlinewidth
[] 0 setdash
0 0 0 setrgbcolor
newpath
23634 12986 moveto
P$5
fill
0 setlinewidth
[] 0 setdash
0 0 0 setrgbcolor
newpath
24417 13052 moveto
P$e
fill
0 setlinewidth
[] 0 setdash
0 0 0 setrgbcolor
newpath
25248 12972 moveto
P$6
24945 13315 moveto
P$7
fill
0 setlinewidth
[] 0 setdash
0 0 0 setrgbcolor
newpath
26017 13052 moveto
P$e
fill
0 setlinewidth
[] 0 setdash
0 0 0 setrgbcolor
newpath
26500 12986 moveto
P$8
fill
0 setlinewidth
[] 0 setdash
0 0 0 setrgbcolor
newpath
27617 13052 moveto
P$e
fill
0 setlinewidth
[] 0 setdash
0 0 0 setrgbcolor
newpath
28192 13316 moveto
P$9
28268 13263 moveto
P$a
28215 13333 moveto
P$b
fill
0 setlinewidth
[] 0 setdash
0 0 0 setrgbcolor
newpath
29217 13052 moveto
P$e
fill
0 setlinewidth
[] 0 setdash
0 0 0 setrgbcolor
newpath
29653 13663 moveto
P$c
29956 13322 moveto
P$d
fill
0 setlinewidth
[] 0 setdash
0 0 0 setrgbcolor
newpath
31157 13521 moveto
P$h
fill
0 setlinewidth
[] 0 setdash
0 0 0 setrgbcolor
newpath
31235 13322 moveto
P$f
31331 13333 moveto
P$g
fill
0 setlinewidth
[] 0 setdash
0 0 0 setrgbcolor
newpath
32757 13521 moveto
P$h
fill
0 setlinewidth
[] 0 setdash
0 0 0 setrgbcolor
newpath
32917 13052 moveto
P$0
fill
0 setlinewidth
[] 0 setdash
0 0 0 setrgbcolor
newpath
34357 13521 moveto
P$h
fill
0 setlinewidth
[] 0 setdash
0 0 0 setrgbcolor
newpath
34857 13521 moveto
P$1
fill
0 setlinewidth
[] 0 setdash
0 0 0 setrgbcolor
newpath
35957 13521 moveto
P$h
fill
0 setlinewidth
[] 0 setdash
0 0 0 setrgbcolor
newpath
36051 13113 moveto
P$2
fill
0 setlinewidth
[] 0 setdash
0 0 0 setrgbcolor
newpath
37557 13521 moveto
P$h
fill
0 setlinewidth
[] 0 setdash
0 0 0 setrgbcolor
newpath
38065 13405 moveto
P$3
37895 13405 moveto
P$4
fill
0 setlinewidth
[] 0 setdash
0 0 0 setrgbcolor
newpath
39157 13521 moveto
P$h
fill
0 setlinewidth
[] 0 setdash
0 0 0 setrgbcolor
newpath
39634 12986 moveto
P$5
fill
0 setlinewidth
[] 0 setdash
0 0 0 setrgbcolor
newpath
40757 13521 moveto
P$h
fill
0 setlinewidth
[] 0 setdash
0 0 0 setrgbcolor
newpath
41248 12972 moveto
P$6
40945 13315 moveto
P$7
fill
0 setlinewidth
[] 0 setdash
0 0 0 setrgbcolor
newpath
42357 13521 moveto
P$h
fill
0 setlinewidth
[] 0 setdash
0 0 0 setrgbcolor
newpath
42500 12986 moveto
P$8
fill
0 setlinewidth
[] 0 setdash
0 0 0 setrgbcolor
newpath
43957 13521 moveto
P$h
fill
0 setlinewidth
[] 0 setdash
0 0 0 setrgbcolor
newpath
44192 13316 moveto
P$9
44268 13263 moveto
P$a
44215 13333 moveto
P$b
fill
0 setlinewidth
[] 0 setdash
0 0 0 setrgbcolor
newpath
45557 13521 moveto
P$h
fill
0 setlinewidth
[] 0 setdash
0 0 0 setrgbcolor
newpath
45653 13663 moveto
P$c
45956 13322 moveto
P$d
fill
0 setlinewidth
[] 0 setdash
0 0 0 setrgbcolor
newpath
46751 13113 moveto
P$i
fill
0 setlinewidth
[] 0 setdash
0 0 0 setrgbcolor
newpath
47235 13322 moveto
P$f
47331 13333 moveto
P$g
fill
0 setlinewidth
[] 0 setdash
0 0 0 setrgbcolor
newpath
48351 13113 moveto
P$i
fill
0 setlinewidth
[] 0 setdash
0 0 0 setrgbcolor
newpath
48917 13052 moveto
P$0
fill
0 setlinewidth
[] 0 setdash
0 0 0 setrgbcolor
newpath
49951 13113 moveto
P$i
fill
0 setlinewidth
[] 0 setdash
0 0 0 setrgbcolor
newpath
50857 13521 moveto
P$1
fill
0 setlinewidth
[] 0 setdash
0 0 0 setrgbcolor
newpath
51551 13113 moveto
P$i
fill
0 setlinewidth
[] 0 setdash
0 0 0 setrgbcolor
newpath
52051 13113 moveto
P$2
fill
0 setlinewidth
[] 0 setdash
0 0 0 setrgbcolor
newpath
53151 13113 moveto
P$i
fill
0 setlinewidth
[] 0 setdash
0 0 0 setrgbcolor
newpath
54065 13405 moveto
P$3
53895 13405 moveto
P$4
fill
100 setlinewidth
0.75 0.75 0.75 setrgbcolor
newpath
0 12601 moveto
54400 0 rlineto
stroke
grestore
showpage
%plantuml done
%%EOF
