@startgantt
[Diseño de ICMP] lasts 2 days
[Desarrollo de ICMP] lasts 2 days
[Diseño de TCP] lasts 2 days
[Desarrollo de TCP] lasts 5 days
[Diseño de UDP] lasts 2 days
[Desarrollo de UDP] lasts 5 days
[Diseño de HTTP] lasts 2 days
[Desarrollo de HTTP] lasts 5 days
[Correccion de errores] lasts 0 days


[Desarrollo de ICMP] starts at [Diseño de ICMP]'s end
[Diseño de TCP] starts at [Desarrollo de ICMP]'s end
[Desarrollo de TCP] starts at [Diseño de TCP]'s end
[Diseño de UDP] starts at [Desarrollo de TCP]'s end
[Desarrollo de UDP] starts at [Diseño de UDP]'s end
[Diseño de HTTP] starts at [Desarrollo de UDP]'s end
[Desarrollo de HTTP] starts at [Diseño de HTTP]'s end
[Correccion de errores] starts at [Desarrollo de HTTP]'s end

@endgantt